# Blender v2.82 (sub 7) OBJ File: 'tea_time.blend'
# www.blender.org
o table
v 0.000000 -0.717552 -0.000000
v 0.000000 -0.008208 -0.000000
v 8.639999 -0.465955 -0.000000
v 6.109405 -0.465956 6.109405
v 8.338542 -0.465956 2.232317
v 8.639999 -0.698976 -0.000000
v 8.338542 -0.698976 2.232317
v 7.474731 -0.465956 4.317754
v 7.474731 -0.698976 4.317754
v 6.109405 -0.698976 6.109405
v 8.639999 -0.233021 -0.000000
v 8.338542 -0.233021 2.232317
v 8.639999 -0.000000 -0.000000
v 8.338542 -0.000000 2.232317
v 6.109405 -0.233021 6.109405
v 7.474731 -0.233021 4.317754
v 7.474731 -0.000000 4.317754
v 6.109405 -0.000000 6.109405
v 0.000000 -0.465956 8.639999
v 4.317754 -0.465956 7.474731
v 4.317754 -0.698977 7.474731
v 2.232317 -0.465956 8.338542
v 2.232317 -0.698977 8.338542
v 0.000000 -0.698977 8.639999
v 4.317754 -0.233021 7.474731
v 4.317754 -0.000001 7.474731
v 0.000000 -0.233021 8.639999
v 2.232317 -0.233021 8.338542
v 2.232317 -0.000001 8.338542
v 0.000000 -0.000001 8.639999
v -6.109405 -0.465956 6.109405
v -2.232317 -0.465956 8.338542
v -2.232317 -0.698977 8.338542
v -4.317754 -0.465956 7.474731
v -4.317754 -0.698977 7.474731
v -6.109405 -0.698976 6.109405
v -2.232317 -0.233021 8.338542
v -2.232317 -0.000001 8.338542
v -6.109405 -0.233021 6.109405
v -4.317754 -0.233021 7.474731
v -4.317754 -0.000001 7.474731
v -6.109405 -0.000000 6.109405
v -8.639999 -0.465955 -0.000000
v -7.474731 -0.465956 4.317754
v -7.474731 -0.698976 4.317754
v -8.338542 -0.465956 2.232317
v -8.338542 -0.698976 2.232317
v -8.639999 -0.698976 -0.000000
v -7.474731 -0.233021 4.317754
v -7.474731 -0.000000 4.317754
v -8.639999 -0.233021 -0.000000
v -8.338542 -0.233021 2.232317
v -8.338542 -0.000000 2.232317
v -8.639999 -0.000000 -0.000000
v -6.109405 -0.465955 -6.109405
v -8.338542 -0.465955 -2.232317
v -8.338542 -0.698976 -2.232317
v -7.474731 -0.465955 -4.317754
v -7.474731 -0.698976 -4.317754
v -6.109405 -0.698976 -6.109405
v -8.338542 -0.233021 -2.232317
v -8.338542 -0.000000 -2.232317
v -6.109405 -0.233021 -6.109405
v -7.474731 -0.233021 -4.317754
v -7.474731 -0.000000 -4.317754
v -6.109405 0.000000 -6.109405
v -0.000000 -0.465955 -8.639999
v -4.317754 -0.465955 -7.474731
v -4.317754 -0.698976 -7.474731
v -2.232317 -0.465955 -8.338542
v -2.232317 -0.698976 -8.338542
v -0.000000 -0.698976 -8.639999
v -4.317754 -0.233021 -7.474731
v -4.317754 0.000000 -7.474731
v -0.000000 -0.233021 -8.639999
v -2.232317 -0.233021 -8.338542
v -2.232317 0.000000 -8.338542
v -0.000000 0.000000 -8.639999
v 6.109405 -0.465955 -6.109405
v 2.232317 -0.465955 -8.338542
v 2.232317 -0.698976 -8.338542
v 4.317754 -0.465955 -7.474731
v 4.317754 -0.698976 -7.474731
v 6.109405 -0.698976 -6.109405
v 2.232317 -0.233021 -8.338542
v 2.232317 0.000000 -8.338542
v 6.109405 -0.233021 -6.109405
v 4.317754 -0.233021 -7.474731
v 4.317754 0.000000 -7.474731
v 6.109405 0.000000 -6.109405
v 7.474731 -0.465955 -4.317754
v 7.474731 -0.698976 -4.317754
v 8.338542 -0.465955 -2.232317
v 8.338542 -0.698976 -2.232317
v 7.474731 -0.233021 -4.317754
v 7.474731 -0.000000 -4.317754
v 8.338542 -0.233021 -2.232317
v 8.338542 -0.000000 -2.232317
vt 0.880367 0.784984
vt 0.793338 0.870157
vt 0.870222 0.777179
vt 0.960899 0.559339
vt 0.973718 0.560923
vt 0.941929 0.679298
vt 0.500000 0.250000
vt 0.693172 0.483181
vt 0.565938 0.500000
vt 0.930049 0.674439
vt 0.434059 0.500000
vt 0.306825 0.483181
vt 0.986628 0.562600
vt 0.953877 0.684266
vt 0.999901 0.564336
vt 0.966161 0.689380
vt 0.890552 0.792908
vt 0.800988 0.880528
vt 0.901029 0.801060
vt 0.808866 0.891208
vt 0.566356 0.943027
vt 0.567805 0.955701
vt 0.446104 0.953727
vt 0.785704 0.859926
vt 0.686189 0.928097
vt 0.193072 0.450089
vt 0.681579 0.916176
vt 0.099820 0.403463
vt 0.033638 0.346586
vt 0.690757 0.940109
vt 0.695449 0.952466
vt 0.569197 0.968446
vt 0.444575 0.966639
vt 0.570626 0.981520
vt 0.443046 0.979844
vt 0.222802 0.858773
vt 0.215411 0.869318
vt 0.126032 0.785576
vt 0.447598 0.940929
vt 0.324531 0.926596
vt 0.000000 0.282969
vt 0.328904 0.914373
vt 0.000000 0.217030
vt 0.033639 0.153413
vt 0.320073 0.938861
vt 0.315476 0.951465
vt 0.207893 0.879908
vt 0.115987 0.793737
vt 0.200154 0.890800
vt 0.105648 0.802133
vt 0.041230 0.561140
vt 0.028498 0.563131
vt 0.026379 0.440147
vt 0.135961 0.777418
vt 0.062666 0.681146
vt 0.099821 0.096536
vt 0.074407 0.675909
vt 0.193074 0.049910
vt 0.306828 0.016819
vt 0.050811 0.686356
vt 0.038624 0.691717
vt 0.015654 0.565075
vt 0.013425 0.438637
vt 0.002447 0.567080
vt 0.000099 0.437089
vt 0.128686 0.219930
vt 0.118226 0.212140
vt 0.205521 0.123439
vt 0.039233 0.441584
vt 0.057050 0.320420
vt 0.434062 0.000000
vt 0.069145 0.325207
vt 0.565941 0.000000
vt 0.693175 0.016819
vt 0.044893 0.315540
vt 0.032391 0.310527
vt 0.107723 0.204237
vt 0.197421 0.113040
vt 0.096922 0.196116
vt 0.189088 0.102349
vt 0.436175 0.040414
vt 0.434317 0.027406
vt 0.559596 0.026757
vt 0.213609 0.133717
vt 0.313326 0.060468
vt 0.806928 0.049911
vt 0.318481 0.072542
vt 0.900180 0.096537
vt 0.966362 0.153414
vt 0.308197 0.048285
vt 0.302921 0.035762
vt 0.432512 0.014289
vt 0.561255 0.013613
vt 0.430654 0.000805
vt 0.562959 0.000099
vt 0.781879 0.131579
vt 0.789768 0.121073
vt 0.878593 0.209132
vt 0.558018 0.039808
vt 0.680765 0.058730
vt 1.000000 0.217031
vt 0.675852 0.070938
vt 1.000000 0.282970
vt 0.966361 0.346587
vt 0.685777 0.046465
vt 0.690930 0.033856
vt 0.797773 0.110531
vt 0.889034 0.201050
vt 0.806004 0.099695
vt 0.899774 0.192744
vt 0.960666 0.439063
vt 0.973551 0.437263
vt 0.868277 0.217209
vt 0.941148 0.316985
vt 0.900179 0.403464
vt 0.929111 0.322087
vt 0.806926 0.450090
vt 0.953297 0.311917
vt 0.965789 0.306711
vt 0.986544 0.435524
vt 0.999901 0.433742
vt 0.500000 0.750000
vt 0.033638 0.846586
vt 0.000000 0.782969
vt 0.966362 0.653414
vt 1.000000 0.717031
vt 0.693172 0.983181
vt 0.565938 1.000000
vt 0.306826 0.983181
vt 0.193072 0.950089
vt 0.099820 0.903463
vt 0.434059 1.000000
vt 0.966361 0.846587
vt 0.900179 0.903464
vt 0.806926 0.950090
vt 1.000000 0.782970
vt 0.306828 0.516819
vt 0.434062 0.500000
vt 0.693174 0.516819
vt 0.806928 0.549911
vt 0.900180 0.596537
vt 0.565940 0.500000
vt 0.033639 0.653413
vt 0.099821 0.596536
vt 0.193074 0.549910
vt 0.000000 0.717030
vn 0.8668 0.0000 0.4986
vn 0.7071 0.0000 0.7071
vn 0.6368 -0.6785 0.3662
vn 0.7356 -0.6774 0.0000
vn 1.0000 0.0000 0.0000
vn 0.9655 0.0000 0.2604
vn 0.0000 -1.0000 0.0000
vn 0.7093 -0.6785 0.1913
vn 0.5201 -0.6774 0.5201
vn 0.7346 0.6785 0.0000
vn 0.7083 0.6795 0.1910
vn 0.6359 0.6795 0.3657
vn 0.5194 0.6785 0.5194
vn 0.1913 -0.6785 0.7093
vn 0.2604 0.0000 0.9655
vn 0.0000 0.0000 1.0000
vn 0.4986 0.0000 0.8668
vn 0.3662 -0.6785 0.6368
vn 0.0000 -0.6774 0.7356
vn 0.3657 0.6795 0.6359
vn 0.1910 0.6795 0.7083
vn 0.0000 0.6785 0.7346
vn -0.3662 -0.6785 0.6368
vn -0.4986 0.0000 0.8668
vn -0.7071 0.0000 0.7071
vn -0.2604 0.0000 0.9655
vn -0.1913 -0.6785 0.7093
vn -0.5201 -0.6774 0.5201
vn -0.1910 0.6795 0.7083
vn -0.3657 0.6795 0.6359
vn -0.5194 0.6785 0.5194
vn -0.7093 -0.6785 0.1913
vn -0.9655 0.0000 0.2604
vn -1.0000 0.0000 0.0000
vn -0.8668 0.0000 0.4986
vn -0.6368 -0.6785 0.3662
vn -0.7356 -0.6774 0.0000
vn -0.6359 0.6795 0.3657
vn -0.7083 0.6795 0.1910
vn -0.7346 0.6785 0.0000
vn -0.6368 -0.6785 -0.3662
vn -0.8668 0.0000 -0.4986
vn -0.7071 0.0000 -0.7071
vn -0.9655 0.0000 -0.2604
vn -0.7093 -0.6785 -0.1913
vn -0.5201 -0.6774 -0.5201
vn -0.7083 0.6795 -0.1910
vn -0.6359 0.6795 -0.3657
vn -0.5194 0.6785 -0.5194
vn -0.1913 -0.6785 -0.7093
vn -0.2604 0.0000 -0.9655
vn 0.0000 0.0000 -1.0000
vn -0.4986 0.0000 -0.8668
vn -0.3662 -0.6785 -0.6368
vn 0.0000 -0.6774 -0.7356
vn -0.3657 0.6795 -0.6359
vn -0.1910 0.6795 -0.7083
vn 0.0000 0.6785 -0.7346
vn 0.3662 -0.6785 -0.6368
vn 0.4986 0.0000 -0.8668
vn 0.7071 0.0000 -0.7071
vn 0.2604 0.0000 -0.9655
vn 0.1913 -0.6785 -0.7093
vn 0.5201 -0.6774 -0.5201
vn 0.1910 0.6795 -0.7083
vn 0.3657 0.6795 -0.6359
vn 0.5194 0.6785 -0.5194
vn 0.7093 -0.6785 -0.1913
vn 0.9655 0.0000 -0.2604
vn 0.8668 0.0000 -0.4986
vn 0.6368 -0.6785 -0.3662
vn 0.6359 0.6795 -0.3657
vn 0.7083 0.6795 -0.1910
vn 0.0000 1.0000 0.0000
s 1
f 8/1/1 4/2/2 9/3/3
f 6/4/4 3/5/5 5/6/6
f 1/7/7 6/8/4 7/9/8
f 5/6/6 8/1/1 7/10/8
f 1/7/7 7/9/8 9/11/3
f 1/7/7 9/11/3 10/12/9
f 3/5/5 11/13/5 12/14/6
f 11/13/5 13/15/10 14/16/11
f 8/1/1 16/17/1 15/18/2
f 5/6/6 12/14/6 16/17/1
f 12/14/6 14/16/11 17/19/12
f 16/17/1 17/19/12 18/20/13
f 23/21/14 22/22/15 19/23/16
f 10/24/9 4/2/2 20/25/17
f 1/7/7 10/12/9 21/26/18
f 21/27/18 20/25/17 22/22/15
f 1/7/7 21/26/18 23/28/14
f 1/7/7 23/28/14 24/29/19
f 4/2/2 15/18/2 25/30/17
f 15/18/2 18/20/13 26/31/20
f 22/22/15 28/32/15 27/33/16
f 20/25/17 25/30/17 28/32/15
f 25/30/17 26/31/20 29/34/21
f 28/32/15 29/34/21 30/35/22
f 35/36/23 34/37/24 31/38/25
f 24/39/19 19/23/16 32/40/26
f 1/7/7 24/29/19 33/41/27
f 33/42/27 32/40/26 34/37/24
f 1/7/7 33/41/27 35/43/23
f 1/7/7 35/43/23 36/44/28
f 19/23/16 27/33/16 37/45/26
f 27/33/16 30/35/22 38/46/29
f 34/37/24 40/47/24 39/48/25
f 32/40/26 37/45/26 40/47/24
f 37/45/26 38/46/29 41/49/30
f 40/47/24 41/49/30 42/50/31
f 47/51/32 46/52/33 43/53/34
f 36/54/28 31/38/25 44/55/35
f 1/7/7 36/44/28 45/56/36
f 45/57/36 44/55/35 46/52/33
f 1/7/7 45/56/36 47/58/32
f 1/7/7 47/58/32 48/59/37
f 31/38/25 39/48/25 49/60/35
f 39/48/25 42/50/31 50/61/38
f 46/52/33 52/62/33 51/63/34
f 44/55/35 49/60/35 52/62/33
f 49/60/35 50/61/38 53/64/39
f 52/62/33 53/64/39 54/65/40
f 59/66/41 58/67/42 55/68/43
f 48/69/37 43/53/34 56/70/44
f 1/7/7 48/59/37 57/71/45
f 57/72/45 56/70/44 58/67/42
f 1/7/7 57/71/45 59/73/41
f 1/7/7 59/73/41 60/74/46
f 43/53/34 51/63/34 61/75/44
f 51/63/34 54/65/40 62/76/47
f 58/67/42 64/77/42 63/78/43
f 56/70/44 61/75/44 64/77/42
f 61/75/44 62/76/47 65/79/48
f 64/77/42 65/79/48 66/80/49
f 71/81/50 70/82/51 67/83/52
f 60/84/46 55/68/43 68/85/53
f 1/7/7 60/74/46 69/86/54
f 69/87/54 68/85/53 70/82/51
f 1/7/7 69/86/54 71/88/50
f 1/7/7 71/88/50 72/89/55
f 55/68/43 63/78/43 73/90/53
f 63/78/43 66/80/49 74/91/56
f 70/82/51 76/92/51 75/93/52
f 68/85/53 73/90/53 76/92/51
f 73/90/53 74/91/56 77/94/57
f 76/92/51 77/94/57 78/95/58
f 83/96/59 82/97/60 79/98/61
f 72/99/55 67/83/52 80/100/62
f 1/7/7 72/89/55 81/101/63
f 81/102/63 80/100/62 82/97/60
f 1/7/7 81/101/63 83/103/59
f 1/7/7 83/103/59 84/104/64
f 67/83/52 75/93/52 85/105/62
f 75/93/52 78/95/58 86/106/65
f 82/97/60 88/107/60 87/108/61
f 80/100/62 85/105/62 88/107/60
f 85/105/62 86/106/65 89/109/66
f 88/107/60 89/109/66 90/110/67
f 94/111/68 93/112/69 3/5/5
f 84/113/64 79/98/61 91/114/70
f 1/7/7 84/104/64 92/115/71
f 92/116/71 91/114/70 93/112/69
f 1/7/7 92/115/71 94/117/68
f 1/7/7 94/117/68 6/8/4
f 79/98/61 87/108/61 95/118/70
f 87/108/61 90/110/67 96/119/72
f 93/112/69 97/120/69 11/13/5
f 91/114/70 95/118/70 97/120/69
f 95/118/70 96/119/72 98/121/73
f 97/120/69 98/121/73 13/15/10
f 2/122/74 13/123/10 98/124/73
f 2/122/74 54/125/40 53/126/39
f 2/122/74 30/127/22 29/128/21
f 2/122/74 18/129/13 17/130/12
f 4/2/2 10/24/9 9/3/3
f 5/6/6 7/10/8 6/4/4
f 8/1/1 9/3/3 7/10/8
f 2/122/74 14/131/11 13/123/10
f 12/14/6 5/6/6 3/5/5
f 14/16/11 12/14/6 11/13/5
f 15/18/2 4/2/2 8/1/1
f 16/17/1 8/1/1 5/6/6
f 2/122/74 17/130/12 14/131/11
f 17/19/12 16/17/1 12/14/6
f 18/20/13 15/18/2 16/17/1
f 19/23/16 24/39/19 23/21/14
f 20/25/17 21/27/18 10/24/9
f 22/22/15 23/21/14 21/27/18
f 2/122/74 26/132/20 18/129/13
f 25/30/17 20/25/17 4/2/2
f 26/31/20 25/30/17 15/18/2
f 27/33/16 19/23/16 22/22/15
f 28/32/15 22/22/15 20/25/17
f 2/122/74 29/128/21 26/132/20
f 29/34/21 28/32/15 25/30/17
f 30/35/22 27/33/16 28/32/15
f 2/122/74 42/133/31 41/134/30
f 31/38/25 36/54/28 35/36/23
f 32/40/26 33/42/27 24/39/19
f 34/37/24 35/36/23 33/42/27
f 2/122/74 38/135/29 30/127/22
f 37/45/26 32/40/26 19/23/16
f 38/46/29 37/45/26 27/33/16
f 39/48/25 31/38/25 34/37/24
f 40/47/24 34/37/24 32/40/26
f 2/122/74 41/134/30 38/135/29
f 41/49/30 40/47/24 37/45/26
f 42/50/31 39/48/25 40/47/24
f 43/53/34 48/69/37 47/51/32
f 44/55/35 45/57/36 36/54/28
f 46/52/33 47/51/32 45/57/36
f 2/122/74 50/136/38 42/133/31
f 49/60/35 44/55/35 31/38/25
f 50/61/38 49/60/35 39/48/25
f 51/63/34 43/53/34 46/52/33
f 52/62/33 46/52/33 44/55/35
f 2/122/74 53/126/39 50/136/38
f 53/64/39 52/62/33 49/60/35
f 54/65/40 51/63/34 52/62/33
f 2/122/74 78/137/58 77/138/57
f 2/122/74 66/139/49 65/140/48
f 55/68/43 60/84/46 59/66/41
f 56/70/44 57/72/45 48/69/37
f 58/67/42 59/66/41 57/72/45
f 2/122/74 62/141/47 54/125/40
f 61/75/44 56/70/44 43/53/34
f 62/76/47 61/75/44 51/63/34
f 63/78/43 55/68/43 58/67/42
f 64/77/42 58/67/42 56/70/44
f 2/122/74 65/140/48 62/141/47
f 65/79/48 64/77/42 61/75/44
f 66/80/49 63/78/43 64/77/42
f 67/83/52 72/99/55 71/81/50
f 68/85/53 69/87/54 60/84/46
f 70/82/51 71/81/50 69/87/54
f 2/122/74 74/142/56 66/139/49
f 73/90/53 68/85/53 55/68/43
f 74/91/56 73/90/53 63/78/43
f 75/93/52 67/83/52 70/82/51
f 76/92/51 70/82/51 68/85/53
f 2/122/74 77/138/57 74/142/56
f 77/94/57 76/92/51 73/90/53
f 78/95/58 75/93/52 76/92/51
f 2/122/74 90/143/67 89/144/66
f 79/98/61 84/113/64 83/96/59
f 80/100/62 81/102/63 72/99/55
f 82/97/60 83/96/59 81/102/63
f 2/122/74 86/145/65 78/137/58
f 85/105/62 80/100/62 67/83/52
f 86/106/65 85/105/62 75/93/52
f 87/108/61 79/98/61 82/97/60
f 88/107/60 82/97/60 80/100/62
f 2/122/74 89/144/66 86/145/65
f 89/109/66 88/107/60 85/105/62
f 90/110/67 87/108/61 88/107/60
f 3/5/5 6/4/4 94/111/68
f 91/114/70 92/116/71 84/113/64
f 93/112/69 94/111/68 92/116/71
f 2/122/74 96/146/72 90/143/67
f 95/118/70 91/114/70 79/98/61
f 96/119/72 95/118/70 87/108/61
f 11/13/5 3/5/5 93/112/69
f 97/120/69 93/112/69 91/114/70
f 2/122/74 98/124/73 96/146/72
f 98/121/73 97/120/69 95/118/70
f 13/15/10 11/13/5 97/120/69
