# Blender v2.79 (sub 0) OBJ File: 'dragon_probe_vase_on_table_aligned.blend'
# www.blender.org
o table.001
v -1.437687 -7.962582 0.377286
v -1.489666 -7.962215 -0.007600
v -1.423941 -8.938224 0.372674
v 0.384885 -7.963587 1.430087
v 0.000000 -7.963636 1.482065
v 0.381205 -8.939219 1.415410
v 0.450014 -9.920818 1.671503
v 0.000000 -9.920877 1.732268
v 0.560830 -10.014108 2.085348
v 1.506833 -9.920045 0.860950
v 1.231597 -9.920389 1.222128
v 1.877895 -10.013144 1.075203
v 2.285643 -10.415583 1.310354
v 1.868149 -10.416105 1.858207
v 2.324808 -10.692027 1.332710
v 2.687239 -10.690745 -0.010205
v 2.641965 -10.414323 -0.009941
v 2.549785 -10.414974 0.672663
v 0.000000 -10.679029 -0.010194
v 2.593477 -10.691408 0.684096
v 1.900161 -10.692558 1.889955
v 2.170645 -10.012109 -0.009558
v 1.741738 -9.919214 -0.009469
v 1.680972 -9.919643 0.440545
v 2.519078 -10.196074 -0.009733
v 2.431183 -10.196695 0.641122
v 2.094906 -10.012644 0.551272
v 2.179337 -10.197276 1.249149
v 1.781257 -10.197774 1.771523
v 1.534879 -10.013574 1.525321
v 0.694302 -10.693220 2.583271
v 0.682605 -10.416756 2.539842
v 0.000000 -10.416843 2.632023
v 1.320296 -10.416504 2.275700
v 1.342915 -10.692964 2.314602
v 0.000000 -10.693310 2.677033
v 0.870419 -9.920652 1.497364
v 1.258883 -10.198154 2.169602
v 1.084761 -10.013901 1.868337
v 0.650856 -10.198395 2.421449
v 0.000000 -10.198478 2.509344
v 0.000000 -10.014180 2.161086
v 1.288760 -7.962925 0.736845
v 1.053354 -7.963220 1.045754
v 1.276430 -8.938564 0.728796
v 1.084890 -9.604567 0.617516
v 0.886723 -9.604815 0.877555
v 1.208537 -9.825447 0.688729
v 1.396941 -9.824781 -0.009379
v 1.254018 -9.603969 -0.009168
v 1.210265 -9.604278 0.314834
v 1.348203 -9.825126 0.351550
v 0.987785 -9.825724 0.978406
v 1.475418 -8.937860 -0.008530
v 1.489666 -7.962215 -0.007600
v 1.437687 -7.962582 0.377286
v 1.334102 -9.290622 -0.008869
v 1.287559 -9.290951 0.335824
v 1.423941 -8.938224 0.372674
v 1.154174 -9.291258 0.657838
v 0.943358 -9.291522 0.934491
v 1.043280 -8.938856 1.034749
v 0.360929 -9.826068 1.338823
v 0.324002 -9.605124 1.201097
v 0.000000 -9.605165 1.244849
v 0.626684 -9.605003 1.075722
v 0.698108 -9.825934 1.199158
v 0.000000 -9.826115 1.387562
v 0.744445 -7.963445 1.281160
v 0.666706 -9.291723 1.145305
v 0.737326 -8.939078 1.267899
v 0.344694 -9.291850 1.278690
v 0.000000 -9.291895 1.325233
v 0.000000 -8.939268 1.466887
v -2.094906 -10.012644 0.551272
v -1.680972 -9.919643 0.440545
v -1.741738 -9.919214 -0.009469
v -0.870419 -9.920652 1.497364
v -1.231597 -9.920389 1.222128
v -1.084761 -10.013901 1.868337
v -1.342915 -10.692964 2.314602
v -1.320296 -10.416504 2.275700
v -1.868149 -10.416105 1.858207
v -0.682605 -10.416756 2.539842
v -0.694302 -10.693220 2.583271
v -1.900161 -10.692558 1.889955
v -0.450014 -9.920818 1.671503
v -0.650856 -10.198395 2.421449
v -0.560830 -10.014108 2.085348
v -1.258883 -10.198154 2.169602
v -1.781257 -10.197774 1.771523
v -1.534879 -10.013574 1.525321
v -2.593477 -10.691408 0.684096
v -2.549785 -10.414974 0.672663
v -2.641965 -10.414323 -0.009941
v -2.285643 -10.415583 1.310354
v -2.324808 -10.692027 1.332710
v -2.687239 -10.690745 -0.010205
v -1.506833 -9.920045 0.860950
v -2.179337 -10.197276 1.249149
v -1.877895 -10.013144 1.075203
v -2.431183 -10.196695 0.641122
v -2.519078 -10.196074 -0.009733
v -2.170645 -10.012109 -0.009558
v -0.744445 -7.963445 1.281160
v -1.053354 -7.963220 1.045754
v -0.737326 -8.939078 1.267899
v -0.698108 -9.825934 1.199158
v -0.626684 -9.605003 1.075722
v -0.886723 -9.604815 0.877555
v -0.324002 -9.605124 1.201097
v -0.360929 -9.826068 1.338823
v -0.987785 -9.825724 0.978406
v -0.384885 -7.963587 1.430087
v -0.344694 -9.291850 1.278690
v -0.381205 -8.939219 1.415410
v -0.666706 -9.291723 1.145305
v -0.943358 -9.291522 0.934491
v -1.043280 -8.938856 1.034749
v -1.348203 -9.825126 0.351550
v -1.210265 -9.604278 0.314834
v -1.254018 -9.603969 -0.009168
v -1.084890 -9.604567 0.617516
v -1.208537 -9.825447 0.688729
v -1.396941 -9.824781 -0.009379
v -1.288760 -7.962925 0.736845
v -1.154174 -9.291258 0.657838
v -1.276430 -8.938564 0.728796
v -1.287559 -9.290951 0.335824
v -1.334102 -9.290622 -0.008869
v -1.475418 -8.937860 -0.008530
v 0.169707 -2.503543 0.631531
v 0.000000 -2.503565 0.654448
v 0.168607 -3.081563 0.626869
v 0.568249 -2.503251 0.325859
v 0.464454 -2.503381 0.462065
v 0.564567 -3.081274 0.323178
v 0.642120 -4.422633 0.366697
v 0.524832 -4.422780 0.520610
v 0.978627 -6.614344 0.558987
v 1.131192 -6.613804 -0.006313
v 0.742224 -4.422279 -0.004222
v 0.716327 -4.422462 0.187547
v 1.091724 -6.614083 0.285952
v 0.799871 -6.614568 0.793558
v 0.652579 -3.080962 -0.002942
v 0.656837 -2.502938 -0.002388
v 0.633919 -2.503100 0.167319
v 0.684134 -3.747633 -0.003578
v 0.660264 -3.747802 0.173182
v 0.629810 -3.081123 0.165665
v 0.591865 -3.747959 0.338311
v 0.483756 -3.748095 0.480178
v 0.461443 -3.081403 0.458503
v 0.292265 -6.614846 1.085411
v 0.191769 -4.422962 0.712105
v 0.000000 -4.422987 0.738002
v 0.370919 -4.422892 0.637898
v 0.565300 -6.614738 0.972313
v 0.000000 -6.614884 1.124879
v 0.328247 -2.503480 0.565861
v 0.341889 -3.748198 0.588287
v 0.326120 -3.081501 0.561626
v 0.176760 -3.748263 0.656685
v 0.000000 -3.748286 0.680556
v 0.000000 -3.081585 0.649639
v 0.789172 -1.472518 0.454458
v 0.645023 -1.472698 0.643618
v 0.679323 -1.769155 0.390721
v 0.785226 -1.768780 -0.001688
v 0.912203 -1.472083 -0.001405
v 0.880373 -1.472308 0.234281
v 0.700550 -2.092002 -0.001996
v 0.676108 -2.092175 0.179005
v 0.757829 -1.768974 0.201191
v 0.606068 -2.092336 0.348096
v 0.495364 -2.092475 0.493368
v 0.555239 -1.769310 0.553551
v 1.070928 -1.123286 -0.001072
v 1.033569 -1.123550 0.275625
v 0.751582 -0.748051 -0.000714
v 0.725358 -0.748236 0.193473
v 0.926493 -1.123797 0.534115
v 0.757262 -1.124009 0.756190
v 0.650217 -0.748409 0.374882
v 0.531449 -0.748558 0.530735
v 0.202879 -1.769503 0.756141
v 0.235685 -1.472923 0.878968
v 0.000000 -1.472953 0.910797
v 0.455863 -1.472836 0.787767
v 0.350093 -2.092581 0.604071
v 0.392409 -1.769428 0.677635
v 0.181001 -2.092648 0.674111
v 0.000000 -2.092671 0.698554
v 0.000000 -1.769529 0.783538
v 0.535187 -1.124170 0.925421
v 0.375595 -0.748671 0.649503
v 0.276697 -1.124272 1.032496
v 0.000000 -1.124308 1.069856
v 0.194187 -0.748743 0.724644
v 0.000000 -0.748768 0.750868
v -0.629810 -3.081123 0.165665
v -0.633919 -2.503100 0.167319
v -0.656837 -2.502938 -0.002388
v -0.328247 -2.503480 0.565861
v -0.464454 -2.503381 0.462065
v -0.326120 -3.081501 0.561626
v -0.565300 -6.614738 0.972313
v -0.370919 -4.422892 0.637898
v -0.524832 -4.422780 0.520610
v -0.191769 -4.422962 0.712105
v -0.292265 -6.614846 1.085411
v -0.799871 -6.614568 0.793558
v -0.169707 -2.503543 0.631531
v -0.176760 -3.748263 0.656685
v -0.168607 -3.081563 0.626869
v -0.341889 -3.748198 0.588287
v -0.483756 -3.748095 0.480178
v -0.461443 -3.081403 0.458503
v -1.091724 -6.614083 0.285952
v -0.716327 -4.422462 0.187547
v -0.742224 -4.422279 -0.004222
v -0.642120 -4.422633 0.366697
v -0.978627 -6.614344 0.558987
v -1.131192 -6.613804 -0.006313
v -0.568249 -2.503251 0.325859
v -0.591865 -3.747959 0.338311
v -0.564567 -3.081274 0.323178
v -0.660264 -3.747802 0.173182
v -0.684134 -3.747633 -0.003578
v -0.652579 -3.080962 -0.002942
v -0.392409 -1.769428 0.677635
v -0.455863 -1.472836 0.787767
v -0.645023 -1.472698 0.643618
v -0.235685 -1.472923 0.878968
v -0.181001 -2.092648 0.674111
v -0.202879 -1.769503 0.756141
v -0.350093 -2.092581 0.604071
v -0.495364 -2.092475 0.493368
v -0.555239 -1.769310 0.553551
v -0.276697 -1.124272 1.032496
v -0.194187 -0.748743 0.724644
v -0.535187 -1.124170 0.925421
v -0.757262 -1.124009 0.756190
v -0.375595 -0.748671 0.649503
v -0.531449 -0.748558 0.530735
v -0.757829 -1.768974 0.201191
v -0.880373 -1.472308 0.234281
v -0.912203 -1.472083 -0.001405
v -0.789172 -1.472518 0.454458
v -0.606068 -2.092336 0.348096
v -0.679323 -1.769155 0.390721
v -0.676108 -2.092175 0.179005
v -0.700550 -2.092002 -0.001996
v -0.785226 -1.768780 -0.001688
v -0.926493 -1.123797 0.534115
v -0.650217 -0.748409 0.374882
v -1.033569 -1.123550 0.275625
v -1.070928 -1.123286 -0.001072
v -0.725358 -0.748236 0.193473
v -0.751582 -0.748051 -0.000714
v 1.423941 -8.937497 -0.389735
v 1.437687 -7.961848 -0.392485
v -0.384885 -7.960843 -1.445286
v 0.000000 -7.960793 -1.497264
v -0.381205 -8.936502 -1.432471
v -0.450014 -9.917610 -1.690440
v 0.000000 -9.917552 -1.751206
v -0.560830 -10.010110 -2.104463
v -1.506833 -9.918384 -0.879888
v -1.231597 -9.918039 -1.241066
v -1.877895 -10.011074 -1.094318
v -2.324808 -10.689464 -1.353120
v -2.285643 -10.413063 -1.330236
v -1.868149 -10.412540 -1.878090
v -2.549785 -10.413671 -0.692546
v -2.593477 -10.690083 -0.704506
v -1.900161 -10.688932 -1.910365
v -1.680972 -9.918785 -0.459483
v -2.431183 -10.195454 -0.660588
v -2.094906 -10.011574 -0.570387
v -2.179337 -10.194873 -1.268615
v -1.781257 -10.194375 -1.790989
v -1.534879 -10.010644 -1.544436
v -0.694302 -10.688271 -2.603681
v -0.682605 -10.411890 -2.559725
v 0.000000 -10.411802 -2.651905
v -1.320296 -10.412142 -2.295583
v -1.342915 -10.688527 -2.335012
v 0.000000 -10.688181 -2.697442
v -0.870419 -9.917776 -1.516301
v -1.258883 -10.193995 -2.189069
v -1.084761 -10.010317 -1.887452
v -0.650856 -10.193754 -2.440915
v 0.000000 -10.193671 -2.528810
v 0.000000 -10.010037 -2.180201
v -1.288760 -7.961504 -0.752044
v -1.053354 -7.961210 -1.060953
v -1.276430 -8.937157 -0.745856
v -1.084890 -9.603371 -0.635852
v -0.886723 -9.603123 -0.895891
v -1.208537 -9.824116 -0.707486
v -1.210265 -9.603660 -0.333170
v -1.348203 -9.824437 -0.370308
v -0.987785 -9.823839 -0.997164
v -1.437687 -7.961848 -0.392485
v -1.287559 -9.290293 -0.353563
v -1.423941 -8.937497 -0.389735
v -1.154174 -9.289986 -0.675573
v -0.943358 -9.289721 -0.952226
v -1.043280 -8.936865 -1.051810
v -0.360929 -9.823495 -1.357581
v -0.324002 -9.602814 -1.219433
v 0.000000 -9.602772 -1.263186
v -0.626684 -9.602934 -1.094058
v -0.698108 -9.823628 -1.217915
v 0.000000 -9.823448 -1.406319
v -0.744445 -7.960985 -1.296359
v -0.666706 -9.289520 -1.163043
v -0.737326 -8.936643 -1.284960
v -0.344694 -9.289393 -1.296427
v 0.000000 -9.289349 -1.342970
v 0.000000 -8.936453 -1.483948
v 2.094906 -10.011574 -0.570387
v 1.680972 -9.918785 -0.459483
v 0.870419 -9.917776 -1.516301
v 1.231597 -9.918039 -1.241066
v 1.084761 -10.010317 -1.887452
v 1.342915 -10.688527 -2.335012
v 1.320296 -10.412142 -2.295583
v 1.868149 -10.412540 -1.878090
v 0.682605 -10.411890 -2.559725
v 0.694302 -10.688271 -2.603681
v 1.900161 -10.688932 -1.910365
v 0.450014 -9.917610 -1.690440
v 0.650856 -10.193754 -2.440915
v 0.560830 -10.010110 -2.104463
v 1.258883 -10.193995 -2.189069
v 1.781257 -10.194375 -1.790989
v 1.534879 -10.010644 -1.544436
v 2.593477 -10.690083 -0.704506
v 2.549785 -10.413671 -0.692546
v 2.285643 -10.413063 -1.330236
v 2.324808 -10.689464 -1.353120
v 1.506833 -9.918384 -0.879888
v 2.179337 -10.194873 -1.268615
v 1.877895 -10.011074 -1.094318
v 2.431183 -10.195454 -0.660588
v 0.744445 -7.960985 -1.296359
v 1.053354 -7.961210 -1.060953
v 0.737326 -8.936643 -1.284960
v 0.698108 -9.823628 -1.217915
v 0.626684 -9.602934 -1.094058
v 0.886723 -9.603123 -0.895891
v 0.324002 -9.602814 -1.219433
v 0.360929 -9.823495 -1.357581
v 0.987785 -9.823839 -0.997164
v 0.384885 -7.960843 -1.445286
v 0.344694 -9.289393 -1.296427
v 0.381205 -8.936502 -1.432471
v 0.666706 -9.289520 -1.163043
v 0.943358 -9.289721 -0.952226
v 1.043280 -8.936865 -1.051810
v 1.348203 -9.824437 -0.370308
v 1.210265 -9.603660 -0.333170
v 1.084890 -9.603371 -0.635852
v 1.208537 -9.824116 -0.707486
v 1.288760 -7.961504 -0.752044
v 1.154174 -9.289986 -0.675573
v 1.276430 -8.937157 -0.745856
v 1.287559 -9.290293 -0.353563
v -0.168607 -3.080361 -0.632750
v -0.169707 -2.502333 -0.636307
v 0.000000 -2.502311 -0.659225
v -0.568249 -2.502625 -0.330636
v -0.464454 -2.502495 -0.466842
v -0.564567 -3.080651 -0.329060
v -0.978627 -6.613265 -0.571612
v -0.642120 -4.421925 -0.375140
v -0.524832 -4.421778 -0.529053
v -0.716327 -4.422096 -0.195991
v -1.091724 -6.613525 -0.298578
v -0.799871 -6.613041 -0.806184
v -0.633919 -2.502776 -0.172095
v -0.660264 -3.747465 -0.180338
v -0.629810 -3.080801 -0.171549
v -0.591865 -3.747307 -0.345467
v -0.483756 -3.747172 -0.487334
v -0.461443 -3.080522 -0.464384
v -0.292265 -6.612762 -1.098037
v -0.191769 -4.421596 -0.720548
v 0.000000 -4.421571 -0.746446
v -0.370919 -4.421666 -0.646342
v -0.565300 -6.612871 -0.984939
v 0.000000 -6.612725 -1.137504
v -0.328247 -2.502396 -0.570637
v -0.341889 -3.747068 -0.595443
v -0.326120 -3.080424 -0.567506
v -0.176760 -3.747003 -0.663841
v 0.000000 -3.746980 -0.687712
v 0.000000 -3.080340 -0.655519
v -0.679323 -1.768406 -0.394097
v -0.789172 -1.471648 -0.457267
v -0.645023 -1.471467 -0.646427
v -0.880373 -1.471858 -0.237090
v -0.676108 -2.091830 -0.182997
v -0.757829 -1.768587 -0.204567
v -0.606068 -2.091668 -0.352089
v -0.495364 -2.091530 -0.497360
v -0.555239 -1.768250 -0.556927
v -1.033569 -1.123022 -0.277769
v -0.725358 -0.747866 -0.194900
v -0.926493 -1.122775 -0.536258
v -0.757262 -1.122564 -0.758334
v -0.650217 -0.747693 -0.376309
v -0.531449 -0.747544 -0.532162
v -0.202879 -1.768057 -0.759517
v -0.235685 -1.471243 -0.881777
v 0.000000 -1.471212 -0.913607
v -0.455863 -1.471330 -0.790576
v -0.350093 -2.091424 -0.608063
v -0.392409 -1.768132 -0.681011
v -0.181001 -2.091357 -0.678104
v 0.000000 -2.091334 -0.702546
v 0.000000 -1.768031 -0.786914
v -0.535187 -1.122402 -0.927564
v -0.375595 -0.747431 -0.650931
v -0.276697 -1.122300 -1.034640
v 0.000000 -1.122264 -1.071999
v -0.194187 -0.747359 -0.726072
v 0.000000 -0.747334 -0.752296
v 0.629810 -3.080801 -0.171549
v 0.633919 -2.502776 -0.172095
v 0.328247 -2.502396 -0.570637
v 0.464454 -2.502495 -0.466842
v 0.326120 -3.080424 -0.567506
v 0.565300 -6.612871 -0.984939
v 0.370919 -4.421666 -0.646342
v 0.524832 -4.421778 -0.529053
v 0.191769 -4.421596 -0.720548
v 0.292265 -6.612762 -1.098037
v 0.799871 -6.613041 -0.806184
v 0.169707 -2.502333 -0.636307
v 0.176760 -3.747003 -0.663841
v 0.168607 -3.080361 -0.632750
v 0.341889 -3.747068 -0.595443
v 0.483756 -3.747172 -0.487334
v 0.461443 -3.080522 -0.464384
v 1.091724 -6.613525 -0.298578
v 0.716327 -4.422096 -0.195991
v 0.642120 -4.421925 -0.375140
v 0.978627 -6.613265 -0.571612
v 0.568249 -2.502625 -0.330636
v 0.591865 -3.747307 -0.345467
v 0.564567 -3.080651 -0.329060
v 0.660264 -3.747465 -0.180338
v 0.392409 -1.768132 -0.681011
v 0.455863 -1.471330 -0.790576
v 0.645023 -1.471467 -0.646427
v 0.235685 -1.471243 -0.881777
v 0.181001 -2.091357 -0.678104
v 0.202879 -1.768057 -0.759517
v 0.350093 -2.091424 -0.608063
v 0.495364 -2.091530 -0.497360
v 0.555239 -1.768250 -0.556927
v 0.276697 -1.122300 -1.034640
v 0.194187 -0.747359 -0.726072
v 0.535187 -1.122402 -0.927564
v 0.757262 -1.122564 -0.758334
v 0.375595 -0.747431 -0.650931
v 0.531449 -0.747544 -0.532162
v 0.757829 -1.768587 -0.204567
v 0.880373 -1.471858 -0.237090
v 0.789172 -1.471648 -0.457267
v 0.606068 -2.091668 -0.352089
v 0.679323 -1.768406 -0.394097
v 0.676108 -2.091830 -0.182997
v 0.926493 -1.122775 -0.536258
v 0.650217 -0.747693 -0.376309
v 1.033569 -1.123022 -0.277769
v 0.725358 -0.747866 -0.194900
v 0.000000 -0.752112 -0.000718
v 7.474731 -0.470077 4.317307
v 6.109405 -0.471787 6.108957
v 7.474731 -0.703098 4.317085
v 8.639999 -0.698976 -0.000667
v 8.639999 -0.465955 -0.000445
v 8.338542 -0.468085 2.231871
v 0.000000 -0.717552 -0.000685
v 8.338542 -0.701106 2.231649
v 6.109405 -0.704807 6.108735
v 8.639999 -0.233021 -0.000222
v 8.338542 -0.235151 2.232094
v 8.639999 0.000000 0.000000
v 8.338542 -0.002130 2.232316
v 7.474731 -0.237143 4.317530
v 6.109405 -0.238852 6.109179
v 7.474731 -0.004122 4.317752
v 6.109405 -0.005832 6.109402
v 2.232317 -0.706934 8.337872
v 2.232317 -0.473914 8.338094
v 0.000000 -0.474201 8.639551
v 4.317754 -0.473090 7.474284
v 4.317754 -0.706110 7.474061
v 0.000000 -0.707222 8.639329
v 4.317754 -0.240155 7.474506
v 4.317754 -0.007135 7.474728
v 2.232317 -0.240980 8.338316
v 0.000000 -0.241267 8.639773
v 2.232317 -0.007959 8.338538
v 0.000000 -0.008246 8.639996
v -4.317754 -0.706110 7.474061
v -4.317754 -0.473090 7.474284
v -6.109405 -0.471787 6.108957
v -2.232317 -0.473914 8.338094
v -2.232317 -0.706934 8.337872
v -6.109405 -0.704807 6.108735
v -2.232317 -0.240980 8.338316
v -2.232317 -0.007959 8.338538
v -4.317754 -0.240155 7.474506
v -6.109405 -0.238852 6.109179
v -4.317754 -0.007135 7.474728
v -6.109405 -0.005832 6.109402
v -8.338542 -0.701106 2.231649
v -8.338542 -0.468085 2.231871
v -8.639999 -0.465955 -0.000445
v -7.474731 -0.470077 4.317307
v -7.474731 -0.703098 4.317085
v -8.639999 -0.698976 -0.000667
v -7.474731 -0.237143 4.317530
v -7.474731 -0.004122 4.317752
v -8.338542 -0.235151 2.232094
v -8.639999 -0.233021 -0.000222
v -8.338542 -0.002130 2.232316
v -8.639999 0.000000 0.000000
v -7.474731 -0.694854 -4.318419
v -7.474731 -0.461833 -4.318196
v -6.109405 -0.460124 -6.109846
v -8.338542 -0.463825 -2.232761
v -8.338542 -0.696846 -2.232983
v -6.109405 -0.693144 -6.110069
v -8.338542 -0.230891 -2.232538
v -8.338542 0.002130 -2.232316
v -7.474731 -0.228899 -4.317974
v -6.109405 -0.227189 -6.109624
v -7.474731 0.004122 -4.317752
v -6.109405 0.005831 -6.109402
v -2.232317 -0.691017 -8.339205
v -2.232317 -0.457997 -8.338983
v 0.000000 -0.457709 -8.640440
v -4.317754 -0.458821 -7.475173
v -4.317754 -0.691842 -7.475395
v 0.000000 -0.690730 -8.640662
v -4.317754 -0.225887 -7.474950
v -4.317754 0.007134 -7.474728
v -2.232317 -0.225062 -8.338760
v 0.000000 -0.224775 -8.640218
v -2.232317 0.007958 -8.338538
v 0.000000 0.008246 -8.639996
v 4.317754 -0.691842 -7.475395
v 4.317754 -0.458821 -7.475173
v 6.109405 -0.460124 -6.109846
v 2.232317 -0.457997 -8.338983
v 2.232317 -0.691017 -8.339205
v 6.109405 -0.693144 -6.110069
v 2.232317 -0.225062 -8.338760
v 2.232317 0.007958 -8.338538
v 4.317754 -0.225887 -7.474950
v 6.109405 -0.227189 -6.109624
v 4.317754 0.007134 -7.474728
v 6.109405 0.005831 -6.109402
v 8.338542 -0.696846 -2.232983
v 8.338542 -0.463825 -2.232761
v 7.474731 -0.461833 -4.318196
v 7.474731 -0.694854 -4.318419
v 7.474731 -0.228899 -4.317974
v 7.474731 0.004122 -4.317752
v 8.338542 -0.230891 -2.232538
v 8.338542 0.002130 -2.232316
v 0.000000 -0.008208 -0.000008
vt 0.136318 0.677019
vt 0.139794 0.679079
vt 0.127158 0.689307
vt 0.133695 0.655266
vt 0.131635 0.658743
vt 0.121407 0.646107
vt 0.081966 0.615524
vt 0.071331 0.633703
vt 0.065800 0.603095
vt 0.135552 0.584770
vt 0.115178 0.590105
vt 0.132910 0.564551
vt 0.128676 0.533806
vt 0.095359 0.542659
vt 0.126651 0.519093
vt 0.202138 0.528966
vt 0.196545 0.542717
vt 0.163242 0.533825
vt 0.366673 0.593857
vt 0.436408 0.564972
vt 0.441438 0.583997
vt 0.165084 0.519093
vt 0.441438 0.603716
vt 0.436408 0.622742
vt 0.184843 0.571440
vt 0.177011 0.590280
vt 0.156659 0.584829
vt 0.191887 0.554212
vt 0.161713 0.546144
vt 0.159355 0.564617
vt 0.130389 0.546102
vt 0.100193 0.554082
vt 0.107395 0.571244
vt 0.029231 0.575377
vt 0.041067 0.584349
vt 0.023768 0.614169
vt 0.089590 0.528982
vt 0.065523 0.559921
vt 0.426512 0.639751
vt 0.056407 0.548201
vt 0.412568 0.653695
vt 0.395559 0.663592
vt 0.096933 0.600641
vt 0.073152 0.569713
vt 0.084547 0.584442
vt 0.050973 0.591832
vt 0.035263 0.618827
vt 0.052492 0.625870
vt 0.144028 0.649450
vt 0.140113 0.650451
vt 0.141816 0.634284
vt 0.139028 0.612548
vt 0.125732 0.616093
vt 0.137607 0.601109
vt 0.170600 0.605479
vt 0.166097 0.616119
vt 0.152802 0.612559
vt 0.154398 0.601143
vt 0.121393 0.605385
vt 0.157637 0.636350
vt 0.151971 0.650584
vt 0.148079 0.649495
vt 0.161445 0.627113
vt 0.151161 0.624364
vt 0.149874 0.634273
vt 0.140494 0.624378
vt 0.130216 0.627156
vt 0.134055 0.636380
vt 0.094972 0.625624
vt 0.104065 0.632708
vt 0.097171 0.644617
vt 0.113814 0.622976
vt 0.106869 0.613775
vt 0.086530 0.640113
vt 0.136591 0.652434
vt 0.121000 0.632484
vt 0.127097 0.640401
vt 0.113468 0.640036
vt 0.108164 0.649269
vt 0.117401 0.653077
vt 0.084147 0.744913
vt 0.096575 0.728748
vt 0.114754 0.739382
vt 0.065821 0.675162
vt 0.071156 0.695536
vt 0.045602 0.677804
vt 0.000144 0.684062
vt 0.014857 0.682037
vt 0.023711 0.715355
vt 0.010017 0.608576
vt 0.014877 0.647472
vt 0.376534 0.668622
vt 0.000144 0.645630
vt 0.356814 0.668622
vt 0.337789 0.663592
vt 0.065880 0.654055
vt 0.027196 0.649001
vt 0.045668 0.651358
vt 0.027153 0.680325
vt 0.035133 0.710521
vt 0.052296 0.703319
vt 0.056428 0.781482
vt 0.065400 0.769647
vt 0.095220 0.786946
vt 0.010033 0.721124
vt 0.040972 0.745191
vt 0.320779 0.653696
vt 0.029252 0.754306
vt 0.306835 0.639752
vt 0.296939 0.622743
vt 0.081693 0.713781
vt 0.050765 0.737562
vt 0.065493 0.726167
vt 0.072883 0.759741
vt 0.099878 0.775450
vt 0.106922 0.758222
vt 0.130501 0.666686
vt 0.131503 0.670601
vt 0.115335 0.668898
vt 0.082160 0.673107
vt 0.093599 0.671686
vt 0.097144 0.684982
vt 0.093611 0.657911
vt 0.082194 0.656316
vt 0.086436 0.689321
vt 0.130546 0.662635
vt 0.105415 0.659552
vt 0.115324 0.660839
vt 0.105429 0.670219
vt 0.108207 0.680498
vt 0.117431 0.676659
vt 0.106676 0.715742
vt 0.113759 0.706648
vt 0.125668 0.713543
vt 0.104028 0.696900
vt 0.094826 0.703844
vt 0.121165 0.724183
vt 0.133485 0.674122
vt 0.113535 0.689713
vt 0.121452 0.683617
vt 0.121088 0.697246
vt 0.130320 0.702550
vt 0.134128 0.693313
vt 0.145869 0.664817
vt 0.145866 0.664821
vt 0.145847 0.664795
vt 0.145883 0.664812
vt 0.145878 0.664812
vt 0.145883 0.664780
vt 0.145871 0.664422
vt 0.145765 0.664439
vt 0.145379 0.659439
vt 0.148145 0.659909
vt 0.146077 0.664471
vt 0.145977 0.664433
vt 0.146795 0.659493
vt 0.144002 0.659751
vt 0.145909 0.664788
vt 0.145893 0.664815
vt 0.145888 0.664813
vt 0.145957 0.664701
vt 0.145920 0.664686
vt 0.145896 0.664782
vt 0.145881 0.664681
vt 0.145843 0.664687
vt 0.145870 0.664782
vt 0.141714 0.661374
vt 0.145585 0.664550
vt 0.145522 0.664637
vt 0.145668 0.664483
vt 0.142753 0.660411
vt 0.140961 0.662569
vt 0.145873 0.664814
vt 0.145806 0.664702
vt 0.145858 0.664787
vt 0.145775 0.664726
vt 0.145752 0.664757
vt 0.145839 0.664805
vt 0.145883 0.664827
vt 0.145882 0.664827
vt 0.145883 0.664825
vt 0.145886 0.664826
vt 0.145885 0.664828
vt 0.145884 0.664827
vt 0.145888 0.664823
vt 0.145885 0.664822
vt 0.145884 0.664825
vt 0.145883 0.664821
vt 0.145880 0.664821
vt 0.145881 0.664825
vt 0.145884 0.664829
vt 0.145883 0.664829
vt 0.145883 0.664830
vt 0.145883 0.664830
vt 0.145883 0.664829
vt 0.145882 0.664829
vt 0.145883 0.664830
vt 0.145882 0.664830
vt 0.145878 0.664827
vt 0.145880 0.664828
vt 0.145879 0.664829
vt 0.145881 0.664828
vt 0.145878 0.664822
vt 0.145880 0.664826
vt 0.145876 0.664824
vt 0.145874 0.664826
vt 0.145877 0.664828
vt 0.145881 0.664829
vt 0.145882 0.664830
vt 0.145881 0.664829
vt 0.145880 0.664830
vt 0.145881 0.664830
vt 0.145881 0.664830
vt 0.145846 0.664867
vt 0.145868 0.664845
vt 0.145872 0.664848
vt 0.145863 0.664831
vt 0.145864 0.664836
vt 0.145832 0.664831
vt 0.140490 0.665335
vt 0.145473 0.664843
vt 0.145490 0.664949
vt 0.145484 0.664736
vt 0.140544 0.663919
vt 0.140803 0.666712
vt 0.145864 0.664826
vt 0.145737 0.664793
vt 0.145834 0.664817
vt 0.145732 0.664832
vt 0.145738 0.664871
vt 0.145833 0.664844
vt 0.142425 0.669000
vt 0.145601 0.665129
vt 0.145688 0.665192
vt 0.145534 0.665046
vt 0.141463 0.667961
vt 0.143620 0.669753
vt 0.145865 0.664840
vt 0.145753 0.664907
vt 0.145838 0.664856
vt 0.145777 0.664938
vt 0.145808 0.664962
vt 0.145856 0.664875
vt 0.145876 0.664831
vt 0.145878 0.664831
vt 0.145878 0.664832
vt 0.145879 0.664830
vt 0.145873 0.664828
vt 0.145877 0.664829
vt 0.145872 0.664831
vt 0.145873 0.664833
vt 0.145876 0.664833
vt 0.145880 0.664830
vt 0.145881 0.664831
vt 0.145880 0.664831
vt 0.145880 0.664832
vt 0.145881 0.664831
vt 0.145881 0.664832
vt 0.145878 0.664836
vt 0.145879 0.664834
vt 0.145880 0.664835
vt 0.145879 0.664833
vt 0.145874 0.664836
vt 0.145877 0.664834
vt 0.145875 0.664838
vt 0.145877 0.664840
vt 0.145879 0.664837
vt 0.145880 0.664833
vt 0.145881 0.664832
vt 0.145880 0.664833
vt 0.145881 0.664834
vt 0.145881 0.664832
vt 0.145882 0.664833
vt 0.164607 0.640356
vt 0.155447 0.652644
vt 0.158070 0.674396
vt 0.160130 0.670920
vt 0.170358 0.683556
vt 0.209799 0.714139
vt 0.220434 0.695959
vt 0.225965 0.726567
vt 0.156213 0.744893
vt 0.176587 0.739558
vt 0.158855 0.765112
vt 0.165114 0.810570
vt 0.163089 0.795857
vt 0.196406 0.787003
vt 0.089627 0.800696
vt 0.128523 0.795837
vt 0.291909 0.603718
vt 0.126681 0.810570
vt 0.291909 0.583998
vt 0.296939 0.564973
vt 0.135106 0.744833
vt 0.130052 0.783518
vt 0.132409 0.765045
vt 0.161376 0.783561
vt 0.191572 0.775581
vt 0.184370 0.758418
vt 0.262534 0.754286
vt 0.250698 0.745314
vt 0.267997 0.715494
vt 0.202175 0.800681
vt 0.226242 0.769742
vt 0.306835 0.547963
vt 0.235358 0.781461
vt 0.320779 0.534019
vt 0.337788 0.524123
vt 0.194832 0.729021
vt 0.218613 0.759949
vt 0.207218 0.745221
vt 0.240792 0.737830
vt 0.256502 0.710836
vt 0.239273 0.703792
vt 0.147737 0.680212
vt 0.151652 0.679211
vt 0.149949 0.695379
vt 0.152737 0.717115
vt 0.166033 0.713569
vt 0.154158 0.728554
vt 0.138963 0.717103
vt 0.137367 0.728520
vt 0.170372 0.724278
vt 0.143686 0.680167
vt 0.140604 0.705299
vt 0.141891 0.695390
vt 0.151271 0.705285
vt 0.161549 0.702507
vt 0.157710 0.693282
vt 0.196793 0.704038
vt 0.187700 0.696954
vt 0.194594 0.685046
vt 0.177951 0.706686
vt 0.184896 0.715887
vt 0.205234 0.689549
vt 0.155174 0.677229
vt 0.170765 0.697179
vt 0.164668 0.689262
vt 0.178297 0.689626
vt 0.183601 0.680394
vt 0.174364 0.676586
vt 0.207618 0.584749
vt 0.195190 0.600914
vt 0.225944 0.654501
vt 0.220609 0.634126
vt 0.246163 0.651858
vt 0.291621 0.645600
vt 0.276908 0.647625
vt 0.268054 0.614307
vt 0.281748 0.721086
vt 0.276888 0.682191
vt 0.356813 0.519093
vt 0.291621 0.684033
vt 0.376533 0.519093
vt 0.395558 0.524123
vt 0.225884 0.675608
vt 0.264569 0.680661
vt 0.246097 0.678304
vt 0.264612 0.649338
vt 0.256632 0.619142
vt 0.239469 0.626343
vt 0.235337 0.548180
vt 0.226365 0.560016
vt 0.281732 0.608539
vt 0.250793 0.584471
vt 0.412567 0.534019
vt 0.262513 0.575356
vt 0.426511 0.547962
vt 0.210072 0.615882
vt 0.241000 0.592100
vt 0.226272 0.603496
vt 0.218882 0.569921
vt 0.161264 0.662977
vt 0.160262 0.659062
vt 0.176430 0.660765
vt 0.209605 0.656556
vt 0.198166 0.657976
vt 0.194621 0.644680
vt 0.198154 0.671751
vt 0.209571 0.673347
vt 0.205329 0.640341
vt 0.161219 0.667028
vt 0.186350 0.670110
vt 0.176441 0.668823
vt 0.186336 0.659443
vt 0.183558 0.649165
vt 0.174334 0.653004
vt 0.185089 0.613921
vt 0.178005 0.623014
vt 0.187737 0.632763
vt 0.196938 0.625818
vt 0.158280 0.655540
vt 0.178230 0.639949
vt 0.170313 0.646046
vt 0.170677 0.632417
vt 0.145918 0.664868
vt 0.145896 0.664845
vt 0.145899 0.664841
vt 0.145882 0.664851
vt 0.145887 0.664850
vt 0.145882 0.664882
vt 0.146386 0.670224
vt 0.145894 0.665241
vt 0.146000 0.665224
vt 0.145788 0.665230
vt 0.144970 0.670170
vt 0.147763 0.669911
vt 0.145877 0.664850
vt 0.145845 0.664977
vt 0.145869 0.664880
vt 0.145884 0.664981
vt 0.145922 0.664976
vt 0.145895 0.664881
vt 0.150051 0.668288
vt 0.146180 0.665112
vt 0.146243 0.665026
vt 0.146097 0.665180
vt 0.149012 0.669251
vt 0.150804 0.667093
vt 0.145892 0.664848
vt 0.145958 0.664961
vt 0.145907 0.664876
vt 0.145989 0.664937
vt 0.146013 0.664905
vt 0.145926 0.664857
vt 0.145882 0.664837
vt 0.145882 0.664835
vt 0.145883 0.664835
vt 0.145881 0.664835
vt 0.145879 0.664841
vt 0.145881 0.664837
vt 0.145882 0.664841
vt 0.145885 0.664841
vt 0.145884 0.664837
vt 0.145882 0.664834
vt 0.145882 0.664833
vt 0.145882 0.664834
vt 0.145883 0.664834
vt 0.145882 0.664833
vt 0.145883 0.664833
vt 0.145887 0.664836
vt 0.145885 0.664834
vt 0.145886 0.664833
vt 0.145884 0.664835
vt 0.145887 0.664840
vt 0.145885 0.664837
vt 0.145889 0.664839
vt 0.145891 0.664837
vt 0.145888 0.664835
vt 0.145884 0.664834
vt 0.145883 0.664833
vt 0.145884 0.664833
vt 0.145885 0.664833
vt 0.145884 0.664833
vt 0.145884 0.664832
vt 0.145919 0.664796
vt 0.145897 0.664818
vt 0.145902 0.664832
vt 0.145901 0.664827
vt 0.145933 0.664832
vt 0.151275 0.664328
vt 0.146292 0.664820
vt 0.146275 0.664714
vt 0.146281 0.664926
vt 0.151221 0.665744
vt 0.150962 0.662950
vt 0.145901 0.664837
vt 0.146028 0.664869
vt 0.145931 0.664845
vt 0.146033 0.664830
vt 0.146027 0.664791
vt 0.145932 0.664819
vt 0.149340 0.660662
vt 0.146164 0.664534
vt 0.146231 0.664617
vt 0.150302 0.661702
vt 0.145900 0.664822
vt 0.146012 0.664755
vt 0.145927 0.664807
vt 0.145988 0.664724
vt 0.145889 0.664832
vt 0.145887 0.664831
vt 0.145886 0.664830
vt 0.145886 0.664833
vt 0.145892 0.664834
vt 0.145888 0.664833
vt 0.145893 0.664832
vt 0.145892 0.664829
vt 0.145889 0.664830
vt 0.145885 0.664832
vt 0.145884 0.664832
vt 0.145885 0.664831
vt 0.145885 0.664831
vt 0.145884 0.664831
vt 0.145884 0.664831
vt 0.145887 0.664827
vt 0.145885 0.664828
vt 0.145886 0.664829
vt 0.145891 0.664827
vt 0.145888 0.664828
vt 0.145890 0.664824
vt 0.145885 0.664830
vt 0.145884 0.664831
vt 0.145884 0.664829
vt 0.145884 0.664830
vt 0.145882 0.664831
vt 0.104562 0.461461
vt 0.162050 0.494692
vt 0.100284 0.467032
vt 0.017771 0.359598
vt 0.024261 0.356909
vt 0.057500 0.414399
vt 0.759474 0.240526
vt 0.983684 0.333396
vt 0.951866 0.388085
vt 0.051928 0.418677
vt 0.907034 0.432917
vt 0.852346 0.464735
vt 0.030574 0.354293
vt 0.062922 0.410236
vt 0.036830 0.351677
vt 0.068289 0.406087
vt 0.108724 0.456039
vt 0.164664 0.488378
vt 0.112841 0.450641
vt 0.167238 0.482105
vt 0.293675 0.518805
vt 0.292760 0.511840
vt 0.356909 0.494688
vt 0.159362 0.501182
vt 0.226205 0.511840
vt 0.791176 0.480907
vt 0.225290 0.518805
vt 0.727774 0.480907
vt 0.666604 0.464735
vt 0.227095 0.505062
vt 0.227957 0.498334
vt 0.291870 0.505063
vt 0.354293 0.488375
vt 0.290964 0.498335
vt 0.351677 0.482119
vt 0.467032 0.418665
vt 0.461461 0.414387
vt 0.494692 0.356899
vt 0.359598 0.501178
vt 0.414399 0.461449
vt 0.611916 0.432917
vt 0.418677 0.467020
vt 0.567083 0.388085
vt 0.535265 0.333397
vt 0.410235 0.456027
vt 0.406087 0.450660
vt 0.456039 0.410225
vt 0.488378 0.354284
vt 0.450641 0.406108
vt 0.482105 0.351710
vt 0.518805 0.225273
vt 0.511840 0.226188
vt 0.494688 0.162040
vt 0.501182 0.359587
vt 0.511840 0.292744
vt 0.519093 0.272227
vt 0.518805 0.293659
vt 0.519093 0.208825
vt 0.535265 0.147656
vt 0.505062 0.291854
vt 0.498334 0.290992
vt 0.505063 0.227079
vt 0.488374 0.164656
vt 0.498335 0.227985
vt 0.482119 0.167272
vt 0.418665 0.051916
vt 0.414387 0.057488
vt 0.356899 0.024257
vt 0.501178 0.159351
vt 0.461449 0.104550
vt 0.567083 0.092967
vt 0.467021 0.100272
vt 0.611915 0.048134
vt 0.666604 0.016316
vt 0.456027 0.108713
vt 0.450660 0.112862
vt 0.410225 0.062910
vt 0.354284 0.030571
vt 0.406108 0.068308
vt 0.351710 0.036844
vt 0.225273 0.000144
vt 0.226188 0.007109
vt 0.162040 0.024261
vt 0.359587 0.017766
vt 0.292744 0.007109
vt 0.727773 0.000144
vt 0.293659 0.000144
vt 0.791175 0.000144
vt 0.852345 0.016316
vt 0.291854 0.013886
vt 0.290992 0.020615
vt 0.227079 0.013886
vt 0.164656 0.030574
vt 0.227985 0.020614
vt 0.167272 0.036830
vt 0.051916 0.100284
vt 0.057488 0.104562
vt 0.024256 0.162050
vt 0.159351 0.017771
vt 0.104550 0.057500
vt 0.907033 0.048134
vt 0.100272 0.051928
vt 0.951866 0.092966
vt 0.983684 0.147655
vt 0.108713 0.062922
vt 0.112862 0.068289
vt 0.062910 0.108724
vt 0.030571 0.164664
vt 0.068308 0.112841
vt 0.036844 0.167238
vt 0.000144 0.293675
vt 0.007109 0.292760
vt 0.017766 0.159362
vt 0.007109 0.226205
vt 0.999856 0.208824
vt 0.000144 0.225290
vt 0.999856 0.272226
vt 0.013886 0.227095
vt 0.020615 0.227957
vt 0.013886 0.291870
vt 0.020614 0.290964
vt 0.259474 0.259474
s 1
f 1/1 2/2 3/3
f 4/4 5/5 6/6
f 7/7 8/8 9/9
f 10/10 11/11 12/12
f 13/13 14/14 15/15
f 16/16 17/17 18/18
f 19/19 16/20 20/21
f 18/18 13/13 20/22
f 19/19 20/21 15/23
f 19/19 15/23 21/24
f 22/25 23/26 24/27
f 17/17 25/28 26/29
f 25/28 22/25 27/30
f 13/13 28/31 29/32
f 18/18 26/29 28/31
f 24/27 10/10 27/30
f 26/29 27/30 12/12
f 28/31 12/12 30/33
f 31/34 32/35 33/36
f 21/37 14/14 34/38
f 19/19 21/24 35/39
f 35/40 34/38 32/35
f 19/19 35/39 31/41
f 19/19 31/41 36/42
f 11/11 37/43 30/33
f 14/14 29/32 38/44
f 29/32 30/33 39/45
f 32/35 40/46 41/47
f 34/38 38/44 40/46
f 37/43 7/7 39/45
f 38/44 39/45 9/9
f 40/46 9/9 42/48
f 43/49 44/50 45/51
f 46/52 47/53 48/54
f 49/55 50/56 51/57
f 23/26 49/55 52/58
f 51/57 46/52 52/58
f 24/27 52/58 48/54
f 10/10 48/54 53/59
f 54/60 55/61 56/62
f 50/56 57/63 58/64
f 57/63 54/60 59/65
f 46/52 60/66 61/67
f 51/57 58/64 60/66
f 56/62 43/49 59/65
f 58/64 59/65 45/51
f 60/66 45/51 62/68
f 63/69 64/70 65/71
f 53/59 47/53 66/72
f 11/11 53/59 67/73
f 67/73 66/72 64/70
f 37/43 67/73 63/69
f 7/7 63/69 68/74
f 44/50 69/75 62/68
f 47/53 61/67 70/76
f 61/67 62/68 71/77
f 64/70 72/78 73/79
f 66/72 70/76 72/78
f 69/75 4/4 71/77
f 70/76 71/77 6/6
f 72/78 6/6 74/80
f 75/81 76/82 77/83
f 78/84 79/85 80/86
f 81/87 82/88 83/89
f 36/90 33/36 84/91
f 19/19 36/42 85/92
f 85/93 84/91 82/88
f 19/19 85/92 81/94
f 19/19 81/94 86/95
f 42/48 8/8 87/96
f 33/36 41/47 88/97
f 41/47 42/48 89/98
f 82/88 90/99 91/100
f 84/91 88/97 90/99
f 87/96 78/84 89/98
f 88/97 89/98 80/86
f 90/99 80/86 92/101
f 93/102 94/103 95/104
f 86/105 83/89 96/106
f 19/19 86/95 97/107
f 97/108 96/106 94/103
f 19/19 97/107 93/109
f 19/19 93/109 98/110
f 92/101 79/85 99/111
f 83/89 91/100 100/112
f 91/100 92/101 101/113
f 94/103 102/114 103/115
f 96/106 100/112 102/114
f 101/113 99/111 76/82
f 100/112 101/113 75/81
f 102/114 75/81 104/116
f 105/117 106/118 107/119
f 108/120 109/121 110/122
f 68/74 65/71 111/123
f 8/8 68/74 112/124
f 112/124 111/123 109/121
f 87/96 112/124 108/120
f 78/84 108/120 113/125
f 5/5 114/126 74/80
f 65/71 73/79 115/127
f 73/79 74/80 116/128
f 109/121 117/129 118/130
f 111/123 115/127 117/129
f 114/126 105/117 116/128
f 115/127 116/128 107/119
f 117/129 107/119 119/131
f 120/132 121/133 122/134
f 113/125 110/122 123/135
f 79/85 113/125 124/136
f 124/136 123/135 121/133
f 99/111 124/136 120/132
f 76/82 120/132 125/137
f 106/118 126/138 119/131
f 110/122 118/130 127/139
f 118/130 119/131 128/140
f 121/133 129/141 130/142
f 123/135 127/139 129/141
f 126/138 1/1 128/140
f 127/139 128/140 3/3
f 129/141 3/3 131/143
f 132/144 133/145 134/146
f 135/147 136/148 137/149
f 138/150 139/151 140/152
f 141/153 142/154 143/155
f 55/61 141/153 144/156
f 143/155 138/150 144/156
f 56/62 144/156 140/152
f 43/49 140/152 145/157
f 146/158 147/159 148/160
f 142/154 149/161 150/162
f 149/161 146/158 151/163
f 138/150 152/164 153/165
f 143/155 150/162 152/164
f 148/160 135/147 151/163
f 150/162 151/163 137/149
f 152/164 137/149 154/166
f 155/167 156/168 157/169
f 145/157 139/151 158/170
f 44/50 145/157 159/171
f 159/171 158/170 156/168
f 69/75 159/171 155/167
f 4/4 155/167 160/172
f 136/148 161/173 154/166
f 139/151 153/165 162/174
f 153/165 154/166 163/175
f 156/168 164/176 165/177
f 158/170 162/174 164/176
f 161/173 132/144 163/175
f 162/174 163/175 134/146
f 164/176 134/146 166/178
f 167/179 168/180 169/181
f 170/182 171/183 172/184
f 147/159 173/185 174/186
f 173/185 170/182 175/187
f 135/147 176/188 177/189
f 148/160 174/186 176/188
f 172/184 167/179 175/187
f 174/186 175/187 169/181
f 176/188 169/181 178/190
f 171/183 179/191 180/192
f 179/191 181/193 182/194
f 167/179 183/195 184/196
f 172/184 180/192 183/195
f 180/192 182/194 185/197
f 183/195 185/197 186/198
f 187/199 188/200 189/201
f 178/190 168/180 190/202
f 136/148 177/189 191/203
f 177/189 178/190 192/204
f 132/144 193/205 194/206
f 161/173 191/203 193/205
f 192/204 190/202 188/200
f 191/203 192/204 187/199
f 193/205 187/199 195/207
f 168/180 184/196 196/208
f 184/196 186/198 197/209
f 188/200 198/210 199/211
f 190/202 196/208 198/210
f 196/208 197/209 200/212
f 198/210 200/212 201/213
f 202/214 203/215 204/216
f 205/217 206/218 207/219
f 208/220 209/221 210/222
f 160/172 157/169 211/223
f 5/5 160/172 212/224
f 212/224 211/223 209/221
f 114/126 212/224 208/220
f 105/117 208/220 213/225
f 166/178 133/145 214/226
f 157/169 165/177 215/227
f 165/177 166/178 216/228
f 209/221 217/229 218/230
f 211/223 215/227 217/229
f 214/226 205/217 216/228
f 215/227 216/228 207/219
f 217/229 207/219 219/231
f 220/232 221/233 222/234
f 213/225 210/222 223/235
f 106/118 213/225 224/236
f 224/236 223/235 221/233
f 126/138 224/236 220/232
f 1/1 220/232 225/237
f 219/231 206/218 226/238
f 210/222 218/230 227/239
f 218/230 219/231 228/240
f 221/233 229/241 230/242
f 223/235 227/239 229/241
f 228/240 226/238 203/215
f 227/239 228/240 202/214
f 229/241 202/214 231/243
f 232/244 233/245 234/246
f 195/207 189/201 235/247
f 133/145 194/206 236/248
f 194/206 195/207 237/249
f 205/217 238/250 239/251
f 214/226 236/248 238/250
f 237/249 235/247 233/245
f 236/248 237/249 232/244
f 238/250 232/244 240/252
f 189/201 199/211 241/253
f 199/211 201/213 242/254
f 233/245 243/255 244/256
f 235/247 241/253 243/255
f 241/253 242/254 245/257
f 243/255 245/257 246/258
f 247/259 248/260 249/261
f 240/252 234/246 250/262
f 206/218 239/251 251/263
f 239/251 240/252 252/264
f 203/215 253/265 254/266
f 226/238 251/263 253/265
f 252/264 250/262 248/260
f 251/263 252/264 247/259
f 253/265 247/259 255/267
f 234/246 244/256 256/268
f 244/256 246/258 257/269
f 248/260 258/270 259/271
f 250/262 256/268 258/270
f 256/268 257/269 260/272
f 258/270 260/272 261/273
f 262/274 263/275 55/61
f 264/276 265/277 266/278
f 267/279 268/280 269/281
f 270/282 271/283 272/284
f 273/285 274/286 275/287
f 98/288 95/104 276/289
f 19/19 98/110 277/290
f 277/291 276/289 274/286
f 19/19 277/290 273/292
f 19/19 273/292 278/293
f 104/116 77/83 279/294
f 95/104 103/115 280/295
f 103/115 104/116 281/296
f 274/286 282/297 283/298
f 276/289 280/295 282/297
f 279/294 270/282 281/296
f 280/295 281/296 272/284
f 282/297 272/284 284/299
f 285/300 286/301 287/302
f 278/303 275/287 288/304
f 19/19 278/293 289/305
f 289/306 288/304 286/301
f 19/19 289/305 285/307
f 19/19 285/307 290/308
f 284/299 271/283 291/309
f 275/287 283/298 292/310
f 283/298 284/299 293/311
f 286/301 294/312 295/313
f 288/304 292/310 294/312
f 291/309 267/279 293/311
f 292/310 293/311 269/281
f 294/312 269/281 296/314
f 297/315 298/316 299/317
f 300/318 301/319 302/320
f 125/137 122/134 303/321
f 77/83 125/137 304/322
f 303/321 300/318 304/322
f 279/294 304/322 302/320
f 270/282 302/320 305/323
f 131/143 2/2 306/324
f 122/134 130/142 307/325
f 130/142 131/143 308/326
f 300/318 309/327 310/328
f 303/321 307/325 309/327
f 306/324 297/315 308/326
f 307/325 308/326 299/317
f 309/327 299/317 311/329
f 312/330 313/331 314/332
f 305/323 301/319 315/333
f 271/283 305/323 316/334
f 316/334 315/333 313/331
f 291/309 316/334 312/330
f 267/279 312/330 317/335
f 298/316 318/336 311/329
f 301/319 310/328 319/337
f 310/328 311/329 320/338
f 313/331 321/339 322/340
f 315/333 319/337 321/339
f 318/336 264/276 320/338
f 319/337 320/338 266/278
f 321/339 266/278 323/341
f 324/342 325/343 23/26
f 326/344 327/345 328/346
f 329/347 330/348 331/349
f 290/350 287/302 332/351
f 19/19 290/308 333/352
f 333/353 332/351 330/348
f 19/19 333/352 329/354
f 19/19 329/354 334/355
f 296/314 268/280 335/356
f 287/302 295/313 336/357
f 295/313 296/314 337/358
f 330/348 338/359 339/360
f 332/351 336/357 338/359
f 335/356 326/344 337/358
f 336/357 337/358 328/346
f 338/359 328/346 340/361
f 341/362 342/363 17/17
f 334/364 331/349 343/365
f 19/19 334/355 344/366
f 344/367 343/365 342/363
f 19/19 344/366 341/368
f 19/19 341/368 16/20
f 340/361 327/345 345/369
f 331/349 339/360 346/370
f 339/360 340/361 347/371
f 342/363 348/372 25/28
f 343/365 346/370 348/372
f 347/371 345/369 325/343
f 346/370 347/371 324/342
f 348/372 324/342 22/25
f 349/373 350/374 351/375
f 352/376 353/377 354/378
f 317/335 314/332 355/379
f 268/280 317/335 356/380
f 356/380 355/379 353/377
f 335/356 356/380 352/376
f 326/344 352/376 357/381
f 323/341 265/277 358/382
f 314/332 322/340 359/383
f 322/340 323/341 360/384
f 353/377 361/385 362/386
f 355/379 359/383 361/385
f 358/382 349/373 360/384
f 359/383 360/384 351/375
f 361/385 351/375 363/387
f 364/388 365/389 50/56
f 357/381 354/378 366/390
f 327/345 357/381 367/391
f 367/391 366/390 365/389
f 345/369 367/391 364/388
f 325/343 364/388 49/55
f 363/387 350/374 368/392
f 354/378 362/386 369/393
f 362/386 363/387 370/394
f 365/389 371/395 57/63
f 366/390 369/393 371/395
f 370/394 368/392 263/275
f 369/393 370/394 262/274
f 371/395 262/274 54/60
f 372/396 373/397 374/398
f 375/399 376/400 377/401
f 378/402 379/403 380/404
f 225/237 222/234 381/405
f 2/2 225/237 382/406
f 382/406 381/405 379/403
f 306/324 382/406 378/402
f 297/315 378/402 383/407
f 231/243 204/216 384/408
f 222/234 230/242 385/409
f 230/242 231/243 386/410
f 379/403 387/411 388/412
f 381/405 385/409 387/411
f 384/408 375/399 386/410
f 385/409 386/410 377/401
f 387/411 377/401 389/413
f 390/414 391/415 392/416
f 383/407 380/404 393/417
f 298/316 383/407 394/418
f 394/418 393/417 391/415
f 318/336 394/418 390/414
f 264/276 390/414 395/419
f 389/413 376/400 396/420
f 380/404 388/412 397/421
f 388/412 389/413 398/422
f 391/415 399/423 400/424
f 393/417 397/421 399/423
f 398/422 396/420 373/397
f 397/421 398/422 372/396
f 399/423 372/396 401/425
f 402/426 403/427 404/428
f 255/267 249/261 405/429
f 204/216 254/266 406/430
f 254/266 255/267 407/431
f 375/399 408/432 409/433
f 384/408 406/430 408/432
f 407/431 405/429 403/427
f 406/430 407/431 402/426
f 408/432 402/426 410/434
f 249/261 259/271 411/435
f 259/271 261/273 412/436
f 403/427 413/437 414/438
f 405/429 411/435 413/437
f 411/435 412/436 415/439
f 413/437 415/439 416/440
f 417/441 418/442 419/443
f 410/434 404/428 420/444
f 376/400 409/433 421/445
f 409/433 410/434 422/446
f 373/397 423/447 424/448
f 396/420 421/445 423/447
f 422/446 420/444 418/442
f 421/445 422/446 417/441
f 423/447 417/441 425/449
f 404/428 414/438 426/450
f 414/438 416/440 427/451
f 418/442 428/452 429/453
f 420/444 426/450 428/452
f 426/450 427/451 430/454
f 428/452 430/454 431/455
f 432/456 433/457 147/159
f 434/458 435/459 436/460
f 437/461 438/462 439/463
f 395/419 392/416 440/464
f 265/277 395/419 441/465
f 441/465 440/464 438/462
f 358/382 441/465 437/461
f 349/373 437/461 442/466
f 401/425 374/398 443/467
f 392/416 400/424 444/468
f 400/424 401/425 445/469
f 438/462 446/470 447/471
f 440/464 444/468 446/470
f 443/467 434/458 445/469
f 444/468 445/469 436/460
f 446/470 436/460 448/472
f 449/473 450/474 142/154
f 442/466 439/463 451/475
f 350/374 442/466 452/476
f 452/476 451/475 450/474
f 368/392 452/476 449/473
f 263/275 449/473 141/153
f 448/472 435/459 453/477
f 439/463 447/471 454/478
f 447/471 448/472 455/479
f 450/474 456/480 149/161
f 451/475 454/478 456/480
f 455/479 453/477 433/457
f 454/478 455/479 432/456
f 456/480 432/456 146/158
f 457/481 458/482 459/483
f 425/449 419/443 460/484
f 374/398 424/448 461/485
f 424/448 425/449 462/486
f 434/458 463/487 464/488
f 443/467 461/485 463/487
f 462/486 460/484 458/482
f 461/485 462/486 457/481
f 463/487 457/481 465/489
f 419/443 429/453 466/490
f 429/453 431/455 467/491
f 458/482 468/492 469/493
f 460/484 466/490 468/492
f 466/490 467/491 470/494
f 468/492 470/494 471/495
f 472/496 473/497 171/183
f 465/489 459/483 474/498
f 435/459 464/488 475/499
f 464/488 465/489 476/500
f 433/457 477/501 173/185
f 453/477 475/499 477/501
f 476/500 474/498 473/497
f 475/499 476/500 472/496
f 477/501 472/496 170/182
f 459/483 469/493 478/502
f 469/493 471/495 479/503
f 473/497 480/504 179/191
f 474/498 478/502 480/504
f 478/502 479/503 481/505
f 480/504 481/505 181/193
f 482/506 181/193 481/505
f 482/506 261/273 260/272
f 2/2 131/143 3/3
f 5/5 74/80 6/6
f 8/8 42/48 9/9
f 11/11 30/33 12/12
f 14/14 21/37 15/15
f 18/18 20/22 16/16
f 13/13 15/15 20/22
f 24/27 27/30 22/25
f 26/29 18/18 17/17
f 27/30 26/29 25/28
f 29/32 14/14 13/13
f 28/31 13/13 18/18
f 10/10 12/12 27/30
f 12/12 28/31 26/29
f 30/33 29/32 28/31
f 33/36 36/90 31/34
f 34/38 35/40 21/37
f 32/35 31/34 35/40
f 37/43 39/45 30/33
f 38/44 34/38 14/14
f 39/45 38/44 29/32
f 41/47 33/36 32/35
f 40/46 32/35 34/38
f 7/7 9/9 39/45
f 9/9 40/46 38/44
f 42/48 41/47 40/46
f 44/50 62/68 45/51
f 47/53 53/59 48/54
f 51/57 52/58 49/55
f 52/58 24/27 23/26
f 46/52 48/54 52/58
f 48/54 10/10 24/27
f 53/59 11/11 10/10
f 56/62 59/65 54/60
f 58/64 51/57 50/56
f 59/65 58/64 57/63
f 61/67 47/53 46/52
f 60/66 46/52 51/57
f 43/49 45/51 59/65
f 45/51 60/66 58/64
f 62/68 61/67 60/66
f 65/71 68/74 63/69
f 66/72 67/73 53/59
f 67/73 37/43 11/11
f 64/70 63/69 67/73
f 63/69 7/7 37/43
f 68/74 8/8 7/7
f 69/75 71/77 62/68
f 70/76 66/72 47/53
f 71/77 70/76 61/67
f 73/79 65/71 64/70
f 72/78 64/70 66/72
f 4/4 6/6 71/77
f 6/6 72/78 70/76
f 74/80 73/79 72/78
f 77/83 104/116 75/81
f 79/85 92/101 80/86
f 83/89 86/105 81/87
f 84/91 85/93 36/90
f 82/88 81/87 85/93
f 87/96 89/98 42/48
f 88/97 84/91 33/36
f 89/98 88/97 41/47
f 91/100 83/89 82/88
f 90/99 82/88 84/91
f 78/84 80/86 89/98
f 80/86 90/99 88/97
f 92/101 91/100 90/99
f 95/104 98/288 93/102
f 96/106 97/108 86/105
f 94/103 93/102 97/108
f 99/111 101/113 92/101
f 100/112 96/106 83/89
f 101/113 100/112 91/100
f 103/115 95/104 94/103
f 102/114 94/103 96/106
f 76/82 75/81 101/113
f 75/81 102/114 100/112
f 104/116 103/115 102/114
f 106/118 119/131 107/119
f 110/122 113/125 108/120
f 111/123 112/124 68/74
f 112/124 87/96 8/8
f 109/121 108/120 112/124
f 108/120 78/84 87/96
f 113/125 79/85 78/84
f 114/126 116/128 74/80
f 115/127 111/123 65/71
f 116/128 115/127 73/79
f 118/130 110/122 109/121
f 117/129 109/121 111/123
f 105/117 107/119 116/128
f 107/119 117/129 115/127
f 119/131 118/130 117/129
f 122/134 125/137 120/132
f 123/135 124/136 113/125
f 124/136 99/111 79/85
f 121/133 120/132 124/136
f 120/132 76/82 99/111
f 125/137 77/83 76/82
f 126/138 128/140 119/131
f 127/139 123/135 110/122
f 128/140 127/139 118/130
f 130/142 122/134 121/133
f 129/141 121/133 123/135
f 1/1 3/3 128/140
f 3/3 129/141 127/139
f 131/143 130/142 129/141
f 482/506 201/213 200/212
f 133/145 166/178 134/146
f 136/148 154/166 137/149
f 139/151 145/157 140/152
f 143/155 144/156 141/153
f 144/156 56/62 55/61
f 138/150 140/152 144/156
f 140/152 43/49 56/62
f 145/157 44/50 43/49
f 148/160 151/163 146/158
f 150/162 143/155 142/154
f 151/163 150/162 149/161
f 153/165 139/151 138/150
f 152/164 138/150 143/155
f 135/147 137/149 151/163
f 137/149 152/164 150/162
f 154/166 153/165 152/164
f 157/169 160/172 155/167
f 158/170 159/171 145/157
f 159/171 69/75 44/50
f 156/168 155/167 159/171
f 155/167 4/4 69/75
f 160/172 5/5 4/4
f 161/173 163/175 154/166
f 162/174 158/170 139/151
f 163/175 162/174 153/165
f 165/177 157/169 156/168
f 164/176 156/168 158/170
f 132/144 134/146 163/175
f 134/146 164/176 162/174
f 166/178 165/177 164/176
f 482/506 186/198 185/197
f 168/180 178/190 169/181
f 172/184 175/187 170/182
f 174/186 148/160 147/159
f 175/187 174/186 173/185
f 177/189 136/148 135/147
f 176/188 135/147 148/160
f 167/179 169/181 175/187
f 169/181 176/188 174/186
f 178/190 177/189 176/188
f 482/506 182/194 181/193
f 180/192 172/184 171/183
f 182/194 180/192 179/191
f 184/196 168/180 167/179
f 183/195 167/179 172/184
f 482/506 185/197 182/194
f 185/197 183/195 180/192
f 186/198 184/196 183/195
f 189/201 195/207 187/199
f 190/202 192/204 178/190
f 191/203 161/173 136/148
f 192/204 191/203 177/189
f 194/206 133/145 132/144
f 193/205 132/144 161/173
f 188/200 187/199 192/204
f 187/199 193/205 191/203
f 195/207 194/206 193/205
f 482/506 197/209 186/198
f 196/208 190/202 168/180
f 197/209 196/208 184/196
f 199/211 189/201 188/200
f 198/210 188/200 190/202
f 482/506 200/212 197/209
f 200/212 198/210 196/208
f 201/213 199/211 198/210
f 204/216 231/243 202/214
f 206/218 219/231 207/219
f 210/222 213/225 208/220
f 211/223 212/224 160/172
f 212/224 114/126 5/5
f 209/221 208/220 212/224
f 208/220 105/117 114/126
f 213/225 106/118 105/117
f 214/226 216/228 166/178
f 215/227 211/223 157/169
f 216/228 215/227 165/177
f 218/230 210/222 209/221
f 217/229 209/221 211/223
f 205/217 207/219 216/228
f 207/219 217/229 215/227
f 219/231 218/230 217/229
f 222/234 225/237 220/232
f 223/235 224/236 213/225
f 224/236 126/138 106/118
f 221/233 220/232 224/236
f 220/232 1/1 126/138
f 225/237 2/2 1/1
f 226/238 228/240 219/231
f 227/239 223/235 210/222
f 228/240 227/239 218/230
f 230/242 222/234 221/233
f 229/241 221/233 223/235
f 203/215 202/214 228/240
f 202/214 229/241 227/239
f 231/243 230/242 229/241
f 482/506 246/258 245/257
f 234/246 240/252 232/244
f 235/247 237/249 195/207
f 236/248 214/226 133/145
f 237/249 236/248 194/206
f 239/251 206/218 205/217
f 238/250 205/217 214/226
f 233/245 232/244 237/249
f 232/244 238/250 236/248
f 240/252 239/251 238/250
f 482/506 242/254 201/213
f 241/253 235/247 189/201
f 242/254 241/253 199/211
f 244/256 234/246 233/245
f 243/255 233/245 235/247
f 482/506 245/257 242/254
f 245/257 243/255 241/253
f 246/258 244/256 243/255
f 249/261 255/267 247/259
f 250/262 252/264 240/252
f 251/263 226/238 206/218
f 252/264 251/263 239/251
f 254/266 204/216 203/215
f 253/265 203/215 226/238
f 248/260 247/259 252/264
f 247/259 253/265 251/263
f 255/267 254/266 253/265
f 482/506 257/269 246/258
f 256/268 250/262 234/246
f 257/269 256/268 244/256
f 259/271 249/261 248/260
f 258/270 248/260 250/262
f 482/506 260/272 257/269
f 260/272 258/270 256/268
f 261/273 259/271 258/270
f 55/61 54/60 262/274
f 265/277 323/341 266/278
f 268/280 296/314 269/281
f 271/283 284/299 272/284
f 275/287 278/303 273/285
f 276/289 277/291 98/288
f 274/286 273/285 277/291
f 279/294 281/296 104/116
f 280/295 276/289 95/104
f 281/296 280/295 103/115
f 283/298 275/287 274/286
f 282/297 274/286 276/289
f 270/282 272/284 281/296
f 272/284 282/297 280/295
f 284/299 283/298 282/297
f 287/302 290/350 285/300
f 288/304 289/306 278/303
f 286/301 285/300 289/306
f 291/309 293/311 284/299
f 292/310 288/304 275/287
f 293/311 292/310 283/298
f 295/313 287/302 286/301
f 294/312 286/301 288/304
f 267/279 269/281 293/311
f 269/281 294/312 292/310
f 296/314 295/313 294/312
f 298/316 311/329 299/317
f 301/319 305/323 302/320
f 303/321 304/322 125/137
f 304/322 279/294 77/83
f 300/318 302/320 304/322
f 302/320 270/282 279/294
f 305/323 271/283 270/282
f 306/324 308/326 131/143
f 307/325 303/321 122/134
f 308/326 307/325 130/142
f 310/328 301/319 300/318
f 309/327 300/318 303/321
f 297/315 299/317 308/326
f 299/317 309/327 307/325
f 311/329 310/328 309/327
f 314/332 317/335 312/330
f 315/333 316/334 305/323
f 316/334 291/309 271/283
f 313/331 312/330 316/334
f 312/330 267/279 291/309
f 317/335 268/280 267/279
f 318/336 320/338 311/329
f 319/337 315/333 301/319
f 320/338 319/337 310/328
f 322/340 314/332 313/331
f 321/339 313/331 315/333
f 264/276 266/278 320/338
f 266/278 321/339 319/337
f 323/341 322/340 321/339
f 23/26 22/25 324/342
f 327/345 340/361 328/346
f 331/349 334/364 329/347
f 332/351 333/353 290/350
f 330/348 329/347 333/353
f 335/356 337/358 296/314
f 336/357 332/351 287/302
f 337/358 336/357 295/313
f 339/360 331/349 330/348
f 338/359 330/348 332/351
f 326/344 328/346 337/358
f 328/346 338/359 336/357
f 340/361 339/360 338/359
f 17/17 16/16 341/362
f 343/365 344/367 334/364
f 342/363 341/362 344/367
f 345/369 347/371 340/361
f 346/370 343/365 331/349
f 347/371 346/370 339/360
f 25/28 17/17 342/363
f 348/372 342/363 343/365
f 325/343 324/342 347/371
f 324/342 348/372 346/370
f 22/25 25/28 348/372
f 350/374 363/387 351/375
f 354/378 357/381 352/376
f 355/379 356/380 317/335
f 356/380 335/356 268/280
f 353/377 352/376 356/380
f 352/376 326/344 335/356
f 357/381 327/345 326/344
f 358/382 360/384 323/341
f 359/383 355/379 314/332
f 360/384 359/383 322/340
f 362/386 354/378 353/377
f 361/385 353/377 355/379
f 349/373 351/375 360/384
f 351/375 361/385 359/383
f 363/387 362/386 361/385
f 50/56 49/55 364/388
f 366/390 367/391 357/381
f 367/391 345/369 327/345
f 365/389 364/388 367/391
f 364/388 325/343 345/369
f 49/55 23/26 325/343
f 368/392 370/394 363/387
f 369/393 366/390 354/378
f 370/394 369/393 362/386
f 57/63 50/56 365/389
f 371/395 365/389 366/390
f 263/275 262/274 370/394
f 262/274 371/395 369/393
f 54/60 57/63 371/395
f 482/506 431/455 430/454
f 374/398 401/425 372/396
f 376/400 389/413 377/401
f 380/404 383/407 378/402
f 381/405 382/406 225/237
f 382/406 306/324 2/2
f 379/403 378/402 382/406
f 378/402 297/315 306/324
f 383/407 298/316 297/315
f 384/408 386/410 231/243
f 385/409 381/405 222/234
f 386/410 385/409 230/242
f 388/412 380/404 379/403
f 387/411 379/403 381/405
f 375/399 377/401 386/410
f 377/401 387/411 385/409
f 389/413 388/412 387/411
f 392/416 395/419 390/414
f 393/417 394/418 383/407
f 394/418 318/336 298/316
f 391/415 390/414 394/418
f 390/414 264/276 318/336
f 395/419 265/277 264/276
f 396/420 398/422 389/413
f 397/421 393/417 380/404
f 398/422 397/421 388/412
f 400/424 392/416 391/415
f 399/423 391/415 393/417
f 373/397 372/396 398/422
f 372/396 399/423 397/421
f 401/425 400/424 399/423
f 482/506 416/440 415/439
f 404/428 410/434 402/426
f 405/429 407/431 255/267
f 406/430 384/408 204/216
f 407/431 406/430 254/266
f 409/433 376/400 375/399
f 408/432 375/399 384/408
f 403/427 402/426 407/431
f 402/426 408/432 406/430
f 410/434 409/433 408/432
f 482/506 412/436 261/273
f 411/435 405/429 249/261
f 412/436 411/435 259/271
f 414/438 404/428 403/427
f 413/437 403/427 405/429
f 482/506 415/439 412/436
f 415/439 413/437 411/435
f 416/440 414/438 413/437
f 419/443 425/449 417/441
f 420/444 422/446 410/434
f 421/445 396/420 376/400
f 422/446 421/445 409/433
f 424/448 374/398 373/397
f 423/447 373/397 396/420
f 418/442 417/441 422/446
f 417/441 423/447 421/445
f 425/449 424/448 423/447
f 482/506 427/451 416/440
f 426/450 420/444 404/428
f 427/451 426/450 414/438
f 429/453 419/443 418/442
f 428/452 418/442 420/444
f 482/506 430/454 427/451
f 430/454 428/452 426/450
f 431/455 429/453 428/452
f 147/159 146/158 432/456
f 435/459 448/472 436/460
f 439/463 442/466 437/461
f 440/464 441/465 395/419
f 441/465 358/382 265/277
f 438/462 437/461 441/465
f 437/461 349/373 358/382
f 442/466 350/374 349/373
f 443/467 445/469 401/425
f 444/468 440/464 392/416
f 445/469 444/468 400/424
f 447/471 439/463 438/462
f 446/470 438/462 440/464
f 434/458 436/460 445/469
f 436/460 446/470 444/468
f 448/472 447/471 446/470
f 142/154 141/153 449/473
f 451/475 452/476 442/466
f 452/476 368/392 350/374
f 450/474 449/473 452/476
f 449/473 263/275 368/392
f 141/153 55/61 263/275
f 453/477 455/479 448/472
f 454/478 451/475 439/463
f 455/479 454/478 447/471
f 149/161 142/154 450/474
f 456/480 450/474 451/475
f 433/457 432/456 455/479
f 432/456 456/480 454/478
f 146/158 149/161 456/480
f 482/506 471/495 470/494
f 459/483 465/489 457/481
f 460/484 462/486 425/449
f 461/485 443/467 374/398
f 462/486 461/485 424/448
f 464/488 435/459 434/458
f 463/487 434/458 443/467
f 458/482 457/481 462/486
f 457/481 463/487 461/485
f 465/489 464/488 463/487
f 482/506 467/491 431/455
f 466/490 460/484 419/443
f 467/491 466/490 429/453
f 469/493 459/483 458/482
f 468/492 458/482 460/484
f 482/506 470/494 467/491
f 470/494 468/492 466/490
f 471/495 469/493 468/492
f 171/183 170/182 472/496
f 474/498 476/500 465/489
f 475/499 453/477 435/459
f 476/500 475/499 464/488
f 173/185 147/159 433/457
f 477/501 433/457 453/477
f 473/497 472/496 476/500
f 472/496 477/501 475/499
f 170/182 173/185 477/501
f 482/506 479/503 471/495
f 478/502 474/498 459/483
f 479/503 478/502 469/493
f 179/191 171/183 473/497
f 480/504 473/497 474/498
f 482/506 481/505 479/503
f 481/505 480/504 478/502
f 181/193 179/191 480/504
f 483/507 484/508 485/509
f 486/510 487/511 488/512
f 489/513 486/514 490/515
f 488/512 483/507 490/516
f 489/513 490/515 485/517
f 489/513 485/517 491/518
f 487/511 492/519 493/520
f 492/519 494/521 495/522
f 483/507 496/523 497/524
f 488/512 493/520 496/523
f 493/520 495/522 498/525
f 496/523 498/525 499/526
f 500/527 501/528 502/529
f 491/530 484/508 503/531
f 489/513 491/518 504/532
f 504/533 503/531 501/528
f 489/513 504/532 500/534
f 489/513 500/534 505/535
f 484/508 497/524 506/536
f 497/524 499/526 507/537
f 501/528 508/538 509/539
f 503/531 506/536 508/538
f 506/536 507/537 510/540
f 508/538 510/540 511/541
f 512/542 513/543 514/544
f 505/545 502/529 515/546
f 489/513 505/535 516/547
f 516/548 515/546 513/543
f 489/513 516/547 512/549
f 489/513 512/549 517/550
f 502/529 509/539 518/551
f 509/539 511/541 519/552
f 513/543 520/553 521/554
f 515/546 518/551 520/553
f 518/551 519/552 522/555
f 520/553 522/555 523/556
f 524/557 525/558 526/559
f 517/560 514/544 527/561
f 489/513 517/550 528/562
f 528/563 527/561 525/558
f 489/513 528/562 524/564
f 489/513 524/564 529/565
f 514/544 521/554 530/566
f 521/554 523/556 531/567
f 525/558 532/568 533/569
f 527/561 530/566 532/568
f 530/566 531/567 534/570
f 532/568 534/570 535/571
f 536/572 537/573 538/574
f 529/575 526/559 539/576
f 489/513 529/565 540/577
f 540/578 539/576 537/573
f 489/513 540/577 536/579
f 489/513 536/579 541/580
f 526/559 533/569 542/581
f 533/569 535/571 543/582
f 537/573 544/583 545/584
f 539/576 542/581 544/583
f 542/581 543/582 546/585
f 544/583 546/585 547/586
f 548/587 549/588 550/589
f 541/590 538/574 551/591
f 489/513 541/580 552/592
f 552/593 551/591 549/588
f 489/513 552/592 548/594
f 489/513 548/594 553/595
f 538/574 545/584 554/596
f 545/584 547/586 555/597
f 549/588 556/598 557/599
f 551/591 554/596 556/598
f 554/596 555/597 558/600
f 556/598 558/600 559/601
f 560/602 561/603 562/604
f 553/605 550/589 563/606
f 489/513 553/595 564/607
f 564/608 563/606 561/603
f 489/513 564/607 560/609
f 489/513 560/609 565/610
f 550/589 557/599 566/611
f 557/599 559/601 567/612
f 561/603 568/613 569/614
f 563/606 566/611 568/613
f 566/611 567/612 570/615
f 568/613 570/615 571/616
f 572/617 573/618 487/511
f 565/619 562/604 574/620
f 489/513 565/610 575/621
f 575/622 574/620 573/618
f 489/513 575/621 572/623
f 489/513 572/623 486/514
f 562/604 569/614 576/624
f 569/614 571/616 577/625
f 573/618 578/626 492/519
f 574/620 576/624 578/626
f 576/624 577/625 579/627
f 578/626 579/627 494/521
f 580/628 494/521 579/627
f 580/628 535/571 534/570
f 580/628 511/541 510/540
f 580/628 499/526 498/525
f 484/508 491/530 485/509
f 488/512 490/516 486/510
f 483/507 485/509 490/516
f 580/628 495/522 494/521
f 493/520 488/512 487/511
f 495/522 493/520 492/519
f 497/524 484/508 483/507
f 496/523 483/507 488/512
f 580/628 498/525 495/522
f 498/525 496/523 493/520
f 499/526 497/524 496/523
f 502/529 505/545 500/527
f 503/531 504/533 491/530
f 501/528 500/527 504/533
f 580/628 507/537 499/526
f 506/536 503/531 484/508
f 507/537 506/536 497/524
f 509/539 502/529 501/528
f 508/538 501/528 503/531
f 580/628 510/540 507/537
f 510/540 508/538 506/536
f 511/541 509/539 508/538
f 580/628 523/556 522/555
f 514/544 517/560 512/542
f 515/546 516/548 505/545
f 513/543 512/542 516/548
f 580/628 519/552 511/541
f 518/551 515/546 502/529
f 519/552 518/551 509/539
f 521/554 514/544 513/543
f 520/553 513/543 515/546
f 580/628 522/555 519/552
f 522/555 520/553 518/551
f 523/556 521/554 520/553
f 526/559 529/575 524/557
f 527/561 528/563 517/560
f 525/558 524/557 528/563
f 580/628 531/567 523/556
f 530/566 527/561 514/544
f 531/567 530/566 521/554
f 533/569 526/559 525/558
f 532/568 525/558 527/561
f 580/628 534/570 531/567
f 534/570 532/568 530/566
f 535/571 533/569 532/568
f 580/628 559/601 558/600
f 580/628 547/586 546/585
f 538/574 541/590 536/572
f 539/576 540/578 529/575
f 537/573 536/572 540/578
f 580/628 543/582 535/571
f 542/581 539/576 526/559
f 543/582 542/581 533/569
f 545/584 538/574 537/573
f 544/583 537/573 539/576
f 580/628 546/585 543/582
f 546/585 544/583 542/581
f 547/586 545/584 544/583
f 550/589 553/605 548/587
f 551/591 552/593 541/590
f 549/588 548/587 552/593
f 580/628 555/597 547/586
f 554/596 551/591 538/574
f 555/597 554/596 545/584
f 557/599 550/589 549/588
f 556/598 549/588 551/591
f 580/628 558/600 555/597
f 558/600 556/598 554/596
f 559/601 557/599 556/598
f 580/628 571/616 570/615
f 562/604 565/619 560/602
f 563/606 564/608 553/605
f 561/603 560/602 564/608
f 580/628 567/612 559/601
f 566/611 563/606 550/589
f 567/612 566/611 557/599
f 569/614 562/604 561/603
f 568/613 561/603 563/606
f 580/628 570/615 567/612
f 570/615 568/613 566/611
f 571/616 569/614 568/613
f 487/511 486/510 572/617
f 574/620 575/622 565/619
f 573/618 572/617 575/622
f 580/628 577/625 571/616
f 576/624 574/620 562/604
f 577/625 576/624 569/614
f 492/519 487/511 573/618
f 578/626 573/618 574/620
f 580/628 579/627 577/625
f 579/627 578/626 576/624
f 494/521 492/519 578/626
