# Blender v2.79 (sub 0) OBJ File: 'm3.blend'
# www.blender.org
o Studio_2_Background_Plane.061
v 13.998505 -37.639008 -80.354927
v -48.254017 -37.639008 -30.109295
v 13.998501 42.360992 -80.354935
v -48.254021 42.360992 -30.109299
vn 0.6281 0.0000 0.7782
s off
f 1//1 4//1 2//1
f 1//1 3//1 4//1
