# Blender v2.82 (sub 7) OBJ File: 'spheres_and_prism_simple.blend'
# www.blender.org
o Plane_Plane.009
v -0.461756 0.972912 -0.311655
v -0.462660 0.972912 -0.309540
v -0.459434 0.975349 -0.309412
v -0.462911 0.972912 -0.311357
v -0.461300 0.974129 -0.311293
v -0.462411 0.974077 -0.311007
v -0.462083 0.974129 -0.309460
v -0.463242 0.972912 -0.310580
v -0.462644 0.974077 -0.310461
v -0.460448 0.975023 -0.310470
v -0.460899 0.975023 -0.309414
v -0.461811 0.974707 -0.310428
v 0.144473 0.975349 0.444248
v 0.143895 0.972912 0.447424
v 0.146156 0.972912 0.447003
v 0.144156 0.975023 0.445678
v 0.145285 0.975023 0.445468
v 0.144946 0.974707 0.446789
v 0.144784 0.972912 0.448220
v 0.143943 0.974129 0.446844
v 0.144797 0.974077 0.447610
v 0.145902 0.974129 0.446479
v 0.145614 0.972912 0.448065
v 0.145381 0.974077 0.447501
v -0.461756 0.002910 -0.311655
v -0.459434 0.000473 -0.309412
v -0.462660 0.002910 -0.309540
v -0.461300 0.001693 -0.311293
v -0.462911 0.002910 -0.311357
v -0.462411 0.001744 -0.311007
v -0.460899 0.000798 -0.309414
v -0.460448 0.000798 -0.310470
v -0.461811 0.001115 -0.310428
v -0.463242 0.002910 -0.310580
v -0.462083 0.001693 -0.309461
v -0.462644 0.001744 -0.310461
v 0.146156 0.002910 0.447003
v 0.143895 0.002910 0.447424
v 0.144473 0.000473 0.444248
v 0.145614 0.002910 0.448065
v 0.145902 0.001693 0.446479
v 0.145381 0.001744 0.447501
v 0.143943 0.001693 0.446844
v 0.144784 0.002910 0.448219
v 0.144797 0.001744 0.447610
v 0.145285 0.000798 0.445468
v 0.144156 0.000798 0.445678
v 0.144947 0.001115 0.446789
v 0.410456 0.972912 -0.385937
v 0.408766 0.972912 -0.388047
v 0.407765 0.975349 -0.385513
v 0.410548 0.972912 -0.387107
v 0.410049 0.974129 -0.385842
v 0.410135 0.974077 -0.386964
v 0.408584 0.974129 -0.387670
v 0.409928 0.972912 -0.387882
v 0.409698 0.974077 -0.387509
v 0.409061 0.975023 -0.385686
v 0.408216 0.975023 -0.386739
v 0.409439 0.974707 -0.386854
v 0.410456 0.002910 -0.385937
v 0.407765 0.000473 -0.385513
v 0.408766 0.002910 -0.388047
v 0.410049 0.001693 -0.385842
v 0.410548 0.002910 -0.387107
v 0.410135 0.001744 -0.386964
v 0.408216 0.000798 -0.386739
v 0.409061 0.000798 -0.385686
v 0.409439 0.001115 -0.386854
v 0.409928 0.002910 -0.387882
v 0.408584 0.001693 -0.387670
v 0.409698 0.001744 -0.387509
vt 0.003005 0.000000
vt 0.993662 0.000000
vt 0.003005 0.000000
vt 0.002500 0.997500
vt 0.997500 0.002500
vt 0.002500 0.002500
vt 0.997227 0.997500
vt 0.002774 0.002500
vt 0.997227 0.002500
vt 0.003005 1.000000
vt 0.003005 1.000000
vt 0.993662 1.000000
vt 0.000000 0.002500
vt 0.000000 0.001304
vt 0.000000 0.001252
vt 0.000000 0.002500
vt 0.001773 0.001304
vt 0.001293 0.002500
vt 0.002934 0.001252
vt 0.001501 0.000000
vt 0.001597 0.000000
vt 0.002845 0.000000
vt 0.995384 0.000000
vt 0.995247 0.000000
vt 0.997066 0.001252
vt 0.996833 0.000000
vt 0.998227 0.001304
vt 0.998565 0.002500
vt 0.998707 0.002500
vt 0.998033 0.001304
vt 0.996746 0.001252
vt 0.000000 0.997500
vt 0.000000 0.998696
vt 0.000000 0.997500
vt 0.000000 0.998748
vt 0.001501 1.000000
vt 0.002845 1.000000
vt 0.001597 1.000000
vt 0.002934 0.998748
vt 0.001773 0.998696
vt 0.001293 0.997500
vt 0.998033 0.998695
vt 0.996746 0.998748
vt 0.998565 0.997500
vt 0.998227 0.998696
vt 0.997500 0.997500
vt 0.998707 0.997500
vt 0.997066 0.998748
vt 0.996833 1.000000
vt 0.995247 1.000000
vt 0.995384 1.000000
vt 0.001770 0.001304
vt 0.003017 0.001252
vt 0.000000 0.002500
vt 0.001473 0.002500
vt 0.000000 0.002500
vt 0.000000 0.001304
vt 0.000000 0.001252
vt 0.001537 0.000000
vt 0.002931 0.000000
vt 0.001547 0.000000
vt 0.002774 0.997500
vt 0.001770 0.998696
vt 0.001473 0.997500
vt 0.003017 0.998748
vt 0.001537 1.000000
vt 0.001547 1.000000
vt 0.002931 1.000000
vt 0.000000 0.998748
vt 0.000000 0.997500
vt 0.000000 0.998696
vt 0.000000 0.997500
vn 0.0000 1.0000 0.0000
vn -0.7804 -0.0000 0.6253
vn 0.9532 0.0000 0.3024
vn 0.0000 -1.0000 -0.0000
vn -0.2481 0.3604 -0.8992
vn -0.8184 0.4560 -0.3498
vn -0.8108 0.3695 0.4540
vn -0.5844 0.7583 0.2888
vn -0.2160 0.9720 -0.0923
vn -0.1952 0.7583 -0.6220
vn -0.5779 0.7778 -0.2471
vn 0.0430 0.9720 0.2308
vn -0.4092 0.7583 0.5075
vn -0.6106 0.3604 0.7052
vn 0.1629 0.4560 0.8749
vn 0.8275 0.3695 0.4228
vn 0.5645 0.7583 0.3260
vn 0.1150 0.7778 0.6178
vn -0.2323 -0.3695 -0.8997
vn -0.1952 -0.7583 -0.6220
vn -0.2160 -0.9720 -0.0923
vn -0.5844 -0.7583 0.2888
vn -0.8213 -0.3604 0.4422
vn -0.8184 -0.4560 -0.3497
vn -0.5779 -0.7778 -0.2470
vn 0.8235 -0.3604 0.4381
vn 0.1629 -0.4560 0.8750
vn -0.6198 -0.3695 0.6923
vn -0.4093 -0.7583 0.5074
vn 0.0430 -0.9720 0.2309
vn 0.5645 -0.7583 0.3261
vn 0.1150 -0.7778 0.6179
vn 0.9479 0.3131 0.0584
vn 0.7357 0.3336 -0.5895
vn 0.1331 0.3255 -0.9361
vn 0.1293 0.7398 -0.6603
vn 0.2179 0.9602 -0.1746
vn 0.6727 0.7398 0.0176
vn 0.5600 0.6964 -0.4487
vn 0.9427 -0.3254 0.0741
vn 0.6726 -0.7398 0.0177
vn 0.2179 -0.9602 -0.1746
vn 0.1293 -0.7398 -0.6603
vn 0.1496 -0.3131 -0.9379
vn 0.7357 -0.3336 -0.5895
vn 0.5599 -0.6965 -0.4487
vn -0.8726 -0.0000 0.4885
vn -0.9196 0.0000 -0.3929
vn -0.2500 0.0000 -0.9682
vn -0.7413 0.3126 0.5940
vn -0.5518 0.7071 0.4422
vn -0.2140 0.9617 0.1714
vn -0.6669 -0.0000 0.7451
vn 0.1830 -0.0000 0.9831
vn 0.8905 0.0000 0.4550
vn -0.7413 -0.3126 0.5940
vn -0.5518 -0.7071 0.4422
vn -0.2139 -0.9617 0.1714
vn 0.1408 0.0000 -0.9900
vn 0.7804 0.0000 -0.6253
vn 0.9969 -0.0000 0.0784
vn -0.0830 -0.3126 -0.9463
vn -0.0618 -0.7071 -0.7044
vn -0.0240 -0.9617 -0.2731
vn -0.0839 0.2836 -0.9553
vn -0.0618 0.7071 -0.7044
vn -0.0232 0.9641 -0.2644
vn 0.9054 0.3126 0.2873
vn 0.6740 0.7071 0.2139
vn 0.2613 0.9617 0.0829
vn 0.2613 -0.9617 0.0829
vn 0.6740 -0.7071 0.2139
vn 0.9054 -0.3126 0.2873
vn -0.0874 0.0000 -0.9962
vn -0.2323 0.3695 -0.8997
vn -0.8184 0.4560 -0.3497
vn -0.8213 0.3604 0.4422
vn -0.5844 0.7583 0.2889
vn -0.2278 0.9688 -0.0973
vn 0.0454 0.9688 0.2436
vn -0.4093 0.7583 0.5074
vn -0.6197 0.3695 0.6924
vn 0.1629 0.4560 0.8750
vn 0.8235 0.3604 0.4381
vn 0.5645 0.7583 0.3261
vn -0.2481 -0.3604 -0.8992
vn -0.2278 -0.9688 -0.0974
vn -0.8108 -0.3695 0.4539
vn -0.8184 -0.4559 -0.3498
vn 0.8275 -0.3695 0.4228
vn 0.1630 -0.4560 0.8749
vn -0.6106 -0.3604 0.7052
vn 0.0454 -0.9688 0.2436
vn 0.5645 -0.7583 0.3260
vn 0.9426 0.3255 0.0741
vn 0.7356 0.3336 -0.5895
vn 0.1496 0.3131 -0.9379
vn 0.1293 0.7397 -0.6604
vn 0.2298 0.9556 -0.1842
vn 0.6726 0.7398 0.0176
vn 0.9479 -0.3131 0.0584
vn 0.2299 -0.9556 -0.1842
vn 0.1331 -0.3254 -0.9361
vn 0.7356 -0.3335 -0.5896
vn -0.9196 -0.0000 -0.3930
vn -0.7413 0.3126 0.5939
vn -0.2140 0.9617 0.1715
vn 0.1831 -0.0000 0.9831
vn -0.0839 -0.2836 -0.9553
vn -0.0232 -0.9641 -0.2644
vn -0.0830 0.3126 -0.9463
vn -0.0240 0.9617 -0.2731
vn 0.9140 0.2836 0.2901
vn 0.2530 0.9641 0.0803
vn 0.2530 -0.9641 0.0803
vn 0.9140 -0.2835 0.2901
s off
f 3/1/1 13/2/1 51/3/1
f 27/4/2 14/5/2 2/6/2
f 37/7/3 49/8/3 15/9/3
f 26/10/4 62/11/4 39/12/4
f 1/13/5 6/14/5 5/15/5
f 4/16/6 9/17/6 6/14/6
f 2/6/7 9/17/7 8/18/7
f 7/19/8 12/20/8 9/17/8
f 10/21/9 11/22/9 3/1/9
f 5/15/10 12/20/10 10/21/10
f 6/14/11 9/17/11 12/20/11
f 16/23/12 17/24/12 13/2/12
f 20/25/13 18/26/13 16/23/13
f 14/5/14 21/27/14 20/25/14
f 23/28/15 21/27/15 19/29/15
f 15/9/16 24/30/16 23/28/16
f 22/31/17 18/26/17 24/30/17
f 18/26/18 21/27/18 24/30/18
f 25/32/19 30/33/19 29/34/19
f 28/35/20 33/36/20 30/33/20
f 31/37/21 32/38/21 26/10/21
f 35/39/22 33/36/22 31/37/22
f 27/4/23 36/40/23 35/39/23
f 29/34/24 36/40/24 34/41/24
f 30/33/25 33/36/25 36/40/25
f 37/7/26 42/42/26 41/43/26
f 40/44/27 45/45/27 42/42/27
f 38/46/28 45/45/28 44/47/28
f 43/48/29 48/49/29 45/45/29
f 46/50/30 47/51/30 39/12/30
f 41/43/31 48/49/31 46/50/31
f 42/42/32 45/45/32 48/49/32
f 49/8/33 54/52/33 53/53/33
f 56/54/34 54/52/34 52/55/34
f 50/56/35 57/57/35 56/54/35
f 55/58/36 60/59/36 57/57/36
f 58/60/37 59/61/37 51/3/37
f 53/53/38 60/59/38 58/60/38
f 54/52/39 57/57/39 60/59/39
f 61/62/40 66/63/40 65/64/40
f 64/65/41 69/66/41 66/63/41
f 67/67/42 68/68/42 62/11/42
f 71/69/43 69/66/43 67/67/43
f 63/70/44 72/71/44 71/69/44
f 65/64/45 72/71/45 70/72/45
f 66/63/46 69/66/46 72/71/46
f 2/6/47 34/41/47 27/4/47
f 8/18/48 29/34/48 34/41/48
f 4/16/49 25/32/49 29/34/49
f 14/5/50 7/19/50 2/6/50
f 20/25/51 11/22/51 7/19/51
f 16/23/52 3/1/52 11/22/52
f 38/46/53 19/29/53 14/5/53
f 44/47/54 23/28/54 19/29/54
f 40/44/55 15/9/55 23/28/55
f 27/4/56 43/48/56 38/46/56
f 35/39/57 47/51/57 43/48/57
f 31/37/58 39/12/58 47/51/58
f 50/56/59 70/72/59 63/70/59
f 56/54/60 65/64/60 70/72/60
f 52/55/61 61/62/61 65/64/61
f 63/70/62 28/35/62 25/32/62
f 71/69/63 32/38/63 28/35/63
f 67/67/64 26/10/64 32/38/64
f 50/56/65 5/15/65 55/58/65
f 55/58/66 10/21/66 59/61/66
f 59/61/67 3/1/67 51/3/67
f 49/8/68 22/31/68 15/9/68
f 53/53/69 17/24/69 22/31/69
f 58/60/70 13/2/70 17/24/70
f 39/12/71 68/68/71 46/50/71
f 46/50/72 64/65/72 41/43/72
f 41/43/73 61/62/73 37/7/73
f 50/56/74 25/32/74 1/13/74
f 27/4/2 38/46/2 14/5/2
f 37/7/3 61/62/3 49/8/3
f 1/13/75 4/16/75 6/14/75
f 4/16/76 8/18/76 9/17/76
f 2/6/77 7/19/77 9/17/77
f 7/19/78 11/22/78 12/20/78
f 10/21/79 12/20/79 11/22/79
f 5/15/10 6/14/10 12/20/10
f 16/23/80 18/26/80 17/24/80
f 20/25/81 21/27/81 18/26/81
f 14/5/82 19/29/82 21/27/82
f 23/28/83 24/30/83 21/27/83
f 15/9/84 22/31/84 24/30/84
f 22/31/85 17/24/85 18/26/85
f 25/32/86 28/35/86 30/33/86
f 28/35/20 32/38/20 33/36/20
f 31/37/87 33/36/87 32/38/87
f 35/39/22 36/40/22 33/36/22
f 27/4/88 34/41/88 36/40/88
f 29/34/89 30/33/89 36/40/89
f 37/7/90 40/44/90 42/42/90
f 40/44/91 44/47/91 45/45/91
f 38/46/92 43/48/92 45/45/92
f 43/48/29 47/51/29 48/49/29
f 46/50/93 48/49/93 47/51/93
f 41/43/94 42/42/94 48/49/94
f 49/8/95 52/55/95 54/52/95
f 56/54/96 57/57/96 54/52/96
f 50/56/97 55/58/97 57/57/97
f 55/58/98 59/61/98 60/59/98
f 58/60/99 60/59/99 59/61/99
f 53/53/100 54/52/100 60/59/100
f 61/62/101 64/65/101 66/63/101
f 64/65/41 68/68/41 69/66/41
f 67/67/102 69/66/102 68/68/102
f 71/69/43 72/71/43 69/66/43
f 63/70/103 70/72/103 72/71/103
f 65/64/104 66/63/104 72/71/104
f 2/6/47 8/18/47 34/41/47
f 8/18/105 4/16/105 29/34/105
f 4/16/49 1/13/49 25/32/49
f 14/5/106 20/25/106 7/19/106
f 20/25/51 16/23/51 11/22/51
f 16/23/107 13/2/107 3/1/107
f 38/46/53 44/47/53 19/29/53
f 44/47/108 40/44/108 23/28/108
f 40/44/55 37/7/55 15/9/55
f 27/4/56 35/39/56 43/48/56
f 35/39/57 31/37/57 47/51/57
f 31/37/58 26/10/58 39/12/58
f 50/56/59 56/54/59 70/72/59
f 56/54/60 52/55/60 65/64/60
f 52/55/61 49/8/61 61/62/61
f 63/70/109 71/69/109 28/35/109
f 71/69/63 67/67/63 32/38/63
f 67/67/110 62/11/110 26/10/110
f 50/56/111 1/13/111 5/15/111
f 55/58/66 5/15/66 10/21/66
f 59/61/112 10/21/112 3/1/112
f 49/8/113 53/53/113 22/31/113
f 53/53/69 58/60/69 17/24/69
f 58/60/114 51/3/114 13/2/114
f 39/12/115 62/11/115 68/68/115
f 46/50/72 68/68/72 64/65/72
f 41/43/116 64/65/116 61/62/116
f 50/56/74 63/70/74 25/32/74
