# Blender v2.79 (sub 0) OBJ File: 'luxrender_prism.blend'
# www.blender.org
o Plane.001
v -2.260901 -0.140675 1.143258
v 1.979967 -0.140675 1.143258
v -2.260901 -0.140675 -1.092179
v 1.979967 -0.140675 -1.092179
v -2.260901 0.048643 1.143258
v 1.979967 0.048643 1.143258
v -2.260901 0.048643 -1.092179
v 1.979967 0.048643 -1.092179
v -2.430901 -0.310675 1.313258
v 2.149966 -0.310675 1.313258
v -2.430901 -0.310675 -1.262179
v 2.149966 -0.310675 -1.262179
v -2.430901 0.048643 1.313258
v 2.149966 0.048643 1.313258
v -2.430901 0.048643 -1.262179
v 2.149966 0.048643 -1.262179
vt 2.085274 -0.409522
vt -1.116496 1.397921
vt -1.116496 -0.409522
vt -1.116496 1.397921
vt 2.085274 -0.409522
vt -1.116496 -0.409522
vt 2.085274 1.397921
vt 2.085274 1.397921
vt 2.085274 -0.409522
vt -1.116496 1.397921
vt 2.085274 1.397921
vt -1.116496 -0.409522
vt 2.085274 -0.409522
vt -1.116496 1.397921
vt 2.085274 1.397921
vt -1.116496 -0.409522
vn 0.0000 1.0000 0.0000
vn 0.0000 -1.0000 0.0000
vn -1.0000 0.0000 0.0000
vn 1.0000 0.0000 0.0000
vn 0.0000 0.0000 1.0000
vn 0.0000 0.0000 -1.0000
s off
f 2/1/1 3/2/1 1/3/1
f 11/4/2 10/5/2 9/6/2
f 2/1/1 4/7/1 3/2/1
f 11/4/2 12/8/2 10/5/2
f 6/9/3 4/7/3 2/1/3
f 7/10/4 1/3/4 3/2/4
f 8/11/5 3/2/5 4/7/5
f 5/12/6 2/1/6 1/3/6
f 12/8/4 14/13/4 10/5/4
f 9/6/3 15/14/3 11/4/3
f 11/4/6 16/15/6 12/8/6
f 10/5/5 13/16/5 9/6/5
f 7/10/1 13/16/1 5/12/1
f 5/12/1 14/13/1 6/9/1
f 6/9/1 16/15/1 8/11/1
f 8/11/1 15/14/1 7/10/1
f 6/9/3 8/11/3 4/7/3
f 7/10/4 5/12/4 1/3/4
f 8/11/5 7/10/5 3/2/5
f 5/12/6 6/9/6 2/1/6
f 12/8/4 16/15/4 14/13/4
f 9/6/3 13/16/3 15/14/3
f 11/4/6 15/14/6 16/15/6
f 10/5/5 14/13/5 13/16/5
f 7/10/1 15/14/1 13/16/1
f 5/12/1 13/16/1 14/13/1
f 6/9/1 14/13/1 16/15/1
f 8/11/1 16/15/1 15/14/1
