# Blender v2.79 (sub 0) OBJ File: 'ring.blend'
# www.blender.org
o Plane.003
v 10.000000 20.000000 9.999999
v 10.000000 0.000000 10.000000
v -10.000000 20.000000 10.000000
v -10.000000 0.000000 10.000001
vn 0.0000 -0.0000 -1.0000
s off
f 2//1 3//1 1//1
f 2//1 4//1 3//1
