# Blender v2.79 (sub 0) OBJ File: 'm3_interior.blend'
# www.blender.org
o back_wall_Plane.033
v 14.999999 -1.464137 -15.000001
v 15.000001 18.035862 -15.000001
v -15.000001 -1.464135 -14.999999
v -14.999999 18.035866 -14.999999
vt 0.999900 0.000100
vt 0.000100 0.999900
vt 0.000100 0.000100
vt 0.999900 0.999900
vn 0.0000 -0.0000 1.0000
s off
f 2/1/1 3/2/1 1/3/1
f 2/1/1 4/4/1 3/2/1
