# Blender v2.79 (sub 0) OBJ File: 'm3_interior.blend'
# www.blender.org
o floor_Plane.001
v -15.000000 -1.479500 15.000000
v 15.000000 -1.479500 15.000000
v -15.000000 -1.479500 -15.000000
v 15.000000 -1.479500 -15.000000
vt 0.999900 0.000100
vt 0.000100 0.999900
vt 0.000100 0.000100
vt 0.999900 0.999900
vn 0.0000 1.0000 0.0000
s off
f 2/1/1 3/2/1 1/3/1
f 2/1/1 4/4/1 3/2/1
