# Blender v2.79 (sub 0) OBJ File: 'm3_interior.blend'
# www.blender.org
o Headrest_RR_Cube.008
v -0.816694 0.492438 -2.568016
v -0.780790 0.496073 -2.564450
v -0.817518 0.495738 -2.551688
v -0.858797 0.491264 -2.570622
v -0.816419 0.491708 -2.587493
v -0.779692 0.495473 -2.584850
v -0.784086 0.499060 -2.548404
v -0.858797 0.494681 -2.554733
v -0.858797 0.490476 -2.589260
v -0.816694 0.495057 -2.667593
v -0.780790 0.498763 -2.666735
v -0.816419 0.493055 -2.638707
v -0.858797 0.493823 -2.667924
v -0.817518 0.499478 -2.693930
v -0.784086 0.502818 -2.691309
v -0.779692 0.496874 -2.638098
v -0.858797 0.491786 -2.639087
v -0.858797 0.498365 -2.694804
v -0.991306 0.492438 -2.568016
v -0.949203 0.491264 -2.570622
v -0.990482 0.495738 -2.551688
v -1.027210 0.496073 -2.564450
v -0.991581 0.491708 -2.587493
v -0.949203 0.490476 -2.589260
v -0.949203 0.494681 -2.554733
v -1.023914 0.499060 -2.548404
v -1.028308 0.495473 -2.584850
v -0.991306 0.495057 -2.667593
v -0.949203 0.493823 -2.667924
v -0.991581 0.493055 -2.638707
v -1.027210 0.498763 -2.666735
v -0.990482 0.499478 -2.693930
v -0.949203 0.498365 -2.694804
v -0.949203 0.491786 -2.639087
v -1.028308 0.496874 -2.638098
v -1.023914 0.502818 -2.691309
v -0.961263 0.849043 -2.678767
v -0.961166 0.847790 -2.690108
v -0.985049 0.847879 -2.676266
v -0.961166 0.847076 -2.664979
v -0.933601 0.848875 -2.679682
v -0.933747 0.847679 -2.691025
v -0.983927 0.846582 -2.687397
v -0.983927 0.846126 -2.662752
v -0.933747 0.846779 -2.666003
v -0.846737 0.849043 -2.678767
v -0.846834 0.847790 -2.690107
v -0.874399 0.848875 -2.679682
v -0.846834 0.847076 -2.664979
v -0.822951 0.847879 -2.676266
v -0.824073 0.846582 -2.687397
v -0.874253 0.847679 -2.691025
v -0.874253 0.846779 -2.666003
v -0.824073 0.846126 -2.662752
v -0.728760 0.535072 -2.665925
v -0.737000 0.536156 -2.692966
v -0.726013 0.554920 -2.665470
v -0.726013 0.534139 -2.635162
v -0.737000 0.518556 -2.665891
v -0.744534 0.520704 -2.690839
v -0.734488 0.555652 -2.693298
v -0.723188 0.554094 -2.634062
v -0.734488 0.517280 -2.636266
v -0.726686 0.624515 -2.662990
v -0.735136 0.625249 -2.691050
v -0.728705 0.650409 -2.660846
v -0.723850 0.623636 -2.631092
v -0.726013 0.600104 -2.664131
v -0.734488 0.600839 -2.692109
v -0.737080 0.651135 -2.689116
v -0.725837 0.649410 -2.628945
v -0.723188 0.599266 -2.632270
v -0.728760 0.531982 -2.548391
v -0.726013 0.532533 -2.574096
v -0.726013 0.551706 -2.543233
v -0.737000 0.531822 -2.528158
v -0.737000 0.515620 -2.554228
v -0.734489 0.515743 -2.577845
v -0.723188 0.552428 -2.570697
v -0.734489 0.551125 -2.521171
v -0.744534 0.516639 -2.536292
v -0.726506 0.620699 -2.536518
v -0.723735 0.621593 -2.565537
v -0.727986 0.645186 -2.536796
v -0.734993 0.620199 -2.512939
v -0.726013 0.596766 -2.537221
v -0.723188 0.597536 -2.566494
v -0.725376 0.646442 -2.564625
v -0.736504 0.645079 -2.514518
v -0.734489 0.596138 -2.513351
v -0.816694 0.531012 -2.511523
v -0.780790 0.531359 -2.510556
v -0.816419 0.550608 -2.501507
v -0.858797 0.530970 -2.514636
v -0.817518 0.514816 -2.523691
v -0.784086 0.516265 -2.522053
v -0.779692 0.550596 -2.501030
v -0.858797 0.550687 -2.504502
v -0.858797 0.514404 -2.526896
v -0.816747 0.619906 -2.490989
v -0.780138 0.619891 -2.490844
v -0.817729 0.645704 -2.494982
v -0.858970 0.619959 -2.493897
v -0.816419 0.595546 -2.490823
v -0.779692 0.595545 -2.490798
v -0.781477 0.645644 -2.494368
v -0.859488 0.645694 -2.498114
v -0.858797 0.595621 -2.493667
v -0.991306 0.531012 -2.511523
v -0.949203 0.530970 -2.514636
v -0.991581 0.550608 -2.501507
v -1.027210 0.531359 -2.510556
v -0.990482 0.514816 -2.523691
v -0.949203 0.514404 -2.526896
v -0.949203 0.550687 -2.504502
v -1.028308 0.550596 -2.501030
v -1.023914 0.516265 -2.522053
v -0.991253 0.619906 -2.490989
v -0.949030 0.619959 -2.493897
v -0.990271 0.645704 -2.494982
v -1.027862 0.619891 -2.490844
v -0.991581 0.595546 -2.490823
v -0.949203 0.595621 -2.493667
v -0.948512 0.645694 -2.498114
v -1.026523 0.645644 -2.494368
v -1.028308 0.595545 -2.490798
v -1.079240 0.531982 -2.548391
v -1.071000 0.531822 -2.528158
v -1.081987 0.551706 -2.543233
v -1.081987 0.532533 -2.574096
v -1.071000 0.515620 -2.554228
v -1.063466 0.516639 -2.536292
v -1.073511 0.551125 -2.521171
v -1.084812 0.552428 -2.570697
v -1.073511 0.515743 -2.577845
v -1.081494 0.620699 -2.536518
v -1.073008 0.620199 -2.512939
v -1.080014 0.645186 -2.536796
v -1.084265 0.621593 -2.565537
v -1.081987 0.596766 -2.537221
v -1.073511 0.596138 -2.513351
v -1.071496 0.645079 -2.514518
v -1.082624 0.646442 -2.564625
v -1.084812 0.597536 -2.566494
v -1.079240 0.535072 -2.665925
v -1.081987 0.534139 -2.635162
v -1.081987 0.554920 -2.665470
v -1.071000 0.536156 -2.692966
v -1.071000 0.518556 -2.665891
v -1.073511 0.517280 -2.636267
v -1.084812 0.554094 -2.634062
v -1.073511 0.555652 -2.693298
v -1.063466 0.520704 -2.690839
v -1.081314 0.624515 -2.662990
v -1.084150 0.623636 -2.631092
v -1.079294 0.650409 -2.660846
v -1.072863 0.625249 -2.691050
v -1.081987 0.600104 -2.664131
v -1.084812 0.599266 -2.632270
v -1.082163 0.649410 -2.628945
v -1.070920 0.651135 -2.689116
v -1.073511 0.600839 -2.692109
v -0.816754 0.626295 -2.732440
v -0.780167 0.626130 -2.725905
v -0.816419 0.601924 -2.733334
v -0.858970 0.626350 -2.734618
v -0.817758 0.652069 -2.731003
v -0.781592 0.651921 -2.724389
v -0.779692 0.601752 -2.726825
v -0.858797 0.601981 -2.735504
v -0.859488 0.652118 -2.733207
v -0.816694 0.536835 -2.732935
v -0.780790 0.537041 -2.726597
v -0.817518 0.520164 -2.727041
v -0.858797 0.536766 -2.735048
v -0.816419 0.556736 -2.734523
v -0.779692 0.556565 -2.728013
v -0.784086 0.521502 -2.721215
v -0.858797 0.519718 -2.728982
v -0.858797 0.556793 -2.736692
v -0.991246 0.626295 -2.732440
v -0.949030 0.626350 -2.734618
v -0.991581 0.601924 -2.733334
v -1.027833 0.626130 -2.725905
v -0.990242 0.652069 -2.731003
v -0.948512 0.652118 -2.733207
v -0.949203 0.601981 -2.735504
v -1.028308 0.601752 -2.726825
v -1.026408 0.651921 -2.724389
v -0.991306 0.536835 -2.732935
v -0.949203 0.536766 -2.735048
v -0.990482 0.520164 -2.727041
v -1.027210 0.537041 -2.726597
v -0.991581 0.556736 -2.734523
v -0.949203 0.556793 -2.736692
v -0.949203 0.519718 -2.728982
v -1.023914 0.521502 -2.721215
v -1.028308 0.556565 -2.728013
v -0.748038 0.737160 -2.645430
v -0.755497 0.737776 -2.675640
v -0.757573 0.765470 -2.640677
v -0.745463 0.735184 -2.612839
v -0.739475 0.707451 -2.651489
v -0.747447 0.708139 -2.680935
v -0.764097 0.765927 -2.671376
v -0.756654 0.763467 -2.606970
v -0.736434 0.705808 -2.619403
v -0.781669 0.826638 -2.654530
v -0.785640 0.826322 -2.675363
v -0.790940 0.837522 -2.663710
v -0.785134 0.826017 -2.633518
v -0.774184 0.811038 -2.645513
v -0.778861 0.811045 -2.671437
v -0.794196 0.836734 -2.679518
v -0.794196 0.836641 -2.647193
v -0.776838 0.809966 -2.617955
v -0.742300 0.712733 -2.541824
v -0.742525 0.721969 -2.556594
v -0.750093 0.721090 -2.532218
v -0.735876 0.694679 -2.538630
v -0.734131 0.697887 -2.560778
v -0.754576 0.741817 -2.549954
v -0.744567 0.696657 -2.522621
v -0.826967 0.731449 -2.530377
v -0.793872 0.731197 -2.526417
v -0.831096 0.759509 -2.548782
v -0.864399 0.730784 -2.535200
v -0.822970 0.702146 -2.514900
v -0.788619 0.701849 -2.511957
v -0.798921 0.759743 -2.545146
v -0.866692 0.758416 -2.553571
v -0.862253 0.701794 -2.519176
v -0.842081 0.821606 -2.611197
v -0.816186 0.823255 -2.611261
v -0.844709 0.833617 -2.630896
v -0.872028 0.820005 -2.613312
v -0.838839 0.805340 -2.590239
v -0.810209 0.806886 -2.589341
v -0.821434 0.834366 -2.630359
v -0.873080 0.832488 -2.632430
v -0.870630 0.803654 -2.593410
v -0.981033 0.731449 -2.530377
v -0.943601 0.730784 -2.535200
v -0.976904 0.759509 -2.548782
v -1.014128 0.731197 -2.526417
v -0.985030 0.702146 -2.514900
v -0.945747 0.701794 -2.519176
v -0.941308 0.758416 -2.553571
v -1.009080 0.759743 -2.545146
v -1.019381 0.701849 -2.511957
v -0.965919 0.821606 -2.611197
v -0.935972 0.820005 -2.613312
v -0.963292 0.833617 -2.630896
v -0.991814 0.823255 -2.611261
v -0.969161 0.805340 -2.590239
v -0.937370 0.803654 -2.593410
v -0.934920 0.832488 -2.632430
v -0.986566 0.834366 -2.630359
v -0.997791 0.806886 -2.589341
v -1.065700 0.712733 -2.541824
v -1.057907 0.721090 -2.532219
v -1.065475 0.721969 -2.556594
v -1.072124 0.694679 -2.538630
v -1.063433 0.696657 -2.522621
v -1.053424 0.741817 -2.549954
v -1.073869 0.697887 -2.560778
v -1.059962 0.737160 -2.645430
v -1.062537 0.735184 -2.612839
v -1.050427 0.765470 -2.640678
v -1.052503 0.737776 -2.675640
v -1.068525 0.707451 -2.651489
v -1.071566 0.705808 -2.619403
v -1.051346 0.763467 -2.606971
v -1.043903 0.765927 -2.671376
v -1.060553 0.708139 -2.680935
v -1.026331 0.826638 -2.654530
v -1.022866 0.826017 -2.633518
v -1.017060 0.837522 -2.663710
v -1.022360 0.826322 -2.675363
v -1.033816 0.811038 -2.645513
v -1.031162 0.809966 -2.617955
v -1.013804 0.836641 -2.647193
v -1.013804 0.836734 -2.679518
v -1.029139 0.811045 -2.671437
v -0.842207 0.824821 -2.708363
v -0.816692 0.825187 -2.703108
v -0.839345 0.809548 -2.711207
v -0.872028 0.824425 -2.710121
v -0.844708 0.835918 -2.704539
v -0.821434 0.835654 -2.700436
v -0.812232 0.810000 -2.704922
v -0.870630 0.809226 -2.713307
v -0.873080 0.835630 -2.705916
v -0.827273 0.737643 -2.721589
v -0.795098 0.737675 -2.714334
v -0.823114 0.708473 -2.725468
v -0.864399 0.737624 -2.724008
v -0.831717 0.765294 -2.717602
v -0.801404 0.765437 -2.710302
v -0.789194 0.708420 -2.718437
v -0.862252 0.708490 -2.727812
v -0.866692 0.765212 -2.720037
v -0.965792 0.824821 -2.708363
v -0.935972 0.824425 -2.710121
v -0.968655 0.809548 -2.711207
v -0.991308 0.825187 -2.703108
v -0.963291 0.835918 -2.704539
v -0.934920 0.835630 -2.705916
v -0.937370 0.809226 -2.713307
v -0.995768 0.810000 -2.704922
v -0.986566 0.835654 -2.700436
v -0.980726 0.737643 -2.721589
v -0.943601 0.737624 -2.724008
v -0.984886 0.708473 -2.725468
v -1.012902 0.737675 -2.714334
v -0.976283 0.765294 -2.717602
v -0.941307 0.765212 -2.720037
v -0.945747 0.708490 -2.727812
v -1.018806 0.708420 -2.718437
v -1.006596 0.765437 -2.710302
v -0.786284 0.505452 -2.534882
v -0.818067 0.502799 -2.537313
v -0.858797 0.501978 -2.540516
v -1.021716 0.505452 -2.534882
v -0.989933 0.502799 -2.537313
v -0.949203 0.501978 -2.540516
v -0.759444 0.509516 -2.689445
v -0.753441 0.506182 -2.665963
v -0.751440 0.504523 -2.637278
v -0.759444 0.505683 -2.543674
v -0.753441 0.503392 -2.559872
v -0.751440 0.503057 -2.581559
v -0.786284 0.510059 -2.710057
v -0.818067 0.507465 -2.714739
v -0.858797 0.506601 -2.716300
v -1.021716 0.510059 -2.710057
v -0.989933 0.507465 -2.714739
v -0.949203 0.506601 -2.716300
v -1.048556 0.505683 -2.543674
v -1.054559 0.503392 -2.559872
v -1.056560 0.503057 -2.581559
v -1.048556 0.509516 -2.689445
v -1.054559 0.506182 -2.665964
v -1.056560 0.504523 -2.637278
v -0.806388 0.843186 -2.683623
v -0.804024 0.844375 -2.671480
v -0.806388 0.842968 -2.657449
v -1.001612 0.843186 -2.683623
v -1.003976 0.844375 -2.671480
v -1.001612 0.842968 -2.657449
v -0.824536 0.842439 -2.695626
v -0.846400 0.843391 -2.698774
v -0.873813 0.843245 -2.699835
v -0.983464 0.842439 -2.695626
v -0.961600 0.843391 -2.698774
v -0.934187 0.843245 -2.699835
v -0.904000 0.494720 -2.556195
v -0.904000 0.491292 -2.571686
v -0.904000 0.490493 -2.589925
v -0.779692 0.496120 -2.609451
v -0.816419 0.492321 -2.610823
v -0.858797 0.491067 -2.611723
v -0.904000 0.498365 -2.694804
v -0.904000 0.493824 -2.667957
v -0.904000 0.491790 -2.639220
v -1.028308 0.496120 -2.609451
v -0.991581 0.492321 -2.610823
v -0.949203 0.491067 -2.611723
v -0.983464 0.841548 -2.647301
v -0.961600 0.841923 -2.648952
v -0.934187 0.841335 -2.650187
v -0.904000 0.847294 -2.691035
v -0.904000 0.848458 -2.679742
v -0.904000 0.846318 -2.666215
v -0.824536 0.841548 -2.647301
v -0.846400 0.841923 -2.648952
v -0.873813 0.841335 -2.650187
v -0.740968 0.678698 -2.685886
v -0.732744 0.677987 -2.657184
v -0.729811 0.676747 -2.625244
v -0.739528 0.670619 -2.517830
v -0.730944 0.669941 -2.537639
v -0.728659 0.671926 -2.563218
v -0.784155 0.672923 -2.501397
v -0.819695 0.673073 -2.502914
v -0.860525 0.672935 -2.506485
v -1.023845 0.672923 -2.501397
v -0.988305 0.673073 -2.502914
v -0.947475 0.672935 -2.506485
v -1.068472 0.670619 -2.517831
v -1.077056 0.669941 -2.537639
v -1.079341 0.671926 -2.563218
v -1.067032 0.678698 -2.685886
v -1.075256 0.677987 -2.657184
v -1.078189 0.676747 -2.625244
v -0.784443 0.679295 -2.721994
v -0.819767 0.679407 -2.728765
v -0.860525 0.679445 -2.731021
v -1.023557 0.679295 -2.721994
v -0.988233 0.679407 -2.728765
v -0.947475 0.679445 -2.731021
v -0.759444 0.517341 -2.525185
v -0.753441 0.531725 -2.515010
v -0.751440 0.550738 -2.506456
v -0.753484 0.645455 -2.499729
v -0.751951 0.619970 -2.496986
v -0.751440 0.595712 -2.497128
v -0.759444 0.522195 -2.709738
v -0.753441 0.536957 -2.713964
v -0.751440 0.556223 -2.714995
v -0.753772 0.651626 -2.711162
v -0.752023 0.625799 -2.712834
v -0.751440 0.601410 -2.713807
v -1.048556 0.517341 -2.525185
v -1.054559 0.531725 -2.515010
v -1.056560 0.550738 -2.506456
v -1.054516 0.645455 -2.499729
v -1.056049 0.619970 -2.496986
v -1.056560 0.595712 -2.497128
v -1.048556 0.522195 -2.709738
v -1.054559 0.536957 -2.713964
v -1.056560 0.556223 -2.714995
v -1.054228 0.651626 -2.711162
v -1.055977 0.625799 -2.712834
v -1.056560 0.601410 -2.713807
v -0.734488 0.516475 -2.605680
v -0.726013 0.533309 -2.603583
v -0.723188 0.553241 -2.601621
v -0.725664 0.648100 -2.596007
v -0.723807 0.622650 -2.597795
v -0.723188 0.598389 -2.598925
v -0.904000 0.514456 -2.528890
v -0.904000 0.531025 -2.516730
v -0.904000 0.550743 -2.506629
v -0.904000 0.645671 -2.500309
v -0.904000 0.619996 -2.496041
v -0.904000 0.595677 -2.495794
v -1.073511 0.516475 -2.605680
v -1.081987 0.533309 -2.603583
v -1.084812 0.553241 -2.601621
v -1.082336 0.648100 -2.596007
v -1.084193 0.622650 -2.597795
v -1.084812 0.598389 -2.598925
v -0.904000 0.519718 -2.728982
v -0.904000 0.536766 -2.735048
v -0.904000 0.556793 -2.736692
v -0.904000 0.652118 -2.733207
v -0.904000 0.626350 -2.734618
v -0.904000 0.601981 -2.735504
v -0.734488 0.577707 -2.692718
v -0.726013 0.576973 -2.664786
v -0.723188 0.576139 -2.633065
v -0.734489 0.573060 -2.516009
v -0.726013 0.573673 -2.539320
v -0.723188 0.574428 -2.568034
v -0.779692 0.572487 -2.494202
v -0.816419 0.572491 -2.494366
v -0.858797 0.572567 -2.497257
v -1.028308 0.572487 -2.494202
v -0.991581 0.572491 -2.494366
v -0.949203 0.572567 -2.497257
v -1.073511 0.573060 -2.516009
v -1.081987 0.573673 -2.539320
v -1.084812 0.574428 -2.568034
v -1.073511 0.577707 -2.692718
v -1.081987 0.576973 -2.664786
v -1.084812 0.576139 -2.633065
v -0.779692 0.578620 -2.727433
v -0.816419 0.578791 -2.733943
v -0.858797 0.578849 -2.736112
v -1.028308 0.578620 -2.727433
v -0.991581 0.578791 -2.733943
v -0.949203 0.578849 -2.736112
v -0.804262 0.835653 -2.692475
v -0.797247 0.825646 -2.692671
v -0.791375 0.810520 -2.692362
v -0.763102 0.708315 -2.704374
v -0.770347 0.737719 -2.699824
v -0.778087 0.765647 -2.695704
v -1.003738 0.835653 -2.692475
v -1.010753 0.825646 -2.692671
v -1.016625 0.810520 -2.692362
v -1.044898 0.708315 -2.704374
v -1.037653 0.737719 -2.699824
v -1.029913 0.765647 -2.695704
v -0.804262 0.835215 -2.634549
v -0.796489 0.824781 -2.617402
v -0.788341 0.808394 -2.596614
v -0.735570 0.702767 -2.588043
v -0.744662 0.730553 -2.581887
v -0.757076 0.756667 -2.575110
v -0.904000 0.701456 -2.521646
v -0.904000 0.730222 -2.537827
v -0.904000 0.757655 -2.556255
v -1.003738 0.835215 -2.634549
v -1.011511 0.824781 -2.617402
v -1.019659 0.808394 -2.596614
v -1.072430 0.702767 -2.588043
v -1.063338 0.730553 -2.581887
v -1.050924 0.756667 -2.575111
v -0.904000 0.835347 -2.705923
v -0.904000 0.824220 -2.710127
v -0.904000 0.809097 -2.713310
v -0.904000 0.708490 -2.727812
v -0.904000 0.737617 -2.724008
v -0.904000 0.765186 -2.720037
v -0.772225 0.790911 -2.669516
v -0.766735 0.790668 -2.639837
v -0.767836 0.788960 -2.606956
v -1.035775 0.790911 -2.669516
v -1.041265 0.790668 -2.639837
v -1.040164 0.788960 -2.606956
v -0.807365 0.790086 -2.706959
v -0.835916 0.789803 -2.713983
v -0.868860 0.789623 -2.716327
v -1.000635 0.790086 -2.706959
v -0.972084 0.789803 -2.713983
v -0.939140 0.789623 -2.716327
v -0.939140 0.783202 -2.573304
v -0.972871 0.784686 -2.569081
v -1.003785 0.785602 -2.566627
v -1.046337 0.700240 -2.513485
v -1.040536 0.728314 -2.526103
v -1.035398 0.755164 -2.544818
v -0.804215 0.785602 -2.566627
v -0.835129 0.784686 -2.569081
v -0.868860 0.783202 -2.573304
v -0.761663 0.700240 -2.513485
v -0.767464 0.728314 -2.526103
v -0.772602 0.755164 -2.544818
v -0.904000 0.831829 -2.633446
v -0.904000 0.819217 -2.614914
v -0.904000 0.802776 -2.595564
v -0.767554 0.513562 -2.703733
v -0.767554 0.509104 -2.534246
v -1.040446 0.509104 -2.534246
v -1.040446 0.513562 -2.703733
v -0.811226 0.840683 -2.691060
v -0.996774 0.840683 -2.691060
v -0.904000 0.502025 -2.542311
v -0.751440 0.503745 -2.607704
v -0.904000 0.506601 -2.716300
v -1.056560 0.503745 -2.607704
v -0.811226 0.840199 -2.646321
v -0.996774 0.840199 -2.646321
v -0.904000 0.842899 -2.699844
v -0.756551 0.672200 -2.505260
v -0.757271 0.679071 -2.708453
v -1.051449 0.672200 -2.505261
v -1.050729 0.679071 -2.708453
v -0.904000 0.491075 -2.612055
v -0.904000 0.840800 -2.650700
v -0.729379 0.674790 -2.592957
v -0.904000 0.672794 -2.508784
v -1.078621 0.674790 -2.592957
v -0.904000 0.679445 -2.731021
v -0.751440 0.572646 -2.500253
v -0.751440 0.578278 -2.714415
v -1.056560 0.572646 -2.500253
v -1.056560 0.578278 -2.714415
v -0.723188 0.575269 -2.600000
v -0.904000 0.572623 -2.499384
v -1.084812 0.575269 -2.600000
v -0.904000 0.578849 -2.736112
v -0.785403 0.790460 -2.692916
v -1.022597 0.790460 -2.692916
v -0.775969 0.783296 -2.571757
v -0.904000 0.782318 -2.575857
v -1.032031 0.783296 -2.571757
v -0.904000 0.789559 -2.716328
vn 0.0542 -0.9914 0.1187
vn 0.1813 -0.9834 0.0061
vn 0.1659 -0.9785 0.1227
vn 0.4382 -0.8988 0.0143
vn 0.4086 -0.8997 0.1533
vn 0.0650 -0.9979 0.0060
vn 0.1834 -0.9827 -0.0258
vn 0.4399 -0.8977 -0.0236
vn 0.0302 -0.9461 0.3223
vn 0.1236 -0.9385 0.3224
vn -0.0009 -0.8314 0.5557
vn 0.1865 -0.8262 0.5315
vn 0.0782 -0.8361 0.5429
vn -0.0057 -0.9424 0.3342
vn 0.0082 -0.9920 0.1256
vn 0.0000 -0.9401 0.3409
vn 0.0000 -0.9916 0.1289
vn -0.0248 -0.8226 0.5680
vn 0.0000 -0.8185 0.5744
vn 0.0140 -0.9998 0.0078
vn 0.0670 -0.9974 -0.0262
vn 0.0000 -0.9999 0.0084
vn 0.0150 -0.9995 -0.0263
vn 0.0686 -0.9904 -0.1196
vn 0.1952 -0.9397 -0.2806
vn 0.1876 -0.9737 -0.1295
vn 0.4127 -0.8470 -0.3350
vn 0.4399 -0.8845 -0.1550
vn 0.0752 -0.9608 -0.2666
vn 0.2257 -0.8154 -0.5331
vn 0.3574 -0.7912 -0.4962
vn 0.0673 -0.9966 -0.0479
vn 0.1846 -0.9816 -0.0489
vn 0.4427 -0.8951 -0.0528
vn 0.0151 -0.9987 -0.0483
vn 0.0150 -0.9928 -0.1187
vn 0.0000 -0.9988 -0.0485
vn 0.0000 -0.9929 -0.1188
vn 0.0000 -0.9996 -0.0263
vn 0.0159 -0.9644 -0.2640
vn 0.0900 -0.8301 -0.5503
vn 0.0000 -0.9646 -0.2636
vn 0.0192 -0.8334 -0.5523
vn -0.0650 -0.9979 0.0060
vn -0.0082 -0.9920 0.1256
vn -0.0542 -0.9914 0.1187
vn -0.0140 -0.9998 0.0078
vn -0.0670 -0.9974 -0.0262
vn -0.0150 -0.9995 -0.0263
vn 0.0057 -0.9424 0.3342
vn -0.0302 -0.9461 0.3223
vn 0.0248 -0.8226 0.5680
vn 0.0009 -0.8314 0.5557
vn -0.1659 -0.9785 0.1227
vn -0.1236 -0.9385 0.3224
vn -0.4086 -0.8997 0.1533
vn -0.1865 -0.8262 0.5315
vn -0.3104 -0.8757 0.3699
vn -0.1813 -0.9834 0.0061
vn -0.1834 -0.9827 -0.0258
vn -0.4382 -0.8988 0.0143
vn -0.4399 -0.8977 -0.0236
vn -0.0752 -0.9608 -0.2666
vn -0.0150 -0.9928 -0.1187
vn -0.0686 -0.9904 -0.1196
vn -0.0159 -0.9644 -0.2640
vn -0.0900 -0.8301 -0.5503
vn 0.0000 -0.8342 -0.5514
vn -0.0151 -0.9987 -0.0483
vn -0.0673 -0.9966 -0.0479
vn -0.1876 -0.9737 -0.1295
vn -0.1846 -0.9816 -0.0489
vn -0.4399 -0.8845 -0.1550
vn -0.4427 -0.8951 -0.0528
vn -0.1952 -0.9397 -0.2806
vn -0.2257 -0.8154 -0.5331
vn -0.4127 -0.8470 -0.3350
vn -0.3574 -0.7912 -0.4962
vn 0.0103 0.9997 0.0224
vn -0.0447 0.9566 -0.2879
vn -0.0210 0.9997 0.0128
vn 0.0029 0.9590 -0.2834
vn -0.0700 0.7722 -0.6315
vn 0.0000 0.9601 -0.2797
vn 0.0000 0.7780 -0.6282
vn -0.0059 0.7758 -0.6309
vn -0.1614 0.9416 -0.2954
vn -0.1198 0.9928 -0.0023
vn -0.3842 0.8640 -0.3253
vn -0.3423 0.9394 -0.0194
vn -0.1995 0.7642 -0.6133
vn -0.3273 0.7525 -0.5714
vn 0.0010 0.9746 0.2237
vn -0.0660 0.9762 0.2063
vn 0.0246 0.9311 0.3639
vn -0.2222 0.9528 0.2069
vn -0.0256 0.9404 0.3392
vn 0.0180 0.9709 0.2389
vn 0.0000 0.9693 0.2459
vn 0.0000 0.9996 0.0269
vn 0.0295 0.9218 0.3864
vn 0.0000 0.9176 0.3974
vn 0.0210 0.9997 0.0128
vn 0.1614 0.9416 -0.2954
vn 0.0447 0.9566 -0.2879
vn 0.1995 0.7642 -0.6133
vn 0.0700 0.7722 -0.6315
vn 0.1198 0.9928 -0.0023
vn 0.3843 0.8640 -0.3252
vn 0.3273 0.7525 -0.5714
vn -0.0103 0.9997 0.0224
vn -0.0029 0.9590 -0.2834
vn -0.0180 0.9709 0.2389
vn -0.0010 0.9746 0.2237
vn -0.0295 0.9218 0.3864
vn -0.0246 0.9311 0.3639
vn 0.0660 0.9762 0.2063
vn 0.3423 0.9394 -0.0194
vn 0.0256 0.9404 0.3392
vn 0.2222 0.9528 0.2069
vn 0.9378 -0.2875 -0.1944
vn 0.6873 -0.6037 -0.4038
vn 0.8464 -0.2823 -0.4514
vn 0.4949 -0.5787 -0.6482
vn 0.5982 -0.2640 -0.7566
vn 0.7598 -0.6237 -0.1837
vn 0.9793 -0.0624 -0.1922
vn 0.8875 0.0122 -0.4606
vn 0.9817 0.0057 -0.1904
vn 0.8857 -0.0544 -0.4610
vn 0.6208 0.0206 -0.7836
vn 0.9543 -0.2944 -0.0507
vn 0.9966 -0.0679 -0.0461
vn 0.9545 -0.2982 -0.0078
vn 0.9990 0.0017 -0.0441
vn 0.9975 -0.0702 -0.0018
vn 0.7700 -0.6357 -0.0544
vn 0.7680 -0.6402 -0.0168
vn 0.9816 0.0204 -0.1898
vn 0.8878 0.0705 -0.4548
vn 0.9802 0.0631 -0.1876
vn 0.8877 0.0273 -0.4596
vn 0.6230 0.0692 -0.7791
vn 0.6214 0.0333 -0.7828
vn 0.8862 0.1354 -0.4429
vn 0.9749 0.1274 -0.1824
vn 0.8812 0.2147 -0.4211
vn 0.9631 0.2060 -0.1731
vn 0.6269 0.1237 -0.7692
vn 0.6335 0.1919 -0.7495
vn 0.9975 0.0548 -0.0437
vn 0.9924 0.1147 -0.0433
vn 0.9988 0.0493 -0.0004
vn 0.9810 0.1892 -0.0421
vn 0.9944 0.1057 -0.0022
vn 0.9989 0.0154 -0.0440
vn 0.9999 0.0129 0.0002
vn 1.0000 0.0000 0.0000
vn 0.7170 -0.6691 0.1954
vn 0.9508 -0.3066 0.0443
vn 0.9087 -0.3513 0.2254
vn 0.7639 -0.6446 0.0302
vn 0.9956 -0.0782 0.0504
vn 0.9654 -0.1198 0.2317
vn 0.9987 -0.0054 0.0504
vn 0.9735 -0.0331 0.2260
vn 0.7273 -0.4397 0.5269
vn 0.8010 -0.2180 0.5576
vn 0.3687 -0.5118 0.7759
vn 0.8249 -0.1017 0.5560
vn 0.4227 -0.3230 0.8467
vn 0.5548 -0.7001 0.4494
vn 0.3104 -0.8757 0.3699
vn 0.2748 -0.7129 0.6452
vn 0.9755 -0.0041 0.2198
vn 0.9980 0.0429 0.0470
vn 0.9742 0.0402 0.2222
vn 0.9987 0.0088 0.0486
vn 0.9677 0.0963 0.2330
vn 0.9944 0.0957 0.0450
vn 0.9533 0.1664 0.2518
vn 0.9841 0.1777 -0.0041
vn 0.9853 0.1648 0.0447
vn 0.8099 0.1320 0.5716
vn 0.8310 0.0520 0.5538
vn 0.4399 0.1739 0.8810
vn 0.4640 0.0636 0.8835
vn 0.7758 0.2069 0.5960
vn 0.3815 0.2623 0.8863
vn 0.8354 -0.0302 0.5487
vn 0.4670 -0.0593 0.8823
vn 0.4513 -0.1820 0.8736
vn -0.0390 -0.5287 0.8479
vn 0.0574 -0.6926 0.7190
vn 0.0688 -0.5271 0.8470
vn -0.0266 -0.6790 0.7336
vn -0.0397 -0.3821 0.9232
vn 0.0885 -0.3692 0.9251
vn -0.0366 -0.2304 0.9724
vn 0.1027 -0.2197 0.9701
vn -0.0551 -0.3863 0.9207
vn -0.0507 -0.5276 0.8479
vn 0.0000 -0.3872 0.9220
vn 0.0000 -0.5269 0.8499
vn -0.0567 -0.2343 0.9705
vn 0.0000 -0.2354 0.9719
vn -0.0411 -0.6707 0.7406
vn 0.0000 -0.6677 0.7444
vn -0.0347 -0.0728 0.9967
vn 0.1027 0.0690 0.9923
vn -0.0375 0.0774 0.9963
vn 0.1088 -0.0714 0.9915
vn 0.0826 0.1936 0.9776
vn -0.0469 0.2107 0.9764
vn 0.0472 0.2962 0.9539
vn -0.0644 0.3208 0.9449
vn -0.0588 0.0841 0.9947
vn -0.0623 0.2247 0.9724
vn 0.0000 0.0870 0.9962
vn -0.0696 0.3428 0.9368
vn 0.0000 0.2310 0.9730
vn -0.0575 -0.0727 0.9957
vn 0.0000 -0.0724 0.9974
vn 0.0266 -0.6790 0.7336
vn 0.0507 -0.5276 0.8479
vn 0.0389 -0.5287 0.8479
vn 0.0411 -0.6707 0.7406
vn 0.0551 -0.3863 0.9207
vn 0.0397 -0.3821 0.9232
vn 0.0567 -0.2343 0.9705
vn 0.0366 -0.2304 0.9724
vn -0.0688 -0.5271 0.8470
vn -0.4227 -0.3230 0.8467
vn -0.3687 -0.5118 0.7759
vn -0.0885 -0.3692 0.9251
vn -0.4513 -0.1820 0.8736
vn -0.0574 -0.6926 0.7190
vn -0.0782 -0.8361 0.5429
vn -0.2748 -0.7129 0.6452
vn 0.0375 0.0774 0.9963
vn 0.0575 -0.0727 0.9957
vn 0.0588 0.0841 0.9947
vn 0.0347 -0.0728 0.9967
vn 0.0469 0.2107 0.9764
vn 0.0623 0.2247 0.9724
vn 0.0644 0.3208 0.9449
vn 0.0696 0.3428 0.9368
vn -0.0826 0.1936 0.9776
vn -0.1027 0.0690 0.9923
vn -0.4399 0.1739 0.8810
vn -0.4640 0.0636 0.8835
vn -0.0472 0.2962 0.9539
vn -0.3815 0.2623 0.8863
vn -0.1027 -0.2197 0.9701
vn -0.1088 -0.0714 0.9915
vn -0.4670 -0.0593 0.8823
vn -0.9087 -0.3513 0.2254
vn -0.5548 -0.7001 0.4494
vn -0.7273 -0.4397 0.5269
vn -0.7170 -0.6691 0.1954
vn -0.9654 -0.1198 0.2317
vn -0.8010 -0.2180 0.5576
vn -0.9735 -0.0331 0.2260
vn -0.8249 -0.1017 0.5560
vn -0.9956 -0.0782 0.0503
vn -0.9508 -0.3066 0.0443
vn -0.9975 -0.0702 -0.0018
vn -0.9545 -0.2982 -0.0078
vn -0.9987 -0.0054 0.0504
vn -1.0000 0.0000 0.0000
vn -0.7639 -0.6446 0.0302
vn -0.7680 -0.6402 -0.0168
vn -0.9742 0.0402 0.2222
vn -0.8354 -0.0302 0.5487
vn -0.8310 0.0520 0.5537
vn -0.9755 -0.0042 0.2198
vn -0.8099 0.1320 0.5716
vn -0.9677 0.0963 0.2330
vn -0.7758 0.2069 0.5960
vn -0.9533 0.1664 0.2518
vn -0.9980 0.0429 0.0470
vn -0.9944 0.1057 -0.0022
vn -0.9988 0.0493 -0.0004
vn -0.9944 0.0957 0.0450
vn -0.9841 0.1777 -0.0041
vn -0.9987 0.0088 0.0486
vn -0.9999 0.0129 0.0002
vn -0.9378 -0.2875 -0.1944
vn -0.7700 -0.6357 -0.0544
vn -0.9543 -0.2944 -0.0507
vn -0.7598 -0.6237 -0.1837
vn -0.9793 -0.0624 -0.1922
vn -0.9966 -0.0678 -0.0461
vn -0.9817 0.0057 -0.1904
vn -0.9990 0.0017 -0.0441
vn -0.8464 -0.2823 -0.4514
vn -0.8857 -0.0544 -0.4610
vn -0.5982 -0.2640 -0.7566
vn -0.8875 0.0122 -0.4606
vn -0.6208 0.0206 -0.7836
vn -0.6214 -0.0422 -0.7823
vn -0.6873 -0.6037 -0.4038
vn -0.4949 -0.5788 -0.6482
vn -0.9802 0.0631 -0.1876
vn -0.9989 0.0154 -0.0440
vn -0.9975 0.0548 -0.0437
vn -0.9816 0.0204 -0.1898
vn -0.9749 0.1274 -0.1824
vn -0.9924 0.1147 -0.0433
vn -0.9631 0.2060 -0.1731
vn -0.9810 0.1892 -0.0421
vn -0.8862 0.1354 -0.4429
vn -0.8878 0.0705 -0.4548
vn -0.6269 0.1237 -0.7692
vn -0.6230 0.0692 -0.7791
vn -0.8812 0.2147 -0.4211
vn -0.6335 0.1919 -0.7495
vn -0.8877 0.0273 -0.4596
vn -0.6214 0.0333 -0.7828
vn 0.1149 0.0494 -0.9921
vn 0.3096 0.0957 -0.9460
vn 0.3030 0.0582 -0.9512
vn 0.1181 0.0758 -0.9901
vn 0.3215 0.1439 -0.9359
vn 0.1135 0.0322 -0.9930
vn 0.2991 0.0251 -0.9539
vn 0.1131 0.0261 -0.9932
vn 0.3000 0.0338 -0.9533
vn 0.0257 0.0314 -0.9991
vn 0.0261 0.0460 -0.9986
vn 0.0000 0.0313 -0.9995
vn 0.0000 0.0455 -0.9990
vn 0.0256 0.0263 -0.9993
vn 0.0269 0.0683 -0.9973
vn 0.1239 0.1097 -0.9862
vn 0.0000 0.0672 -0.9977
vn 0.0284 0.0967 -0.9949
vn 0.1128 -0.0273 -0.9932
vn 0.2954 -0.2279 -0.9278
vn 0.1121 -0.2106 -0.9711
vn 0.2998 -0.0304 -0.9535
vn 0.6214 -0.0422 -0.7823
vn 0.2660 -0.5367 -0.8007
vn 0.1053 -0.5248 -0.8447
vn 0.0248 -0.2098 -0.9774
vn 0.0227 -0.5260 -0.8501
vn 0.0000 -0.2103 -0.9776
vn 0.0000 -0.5271 -0.8498
vn 0.0255 -0.0277 -0.9993
vn 0.0000 0.0263 -0.9996
vn -0.1181 0.0758 -0.9901
vn -0.0261 0.0460 -0.9986
vn -0.1149 0.0494 -0.9921
vn -0.0269 0.0683 -0.9973
vn -0.1239 0.1097 -0.9862
vn -0.0284 0.0967 -0.9949
vn -0.0257 0.0314 -0.9991
vn -0.1135 0.0322 -0.9930
vn -0.1131 0.0261 -0.9932
vn -0.0256 0.0263 -0.9993
vn -0.3030 0.0582 -0.9512
vn -0.3000 0.0338 -0.9533
vn -0.3096 0.0957 -0.9460
vn -0.3215 0.1439 -0.9359
vn -0.1128 -0.0273 -0.9932
vn -0.0248 -0.2098 -0.9774
vn -0.1121 -0.2106 -0.9711
vn -0.0255 -0.0277 -0.9993
vn 0.0000 -0.0278 -0.9996
vn -0.1053 -0.5248 -0.8447
vn -0.0192 -0.8334 -0.5523
vn -0.0227 -0.5260 -0.8501
vn -0.2660 -0.5367 -0.8007
vn -0.2954 -0.2279 -0.9278
vn -0.2998 -0.0304 -0.9535
vn -0.2991 0.0251 -0.9539
vn 0.9486 0.2734 -0.1590
vn 0.8780 0.3126 -0.3623
vn 0.9385 0.3170 -0.1364
vn 0.8767 0.2802 -0.3909
vn 0.6657 0.2784 -0.6923
vn 0.6467 0.2495 -0.7208
vn 0.8845 0.3246 -0.3351
vn 0.9316 0.3513 -0.0930
vn 0.9372 0.3459 -0.0446
vn 0.6852 0.2841 -0.6707
vn 0.9008 0.2924 -0.3209
vn 0.9440 0.3297 -0.0100
vn 0.9086 0.4112 0.0726
vn 0.9287 0.3661 0.0587
vn 0.8641 0.4644 0.1940
vn 0.5444 0.6614 0.5159
vn 0.8392 0.5010 0.2115
vn 0.9643 0.2623 -0.0365
vn 0.9653 0.2612 0.0010
vn 0.8354 0.5497 -0.0036
vn 0.8977 0.2919 -0.3300
vn 0.8420 0.4118 -0.3483
vn 0.6853 0.2336 -0.6897
vn 0.6279 0.3275 -0.7060
vn 0.9179 0.3965 -0.0147
vn 0.6994 0.2504 -0.6695
vn 0.6343 0.7729 -0.0136
vn 0.6709 0.6528 -0.3518
vn 0.4951 0.5471 -0.6749
vn 0.4509 0.8598 0.2395
vn 0.6458 0.7141 0.2701
vn 0.1987 0.8990 0.3902
vn 0.3119 0.8243 0.4724
vn 0.1170 0.9409 0.3178
vn 0.7751 0.5734 0.2654
vn 0.4291 0.7432 0.5133
vn 0.8866 0.3702 0.2772
vn 0.9632 0.2617 0.0617
vn 0.9078 0.3955 0.1396
vn 0.9201 0.2731 0.2806
vn 0.7384 0.5624 0.3721
vn 0.6735 0.4811 0.5612
vn 0.2777 0.5319 0.8000
vn 0.3829 0.6391 0.6670
vn 0.7088 0.3298 0.6236
vn 0.2955 0.3837 0.8749
vn -0.0889 0.4129 0.9064
vn -0.0184 0.5022 0.8645
vn -0.1064 0.4969 0.8612
vn 0.0015 0.3935 0.9193
vn 0.0126 0.6067 0.7948
vn -0.1076 0.5774 0.8093
vn 0.0519 0.6888 0.7231
vn -0.0981 0.6619 0.7431
vn -0.0919 0.5117 0.8542
vn -0.0971 0.5817 0.8076
vn 0.0000 0.5230 0.8523
vn -0.0944 0.6571 0.7478
vn 0.0000 0.5901 0.8073
vn -0.0810 0.4363 0.8961
vn 0.0000 0.4486 0.8937
vn 0.0000 0.3530 0.9356
vn -0.0835 0.7440 0.6630
vn 0.0261 0.8323 0.5537
vn -0.0686 0.8155 0.5746
vn 0.0453 0.7661 0.6410
vn 0.0109 0.8926 0.4506
vn -0.0500 0.8790 0.4741
vn -0.0656 0.8033 0.5919
vn -0.0468 0.8664 0.4971
vn 0.0000 0.7981 0.6025
vn 0.0000 0.8603 0.5097
vn -0.0826 0.7334 0.6747
vn 0.0000 0.7314 0.6819
vn 0.0000 0.6604 0.7509
vn 0.1064 0.4969 0.8612
vn 0.0810 0.4363 0.8961
vn 0.0919 0.5117 0.8542
vn 0.0889 0.4129 0.9064
vn 0.1076 0.5774 0.8093
vn 0.0971 0.5817 0.8076
vn 0.0981 0.6619 0.7431
vn 0.0944 0.6571 0.7478
vn -0.0126 0.6067 0.7948
vn 0.0184 0.5022 0.8645
vn -0.3829 0.6391 0.6670
vn -0.2777 0.5319 0.8000
vn -0.0519 0.6888 0.7231
vn -0.5444 0.6614 0.5159
vn -0.0015 0.3935 0.9193
vn -0.2955 0.3837 0.8749
vn 0.0686 0.8155 0.5746
vn 0.0826 0.7334 0.6747
vn 0.0656 0.8033 0.5919
vn 0.0835 0.7440 0.6629
vn 0.0500 0.8790 0.4741
vn 0.0468 0.8664 0.4971
vn -0.0109 0.8926 0.4506
vn -0.0261 0.8323 0.5537
vn -0.3119 0.8243 0.4724
vn -0.1170 0.9409 0.3178
vn -0.1987 0.8990 0.3901
vn -0.0453 0.7661 0.6410
vn -0.4291 0.7432 0.5133
vn -0.8866 0.3702 0.2772
vn -0.7088 0.3298 0.6236
vn -0.6735 0.4811 0.5612
vn -0.9201 0.2731 0.2806
vn -0.7384 0.5624 0.3721
vn -0.9078 0.3955 0.1396
vn -0.9287 0.3661 0.0587
vn -0.8392 0.5010 0.2115
vn -0.9632 0.2617 0.0617
vn -0.9853 0.1649 0.0447
vn -0.9653 0.2612 0.0010
vn -0.9385 0.3170 -0.1364
vn -0.9643 0.2623 -0.0365
vn -0.9440 0.3297 -0.0100
vn -0.9486 0.2734 -0.1590
vn -0.9316 0.3513 -0.0930
vn -0.8641 0.4644 0.1941
vn -0.9372 0.3459 -0.0446
vn -0.9086 0.4112 0.0726
vn -0.8845 0.3246 -0.3351
vn -0.8780 0.3126 -0.3623
vn -0.6852 0.2841 -0.6707
vn -0.6657 0.2784 -0.6923
vn -0.9008 0.2924 -0.3209
vn -0.8767 0.2802 -0.3909
vn -0.6467 0.2495 -0.7208
vn -0.9179 0.3965 -0.0147
vn -0.6458 0.7141 0.2701
vn -0.8354 0.5497 -0.0036
vn -0.7751 0.5734 0.2654
vn -0.4509 0.8598 0.2395
vn -0.6343 0.7729 -0.0136
vn -0.8420 0.4118 -0.3483
vn -0.6709 0.6528 -0.3518
vn -0.6279 0.3275 -0.7060
vn -0.4951 0.5471 -0.6749
vn -0.8977 0.2919 -0.3300
vn -0.6853 0.2336 -0.6897
vn -0.6994 0.2504 -0.6695
vn 0.1201 0.2738 -0.9542
vn 0.2592 0.4948 -0.8294
vn 0.3205 0.2810 -0.9046
vn 0.0967 0.4876 -0.8677
vn 0.1387 0.1808 -0.9737
vn 0.3609 0.1927 -0.9125
vn 0.1496 0.1640 -0.9750
vn 0.3799 0.1955 -0.9041
vn 0.0302 0.1799 -0.9832
vn 0.0239 0.2793 -0.9599
vn 0.0000 0.1792 -0.9838
vn 0.0000 0.2799 -0.9600
vn 0.0338 0.1534 -0.9875
vn 0.0000 0.1515 -0.9884
vn 0.0155 0.4932 -0.8697
vn 0.0000 0.4953 -0.8687
vn 0.0059 0.7758 -0.6309
vn 0.1423 0.1582 -0.9771
vn 0.3761 0.2140 -0.9015
vn 0.3598 0.2082 -0.9095
vn 0.1496 0.1670 -0.9745
vn 0.1326 0.1397 -0.9813
vn 0.3394 0.1853 -0.9222
vn 0.0306 0.1223 -0.9920
vn 0.0328 0.1390 -0.9897
vn 0.0000 0.1197 -0.9928
vn 0.0000 0.1360 -0.9907
vn 0.0000 0.0948 -0.9955
vn 0.0343 0.1493 -0.9882
vn 0.0000 0.1464 -0.9892
vn -0.0967 0.4876 -0.8677
vn -0.0239 0.2793 -0.9599
vn -0.1201 0.2738 -0.9542
vn -0.0155 0.4932 -0.8697
vn -0.0302 0.1799 -0.9832
vn -0.1387 0.1809 -0.9737
vn -0.0338 0.1534 -0.9875
vn -0.1496 0.1640 -0.9750
vn -0.3205 0.2810 -0.9046
vn -0.3609 0.1927 -0.9125
vn -0.3799 0.1956 -0.9041
vn -0.2592 0.4948 -0.8294
vn -0.1496 0.1670 -0.9745
vn -0.0328 0.1390 -0.9897
vn -0.1423 0.1582 -0.9771
vn -0.0343 0.1493 -0.9882
vn -0.0305 0.1223 -0.9920
vn -0.1326 0.1397 -0.9813
vn -0.3598 0.2082 -0.9095
vn -0.3394 0.1853 -0.9222
vn -0.3761 0.2140 -0.9015
s 1
f 1//1 6//2 2//3
f 2//3 332//4 331//5
f 5//6 360//7 6//2
f 6//2 541//8 332//4
f 2//3 3//9 1//1
f 7//10 322//11 3//9
f 331//5 7//10 2//3
f 7//10 535//12 321//13
f 1//1 8//14 4//15
f 4//15 357//16 358//17
f 3//9 323//18 8//14
f 8//14 540//19 357//16
f 4//15 5//6 1//1
f 9//20 361//21 5//6
f 358//17 9//20 4//15
f 359//22 362//23 9//20
f 10//24 15//25 11//26
f 11//26 327//27 328//28
f 14//29 333//30 15//25
f 15//25 534//31 327//27
f 11//26 12//32 10//24
f 16//33 361//21 12//32
f 328//28 16//33 11//26
f 329//34 360//7 16//33
f 10//24 17//35 13//36
f 13//36 365//37 364//38
f 12//32 362//23 17//35
f 17//35 551//39 365//37
f 13//36 14//29 10//24
f 18//40 334//41 14//29
f 364//38 18//40 13//36
f 363//42 335//43 18//40
f 23//44 20//45 19//46
f 24//47 358//17 20//45
f 367//48 24//47 23//44
f 368//49 359//22 24//47
f 19//46 25//50 21//51
f 21//51 326//52 325//53
f 20//45 357//16 25//50
f 25//50 540//19 326//52
f 21//51 22//54 19//46
f 26//55 340//56 22//54
f 325//53 26//55 21//51
f 26//55 536//57 339//58
f 19//46 27//59 23//44
f 23//44 366//60 367//48
f 22//54 341//61 27//59
f 27//59 543//62 366//60
f 32//63 29//64 28//65
f 33//66 364//38 29//64
f 337//67 33//66 32//63
f 33//66 542//68 363//42
f 28//65 34//69 30//70
f 30//70 368//49 367//48
f 29//64 365//37 34//69
f 34//69 551//39 368//49
f 30//70 31//71 28//65
f 35//72 343//73 31//71
f 367//48 35//72 30//70
f 366//60 344//74 35//72
f 28//65 36//75 32//63
f 32//63 336//76 337//67
f 31//71 342//77 36//75
f 36//75 537//78 336//76
f 41//79 38//80 37//81
f 42//82 355//83 38//80
f 41//79 372//84 42//82
f 42//82 546//85 356//86
f 37//81 43//87 39//88
f 39//88 348//89 349//90
f 38//80 354//91 43//87
f 43//87 539//92 348//89
f 39//88 40//93 37//81
f 44//94 370//95 40//93
f 349//90 44//94 39//88
f 350//96 369//97 44//94
f 37//81 45//98 41//79
f 41//79 374//99 373//100
f 40//93 371//101 45//98
f 45//98 552//102 374//99
f 46//103 51//104 47//105
f 47//105 351//106 352//107
f 50//108 345//109 51//104
f 51//104 538//110 351//106
f 47//105 48//111 46//103
f 48//111 372//84 373//100
f 352//107 52//112 47//105
f 52//112 546//85 372//84
f 46//103 53//113 49//114
f 49//114 377//115 376//116
f 48//111 374//99 53//113
f 53//113 552//102 377//115
f 49//114 50//108 46//103
f 54//117 346//118 50//108
f 376//116 54//117 49//114
f 375//119 347//120 54//117
f 55//121 60//122 56//123
f 56//123 408//124 409//125
f 328//28 60//122 59//126
f 60//122 534//31 408//124
f 56//123 57//127 55//121
f 57//127 450//128 451//129
f 409//125 61//130 56//123
f 61//130 558//131 450//128
f 57//127 58//132 55//121
f 62//133 427//134 58//132
f 451//129 62//133 57//127
f 452//135 428//136 62//133
f 55//121 63//137 59//126
f 59//126 329//34 328//28
f 58//132 426//138 63//137
f 63//137 541//8 329//34
f 68//139 65//140 64//141
f 69//142 412//143 65//140
f 451//129 69//142 68//139
f 450//128 413//144 69//142
f 64//141 70//145 66//146
f 66//146 378//147 379//148
f 65//140 411//149 70//145
f 70//145 548//150 378//147
f 66//146 67//151 64//141
f 71//152 430//153 67//151
f 379//148 71//152 66//146
f 380//154 429//155 71//152
f 64//141 72//156 68//139
f 68//139 452//135 451//129
f 67//151 431//157 72//156
f 72//156 561//158 452//135
f 77//159 74//160 73//161
f 78//162 427//134 74//160
f 331//5 78//162 77//159
f 332//4 426//138 78//162
f 73//161 79//163 75//164
f 75//164 455//165 454//166
f 74//160 428//136 79//163
f 79//163 561//158 455//165
f 75//164 76//167 73//161
f 80//168 403//169 76//167
f 454//166 80//168 75//164
f 453//170 404//171 80//168
f 73//161 81//172 77//159
f 77//159 330//173 331//5
f 76//167 402//174 81//172
f 81//172 535//12 330//173
f 86//175 83//176 82//177
f 87//178 430//153 83//176
f 454//166 87//178 86//175
f 455//165 431//157 87//178
f 83//176 84//179 82//177
f 88//180 382//181 84//179
f 83//176 429//155 88//180
f 88//180 553//182 383//183
f 82//177 89//184 85//185
f 85//185 405//186 406//187
f 84//179 381//188 89//184
f 89//184 547//189 405//186
f 82//177 90//190 86//175
f 86//175 453//170 454//166
f 85//185 407//191 90//190
f 90//190 557//192 453//170
f 91//193 96//194 92//195
f 92//195 402//174 403//169
f 95//196 321//13 96//194
f 96//194 535//12 402//174
f 92//195 93//197 91//193
f 97//198 457//199 93//197
f 92//195 404//171 97//198
f 97//198 557//192 456//200
f 91//193 98//201 94//202
f 94//202 434//203 433//204
f 93//197 458//205 98//201
f 98//201 562//206 434//203
f 94//202 95//196 91//193
f 99//207 322//11 95//196
f 433//204 99//207 94//202
f 432//208 323//18 99//207
f 104//209 101//210 100//211
f 105//212 406//187 101//210
f 104//209 456//200 105//212
f 456//200 407//191 105//212
f 100//211 106//213 102//214
f 102//214 384//215 385//216
f 101//210 405//186 106//213
f 106//213 547//189 384//215
f 102//214 103//217 100//211
f 107//218 436//219 103//217
f 385//216 107//218 102//214
f 386//220 435//221 107//218
f 100//211 108//222 104//209
f 108//222 457//199 104//209
f 103//217 437//223 108//222
f 437//223 458//205 108//222
f 113//224 110//225 109//226
f 114//227 433//204 110//225
f 325//53 114//227 113//224
f 326//52 432//208 114//227
f 109//226 115//228 111//229
f 111//229 461//230 460//231
f 110//225 434//203 115//228
f 115//228 562//206 461//230
f 111//229 112//232 109//226
f 112//232 416//233 415//234
f 460//231 116//235 111//229
f 116//235 559//236 416//233
f 109//226 117//237 113//224
f 113//224 324//238 325//53
f 112//232 414//239 117//237
f 117//237 536//57 324//238
f 118//240 123//241 119//242
f 119//242 437//223 436//219
f 460//231 123//241 122//243
f 461//230 437//223 123//241
f 119//242 120//244 118//240
f 124//245 388//246 120//244
f 436//219 124//245 119//242
f 435//221 389//247 124//245
f 118//240 125//248 121//249
f 121//249 417//250 418//251
f 120//244 387//252 125//248
f 125//248 549//253 417//250
f 121//249 122//243 118//240
f 122//243 459//254 460//231
f 418//251 126//255 121//249
f 419//256 459//254 126//255
f 127//257 132//258 128//259
f 128//259 414//239 415//234
f 131//260 339//58 132//258
f 132//258 536//57 414//239
f 128//259 129//261 127//257
f 133//262 463//263 129//261
f 415//234 133//262 128//259
f 416//233 462//264 133//262
f 127//257 134//265 130//266
f 130//266 440//267 439//268
f 129//261 464//269 134//265
f 134//265 563//270 440//267
f 130//266 131//260 127//257
f 135//271 340//56 131//260
f 439//268 135//271 130//266
f 438//272 341//61 135//271
f 136//273 141//274 137//275
f 137//275 419//256 418//251
f 140//276 462//264 141//274
f 141//274 559//236 419//256
f 136//273 142//277 138//278
f 138//278 390//279 391//280
f 137//275 417//250 142//277
f 142//277 549//253 390//279
f 138//278 139//281 136//273
f 139//281 441//282 442//283
f 391//280 143//284 138//278
f 143//284 555//285 441//282
f 139//281 140//276 136//273
f 144//286 463//263 140//276
f 442//283 144//286 139//281
f 443//287 464//269 144//286
f 145//288 150//289 146//290
f 146//290 438//272 439//268
f 149//291 344//74 150//289
f 150//289 543//62 438//272
f 146//290 147//292 145//288
f 151//293 466//294 147//292
f 439//268 151//293 146//290
f 440//267 467//295 151//293
f 147//292 148//296 145//288
f 152//297 421//298 148//296
f 147//292 465//299 152//297
f 152//297 560//300 422//301
f 145//288 153//302 149//291
f 153//302 343//73 149//291
f 148//296 420//303 153//302
f 153//302 537//78 342//77
f 154//304 159//305 155//306
f 155//306 443//287 442//283
f 158//307 467//295 159//305
f 159//305 563//270 443//287
f 155//306 156//308 154//304
f 160//309 394//310 156//308
f 442//283 160//309 155//306
f 441//282 395//311 160//309
f 154//304 161//312 157//313
f 157//313 423//314 424//315
f 156//308 393//316 161//312
f 161//312 550//317 423//314
f 157//313 158//307 154//304
f 162//318 466//294 158//307
f 424//315 162//318 157//313
f 425//319 465//299 162//318
f 163//320 168//321 164//322
f 164//322 411//149 412//143
f 167//323 396//324 168//321
f 168//321 548//150 411//149
f 164//322 165//325 163//320
f 165//325 468//326 469//327
f 412//143 169//328 164//322
f 169//328 558//131 468//326
f 163//320 170//329 166//330
f 166//330 449//331 448//332
f 469//327 170//329 165//325
f 470//333 449//331 170//329
f 166//330 167//323 163//320
f 171//334 397//335 167//323
f 448//332 171//334 166//330
f 447//336 398//337 171//334
f 176//338 173//339 172//340
f 177//341 409//125 173//339
f 469//327 177//341 176//338
f 468//326 410//342 177//341
f 172//340 178//343 174//344
f 178//343 334//41 174//344
f 173//339 408//124 178//343
f 178//343 534//31 333//30
f 174//344 175//345 172//340
f 179//346 445//347 175//345
f 174//344 335//43 179//346
f 179//346 542//68 444//348
f 175//345 176//338 172//340
f 176//338 470//333 469//327
f 445//347 180//349 175//345
f 180//349 564//350 470//333
f 185//351 182//352 181//353
f 186//354 448//332 182//352
f 400//355 186//354 185//351
f 401//356 447//336 186//354
f 181//353 187//357 183//358
f 187//357 472//359 183//358
f 182//352 449//331 187//357
f 449//331 473//360 187//357
f 183//358 184//361 181//353
f 188//362 424//315 184//361
f 472//359 188//362 183//358
f 188//362 560//300 425//319
f 181//353 189//363 185//351
f 185//351 399//364 400//355
f 184//361 423//314 189//363
f 189//363 550//317 399//364
f 194//365 191//366 190//367
f 195//368 445//347 191//366
f 472//359 195//368 194//365
f 473//360 446//369 195//368
f 191//366 192//370 190//367
f 192//370 338//371 337//67
f 445//347 196//372 191//366
f 444//348 338//371 196//372
f 190//367 197//373 193//374
f 193//374 420//303 421//298
f 337//67 197//373 192//370
f 197//373 537//78 420//303
f 193//374 194//365 190//367
f 198//375 472//359 194//365
f 421//298 198//375 193//374
f 422//301 471//376 198//375
f 203//377 200//378 199//379
f 204//380 478//381 200//378
f 379//148 204//380 203//377
f 378//147 477//382 204//380
f 199//379 205//383 201//384
f 205//383 508//385 201//384
f 200//378 479//386 205//383
f 479//386 507//387 205//383
f 201//384 202//388 199//379
f 206//389 490//390 202//388
f 201//384 509//391 206//389
f 206//389 567//392 491//393
f 199//379 207//394 203//377
f 203//377 380//154 379//148
f 202//388 489//395 207//394
f 207//394 553//182 380//154
f 208//396 213//397 209//398
f 209//398 476//399 475//400
f 212//401 507//387 213//397
f 213//397 565//402 476//399
f 209//398 210//403 208//396
f 214//404 346//118 210//403
f 475//400 214//404 209//398
f 474//405 345//109 214//404
f 208//396 215//406 211//407
f 211//407 486//408 487//409
f 210//403 347//120 215//406
f 215//406 544//410 486//408
f 211//407 212//401 208//396
f 216//411 508//385 212//401
f 487//409 216//411 211//407
f 488//412 509//391 216//411
f 217//413 221//414 218//415
f 221//414 490//390 218//415
f 220//416 383//183 221//414
f 383//183 489//395 221//414
f 217//413 222//417 219//418
f 222//417 529//419 219//418
f 490//390 222//417 218//415
f 491//393 530//420 222//417
f 217//413 223//421 220//416
f 223//421 382//181 220//416
f 219//418 528//422 223//421
f 223//421 547//189 381//188
f 228//423 225//424 224//425
f 229//426 529//419 225//424
f 385//216 229//426 228//423
f 384//215 528//422 229//426
f 224//425 230//427 226//428
f 226//428 525//429 526//430
f 225//424 530//420 230//427
f 230//427 567//392 525//429
f 226//428 227//431 224//425
f 231//432 493//433 227//431
f 526//430 231//432 226//428
f 527//434 494//435 231//432
f 224//425 232//436 228//423
f 228//423 386//220 385//216
f 227//431 492//437 232//436
f 232//436 554//438 386//220
f 237//439 234//440 233//441
f 234//440 488//412 487//409
f 526//430 238//442 237//439
f 238//442 567//392 488//412
f 233//441 239//443 235//444
f 235//444 375//119 376//116
f 487//409 239//443 234//440
f 239//443 544//410 375//119
f 235//444 236//445 233//441
f 240//446 532//447 236//445
f 376//116 240//446 235//444
f 377//115 531//448 240//446
f 233//441 241//449 237//439
f 237//439 527//434 526//430
f 236//445 533//450 241//449
f 241//449 568//451 527//434
f 242//452 247//453 243//454
f 243//454 492//437 493//433
f 246//455 389//247 247//453
f 247//453 554//438 492//437
f 243//454 244//456 242//452
f 248//457 520//458 244//456
f 493//433 248//457 243//454
f 494//435 519//459 248//457
f 242//452 249//460 245//461
f 245//461 524//462 523//463
f 244//456 521//464 249//460
f 249//460 569//465 524//462
f 245//461 246//455 242//452
f 250//466 388//246 246//455
f 523//463 250//466 245//461
f 522//467 387//252 250//466
f 251//468 256//469 252//470
f 252//470 533//450 532//447
f 255//471 519//459 256//469
f 256//469 568//451 533//450
f 252//470 253//472 251//468
f 257//473 370//95 253//472
f 532//447 257//473 252//470
f 531//448 371//101 257//473
f 251//468 258//474 254//475
f 258//474 496//476 254//475
f 253//472 369//97 258//474
f 258//474 545//477 495//478
f 254//475 255//471 251//468
f 259//479 520//458 255//471
f 254//475 497//480 259//479
f 259//479 569//465 521//464
f 260//481 264//482 261//483
f 261//483 522//467 523//463
f 391//280 264//482 263//484
f 264//482 549//253 522//467
f 260//481 265//485 262//486
f 265//485 499//487 262//486
f 523//463 265//485 261//483
f 524//462 500//488 265//485
f 260//481 266//489 263//484
f 263//484 392//490 391//280
f 499//487 266//489 262//486
f 498//491 392//490 266//489
f 267//492 272//493 268//494
f 268//494 498//491 499//487
f 271//495 395//311 272//493
f 272//493 555//285 498//491
f 268//494 269//496 267//492
f 269//496 512//497 511//498
f 499//487 273//499 268//494
f 273//499 569//465 512//497
f 267//492 274//500 270//501
f 270//501 485//502 484//503
f 511//498 274//500 269//496
f 510//504 485//502 274//500
f 270//501 271//495 267//492
f 275//505 394//310 271//495
f 484//503 275//505 270//501
f 483//506 393//316 275//505
f 280//507 277//508 276//509
f 281//510 496//476 277//508
f 511//498 281//510 280//507
f 512//497 497//480 281//510
f 276//509 282//511 278//512
f 278//512 350//96 349//90
f 277//508 495//478 282//511
f 282//511 545//477 350//96
f 278//512 279//513 276//509
f 283//514 481//515 279//513
f 349//90 283//514 278//512
f 348//89 480//516 283//514
f 276//509 284//517 280//507
f 280//507 510//504 511//498
f 279//513 482//518 284//517
f 284//517 566//519 510//504
f 285//520 290//521 286//522
f 286//522 474//405 475//400
f 289//523 351//106 290//521
f 290//521 538//110 474//405
f 286//522 287//524 285//520
f 291//525 514//526 287//524
f 475//400 291//525 286//522
f 476//399 513//527 291//525
f 285//520 292//528 288//529
f 288//529 503//530 502//531
f 287//524 515//532 292//528
f 292//528 570//533 503//530
f 288//529 289//523 285//520
f 293//534 352//107 289//523
f 502//531 293//534 288//529
f 501//535 353//536 293//534
f 294//537 299//538 295//539
f 295//539 479//386 478//381
f 298//540 513//527 299//538
f 299//538 565//402 479//386
f 295//539 296//541 294//537
f 300//542 397//335 296//541
f 478//381 300//542 295//539
f 477//382 396//324 300//542
f 294//537 301//543 297//544
f 297//544 504//545 505//546
f 296//541 398//337 301//543
f 301//543 556//547 504//545
f 297//544 298//540 294//537
f 302//548 514//526 298//540
f 505//546 302//548 297//544
f 506//549 515//532 302//548
f 307//550 304//551 303//552
f 308//553 502//531 304//551
f 355//83 308//553 307//550
f 356//86 501//535 308//553
f 303//552 309//554 305//555
f 305//555 518//556 517//557
f 304//551 503//530 309//554
f 309//554 570//533 518//556
f 305//555 306//558 303//552
f 310//559 481//515 306//558
f 517//557 310//559 305//555
f 516//560 482//518 310//559
f 303//552 311//561 307//550
f 307//550 354//91 355//83
f 306//558 480//516 311//561
f 311//561 539//92 354//91
f 316//562 313//563 312//564
f 317//565 505//546 313//563
f 517//557 317//565 316//562
f 518//556 506//549 317//565
f 312//564 318//566 314//567
f 314//567 401//356 400//355
f 313//563 504//545 318//566
f 318//566 556//547 401//356
f 314//567 315//568 312//564
f 319//569 484//503 315//568
f 400//355 319//569 314//567
f 399//364 483//506 319//569
f 312//564 320//570 316//562
f 316//562 516//560 517//557
f 315//568 485//502 320//570
f 320//570 566//519 516//560
f 1//1 5//6 6//2
f 2//3 6//2 332//4
f 5//6 361//21 360//7
f 6//2 360//7 541//8
f 2//3 7//10 3//9
f 7//10 321//13 322//11
f 331//5 330//173 7//10
f 7//10 330//173 535//12
f 1//1 3//9 8//14
f 4//15 8//14 357//16
f 3//9 322//11 323//18
f 8//14 323//18 540//19
f 4//15 9//20 5//6
f 9//20 362//23 361//21
f 358//17 359//22 9//20
f 359//22 551//39 362//23
f 10//24 14//29 15//25
f 11//26 15//25 327//27
f 14//29 334//41 333//30
f 15//25 333//30 534//31
f 11//26 16//33 12//32
f 16//33 360//7 361//21
f 328//28 329//34 16//33
f 329//34 541//8 360//7
f 10//24 12//32 17//35
f 13//36 17//35 365//37
f 12//32 361//21 362//23
f 17//35 362//23 551//39
f 13//36 18//40 14//29
f 18//40 335//43 334//41
f 364//38 363//42 18//40
f 363//42 542//68 335//43
f 23//44 24//47 20//45
f 24//47 359//22 358//17
f 367//48 368//49 24//47
f 368//49 551//39 359//22
f 19//46 20//45 25//50
f 21//51 25//50 326//52
f 20//45 358//17 357//16
f 25//50 357//16 540//19
f 21//51 26//55 22//54
f 26//55 339//58 340//56
f 325//53 324//238 26//55
f 26//55 324//238 536//57
f 19//46 22//54 27//59
f 23//44 27//59 366//60
f 22//54 340//56 341//61
f 27//59 341//61 543//62
f 32//63 33//66 29//64
f 33//66 363//42 364//38
f 337//67 338//371 33//66
f 33//66 338//371 542//68
f 28//65 29//64 34//69
f 30//70 34//69 368//49
f 29//64 364//38 365//37
f 34//69 365//37 551//39
f 30//70 35//72 31//71
f 35//72 344//74 343//73
f 367//48 366//60 35//72
f 366//60 543//62 344//74
f 28//65 31//71 36//75
f 32//63 36//75 336//76
f 31//71 343//73 342//77
f 36//75 342//77 537//78
f 41//79 42//82 38//80
f 42//82 356//86 355//83
f 41//79 373//100 372//84
f 42//82 372//84 546//85
f 37//81 38//80 43//87
f 39//88 43//87 348//89
f 38//80 355//83 354//91
f 43//87 354//91 539//92
f 39//88 44//94 40//93
f 44//94 369//97 370//95
f 349//90 350//96 44//94
f 350//96 545//477 369//97
f 37//81 40//93 45//98
f 41//79 45//98 374//99
f 40//93 370//95 371//101
f 45//98 371//101 552//102
f 46//103 50//108 51//104
f 47//105 51//104 351//106
f 50//108 346//118 345//109
f 51//104 345//109 538//110
f 47//105 52//112 48//111
f 48//111 52//112 372//84
f 352//107 353//536 52//112
f 52//112 353//536 546//85
f 46//103 48//111 53//113
f 49//114 53//113 377//115
f 48//111 373//100 374//99
f 53//113 374//99 552//102
f 49//114 54//117 50//108
f 54//117 347//120 346//118
f 376//116 375//119 54//117
f 375//119 544//410 347//120
f 55//121 59//126 60//122
f 56//123 60//122 408//124
f 328//28 327//27 60//122
f 60//122 327//27 534//31
f 56//123 61//130 57//127
f 57//127 61//130 450//128
f 409//125 410//342 61//130
f 61//130 410//342 558//131
f 57//127 62//133 58//132
f 62//133 428//136 427//134
f 451//129 452//135 62//133
f 452//135 561//158 428//136
f 55//121 58//132 63//137
f 59//126 63//137 329//34
f 58//132 427//134 426//138
f 63//137 426//138 541//8
f 68//139 69//142 65//140
f 69//142 413//144 412//143
f 451//129 450//128 69//142
f 450//128 558//131 413//144
f 64//141 65//140 70//145
f 66//146 70//145 378//147
f 65//140 412//143 411//149
f 70//145 411//149 548//150
f 66//146 71//152 67//151
f 71//152 429//155 430//153
f 379//148 380//154 71//152
f 380//154 553//182 429//155
f 64//141 67//151 72//156
f 68//139 72//156 452//135
f 67//151 430//153 431//157
f 72//156 431//157 561//158
f 77//159 78//162 74//160
f 78//162 426//138 427//134
f 331//5 332//4 78//162
f 332//4 541//8 426//138
f 73//161 74//160 79//163
f 75//164 79//163 455//165
f 74//160 427//134 428//136
f 79//163 428//136 561//158
f 75//164 80//168 76//167
f 80//168 404//171 403//169
f 454//166 453//170 80//168
f 453//170 557//192 404//171
f 73//161 76//167 81//172
f 77//159 81//172 330//173
f 76//167 403//169 402//174
f 81//172 402//174 535//12
f 86//175 87//178 83//176
f 87//178 431//157 430//153
f 454//166 455//165 87//178
f 455//165 561//158 431//157
f 83//176 88//180 84//179
f 88//180 383//183 382//181
f 83//176 430//153 429//155
f 88//180 429//155 553//182
f 82//177 84//179 89//184
f 85//185 89//184 405//186
f 84//179 382//181 381//188
f 89//184 381//188 547//189
f 82//177 85//185 90//190
f 86//175 90//190 453//170
f 85//185 406//187 407//191
f 90//190 407//191 557//192
f 91//193 95//196 96//194
f 92//195 96//194 402//174
f 95//196 322//11 321//13
f 96//194 321//13 535//12
f 92//195 97//198 93//197
f 97//198 456//200 457//199
f 92//195 403//169 404//171
f 97//198 404//171 557//192
f 91//193 93//197 98//201
f 94//202 98//201 434//203
f 93//197 457//199 458//205
f 98//201 458//205 562//206
f 94//202 99//207 95//196
f 99//207 323//18 322//11
f 433//204 432//208 99//207
f 432//208 540//19 323//18
f 104//209 105//212 101//210
f 105//212 407//191 406//187
f 104//209 457//199 456//200
f 456//200 557//192 407//191
f 100//211 101//210 106//213
f 102//214 106//213 384//215
f 101//210 406//187 405//186
f 106//213 405//186 547//189
f 102//214 107//218 103//217
f 107//218 435//221 436//219
f 385//216 386//220 107//218
f 386//220 554//438 435//221
f 100//211 103//217 108//222
f 108//222 458//205 457//199
f 103//217 436//219 437//223
f 437//223 562//206 458//205
f 113//224 114//227 110//225
f 114//227 432//208 433//204
f 325//53 326//52 114//227
f 326//52 540//19 432//208
f 109//226 110//225 115//228
f 111//229 115//228 461//230
f 110//225 433//204 434//203
f 115//228 434//203 562//206
f 111//229 116//235 112//232
f 112//232 116//235 416//233
f 460//231 459//254 116//235
f 116//235 459//254 559//236
f 109//226 112//232 117//237
f 113//224 117//237 324//238
f 112//232 415//234 414//239
f 117//237 414//239 536//57
f 118//240 122//243 123//241
f 119//242 123//241 437//223
f 460//231 461//230 123//241
f 461//230 562//206 437//223
f 119//242 124//245 120//244
f 124//245 389//247 388//246
f 436//219 435//221 124//245
f 435//221 554//438 389//247
f 118//240 120//244 125//248
f 121//249 125//248 417//250
f 120//244 388//246 387//252
f 125//248 387//252 549//253
f 121//249 126//255 122//243
f 122//243 126//255 459//254
f 418//251 419//256 126//255
f 419//256 559//236 459//254
f 127//257 131//260 132//258
f 128//259 132//258 414//239
f 131//260 340//56 339//58
f 132//258 339//58 536//57
f 128//259 133//262 129//261
f 133//262 462//264 463//263
f 415//234 416//233 133//262
f 416//233 559//236 462//264
f 127//257 129//261 134//265
f 130//266 134//265 440//267
f 129//261 463//263 464//269
f 134//265 464//269 563//270
f 130//266 135//271 131//260
f 135//271 341//61 340//56
f 439//268 438//272 135//271
f 438//272 543//62 341//61
f 136//273 140//276 141//274
f 137//275 141//274 419//256
f 140//276 463//263 462//264
f 141//274 462//264 559//236
f 136//273 137//275 142//277
f 138//278 142//277 390//279
f 137//275 418//251 417//250
f 142//277 417//250 549//253
f 138//278 143//284 139//281
f 139//281 143//284 441//282
f 391//280 392//490 143//284
f 143//284 392//490 555//285
f 139//281 144//286 140//276
f 144//286 464//269 463//263
f 442//283 443//287 144//286
f 443//287 563//270 464//269
f 145//288 149//291 150//289
f 146//290 150//289 438//272
f 149//291 343//73 344//74
f 150//289 344//74 543//62
f 146//290 151//293 147//292
f 151//293 467//295 466//294
f 439//268 440//267 151//293
f 440//267 563//270 467//295
f 147//292 152//297 148//296
f 152//297 422//301 421//298
f 147//292 466//294 465//299
f 152//297 465//299 560//300
f 145//288 148//296 153//302
f 153//302 342//77 343//73
f 148//296 421//298 420//303
f 153//302 420//303 537//78
f 154//304 158//307 159//305
f 155//306 159//305 443//287
f 158//307 466//294 467//295
f 159//305 467//295 563//270
f 155//306 160//309 156//308
f 160//309 395//311 394//310
f 442//283 441//282 160//309
f 441//282 555//285 395//311
f 154//304 156//308 161//312
f 157//313 161//312 423//314
f 156//308 394//310 393//316
f 161//312 393//316 550//317
f 157//313 162//318 158//307
f 162//318 465//299 466//294
f 424//315 425//319 162//318
f 425//319 560//300 465//299
f 163//320 167//323 168//321
f 164//322 168//321 411//149
f 167//323 397//335 396//324
f 168//321 396//324 548//150
f 164//322 169//328 165//325
f 165//325 169//328 468//326
f 412//143 413//144 169//328
f 169//328 413//144 558//131
f 163//320 165//325 170//329
f 166//330 170//329 449//331
f 469//327 470//333 170//329
f 470//333 564//350 449//331
f 166//330 171//334 167//323
f 171//334 398//337 397//335
f 448//332 447//336 171//334
f 447//336 556//547 398//337
f 176//338 177//341 173//339
f 177//341 410//342 409//125
f 469//327 468//326 177//341
f 468//326 558//131 410//342
f 172//340 173//339 178//343
f 178//343 333//30 334//41
f 173//339 409//125 408//124
f 178//343 408//124 534//31
f 174//344 179//346 175//345
f 179//346 444//348 445//347
f 174//344 334//41 335//43
f 179//346 335//43 542//68
f 175//345 180//349 176//338
f 176//338 180//349 470//333
f 445//347 446//369 180//349
f 180//349 446//369 564//350
f 185//351 186//354 182//352
f 186//354 447//336 448//332
f 400//355 401//356 186//354
f 401//356 556//547 447//336
f 181//353 182//352 187//357
f 187//357 473//360 472//359
f 182//352 448//332 449//331
f 449//331 564//350 473//360
f 183//358 188//362 184//361
f 188//362 425//319 424//315
f 472//359 471//376 188//362
f 188//362 471//376 560//300
f 181//353 184//361 189//363
f 185//351 189//363 399//364
f 184//361 424//315 423//314
f 189//363 423//314 550//317
f 194//365 195//368 191//366
f 195//368 446//369 445//347
f 472//359 473//360 195//368
f 473//360 564//350 446//369
f 191//366 196//372 192//370
f 192//370 196//372 338//371
f 445//347 444//348 196//372
f 444//348 542//68 338//371
f 190//367 192//370 197//373
f 193//374 197//373 420//303
f 337//67 336//76 197//373
f 197//373 336//76 537//78
f 193//374 198//375 194//365
f 198//375 471//376 472//359
f 421//298 422//301 198//375
f 422//301 560//300 471//376
f 203//377 204//380 200//378
f 204//380 477//382 478//381
f 379//148 378//147 204//380
f 378//147 548//150 477//382
f 199//379 200//378 205//383
f 205//383 507//387 508//385
f 200//378 478//381 479//386
f 479//386 565//402 507//387
f 201//384 206//389 202//388
f 206//389 491//393 490//390
f 201//384 508//385 509//391
f 206//389 509//391 567//392
f 199//379 202//388 207//394
f 203//377 207//394 380//154
f 202//388 490//390 489//395
f 207//394 489//395 553//182
f 208//396 212//401 213//397
f 209//398 213//397 476//399
f 212//401 508//385 507//387
f 213//397 507//387 565//402
f 209//398 214//404 210//403
f 214//404 345//109 346//118
f 475//400 474//405 214//404
f 474//405 538//110 345//109
f 208//396 210//403 215//406
f 211//407 215//406 486//408
f 210//403 346//118 347//120
f 215//406 347//120 544//410
f 211//407 216//411 212//401
f 216//411 509//391 508//385
f 487//409 488//412 216//411
f 488//412 567//392 509//391
f 217//413 220//416 221//414
f 221//414 489//395 490//390
f 220//416 382//181 383//183
f 383//183 553//182 489//395
f 217//413 218//415 222//417
f 222//417 530//420 529//419
f 490//390 491//393 222//417
f 491//393 567//392 530//420
f 217//413 219//418 223//421
f 223//421 381//188 382//181
f 219//418 529//419 528//422
f 223//421 528//422 547//189
f 228//423 229//426 225//424
f 229//426 528//422 529//419
f 385//216 384//215 229//426
f 384//215 547//189 528//422
f 224//425 225//424 230//427
f 226//428 230//427 525//429
f 225//424 529//419 530//420
f 230//427 530//420 567//392
f 226//428 231//432 227//431
f 231//432 494//435 493//433
f 526//430 527//434 231//432
f 527//434 568//451 494//435
f 224//425 227//431 232//436
f 228//423 232//436 386//220
f 227//431 493//433 492//437
f 232//436 492//437 554//438
f 237//439 238//442 234//440
f 234//440 238//442 488//412
f 526//430 525//429 238//442
f 238//442 525//429 567//392
f 233//441 234//440 239//443
f 235//444 239//443 375//119
f 487//409 486//408 239//443
f 239//443 486//408 544//410
f 235//444 240//446 236//445
f 240//446 531//448 532//447
f 376//116 377//115 240//446
f 377//115 552//102 531//448
f 233//441 236//445 241//449
f 237//439 241//449 527//434
f 236//445 532//447 533//450
f 241//449 533//450 568//451
f 242//452 246//455 247//453
f 243//454 247//453 492//437
f 246//455 388//246 389//247
f 247//453 389//247 554//438
f 243//454 248//457 244//456
f 248//457 519//459 520//458
f 493//433 494//435 248//457
f 494//435 568//451 519//459
f 242//452 244//456 249//460
f 245//461 249//460 524//462
f 244//456 520//458 521//464
f 249//460 521//464 569//465
f 245//461 250//466 246//455
f 250//466 387//252 388//246
f 523//463 522//467 250//466
f 522//467 549//253 387//252
f 251//468 255//471 256//469
f 252//470 256//469 533//450
f 255//471 520//458 519//459
f 256//469 519//459 568//451
f 252//470 257//473 253//472
f 257//473 371//101 370//95
f 532//447 531//448 257//473
f 531//448 552//102 371//101
f 251//468 253//472 258//474
f 258//474 495//478 496//476
f 253//472 370//95 369//97
f 258//474 369//97 545//477
f 254//475 259//479 255//471
f 259//479 521//464 520//458
f 254//475 496//476 497//480
f 259//479 497//480 569//465
f 260//481 263//484 264//482
f 261//483 264//482 522//467
f 391//280 390//279 264//482
f 264//482 390//279 549//253
f 260//481 261//483 265//485
f 265//485 500//488 499//487
f 523//463 524//462 265//485
f 524//462 569//465 500//488
f 260//481 262//486 266//489
f 263//484 266//489 392//490
f 499//487 498//491 266//489
f 498//491 555//285 392//490
f 267//492 271//495 272//493
f 268//494 272//493 498//491
f 271//495 394//310 395//311
f 272//493 395//311 555//285
f 268//494 273//499 269//496
f 269//496 273//499 512//497
f 499//487 500//488 273//499
f 273//499 500//488 569//465
f 267//492 269//496 274//500
f 270//501 274//500 485//502
f 511//498 510//504 274//500
f 510//504 566//519 485//502
f 270//501 275//505 271//495
f 275//505 393//316 394//310
f 484//503 483//506 275//505
f 483//506 550//317 393//316
f 280//507 281//510 277//508
f 281//510 497//480 496//476
f 511//498 512//497 281//510
f 512//497 569//465 497//480
f 276//509 277//508 282//511
f 278//512 282//511 350//96
f 277//508 496//476 495//478
f 282//511 495//478 545//477
f 278//512 283//514 279//513
f 283//514 480//516 481//515
f 349//90 348//89 283//514
f 348//89 539//92 480//516
f 276//509 279//513 284//517
f 280//507 284//517 510//504
f 279//513 481//515 482//518
f 284//517 482//518 566//519
f 285//520 289//523 290//521
f 286//522 290//521 474//405
f 289//523 352//107 351//106
f 290//521 351//106 538//110
f 286//522 291//525 287//524
f 291//525 513//527 514//526
f 475//400 476//399 291//525
f 476//399 565//402 513//527
f 285//520 287//524 292//528
f 288//529 292//528 503//530
f 287//524 514//526 515//532
f 292//528 515//532 570//533
f 288//529 293//534 289//523
f 293//534 353//536 352//107
f 502//531 501//535 293//534
f 501//535 546//85 353//536
f 294//537 298//540 299//538
f 295//539 299//538 479//386
f 298//540 514//526 513//527
f 299//538 513//527 565//402
f 295//539 300//542 296//541
f 300//542 396//324 397//335
f 478//381 477//382 300//542
f 477//382 548//150 396//324
f 294//537 296//541 301//543
f 297//544 301//543 504//545
f 296//541 397//335 398//337
f 301//543 398//337 556//547
f 297//544 302//548 298//540
f 302//548 515//532 514//526
f 505//546 506//549 302//548
f 506//549 570//533 515//532
f 307//550 308//553 304//551
f 308//553 501//535 502//531
f 355//83 356//86 308//553
f 356//86 546//85 501//535
f 303//552 304//551 309//554
f 305//555 309//554 518//556
f 304//551 502//531 503//530
f 309//554 503//530 570//533
f 305//555 310//559 306//558
f 310//559 482//518 481//515
f 517//557 516//560 310//559
f 516//560 566//519 482//518
f 303//552 306//558 311//561
f 307//550 311//561 354//91
f 306//558 481//515 480//516
f 311//561 480//516 539//92
f 316//562 317//565 313//563
f 317//565 506//549 505//546
f 517//557 518//556 317//565
f 518//556 570//533 506//549
f 312//564 313//563 318//566
f 314//567 318//566 401//356
f 313//563 505//546 504//545
f 318//566 504//545 556//547
f 314//567 319//569 315//568
f 319//569 483//506 484//503
f 400//355 399//364 319//569
f 399//364 550//317 483//506
f 312//564 315//568 320//570
f 316//562 320//570 516//560
f 315//568 484//503 485//502
f 320//570 485//502 566//519
