# Blender v2.79 (sub 0) OBJ File: 'm3_interior.blend'
# www.blender.org
o LB_Axle_Mesh.004
v 1.639257 -0.853252 -2.450971
v 1.639297 -0.872360 -2.454878
v 1.639337 -0.890479 -2.461173
v 1.639378 -0.907435 -2.469684
v 1.639418 -0.923052 -2.480233
v 1.639458 -0.937155 -2.492648
v 1.639499 -0.949569 -2.506751
v 1.639539 -0.960119 -2.522368
v 1.639579 -0.968629 -2.539324
v 1.639620 -0.974925 -2.557443
v 1.639660 -0.978831 -2.576551
v 1.639700 -0.980172 -2.596471
v 1.639660 -0.978831 -2.616391
v 1.639620 -0.974925 -2.635499
v 1.639579 -0.968629 -2.653618
v 1.639539 -0.960119 -2.670573
v 1.639499 -0.949569 -2.686191
v 1.639458 -0.937155 -2.700294
v 1.639418 -0.923052 -2.712708
v 1.639378 -0.907435 -2.723258
v 1.639337 -0.890479 -2.731769
v 1.639297 -0.872360 -2.738065
v 1.639257 -0.853252 -2.741970
v 1.639216 -0.833332 -2.743312
v 1.639216 -0.813411 -2.741970
v 1.639216 -0.794304 -2.738065
v 1.639216 -0.776185 -2.731769
v 1.639216 -0.759229 -2.723258
v 1.639216 -0.743612 -2.712708
v 1.639216 -0.729509 -2.700294
v 1.639216 -0.717094 -2.686191
v 1.639216 -0.706544 -2.670573
v 1.639216 -0.698034 -2.653618
v 1.639216 -0.691738 -2.635499
v 1.639216 -0.687832 -2.616391
v 1.639216 -0.686491 -2.596471
v 1.639216 -0.687832 -2.576551
v 1.639216 -0.691738 -2.557443
v 1.639216 -0.698034 -2.539324
v 1.639216 -0.706544 -2.522368
v 1.639216 -0.717094 -2.506751
v 1.639216 -0.729509 -2.492648
v 1.639216 -0.743612 -2.480233
v 1.639216 -0.759229 -2.469684
v 1.639216 -0.776185 -2.461173
v 1.639216 -0.794304 -2.454878
v 1.639216 -0.813411 -2.450971
v 1.639216 -0.833332 -2.449630
v 1.639337 -0.833332 -2.596471
v 1.427129 -0.853252 -2.450971
v 1.427169 -0.872360 -2.454878
v 1.427210 -0.890479 -2.461173
v 1.427250 -0.907435 -2.469684
v 1.427290 -0.923052 -2.480233
v 1.427331 -0.937155 -2.492648
v 1.427371 -0.949569 -2.506751
v 1.427411 -0.960119 -2.522368
v 1.427452 -0.968629 -2.539324
v 1.427492 -0.974925 -2.557443
v 1.427532 -0.978831 -2.576551
v 1.427573 -0.980172 -2.596471
v 1.427532 -0.978831 -2.616391
v 1.427492 -0.974925 -2.635499
v 1.427452 -0.968629 -2.653618
v 1.427411 -0.960119 -2.670573
v 1.427371 -0.949569 -2.686191
v 1.427331 -0.937155 -2.700294
v 1.427290 -0.923052 -2.712708
v 1.427250 -0.907435 -2.723258
v 1.427210 -0.890479 -2.731769
v 1.427169 -0.872360 -2.738065
v 1.427129 -0.853252 -2.741970
v 1.427089 -0.833332 -2.743312
v 1.427089 -0.813411 -2.741970
v 1.427089 -0.794304 -2.738065
v 1.427089 -0.776185 -2.731769
v 1.427089 -0.759229 -2.723258
v 1.427089 -0.743612 -2.712708
v 1.427089 -0.729509 -2.700294
v 1.427089 -0.717094 -2.686191
v 1.427089 -0.706544 -2.670573
v 1.427089 -0.698034 -2.653618
v 1.427089 -0.691738 -2.635499
v 1.427089 -0.687832 -2.616391
v 1.427089 -0.686491 -2.596471
v 1.427089 -0.687832 -2.576551
v 1.427089 -0.691738 -2.557443
v 1.427089 -0.698034 -2.539324
v 1.427089 -0.706544 -2.522368
v 1.427089 -0.717094 -2.506751
v 1.427089 -0.729509 -2.492648
v 1.427089 -0.743612 -2.480233
v 1.427089 -0.759229 -2.469684
v 1.427089 -0.776185 -2.461173
v 1.427089 -0.794304 -2.454878
v 1.427089 -0.813411 -2.450971
v 1.427089 -0.833332 -2.449630
v 1.290335 -0.841731 -2.535124
v 1.290352 -0.849787 -2.536771
v 1.290369 -0.857427 -2.539425
v 1.290386 -0.864576 -2.543013
v 1.290403 -0.871160 -2.547462
v 1.290420 -0.877107 -2.552696
v 1.290437 -0.882341 -2.558642
v 1.290454 -0.886789 -2.565227
v 1.290471 -0.890377 -2.572376
v 1.290488 -0.893032 -2.580015
v 1.290505 -0.894679 -2.588072
v 1.290522 -0.895244 -2.596471
v 1.290505 -0.894679 -2.604870
v 1.290488 -0.893032 -2.612926
v 1.290471 -0.890377 -2.620566
v 1.290454 -0.886789 -2.627715
v 1.290437 -0.882341 -2.634300
v 1.290420 -0.877107 -2.640246
v 1.290403 -0.871160 -2.645480
v 1.290386 -0.864576 -2.649928
v 1.290369 -0.857427 -2.653517
v 1.290352 -0.849787 -2.656171
v 1.290335 -0.841731 -2.657818
v 1.290318 -0.833332 -2.658383
v 1.290318 -0.824933 -2.657818
v 1.290318 -0.816876 -2.656171
v 1.290318 -0.809237 -2.653517
v 1.290318 -0.802088 -2.649928
v 1.290318 -0.795503 -2.645480
v 1.290318 -0.789557 -2.640246
v 1.290318 -0.784322 -2.634300
v 1.290318 -0.779874 -2.627715
v 1.290318 -0.776286 -2.620566
v 1.290318 -0.773631 -2.612926
v 1.290318 -0.771985 -2.604870
v 1.290318 -0.771419 -2.596471
v 1.290318 -0.771985 -2.588072
v 1.290318 -0.773631 -2.580015
v 1.290318 -0.776286 -2.572376
v 1.290318 -0.779874 -2.565227
v 1.290318 -0.784322 -2.558642
v 1.290318 -0.789557 -2.552696
v 1.290318 -0.795503 -2.547462
v 1.290318 -0.802088 -2.543013
v 1.290318 -0.809237 -2.539425
v 1.290318 -0.816876 -2.536771
v 1.290318 -0.824933 -2.535124
v 1.290318 -0.833332 -2.534559
v 1.138625 -0.841731 -2.535124
v 1.138642 -0.849787 -2.536771
v 1.138659 -0.857427 -2.539425
v 1.138676 -0.864576 -2.543013
v 1.138693 -0.871160 -2.547462
v 1.138710 -0.877107 -2.552696
v 1.138727 -0.882341 -2.558642
v 1.138744 -0.886789 -2.565227
v 1.138761 -0.890377 -2.572376
v 1.138778 -0.893032 -2.580015
v 1.138795 -0.894679 -2.588072
v 1.138812 -0.895244 -2.596471
v 1.138795 -0.894679 -2.604870
v 1.138778 -0.893032 -2.612926
v 1.138761 -0.890377 -2.620566
v 1.138744 -0.886789 -2.627715
v 1.138727 -0.882341 -2.634300
v 1.138710 -0.877107 -2.640246
v 1.138693 -0.871160 -2.645480
v 1.138676 -0.864576 -2.649928
v 1.138659 -0.857427 -2.653517
v 1.138642 -0.849787 -2.656171
v 1.138625 -0.841731 -2.657818
v 1.138608 -0.833332 -2.658383
v 1.138608 -0.824933 -2.657818
v 1.138608 -0.816876 -2.656171
v 1.138608 -0.809237 -2.653517
v 1.138608 -0.802088 -2.649928
v 1.138608 -0.795503 -2.645480
v 1.138608 -0.789557 -2.640246
v 1.138608 -0.784322 -2.634300
v 1.138608 -0.779874 -2.627715
v 1.138608 -0.776286 -2.620566
v 1.138608 -0.773631 -2.612926
v 1.138608 -0.771985 -2.604870
v 1.138608 -0.771419 -2.596471
v 1.138608 -0.771985 -2.588072
v 1.138608 -0.773631 -2.580015
v 1.138608 -0.776286 -2.572376
v 1.138608 -0.779874 -2.565227
v 1.138608 -0.784322 -2.558642
v 1.138608 -0.789557 -2.552696
v 1.138608 -0.795503 -2.547462
v 1.138608 -0.802088 -2.543013
v 1.138608 -0.809237 -2.539425
v 1.138608 -0.816876 -2.536771
v 1.138608 -0.824933 -2.535124
v 1.138608 -0.833332 -2.534559
v 1.138659 -0.833332 -2.596471
vt 0.000000 0.000000
vt 0.000000 0.000000
vt 0.000000 0.000000
vt 0.000000 0.000000
vt 0.000000 0.000000
vt 0.000000 0.000000
vt 0.000000 0.000000
vt 0.000000 0.000000
vt 0.000000 0.000000
vt 0.000000 0.000000
vt 0.000000 0.000000
vt 0.000000 0.000000
vt 0.000000 0.000000
vt 0.000000 0.000000
vt 0.000000 0.000000
vt 0.000000 0.000000
vt 0.000000 0.000000
vt 0.000000 0.000000
vt 0.000000 0.000000
vt 0.000000 0.000000
vt 0.000000 0.000000
vt 0.000000 0.000000
vt 0.000000 0.000000
vt 0.000000 0.000000
vt 0.000000 0.000000
vt 0.000000 0.000000
vt 0.000000 0.000000
vt 0.000000 0.000000
vt 0.000000 0.000000
vt 0.000000 0.000000
vt 0.000000 0.000000
vt 0.000000 0.000000
vt 0.000000 0.000000
vt 0.000000 0.000000
vt 0.000000 0.000000
vt 0.000000 0.000000
vt 0.000000 0.000000
vt 0.000000 0.000000
vt 0.000000 0.000000
vt 0.000000 0.000000
vt 0.000000 0.000000
vt 0.000000 0.000000
vt 0.000000 0.000000
vt 0.000000 0.000000
vt 0.000000 0.000000
vt 0.000000 0.000000
vt 0.000000 0.000000
vt 0.000000 0.000000
vt 0.000000 0.000000
vt 0.000000 0.000000
vt 0.000000 0.000000
vt 0.000000 0.000000
vt 0.000000 0.000000
vt 0.000000 0.000000
vt 0.000000 0.000000
vt 0.000000 0.000000
vt 0.000000 0.000000
vt 0.000000 0.000000
vt 0.000000 0.000000
vt 0.000000 0.000000
vt 0.000000 0.000000
vt 0.000000 0.000000
vt 0.000000 0.000000
vt 0.000000 0.000000
vt 0.000000 0.000000
vt 0.000000 0.000000
vt 0.000000 0.000000
vt 0.000000 0.000000
vt 0.000000 0.000000
vt 0.000000 0.000000
vt 0.000000 0.000000
vt 0.000000 0.000000
vt 0.000000 0.000000
vt 0.000000 0.000000
vt 0.000000 0.000000
vt 0.000000 0.000000
vt 0.000000 0.000000
vt 0.000000 0.000000
vt 0.000000 0.000000
vt 0.000000 0.000000
vt 0.000000 0.000000
vt 0.000000 0.000000
vt 0.000000 0.000000
vt 0.000000 0.000000
vt 0.000000 0.000000
vt 0.000000 0.000000
vt 0.000000 0.000000
vt 0.000000 0.000000
vt 0.000000 0.000000
vt 0.000000 0.000000
vt 0.000000 0.000000
vt 0.000000 0.000000
vt 0.000000 0.000000
vt 0.000000 0.000000
vt 0.000000 0.000000
vt 0.000000 0.000000
vt 0.000000 0.000000
vt 0.000000 0.000000
vt 0.000000 0.000000
vt 0.000000 0.000000
vt 0.000000 0.000000
vt 0.000000 0.000000
vt 0.000000 0.000000
vt 0.000000 0.000000
vt 0.000000 0.000000
vt 0.000000 0.000000
vt 0.000000 0.000000
vt 0.000000 0.000000
vt 0.000000 0.000000
vt 0.000000 0.000000
vt 0.000000 0.000000
vt 0.000000 0.000000
vt 0.000000 0.000000
vt 0.000000 0.000000
vt 0.000000 0.000000
vt 0.000000 0.000000
vt 0.000000 0.000000
vt 0.000000 0.000000
vt 0.000000 0.000000
vt 0.000000 0.000000
vt 0.000000 0.000000
vt 0.000000 0.000000
vt 0.000000 0.000000
vt 0.000000 0.000000
vt 0.000000 0.000000
vt 0.000000 0.000000
vt 0.000000 0.000000
vt 0.000000 0.000000
vt 0.000000 0.000000
vt 0.000000 0.000000
vt 0.000000 0.000000
vt 0.000000 0.000000
vt 0.000000 0.000000
vt 0.000000 0.000000
vt 0.000000 0.000000
vt 0.000000 0.000000
vt 0.000000 0.000000
vt 0.000000 0.000000
vt 0.000000 0.000000
vt 0.000000 0.000000
vt 0.000000 0.000000
vt 0.000000 0.000000
vt 0.000000 0.000000
vt 0.000000 0.000000
vt 0.000000 0.000000
vt 0.000000 0.000000
vt 0.000000 0.000000
vt 0.000000 0.000000
vt 0.000000 0.000000
vt 0.000000 0.000000
vt 0.000000 0.000000
vt 0.000000 0.000000
vt 0.000000 0.000000
vt 0.000000 0.000000
vt 0.000000 0.000000
vt 0.000000 0.000000
vt 0.000000 0.000000
vt 0.000000 0.000000
vt 0.000000 0.000000
vt 0.000000 0.000000
vt 0.000000 0.000000
vt 0.000000 0.000000
vt 0.000000 0.000000
vt 0.000000 0.000000
vt 0.000000 0.000000
vt 0.000000 0.000000
vt 0.000000 0.000000
vt 0.000000 0.000000
vt 0.000000 0.000000
vt 0.000000 0.000000
vt 0.000000 0.000000
vt 0.000000 0.000000
vt 0.000000 0.000000
vt 0.000000 0.000000
vt 0.000000 0.000000
vt 0.000000 0.000000
vt 0.000000 0.000000
vt 0.000000 0.000000
vt 0.000000 0.000000
vt 0.000000 0.000000
vt 0.000000 0.000000
vt 0.000000 0.000000
vt 0.000000 0.000000
vt 0.000000 0.000000
vt 0.000000 0.000000
vt 0.000000 0.000000
vt 0.000000 0.000000
vt 0.000000 0.000000
vt 0.000000 0.000000
vt 0.000000 0.000000
vt 0.000000 0.000000
vt 0.000000 0.000000
vt 0.000000 0.000000
vt 0.000000 0.000000
vn -1.0000 -0.0021 0.0010
vn -1.0000 -0.0007 -0.0005
vn -1.0000 -0.0004 0.0007
vn -1.0000 -0.0024 -0.0016
vn -1.0000 -0.0022 -0.0011
vn -1.0000 -0.0008 0.0003
vn -1.0000 -0.0020 0.0009
vn -1.0000 -0.0003 -0.0008
vn -1.0000 -0.0020 -0.0008
vn -1.0000 -0.0008 0.0002
vn -1.0000 -0.0020 0.0008
vn -1.0000 -0.0025 -0.0019
vn -1.0000 -0.0007 -0.0004
vn -1.0000 -0.0001 0.0008
vn -1.0000 -0.0024 0.0014
vn -1.0000 -0.0007 0.0005
vn -1.0000 -0.0021 0.0009
vn -1.0000 -0.0008 -0.0001
vn -1.0000 -0.0001 -0.0008
vn -1.0000 -0.0019 -0.0008
vn -1.0000 -0.0005 -0.0007
vn -1.0000 -0.0002 0.0008
vn -1.0000 -0.0024 -0.0014
vn -1.0000 -0.0021 -0.0009
vn -1.0000 -0.0006 0.0005
vn -1.0000 -0.0004 -0.0007
vn -1.0000 -0.0020 -0.0009
vn -1.0000 -0.0008 0.0001
vn -1.0000 -0.0025 0.0019
vn -1.0000 -0.0008 -0.0003
vn -1.0000 -0.0003 0.0008
vn -1.0000 -0.0024 0.0016
vn -1.0000 -0.0002 -0.0008
vn -1.0000 -0.0022 0.0011
vn -1.0000 -0.0006 -0.0005
vn -1.0000 -0.0005 -0.0006
vn -1.0000 -0.0019 0.0008
vn -1.0000 -0.0023 -0.0012
vn 1.0000 0.0020 0.0008
vn -1.0000 -0.0005 0.0006
vn -1.0000 -0.0021 -0.0010
vn -1.0000 -0.0007 0.0004
vn -1.0000 -0.0023 0.0012
vn -1.0000 -0.0008 -0.0002
vn -1.0000 -0.0005 0.0007
vn 0.5266 0.2801 0.8026
vn 0.5267 -0.8482 0.0571
vn 0.5265 0.4769 -0.7039
vn 0.5268 -0.3813 -0.7597
vn 0.5266 0.3824 0.7593
vn 0.5267 -0.6381 0.5617
vn 0.5264 0.5626 -0.6375
vn 0.5262 0.8036 -0.2781
vn 0.5268 -0.1703 0.8328
vn 0.5267 -0.4758 -0.7044
vn 0.5267 0.1713 -0.8326
vn 0.5267 -0.0571 -0.8482
vn 0.5267 -0.8482 -0.0571
vn 0.5264 0.5626 0.6375
vn 0.5267 -0.7044 0.4758
vn 0.5262 0.8036 0.2781
vn 0.5267 -0.0571 0.8482
vn 0.5268 -0.7597 -0.3813
vn 0.5259 0.8487 -0.0560
vn 0.5266 0.0582 0.8481
vn 0.5267 -0.8328 0.1702
vn 0.5266 0.3824 -0.7593
vn 0.5268 -0.2790 -0.8029
vn 0.5265 0.4769 0.7039
vn 0.5268 -0.8029 0.2790
vn 0.5263 0.7052 -0.4751
vn 0.5261 0.8334 -0.1692
vn 0.5268 -0.3813 0.7597
vn 0.5268 -0.7044 -0.4758
vn 0.5263 0.6390 0.5610
vn 0.5268 -0.4758 0.7044
vn 0.5267 -0.8328 -0.1702
vn 0.5262 0.7605 0.3805
vn 0.5268 -0.7597 0.3813
vn 0.5263 0.6390 -0.5610
vn 0.5267 -0.5616 0.6381
vn -0.5266 -0.0582 0.8481
vn 0.5262 0.7605 -0.3805
vn 0.5266 0.1713 0.8326
vn 0.5267 -0.5616 -0.6381
vn 0.5266 0.2801 -0.8026
vn 0.5267 -0.6381 -0.5616
vn 0.5263 0.7052 0.4750
vn 0.5267 -0.1702 -0.8328
vn 0.5261 0.8334 0.1693
vn 0.5268 -0.2790 0.8029
vn 0.5268 -0.8029 -0.2790
vn 0.5259 0.8487 0.0561
vn 0.0000 0.9977 -0.0672
vn 0.0000 -0.8937 -0.4486
vn 0.0000 -0.0672 0.9977
vn -0.0000 0.9446 0.3282
vn 0.0000 -0.8286 0.5598
vn 0.0000 0.6607 0.7506
vn 0.0000 -0.9977 -0.0672
vn 0.0000 -0.0672 -0.9977
vn 0.0000 0.2003 -0.9797
vn 0.0000 -0.5598 -0.8287
vn 0.0000 -0.2003 0.9797
vn 0.0000 0.9446 -0.3282
vn 0.0000 0.6607 -0.7506
vn 0.0000 -0.7506 0.6607
vn 0.0000 0.4486 0.8937
vn 0.0000 -0.4486 -0.8937
vn 0.0000 0.5598 -0.8286
vn 0.0000 -0.9977 0.0672
vn 0.0000 0.3282 0.9446
vn 0.0000 0.9977 0.0672
vn -0.0000 -0.9446 -0.3282
vn 0.0000 -0.3282 0.9446
vn 0.0000 0.9797 0.2003
vn 0.0000 -0.2003 -0.9797
vn 0.0000 0.8286 0.5598
vn 0.0000 -0.7506 -0.6607
vn 0.0000 0.3282 -0.9446
vn 0.0000 -0.6607 -0.7506
vn 0.0000 0.2003 0.9797
vn 0.0000 0.8937 -0.4486
vn 0.0000 -0.6607 0.7506
vn 0.0000 0.7506 -0.6607
vn 0.0000 -0.8937 0.4486
vn 0.0000 0.8937 0.4486
vn 0.0000 -0.9797 -0.2003
vn 0.0000 -0.5598 0.8286
vn 0.0000 0.7506 0.6607
vn 0.0000 -0.8286 -0.5598
vn 0.0000 -0.4486 0.8937
vn 0.0000 0.9797 -0.2003
vn 0.0000 0.8286 -0.5598
vn 0.0000 -0.9446 0.3282
vn 0.0000 0.5598 0.8286
vn 0.0000 -0.3282 -0.9446
vn 0.0000 0.4486 -0.8937
vn 0.0000 -0.9797 0.2003
vn 0.0000 0.0672 0.9977
vn 0.0000 -0.5598 -0.8286
vn 0.0000 -0.0671 -0.9977
vn 0.0000 0.6608 0.7506
vn 0.0000 -0.0671 0.9977
vn 0.0000 0.0671 0.9977
vn 0.0000 0.5598 0.8287
vn 0.0000 -0.5598 0.8287
vn 0.0000 -0.6608 0.7506
vn 1.0000 0.0021 -0.0010
vn 1.0000 0.0007 0.0005
vn 1.0000 0.0004 -0.0007
vn 1.0000 0.0024 0.0016
vn 1.0000 0.0022 0.0011
vn 1.0000 0.0008 -0.0003
vn 1.0000 0.0020 -0.0008
vn 1.0000 0.0003 0.0008
vn 1.0000 0.0008 -0.0002
vn 1.0000 0.0025 0.0018
vn 1.0000 0.0007 0.0004
vn 1.0000 0.0001 -0.0008
vn 1.0000 0.0024 -0.0014
vn 1.0000 0.0007 -0.0005
vn 1.0000 0.0021 -0.0009
vn 1.0000 0.0008 0.0001
vn 1.0000 0.0001 0.0008
vn 1.0000 0.0005 0.0007
vn 1.0000 0.0024 0.0014
vn 1.0000 0.0021 0.0009
vn 1.0000 0.0006 -0.0005
vn 1.0000 0.0004 0.0007
vn 1.0000 0.0008 -0.0001
vn 1.0000 0.0019 -0.0008
vn 1.0000 0.0025 -0.0018
vn 1.0000 0.0008 0.0003
vn 1.0000 0.0003 -0.0008
vn 1.0000 0.0024 -0.0016
vn 1.0000 0.0002 0.0008
vn 1.0000 0.0022 -0.0011
vn 1.0000 0.0006 0.0005
vn 1.0000 0.0019 0.0008
vn 1.0000 0.0005 0.0006
vn 1.0000 0.0023 0.0012
vn 1.0000 0.0005 -0.0006
vn 1.0000 0.0021 0.0010
vn 1.0000 0.0007 -0.0004
vn 1.0000 0.0023 -0.0012
vn 1.0000 0.0008 0.0002
vn 1.0000 0.0005 -0.0007
vn 0.5267 -0.6381 0.5616
vn 0.5267 -0.1702 0.8328
vn 0.5268 -0.4758 -0.7044
vn 0.5266 0.1713 -0.8326
vn 0.5264 0.5627 0.6375
vn 0.5268 -0.7044 0.4758
vn 0.5259 0.8487 -0.0561
vn 0.5266 0.0581 0.8481
vn 0.5268 -0.8328 0.1702
vn 0.5265 0.4768 0.7039
vn 0.5261 0.8334 -0.1693
vn 0.5267 -0.7044 -0.4758
vn 0.5267 -0.4758 0.7044
vn 0.5267 -0.5617 0.6380
vn -0.5266 -0.0581 0.8481
vn 0.5262 0.7605 -0.3804
vn 0.5267 0.1713 0.8326
vn 0.5266 0.2800 -0.8026
vn 0.5267 -0.6380 -0.5617
vn 0.5263 0.7052 0.4751
vn 0.5268 -0.1703 -0.8328
vn 0.5261 0.8334 0.1692
vn 0.5259 0.8487 0.0560
vn 0.0000 0.5598 -0.8287
s off
f 17/1/1 49/2/1 18/3/1
f 40/4/2 49/2/2 41/5/2
f 27/6/3 49/2/3 28/7/3
f 10/8/4 49/2/4 11/9/4
f 7/10/5 49/2/5 8/11/5
f 33/12/6 49/2/6 34/13/6
f 19/14/7 49/2/7 20/15/7
f 45/16/8 49/2/8 46/17/8
f 3/18/9 49/2/9 4/19/9
f 34/13/10 49/2/10 35/20/10
f 23/21/11 49/2/11 24/22/11
f 11/9/12 49/2/12 12/23/12
f 39/24/13 49/2/13 40/4/13
f 24/22/14 49/2/14 25/25/14
f 14/26/15 49/2/15 15/27/15
f 31/28/16 49/2/16 32/29/16
f 18/3/17 49/2/17 19/14/17
f 36/30/18 49/2/18 37/31/18
f 47/32/19 49/2/19 48/33/19
f 1/34/20 49/2/20 2/35/20
f 43/36/21 49/2/21 44/37/21
f 25/25/22 49/2/22 26/38/22
f 9/39/23 49/2/23 10/8/23
f 5/40/24 49/2/24 6/41/24
f 30/42/25 49/2/25 31/28/25
f 20/15/11 49/2/11 21/43/11
f 44/37/26 49/2/26 45/16/26
f 4/19/27 49/2/27 5/40/27
f 35/20/28 49/2/28 36/30/28
f 21/43/11 49/2/11 22/44/11
f 12/23/29 49/2/29 13/45/29
f 38/46/30 49/2/30 39/24/30
f 26/38/31 49/2/31 27/6/31
f 13/45/32 49/2/32 14/26/32
f 46/17/33 49/2/33 47/32/33
f 16/47/34 49/2/34 17/1/34
f 41/5/35 49/2/35 42/48/35
f 2/35/9 49/2/9 3/18/9
f 42/48/36 49/2/36 43/36/36
f 22/44/37 49/2/37 23/21/37
f 8/11/38 49/2/38 9/39/38
f 1/34/39 49/2/39 48/33/39
f 29/49/40 49/2/40 30/42/40
f 6/41/41 49/2/41 7/10/41
f 32/29/42 49/2/42 33/12/42
f 15/27/43 49/2/43 16/47/43
f 37/31/44 49/2/44 38/46/44
f 28/7/45 49/2/45 29/49/45
f 71/50/46 118/51/46 70/52/46
f 85/53/47 132/54/47 84/55/47
f 53/56/48 102/57/48 101/58/48
f 93/59/49 142/60/49 141/61/49
f 70/52/50 117/62/50 69/63/50
f 79/64/51 128/65/51 127/66/51
f 54/67/52 103/68/52 102/57/52
f 58/69/53 107/70/53 106/71/53
f 74/72/54 123/73/54 122/74/54
f 92/75/55 141/61/55 140/76/55
f 50/77/56 99/78/56 98/79/56
f 97/80/57 144/81/57 96/82/57
f 85/53/58 134/83/58 133/84/58
f 68/85/59 115/86/59 67/87/59
f 80/88/60 129/89/60 128/65/60
f 64/90/61 111/91/61 63/92/61
f 73/93/62 122/74/62 121/94/62
f 89/95/63 136/96/63 88/97/63
f 60/98/64 109/99/64 108/100/64
f 73/93/65 120/101/65 72/102/65
f 84/55/66 131/103/66 83/104/66
f 52/105/67 101/58/67 100/106/67
f 94/107/68 143/108/68 142/60/68
f 69/63/69 116/109/69 68/85/69
f 82/110/70 131/103/70 130/111/70
f 56/112/71 105/113/71 104/114/71
f 59/115/72 108/100/72 107/70/72
f 77/116/73 124/117/73 76/118/73
f 90/119/74 137/120/74 89/95/74
f 67/87/75 114/121/75 66/122/75
f 78/123/76 125/124/76 77/116/76
f 86/125/77 135/126/77 134/83/77
f 65/127/78 112/128/78 64/90/78
f 81/129/79 130/111/79 129/89/79
f 55/130/80 104/114/80 103/68/80
f 79/64/81 126/131/81 78/123/81
f 97/80/82 98/79/82 50/77/82
f 57/132/83 106/71/83 105/113/83
f 72/102/84 119/133/84 71/50/84
f 91/134/85 140/76/85 139/135/85
f 51/136/86 100/106/86 99/78/86
f 91/134/87 138/137/87 90/119/87
f 66/122/88 113/138/88 65/127/88
f 96/82/89 143/108/89 95/139/89
f 63/92/90 110/140/90 62/141/90
f 76/118/91 123/73/91 75/142/91
f 88/97/92 135/126/92 87/143/92
f 62/141/93 109/99/93 61/144/93
f 11/9/94 61/144/94 60/98/94
f 40/4/95 88/97/95 39/24/95
f 25/25/96 73/93/96 24/22/96
f 15/27/97 63/92/97 14/26/97
f 32/29/98 80/88/98 31/28/98
f 19/14/99 67/87/99 18/3/99
f 37/31/100 85/53/100 36/30/100
f 47/32/101 97/80/101 96/82/101
f 1/34/102 51/136/102 50/77/102
f 44/37/103 92/75/103 43/36/103
f 26/38/104 74/72/104 25/25/104
f 9/39/105 59/115/105 58/69/105
f 5/40/106 55/130/106 54/67/106
f 31/28/107 79/64/107 30/42/107
f 21/43/108 69/63/108 20/15/108
f 45/16/109 93/59/109 44/37/109
f 4/19/110 54/67/110 53/56/110
f 36/30/111 84/55/111 35/20/111
f 22/44/112 70/52/112 21/43/112
f 13/45/113 61/144/113 12/23/113
f 39/24/114 87/143/114 38/46/114
f 27/6/115 75/142/115 26/38/115
f 14/26/116 62/141/116 13/45/116
f 47/32/117 95/139/117 46/17/117
f 17/1/118 65/127/118 16/47/118
f 42/48/119 90/119/119 41/5/119
f 2/35/120 52/105/120 51/136/120
f 43/36/121 91/134/121 42/48/121
f 23/21/122 71/50/122 22/44/122
f 8/11/123 58/69/123 57/132/123
f 48/33/96 50/77/96 1/34/96
f 30/42/124 78/123/124 29/49/124
f 6/41/125 56/112/125 55/130/125
f 33/12/126 81/129/126 32/29/126
f 16/47/127 64/90/127 15/27/127
f 38/46/128 86/125/128 37/31/128
f 29/49/129 77/116/129 28/7/129
f 18/3/130 66/122/130 17/1/130
f 41/5/131 89/95/131 40/4/131
f 28/7/132 76/118/132 27/6/132
f 10/8/133 60/98/133 59/115/133
f 7/10/134 57/132/134 56/112/134
f 34/13/135 82/110/135 33/12/135
f 20/15/136 68/85/136 19/14/136
f 46/17/137 94/107/137 45/16/137
f 3/18/138 53/56/138 52/105/138
f 35/20/139 83/104/139 34/13/139
f 24/22/140 72/102/140 23/21/140
f 124/117/115 171/145/115 123/73/115
f 136/96/114 183/146/114 135/126/114
f 110/140/113 157/147/113 109/99/113
f 119/133/112 166/148/112 118/51/112
f 133/84/111 180/149/111 132/54/111
f 101/58/110 150/150/110 149/151/110
f 142/60/109 189/152/109 141/61/109
f 118/51/108 165/153/108 117/62/108
f 128/65/107 175/154/107 127/66/107
f 102/57/106 151/155/106 150/150/106
f 106/71/105 155/156/105 154/157/105
f 123/73/104 170/158/104 122/74/104
f 141/61/141 188/159/141 140/76/141
f 98/79/102 147/160/102 146/161/102
f 145/162/142 192/163/142 144/81/142
f 134/83/100 181/164/100 133/84/100
f 116/109/143 163/165/143 115/86/143
f 129/89/98 176/166/98 128/65/98
f 112/128/97 159/167/97 111/91/97
f 122/74/144 169/168/144 121/94/144
f 137/120/95 184/169/95 136/96/95
f 108/100/94 157/147/94 156/170/94
f 121/94/145 168/171/145 120/101/145
f 132/54/139 179/172/139 131/103/139
f 100/106/138 149/151/138 148/173/138
f 143/108/137 190/174/137 142/60/137
f 117/62/146 164/175/146 116/109/146
f 131/103/135 178/176/135 130/111/135
f 104/114/134 153/177/134 152/178/134
f 107/70/133 156/170/133 155/156/133
f 125/124/132 172/179/132 124/117/132
f 138/137/131 185/180/131 137/120/131
f 115/86/130 162/181/130 114/121/130
f 126/131/147 173/182/147 125/124/147
f 135/126/128 182/183/128 134/83/128
f 113/138/127 160/184/127 112/128/127
f 130/111/126 177/185/126 129/89/126
f 103/68/125 152/178/125 151/155/125
f 127/66/148 174/186/148 126/131/148
f 145/162/144 146/161/144 98/79/144
f 105/113/123 154/157/123 153/177/123
f 120/101/122 167/187/122 119/133/122
f 139/135/121 188/159/121 187/188/121
f 99/78/120 148/173/120 147/160/120
f 139/135/119 186/189/119 138/137/119
f 114/121/118 161/190/118 113/138/118
f 144/81/117 191/191/117 143/108/117
f 111/91/116 158/192/116 110/140/116
f 162/181/149 163/165/149 194/193/149
f 185/180/150 186/189/150 194/193/150
f 172/179/151 173/182/151 194/193/151
f 155/156/152 156/170/152 194/193/152
f 152/178/153 153/177/153 194/193/153
f 178/176/154 179/172/154 194/193/154
f 164/175/155 165/153/155 194/193/155
f 190/174/156 191/191/156 194/193/156
f 148/173/39 149/151/39 194/193/39
f 179/172/157 180/149/157 194/193/157
f 168/171/155 169/168/155 194/193/155
f 156/170/158 157/147/158 194/193/158
f 184/169/159 185/180/159 194/193/159
f 169/168/160 170/158/160 194/193/160
f 159/167/161 160/184/161 194/193/161
f 176/166/162 177/185/162 194/193/162
f 163/165/163 164/175/163 194/193/163
f 181/164/164 182/183/164 194/193/164
f 192/163/165 193/194/165 194/193/165
f 146/161/39 147/160/39 194/193/39
f 188/159/166 189/152/166 194/193/166
f 170/158/160 171/145/160 194/193/160
f 154/157/167 155/156/167 194/193/167
f 150/150/168 151/155/168 194/193/168
f 175/154/169 176/166/169 194/193/169
f 165/153/155 166/148/155 194/193/155
f 189/152/170 190/174/170 194/193/170
f 149/151/39 150/150/39 194/193/39
f 180/149/171 181/164/171 194/193/171
f 166/148/172 167/187/172 194/193/172
f 157/147/173 158/192/173 194/193/173
f 183/146/174 184/169/174 194/193/174
f 171/145/175 172/179/175 194/193/175
f 158/192/176 159/167/176 194/193/176
f 191/191/177 192/163/177 194/193/177
f 161/190/178 162/181/178 194/193/178
f 186/189/179 187/188/179 194/193/179
f 147/160/180 148/173/180 194/193/180
f 187/188/181 188/159/181 194/193/181
f 167/187/155 168/171/155 194/193/155
f 153/177/182 154/157/182 194/193/182
f 146/161/9 193/194/9 194/193/9
f 174/186/183 175/154/183 194/193/183
f 151/155/184 152/178/184 194/193/184
f 177/185/185 178/176/185 194/193/185
f 160/184/186 161/190/186 194/193/186
f 182/183/187 183/146/187 194/193/187
f 173/182/188 174/186/188 194/193/188
f 71/50/46 119/133/46 118/51/46
f 85/53/47 133/84/47 132/54/47
f 53/56/48 54/67/48 102/57/48
f 93/59/49 94/107/49 142/60/49
f 70/52/50 118/51/50 117/62/50
f 79/64/189 80/88/189 128/65/189
f 54/67/52 55/130/52 103/68/52
f 58/69/53 59/115/53 107/70/53
f 74/72/190 75/142/190 123/73/190
f 92/75/191 93/59/191 141/61/191
f 50/77/192 51/136/192 99/78/192
f 97/80/57 145/162/57 144/81/57
f 85/53/58 86/125/58 134/83/58
f 68/85/193 116/109/193 115/86/193
f 80/88/194 81/129/194 129/89/194
f 64/90/61 112/128/61 111/91/61
f 73/93/62 74/72/62 122/74/62
f 89/95/63 137/120/63 136/96/63
f 60/98/195 61/144/195 109/99/195
f 73/93/196 121/94/196 120/101/196
f 84/55/197 132/54/197 131/103/197
f 52/105/67 53/56/67 101/58/67
f 94/107/68 95/139/68 143/108/68
f 69/63/198 117/62/198 116/109/198
f 82/110/70 83/104/70 131/103/70
f 56/112/71 57/132/71 105/113/71
f 59/115/199 60/98/199 108/100/199
f 77/116/73 125/124/73 124/117/73
f 90/119/200 138/137/200 137/120/200
f 67/87/75 115/86/75 114/121/75
f 78/123/201 126/131/201 125/124/201
f 86/125/77 87/143/77 135/126/77
f 65/127/78 113/138/78 112/128/78
f 81/129/79 82/110/79 130/111/79
f 55/130/80 56/112/80 104/114/80
f 79/64/202 127/66/202 126/131/202
f 97/80/203 145/162/203 98/79/203
f 57/132/204 58/69/204 106/71/204
f 72/102/205 120/101/205 119/133/205
f 91/134/85 92/75/85 140/76/85
f 51/136/206 52/105/206 100/106/206
f 91/134/207 139/135/207 138/137/207
f 66/122/208 114/121/208 113/138/208
f 96/82/209 144/81/209 143/108/209
f 63/92/210 111/91/210 110/140/210
f 76/118/91 124/117/91 123/73/91
f 88/97/92 136/96/92 135/126/92
f 62/141/211 110/140/211 109/99/211
f 11/9/94 12/23/94 61/144/94
f 40/4/95 89/95/95 88/97/95
f 25/25/96 74/72/96 73/93/96
f 15/27/97 64/90/97 63/92/97
f 32/29/98 81/129/98 80/88/98
f 19/14/99 68/85/99 67/87/99
f 37/31/100 86/125/100 85/53/100
f 47/32/101 48/33/101 97/80/101
f 1/34/102 2/35/102 51/136/102
f 44/37/103 93/59/103 92/75/103
f 26/38/104 75/142/104 74/72/104
f 9/39/105 10/8/105 59/115/105
f 5/40/106 6/41/106 55/130/106
f 31/28/107 80/88/107 79/64/107
f 21/43/108 70/52/108 69/63/108
f 45/16/109 94/107/109 93/59/109
f 4/19/212 5/40/212 54/67/212
f 36/30/111 85/53/111 84/55/111
f 22/44/112 71/50/112 70/52/112
f 13/45/113 62/141/113 61/144/113
f 39/24/114 88/97/114 87/143/114
f 27/6/115 76/118/115 75/142/115
f 14/26/116 63/92/116 62/141/116
f 47/32/117 96/82/117 95/139/117
f 17/1/118 66/122/118 65/127/118
f 42/48/119 91/134/119 90/119/119
f 2/35/120 3/18/120 52/105/120
f 43/36/121 92/75/121 91/134/121
f 23/21/122 72/102/122 71/50/122
f 8/11/123 9/39/123 58/69/123
f 48/33/96 97/80/96 50/77/96
f 30/42/124 79/64/124 78/123/124
f 6/41/125 7/10/125 56/112/125
f 33/12/126 82/110/126 81/129/126
f 16/47/127 65/127/127 64/90/127
f 38/46/128 87/143/128 86/125/128
f 29/49/129 78/123/129 77/116/129
f 18/3/130 67/87/130 66/122/130
f 41/5/131 90/119/131 89/95/131
f 28/7/132 77/116/132 76/118/132
f 10/8/133 11/9/133 60/98/133
f 7/10/134 8/11/134 57/132/134
f 34/13/135 83/104/135 82/110/135
f 20/15/136 69/63/136 68/85/136
f 46/17/137 95/139/137 94/107/137
f 3/18/138 4/19/138 53/56/138
f 35/20/139 84/55/139 83/104/139
f 24/22/140 73/93/140 72/102/140
f 124/117/115 172/179/115 171/145/115
f 136/96/114 184/169/114 183/146/114
f 110/140/113 158/192/113 157/147/113
f 119/133/112 167/187/112 166/148/112
f 133/84/111 181/164/111 180/149/111
f 101/58/110 102/57/110 150/150/110
f 142/60/109 190/174/109 189/152/109
f 118/51/108 166/148/108 165/153/108
f 128/65/107 176/166/107 175/154/107
f 102/57/106 103/68/106 151/155/106
f 106/71/105 107/70/105 155/156/105
f 123/73/104 171/145/104 170/158/104
f 141/61/141 189/152/141 188/159/141
f 98/79/102 99/78/102 147/160/102
f 145/162/142 193/194/142 192/163/142
f 134/83/100 182/183/100 181/164/100
f 116/109/143 164/175/143 163/165/143
f 129/89/98 177/185/98 176/166/98
f 112/128/97 160/184/97 159/167/97
f 122/74/144 170/158/144 169/168/144
f 137/120/95 185/180/95 184/169/95
f 108/100/94 109/99/94 157/147/94
f 121/94/145 169/168/145 168/171/145
f 132/54/139 180/149/139 179/172/139
f 100/106/138 101/58/138 149/151/138
f 143/108/137 191/191/137 190/174/137
f 117/62/146 165/153/146 164/175/146
f 131/103/135 179/172/135 178/176/135
f 104/114/134 105/113/134 153/177/134
f 107/70/133 108/100/133 156/170/133
f 125/124/132 173/182/132 172/179/132
f 138/137/131 186/189/131 185/180/131
f 115/86/130 163/165/130 162/181/130
f 126/131/147 174/186/147 173/182/147
f 135/126/128 183/146/128 182/183/128
f 113/138/127 161/190/127 160/184/127
f 130/111/126 178/176/126 177/185/126
f 103/68/125 104/114/125 152/178/125
f 127/66/148 175/154/148 174/186/148
f 145/162/144 193/194/144 146/161/144
f 105/113/123 106/71/123 154/157/123
f 120/101/122 168/171/122 167/187/122
f 139/135/121 140/76/121 188/159/121
f 99/78/120 100/106/120 148/173/120
f 139/135/119 187/188/119 186/189/119
f 114/121/118 162/181/118 161/190/118
f 144/81/117 192/163/117 191/191/117
f 111/91/116 159/167/116 158/192/116
