# Blender v2.79 (sub 0) OBJ File: 'm3_interior.blend'
# www.blender.org
o LB_Suspension_Mesh.008
v 1.252541 -0.843038 -2.525187
v 1.252560 -0.852348 -2.527090
v 1.252580 -0.861176 -2.530157
v 1.252600 -0.869438 -2.534304
v 1.252619 -0.877047 -2.539445
v 1.252639 -0.883919 -2.545493
v 1.252659 -0.889968 -2.552365
v 1.252678 -0.895108 -2.559974
v 1.252698 -0.899255 -2.568236
v 1.252717 -0.902323 -2.577065
v 1.252737 -0.904226 -2.586375
v 1.252757 -0.904879 -2.596081
v 1.252737 -0.904226 -2.605787
v 1.252717 -0.902323 -2.615097
v 1.252698 -0.899255 -2.623925
v 1.252678 -0.895108 -2.632187
v 1.252659 -0.889968 -2.639796
v 1.252639 -0.883919 -2.646668
v 1.252619 -0.877047 -2.652717
v 1.252600 -0.869438 -2.657857
v 1.252580 -0.861176 -2.662004
v 1.252560 -0.852348 -2.665071
v 1.252541 -0.843038 -2.666975
v 1.252521 -0.833332 -2.667628
v 1.252521 -0.823626 -2.666975
v 1.252521 -0.814315 -2.665071
v 1.252521 -0.805487 -2.662004
v 1.252521 -0.797225 -2.657857
v 1.252521 -0.789616 -2.652717
v 1.252521 -0.782744 -2.646668
v 1.252521 -0.776696 -2.639796
v 1.252521 -0.771555 -2.632187
v 1.252521 -0.767408 -2.623925
v 1.252521 -0.764341 -2.615097
v 1.252521 -0.762438 -2.605787
v 1.252521 -0.761784 -2.596081
v 1.252521 -0.762438 -2.586375
v 1.252521 -0.764341 -2.577065
v 1.252521 -0.767408 -2.568236
v 1.252521 -0.771555 -2.559974
v 1.252521 -0.776696 -2.552365
v 1.252521 -0.782744 -2.545493
v 1.252521 -0.789616 -2.539445
v 1.252521 -0.797225 -2.534304
v 1.252521 -0.805487 -2.530157
v 1.252521 -0.814315 -2.527090
v 1.252521 -0.823626 -2.525187
v 1.252521 -0.833332 -2.524534
v 1.238657 -0.915392 -2.451743
v 1.252558 -0.915392 -2.518598
v 1.252580 -0.915392 -2.522043
v 1.252602 -0.915392 -2.526701
v 1.252624 -0.915392 -2.532474
v 1.252646 -0.915392 -2.539267
v 1.252668 -0.915392 -2.546984
v 1.252690 -0.915392 -2.555531
v 1.252712 -0.915392 -2.564809
v 1.252734 -0.915392 -2.574724
v 1.252757 -0.915392 -2.585180
v 1.252779 -0.915392 -2.596081
v 1.252757 -0.915392 -2.606982
v 1.252734 -0.915392 -2.617438
v 1.252712 -0.915392 -2.627352
v 1.252690 -0.915392 -2.636631
v 1.252668 -0.915392 -2.645177
v 1.252646 -0.915392 -2.652894
v 1.252624 -0.915392 -2.659688
v 1.252602 -0.915392 -2.665461
v 1.252580 -0.915392 -2.670118
v 1.252558 -0.915392 -2.673563
v 1.238657 -0.915392 -2.740419
v 1.238642 -0.833332 -2.741749
v 1.238642 -0.751272 -2.740419
v 1.252514 -0.751272 -2.673563
v 1.252514 -0.751272 -2.670118
v 1.252514 -0.751272 -2.665461
v 1.252514 -0.751272 -2.659688
v 1.252514 -0.751272 -2.652894
v 1.252514 -0.751272 -2.645177
v 1.252514 -0.751272 -2.636631
v 1.252514 -0.751272 -2.627352
v 1.252514 -0.751272 -2.617438
v 1.252514 -0.751272 -2.606982
v 1.252514 -0.751272 -2.596081
v 1.252514 -0.751272 -2.585180
v 1.252514 -0.751272 -2.574724
v 1.252514 -0.751272 -2.564809
v 1.252514 -0.751272 -2.555531
v 1.252514 -0.751272 -2.546984
v 1.252514 -0.751272 -2.539267
v 1.252514 -0.751272 -2.532474
v 1.252514 -0.751272 -2.526701
v 1.252514 -0.751272 -2.522043
v 1.252514 -0.751272 -2.518598
v 1.238642 -0.751272 -2.451743
v 1.238642 -0.833332 -2.450413
v 1.170991 -0.843038 -2.525187
v 1.171010 -0.852348 -2.527090
v 1.171030 -0.861176 -2.530157
v 1.171050 -0.869438 -2.534304
v 1.171070 -0.877047 -2.539445
v 1.171089 -0.883919 -2.545493
v 1.171109 -0.889968 -2.552365
v 1.171128 -0.895108 -2.559974
v 1.171148 -0.899255 -2.568236
v 1.171168 -0.902323 -2.577065
v 1.171187 -0.904226 -2.586375
v 1.171207 -0.904879 -2.596081
v 1.171187 -0.904226 -2.605787
v 1.171168 -0.902323 -2.615097
v 1.171148 -0.899255 -2.623925
v 1.171128 -0.895108 -2.632187
v 1.171109 -0.889968 -2.639796
v 1.171089 -0.883919 -2.646668
v 1.171070 -0.877047 -2.652717
v 1.171050 -0.869438 -2.657857
v 1.171030 -0.861176 -2.662004
v 1.171010 -0.852348 -2.665071
v 1.170991 -0.843038 -2.666975
v 1.170971 -0.833332 -2.667628
v 1.170971 -0.823626 -2.666975
v 1.170971 -0.814315 -2.665071
v 1.170971 -0.805487 -2.662004
v 1.170971 -0.797225 -2.657857
v 1.170971 -0.789616 -2.652717
v 1.170971 -0.782744 -2.646668
v 1.170971 -0.776696 -2.639796
v 1.170971 -0.771555 -2.632187
v 1.170971 -0.767408 -2.623925
v 1.170971 -0.764341 -2.615097
v 1.170971 -0.762438 -2.605787
v 1.170971 -0.761784 -2.596081
v 1.170971 -0.762438 -2.586375
v 1.170971 -0.764341 -2.577065
v 1.170971 -0.767408 -2.568236
v 1.170971 -0.771555 -2.559974
v 1.170971 -0.776696 -2.552365
v 1.170971 -0.782744 -2.545493
v 1.170971 -0.789616 -2.539445
v 1.170971 -0.797225 -2.534304
v 1.170971 -0.805487 -2.530157
v 1.170971 -0.814316 -2.527090
v 1.170971 -0.823626 -2.525187
v 1.170971 -0.833332 -2.524534
v 1.184855 -0.915392 -2.451743
v 1.171008 -0.915392 -2.518598
v 1.171030 -0.915392 -2.522043
v 1.171052 -0.915392 -2.526701
v 1.171074 -0.915392 -2.532474
v 1.171096 -0.915392 -2.539267
v 1.171118 -0.915392 -2.546984
v 1.171140 -0.915392 -2.555531
v 1.171163 -0.915392 -2.564809
v 1.171185 -0.915392 -2.574724
v 1.171207 -0.915392 -2.585180
v 1.171229 -0.915392 -2.596081
v 1.171207 -0.915392 -2.606982
v 1.171185 -0.915392 -2.617438
v 1.171163 -0.915392 -2.627352
v 1.171140 -0.915392 -2.636631
v 1.171118 -0.915392 -2.645177
v 1.171096 -0.915392 -2.652894
v 1.171074 -0.915392 -2.659688
v 1.171052 -0.915392 -2.665461
v 1.171030 -0.915392 -2.670118
v 1.171008 -0.915392 -2.673563
v 1.184855 -0.915392 -2.740419
v 1.184841 -0.833332 -2.741749
v 1.184841 -0.751272 -2.740419
v 1.170964 -0.751272 -2.673563
v 1.170964 -0.751272 -2.670118
v 1.170964 -0.751272 -2.665461
v 1.170964 -0.751272 -2.659688
v 1.170964 -0.751272 -2.652894
v 1.170964 -0.751272 -2.645177
v 1.170964 -0.751272 -2.636631
v 1.170964 -0.751272 -2.627352
v 1.170964 -0.751272 -2.617438
v 1.170964 -0.751272 -2.606982
v 1.170964 -0.751272 -2.596081
v 1.170964 -0.751272 -2.585180
v 1.170964 -0.751272 -2.574724
v 1.170964 -0.751272 -2.564809
v 1.170964 -0.751272 -2.555531
v 1.170964 -0.751272 -2.546984
v 1.170964 -0.751272 -2.539267
v 1.170964 -0.751272 -2.532474
v 1.170964 -0.751272 -2.526701
v 1.170964 -0.751272 -2.522043
v 1.170964 -0.751272 -2.518598
v 1.184841 -0.751272 -2.451743
v 1.184841 -0.833332 -2.450413
v 1.238657 -0.915392 -2.366513
v 1.238657 -0.915392 -2.825649
v 1.238642 -0.833332 -2.827765
v 1.238642 -0.751272 -2.825649
v 1.238642 -0.751272 -2.366513
v 1.238642 -0.833332 -2.364397
v 1.184855 -0.915392 -2.366513
v 1.184855 -0.915392 -2.825649
v 1.184841 -0.833332 -2.827765
v 1.184841 -0.751272 -2.825649
v 1.184841 -0.751272 -2.366513
v 1.184841 -0.833332 -2.364397
v 0.776974 -0.883171 -2.451743
v 0.776974 -0.883171 -2.740419
v 0.776960 -0.833332 -2.741749
v 0.776960 -0.783492 -2.740419
v 0.776960 -0.783492 -2.451743
v 0.776960 -0.833332 -2.450413
v 0.776974 -0.883171 -2.366513
v 0.776974 -0.883171 -2.825649
v 0.776960 -0.833332 -2.827765
v 0.776960 -0.783492 -2.825649
v 0.776960 -0.783492 -2.366513
v 0.776960 -0.833332 -2.364397
vt 0.000000 0.000000
vt 0.000000 0.000000
vt 0.000000 0.000000
vt 0.000000 0.000000
vt 0.000000 0.000000
vt 0.000000 0.000000
vt 0.000000 0.000000
vt 0.000000 0.000000
vt 0.000000 0.000000
vt 0.000000 0.000000
vt 0.000000 0.000000
vt 0.000000 0.000000
vt 0.000000 0.000000
vt 0.000000 0.000000
vt 0.000000 0.000000
vt 0.000000 0.000000
vt 0.000000 0.000000
vt 0.000000 0.000000
vt 0.000000 0.000000
vt 0.000000 0.000000
vt 0.000000 0.000000
vt 0.000000 0.000000
vt 0.000000 0.000000
vt 0.000000 0.000000
vt 0.000000 0.000000
vt 0.000000 0.000000
vt 0.000000 0.000000
vt 0.000000 0.000000
vt 0.000000 0.000000
vt 0.000000 0.000000
vt 0.000000 0.000000
vt 0.000000 0.000000
vt 0.000000 0.000000
vt 0.000000 0.000000
vt 0.000000 0.000000
vt 0.000000 0.000000
vt 0.000000 0.000000
vt 0.000000 0.000000
vt 0.000000 0.000000
vt 0.000000 0.000000
vt 0.000000 0.000000
vt 0.000000 0.000000
vt 0.000000 0.000000
vt 0.000000 0.000000
vt 0.000000 0.000000
vt 0.000000 0.000000
vt 0.000000 0.000000
vt 0.000000 0.000000
vt 0.000000 0.000000
vt 0.000000 0.000000
vt 0.000000 0.000000
vt 0.000000 0.000000
vt 0.000000 0.000000
vt 0.000000 0.000000
vt 0.000000 0.000000
vt 0.000000 0.000000
vt 0.000000 0.000000
vt 0.000000 0.000000
vt 0.000000 0.000000
vt 0.000000 0.000000
vt 0.000000 0.000000
vt 0.000000 0.000000
vt 0.000000 0.000000
vt 0.000000 0.000000
vt 0.000000 0.000000
vt 0.000000 0.000000
vt 0.000000 0.000000
vt 0.000000 0.000000
vt 0.000000 0.000000
vt 0.000000 0.000000
vt 0.000000 0.000000
vt 0.000000 0.000000
vt 0.000000 0.000000
vt 0.000000 0.000000
vt 0.000000 0.000000
vt 0.000000 0.000000
vt 0.000000 0.000000
vt 0.000000 0.000000
vt 0.000000 0.000000
vt 0.000000 0.000000
vt 0.000000 0.000000
vt 0.000000 0.000000
vt 0.000000 0.000000
vt 0.000000 0.000000
vt 0.000000 0.000000
vt 0.000000 0.000000
vt 0.000000 0.000000
vt 0.000000 0.000000
vt 0.000000 0.000000
vt 0.000000 0.000000
vt 0.000000 0.000000
vt 0.000000 0.000000
vt 0.000000 0.000000
vt 0.000000 0.000000
vt 0.000000 0.000000
vt 0.000000 0.000000
vt 0.000000 0.000000
vt 0.000000 0.000000
vt 0.000000 0.000000
vt 0.000000 0.000000
vt 0.000000 0.000000
vt 0.000000 0.000000
vt 0.000000 0.000000
vt 0.000000 0.000000
vt 0.000000 0.000000
vt 0.000000 0.000000
vt 0.000000 0.000000
vt 0.000000 0.000000
vt 0.000000 0.000000
vt 0.000000 0.000000
vt 0.000000 0.000000
vt 0.000000 0.000000
vt 0.000000 0.000000
vt 0.000000 0.000000
vt 0.000000 0.000000
vt 0.000000 0.000000
vt 0.000000 0.000000
vt 0.000000 0.000000
vt 0.000000 0.000000
vt 0.000000 0.000000
vt 0.000000 0.000000
vt 0.000000 0.000000
vt 0.000000 0.000000
vt 0.000000 0.000000
vt 0.000000 0.000000
vt 0.000000 0.000000
vt 0.000000 0.000000
vt 0.000000 0.000000
vt 0.000000 0.000000
vt 0.000000 0.000000
vt 0.000000 0.000000
vt 0.000000 0.000000
vt 0.000000 0.000000
vt 0.000000 0.000000
vt 0.000000 0.000000
vt 0.000000 0.000000
vt 0.000000 0.000000
vt 0.000000 0.000000
vt 0.000000 0.000000
vt 0.000000 0.000000
vt 0.000000 0.000000
vt 0.000000 0.000000
vt 0.000000 0.000000
vt 0.000000 0.000000
vt 0.000000 0.000000
vt 0.000000 0.000000
vt 0.000000 0.000000
vt 0.000000 0.000000
vt 0.000000 0.000000
vt 0.000000 0.000000
vt 0.000000 0.000000
vt 0.000000 0.000000
vt 0.000000 0.000000
vt 0.000000 0.000000
vt 0.000000 0.000000
vt 0.000000 0.000000
vt 0.000000 0.000000
vt 0.000000 0.000000
vt 0.000000 0.000000
vt 0.000000 0.000000
vt 0.000000 0.000000
vt 0.000000 0.000000
vt 0.000000 0.000000
vt 0.000000 0.000000
vt 0.000000 0.000000
vt 0.000000 0.000000
vt 0.000000 0.000000
vt 0.000000 0.000000
vt 0.000000 0.000000
vt 0.000000 0.000000
vt 0.000000 0.000000
vt 0.000000 0.000000
vt 0.000000 0.000000
vt 0.000000 0.000000
vt 0.000000 0.000000
vt 0.000000 0.000000
vt 0.000000 0.000000
vt 0.000000 0.000000
vt 0.000000 0.000000
vt 0.000000 0.000000
vt 0.000000 0.000000
vt 0.000000 0.000000
vt 0.000000 0.000000
vt 0.000000 0.000000
vt 0.000000 0.000000
vt 0.000000 0.000000
vt 0.000000 0.000000
vt 0.000000 0.000000
vt 0.000000 0.000000
vt 0.000000 0.000000
vt 0.000000 0.000000
vt 0.000000 0.000000
vt 0.000000 0.000000
vt 0.000000 0.000000
vt 0.000000 0.000000
vt 0.000000 0.000000
vt 0.000000 0.000000
vt 0.000000 0.000000
vt 0.000000 0.000000
vt 0.000000 0.000000
vt 0.000000 0.000000
vt 0.000000 0.000000
vt 0.000000 0.000000
vt 0.000000 0.000000
vt 0.000000 0.000000
vt 0.000000 0.000000
vt 0.000000 0.000000
vt 0.000000 0.000000
vt 0.000000 0.000000
vt 0.000000 0.000000
vt 0.000000 0.000000
vt 0.000000 0.000000
vt 0.000000 0.000000
vt 0.000000 0.000000
vt 0.000000 0.000000
vt 0.000000 0.000000
vn 1.0000 0.0005 -0.0002
vn 1.0000 0.0006 -0.0030
vn 1.0000 0.0001 0.0002
vn 1.0000 0.0005 0.0037
vn 1.0000 0.0006 -0.0001
vn 0.9829 -0.0104 -0.1840
vn 1.0000 0.0021 0.0019
vn 1.0000 0.0003 0.0002
vn 0.9828 0.0124 -0.1840
vn 1.0000 0.0016 -0.0017
vn 1.0000 0.0002 -0.0002
vn 1.0000 0.0006 -0.0026
vn 1.0000 0.0007 0.0000
vn 0.9828 0.0124 0.1840
vn 0.9871 -0.0300 0.1570
vn 0.9874 0.0318 -0.1553
vn 1.0000 0.0016 0.0017
vn 1.0000 0.0006 0.0026
vn 1.0000 0.0005 -0.0037
vn 1.0000 0.0006 0.0030
vn 1.0000 0.0006 -0.0047
vn 1.0000 0.0021 -0.0019
vn 1.0000 0.0005 0.0002
vn 1.0000 0.0001 -0.0002
vn 1.0000 0.0019 -0.0017
vn 0.9874 0.0317 0.1553
vn 1.0000 0.0008 -0.0020
vn 1.0000 0.0002 0.0002
vn 1.0000 0.0006 0.0047
vn 0.9871 -0.0300 -0.1570
vn 1.0000 0.0010 0.0019
vn -0.9829 0.0104 -0.1840
vn 1.0000 0.0007 0.0023
vn 1.0000 0.0003 -0.0002
vn 1.0000 0.0010 -0.0019
vn 1.0000 0.0006 0.0001
vn 1.0000 0.0007 -0.0023
vn 1.0000 0.0019 0.0017
vn 1.0000 0.0008 0.0020
vn -1.0000 -0.0005 0.0000
vn -1.0000 -0.0008 0.0038
vn -1.0000 -0.0001 0.0000
vn -1.0000 -0.0005 -0.0037
vn -1.0000 -0.0006 0.0000
vn -0.9832 -0.0031 -0.1825
vn -1.0000 -0.0019 -0.0020
vn -0.9829 0.0124 -0.1839
vn -1.0000 -0.0016 0.0017
vn -1.0000 -0.0002 0.0002
vn -1.0000 -0.0009 0.0032
vn -1.0000 -0.0007 -0.0000
vn -0.9832 0.0030 0.1827
vn -0.9876 -0.0334 0.1535
vn -1.0000 -0.0002 0.0000
vn -0.9874 0.0317 -0.1552
vn -1.0000 -0.0014 -0.0022
vn -1.0000 -0.0006 -0.0026
vn -1.0000 -0.0008 0.0047
vn -1.0000 -0.0006 -0.0030
vn -1.0000 -0.0010 0.0064
vn -1.0000 -0.0021 0.0019
vn -1.0000 -0.0005 -0.0002
vn -1.0000 -0.0001 0.0002
vn -1.0000 -0.0019 0.0017
vn -0.9788 -0.0275 0.2032
vn -1.0000 -0.0012 0.0026
vn -1.0000 -0.0003 0.0000
vn -1.0000 -0.0006 -0.0047
vn -0.9789 0.0273 -0.2027
vn -1.0000 -0.0010 -0.0019
vn 0.9832 0.0031 -0.1825
vn -1.0000 -0.0007 -0.0023
vn -1.0000 -0.0003 0.0002
vn -1.0000 -0.0014 0.0024
vn -1.0000 -0.0006 -0.0001
vn -1.0000 -0.0010 0.0029
vn -1.0000 -0.0004 0.0000
vn -1.0000 -0.0017 -0.0021
vn -1.0000 -0.0008 -0.0020
vn 0.0000 0.9977 0.0672
vn 0.0000 -1.0000 0.0000
vn 0.0000 -0.0672 0.9977
vn 0.0000 1.0000 0.0000
vn 0.0000 -0.9446 0.3282
vn 0.0000 0.3282 -0.9446
vn 0.0000 -0.8286 -0.5598
vn 0.0000 -0.0671 0.9977
vn 0.0000 0.8937 0.4486
vn 0.0000 -0.9797 0.2003
vn 0.0000 -0.2004 0.9797
vn 0.0000 0.5598 0.8286
vn 0.0000 -0.9977 -0.0672
vn 0.0000 0.3282 0.9446
vn 0.0000 0.9797 -0.2003
vn 0.0000 0.9446 0.3282
vn 0.0000 -0.4486 -0.8937
vn 0.0000 0.9977 -0.0672
vn 0.0000 0.6607 -0.7506
vn -0.0000 -0.2003 -0.9797
vn 0.0000 0.2003 -0.9797
vn 0.0000 -0.9446 -0.3282
vn 0.0000 -0.6607 0.7506
vn 0.0000 0.5598 -0.8286
vn 0.0000 -0.6607 -0.7506
vn 0.0000 -0.4486 0.8937
vn -0.0787 0.9969 0.0000
vn 0.0000 0.8286 0.5598
vn 0.0000 -0.9797 -0.2003
vn 0.0000 0.0671 0.9977
vn 1.0000 0.0000 0.0000
vn 0.0000 0.7506 -0.6607
vn 0.0000 -0.3282 -0.9446
vn 0.0000 -0.0672 -0.9977
vn 0.0000 0.8937 -0.4486
vn 0.0000 0.8286 -0.5598
vn 0.0000 -0.8286 0.5598
vn 0.0000 0.7506 0.6607
vn 0.0000 -0.8937 -0.4486
vn 0.0000 -0.7506 0.6607
vn 0.0000 0.4486 -0.8937
vn 0.0000 -0.5598 -0.8286
vn 0.0000 -0.3282 0.9446
vn 0.0000 0.6607 0.7506
vn 0.0000 -0.9977 0.0672
vn 0.0000 0.2004 0.9797
vn 0.0000 0.4486 0.8937
vn 0.0000 -0.7506 -0.6607
vn 0.0000 -0.5598 0.8286
vn 0.0000 0.9446 -0.3282
vn 0.0000 0.9797 0.2003
vn 0.0000 -0.8937 0.4486
vn 0.0000 0.0258 -0.9997
vn 0.0000 -0.0258 -0.9997
vn 0.0000 0.0258 0.9997
vn 1.0000 0.0002 0.0000
vn 0.0787 0.9969 0.0000
vn 0.0000 0.0424 0.9991
vn -1.0000 0.0000 0.0000
vn 1.0000 0.0003 0.0000
vn 0.0000 -0.0424 -0.9991
vn 0.0013 -0.0162 -0.9999
vn -0.0020 0.0258 -0.9997
vn 0.0000 0.0424 -0.9991
vn 0.0000 -0.0267 0.9996
vn -0.0787 -0.9969 0.0000
vn -0.0013 -0.0162 0.9999
vn 0.0013 0.0162 0.9999
vn 1.0000 0.0004 0.0000
vn 1.0000 0.0008 -0.0038
vn 1.0000 0.0001 0.0000
vn 1.0000 0.0008 0.0047
vn 1.0000 0.0005 0.0000
vn 0.9831 -0.0028 -0.1831
vn 1.0000 0.0019 0.0020
vn 0.9831 0.0030 -0.1829
vn 1.0000 0.0014 -0.0022
vn 1.0000 0.0009 -0.0032
vn 1.0000 0.0006 0.0000
vn 0.9831 0.0030 0.1829
vn 0.9787 0.0274 0.2035
vn 0.9788 -0.0272 -0.2031
vn 1.0000 0.0014 0.0022
vn 1.0000 0.0009 0.0032
vn 1.0000 0.0008 -0.0047
vn 1.0000 0.0008 0.0038
vn 1.0000 0.0010 -0.0064
vn 1.0000 0.0019 -0.0020
vn 1.0000 0.0017 -0.0021
vn 0.9788 -0.0272 0.2031
vn 1.0000 0.0012 -0.0026
vn 1.0000 0.0010 0.0064
vn 0.9787 0.0274 -0.2035
vn 1.0000 0.0014 0.0024
vn -0.9831 0.0028 -0.1831
vn 1.0000 0.0010 0.0029
vn 1.0000 0.0014 -0.0024
vn 1.0000 0.0010 -0.0029
vn 1.0000 0.0017 0.0021
vn 1.0000 0.0012 0.0026
vn -1.0000 -0.0005 0.0002
vn -1.0000 -0.0006 0.0030
vn -1.0000 -0.0001 -0.0002
vn -1.0000 -0.0008 -0.0047
vn -1.0000 -0.0006 0.0001
vn -0.9828 -0.0144 -0.1839
vn -1.0000 -0.0021 -0.0019
vn -1.0000 -0.0003 -0.0002
vn -0.9832 0.0030 -0.1827
vn -1.0000 -0.0014 0.0022
vn -1.0000 -0.0006 0.0026
vn -0.9829 0.0124 0.1839
vn -0.9789 0.0273 0.2027
vn -0.9788 -0.0275 -0.2032
vn -1.0000 -0.0016 -0.0017
vn -1.0000 -0.0009 -0.0032
vn -1.0000 -0.0005 0.0037
vn -1.0000 -0.0008 -0.0038
vn -1.0000 -0.0006 0.0047
vn -1.0000 -0.0020 0.0020
vn -1.0000 -0.0017 0.0021
vn -0.9874 0.0317 0.1552
vn -1.0000 -0.0008 0.0020
vn -1.0000 -0.0002 -0.0002
vn -1.0000 -0.0010 -0.0064
vn -0.9876 -0.0335 -0.1535
vn -1.0000 -0.0014 -0.0024
vn 0.9828 0.0144 -0.1839
vn -1.0000 -0.0010 -0.0029
vn -1.0000 -0.0010 0.0019
vn -1.0000 -0.0007 0.0023
vn -1.0000 -0.0019 -0.0017
vn -1.0000 -0.0012 -0.0026
vn 0.0000 0.9977 -0.0671
vn -0.0020 0.0258 0.9997
vn -0.0020 -0.0258 -0.9997
vn 0.0000 -0.0267 -0.9996
vn 0.0020 0.0258 -0.9997
vn 0.0013 -0.0162 0.9999
vn 0.0000 0.0267 0.9996
s off
f 33/1/1 82/2/1 34/3/1
f 19/4/2 68/5/2 20/6/2
f 45/7/3 94/8/3 46/9/3
f 51/10/4 4/11/4 3/12/4
f 34/3/5 83/13/5 35/14/5
f 23/15/6 72/16/6 24/17/6
f 11/18/7 60/19/7 12/20/7
f 39/21/8 88/22/8 40/23/8
f 72/16/9 25/24/9 24/17/9
f 62/25/10 15/26/10 14/27/10
f 79/28/11 32/29/11 31/30/11
f 18/31/12 67/32/12 19/4/12
f 84/33/13 37/34/13 36/35/13
f 47/36/14 96/37/14 48/38/14
f 49/39/15 2/40/15 1/41/15
f 43/42/3 92/43/3 44/44/3
f 73/45/16 26/46/16 25/24/16
f 9/47/17 58/48/17 10/49/17
f 53/50/18 6/51/18 5/52/18
f 78/53/11 31/30/11 30/54/11
f 20/6/19 69/55/19 21/56/19
f 44/44/3 93/57/3 45/7/3
f 52/58/20 5/52/20 4/11/20
f 35/14/13 84/33/13 36/35/13
f 21/56/21 70/59/21 22/60/21
f 60/19/22 13/61/22 12/20/22
f 86/62/23 39/21/23 38/63/23
f 74/64/24 27/65/24 26/46/24
f 61/66/25 14/27/25 13/61/25
f 46/9/26 95/67/26 47/36/26
f 16/68/27 65/69/27 17/70/27
f 41/71/28 90/72/28 42/73/28
f 50/74/29 3/12/29 2/40/29
f 42/73/28 91/75/28 43/42/28
f 22/60/30 71/76/30 23/15/30
f 56/77/31 9/47/31 8/78/31
f 1/41/32 96/37/32 48/38/32
f 77/79/24 30/54/24 29/80/24
f 54/81/33 7/82/33 6/51/33
f 80/83/34 33/1/34 32/29/34
f 15/26/35 64/84/35 16/68/35
f 85/85/36 38/63/36 37/34/36
f 76/86/24 29/80/24 28/87/24
f 17/70/37 66/88/37 18/31/37
f 40/23/28 89/89/28 41/71/28
f 75/90/24 28/87/24 27/65/24
f 10/49/38 59/91/38 11/18/38
f 55/92/39 8/78/39 7/82/39
f 129/93/40 178/94/40 177/95/40
f 115/96/41 164/97/41 163/98/41
f 141/99/42 190/100/42 189/101/42
f 100/102/43 147/103/43 99/104/43
f 130/105/44 179/106/44 178/94/44
f 119/107/45 168/108/45 167/109/45
f 107/110/46 156/111/46 155/112/46
f 135/113/40 184/114/40 183/115/40
f 121/116/47 168/108/47 120/117/47
f 111/118/48 158/119/48 110/120/48
f 128/121/49 175/122/49 127/123/49
f 114/124/50 163/98/50 162/125/50
f 133/126/51 180/127/51 132/128/51
f 143/129/52 192/130/52 191/131/52
f 98/132/53 145/133/53 97/134/53
f 139/135/54 188/136/54 187/137/54
f 122/138/55 169/139/55 121/116/55
f 105/140/56 154/141/56 153/142/56
f 102/143/57 149/144/57 101/145/57
f 127/123/49 174/146/49 126/147/49
f 116/148/58 165/149/58 164/97/58
f 140/150/54 189/101/54 188/136/54
f 101/145/59 148/151/59 100/102/59
f 131/152/51 180/127/51 179/106/51
f 117/153/60 166/154/60 165/149/60
f 109/155/61 156/111/61 108/156/61
f 135/113/62 182/157/62 134/158/62
f 123/159/63 170/160/63 122/138/63
f 110/120/64 157/161/64 109/155/64
f 142/162/65 191/131/65 190/100/65
f 112/163/66 161/164/66 160/165/66
f 137/166/67 186/167/67 185/168/67
f 99/104/68 146/169/68 98/132/68
f 138/170/54 187/137/54 186/167/54
f 118/171/69 167/109/69 166/154/69
f 105/140/70 152/172/70 104/173/70
f 97/134/71 192/130/71 145/133/71
f 126/147/49 173/174/49 125/175/49
f 103/176/72 150/177/72 102/143/72
f 129/93/73 176/178/73 128/121/73
f 111/118/74 160/165/74 159/179/74
f 134/158/75 181/180/75 133/126/75
f 125/175/63 172/181/63 124/182/63
f 113/183/76 162/125/76 161/164/76
f 136/184/77 185/168/77 184/114/77
f 124/182/63 171/185/63 123/159/63
f 106/186/78 155/112/78 154/141/78
f 104/173/79 151/187/79 103/176/79
f 13/61/80 108/156/80 12/20/80
f 50/74/81 147/103/81 51/10/81
f 48/38/82 97/134/82 1/41/82
f 88/22/83 185/168/83 89/89/83
f 34/3/84 129/93/84 33/1/84
f 96/37/54 193/188/54 198/189/54
f 2/40/85 99/104/85 98/132/85
f 64/84/81 159/179/81 160/165/81
f 41/71/86 136/184/86 40/23/86
f 82/2/83 179/106/83 83/13/83
f 25/24/87 120/117/87 24/17/87
f 74/64/83 169/139/83 170/160/83
f 16/68/88 111/118/88 15/26/88
f 68/5/81 163/98/81 164/97/81
f 35/14/89 130/105/89 34/3/89
f 84/33/83 181/180/83 85/85/83
f 26/46/90 121/116/90 25/24/90
f 70/59/81 165/149/81 166/154/81
f 58/48/81 155/112/81 59/91/81
f 20/6/91 115/96/91 19/4/91
f 63/190/81 158/119/81 159/179/81
f 37/34/92 132/128/92 36/35/92
f 92/43/83 189/101/83 93/57/83
f 22/60/93 117/153/93 21/56/93
f 10/49/94 107/110/94 106/186/94
f 59/91/81 156/111/81 60/19/81
f 15/26/95 110/120/95 14/27/95
f 53/50/81 150/177/81 54/81/81
f 45/7/96 140/150/96 44/44/96
f 94/8/83 191/131/83 95/67/83
f 11/18/97 108/156/97 107/110/97
f 49/39/81 146/169/81 50/74/81
f 5/52/98 102/143/98 101/145/98
f 86/62/83 183/115/83 87/191/83
f 47/36/99 142/162/99 46/9/99
f 77/79/83 174/146/83 78/53/83
f 1/41/100 98/132/100 97/134/100
f 52/58/81 149/144/81 53/50/81
f 39/21/101 134/158/101 38/63/101
f 90/72/83 187/137/83 91/75/83
f 30/54/102 125/175/102 29/80/102
f 75/90/83 172/181/83 76/86/83
f 4/11/103 101/145/103 100/102/103
f 65/69/81 160/165/81 161/164/81
f 43/42/104 138/170/104 42/73/104
f 85/85/83 182/157/83 86/62/83
f 28/87/105 123/159/105 27/65/105
f 191/131/106 215/192/106 203/193/106
f 17/70/107 112/163/107 16/68/107
f 54/81/81 151/187/81 55/92/81
f 38/63/108 133/126/108 37/34/108
f 93/57/83 190/100/83 94/8/83
f 24/17/109 119/107/109 23/15/109
f 72/16/110 196/194/110 73/45/110
f 56/77/81 153/142/81 57/195/81
f 6/51/111 103/176/111 102/143/111
f 55/92/81 152/172/81 56/77/81
f 46/9/112 141/99/112 45/7/112
f 79/28/83 176/178/83 80/83/83
f 48/38/113 143/129/113 47/36/113
f 8/78/114 105/140/114 104/173/114
f 66/88/81 161/164/81 162/125/81
f 7/82/115 104/173/115 103/176/115
f 87/191/83 184/114/83 88/22/83
f 32/29/116 127/123/116 31/30/116
f 78/53/83 175/122/83 79/28/83
f 18/31/117 113/183/117 17/70/117
f 51/10/81 148/151/81 52/58/81
f 40/23/118 135/113/118 39/21/118
f 91/75/83 188/136/83 92/43/83
f 31/30/119 126/147/119 30/54/119
f 74/64/83 171/185/83 75/90/83
f 3/12/120 100/102/120 99/104/120
f 67/32/81 162/125/81 163/98/81
f 44/44/121 139/135/121 43/42/121
f 83/13/83 180/127/83 84/33/83
f 27/65/122 122/138/122 26/46/122
f 71/76/81 166/154/81 167/109/81
f 19/4/123 114/124/123 18/31/123
f 69/55/81 164/97/81 165/149/81
f 36/35/124 131/152/124 35/14/124
f 89/89/83 186/167/83 90/72/83
f 23/15/125 118/171/125 22/60/125
f 76/86/83 173/174/83 77/79/83
f 57/195/81 154/141/81 58/48/81
f 21/56/126 116/148/126 20/6/126
f 62/25/81 157/161/81 158/119/81
f 42/73/127 137/166/127 41/71/127
f 80/83/83 177/95/83 81/196/83
f 29/80/128 124/182/128 28/87/128
f 9/47/129 106/186/129 105/140/129
f 61/66/81 156/111/81 157/161/81
f 14/27/130 109/155/130 13/61/130
f 96/37/110 197/197/110 198/189/110
f 33/1/131 128/121/131 32/29/131
f 81/196/83 178/94/83 82/2/83
f 196/194/132 201/198/132 202/199/132
f 195/200/133 200/201/133 201/198/133
f 197/197/134 204/202/134 198/189/134
f 198/189/132 199/203/132 204/202/132
f 72/16/135 194/204/135 195/200/135
f 191/131/83 197/197/83 95/67/83
f 167/109/81 194/204/81 71/76/81
f 145/133/136 211/205/136 199/203/136
f 145/133/83 193/188/83 49/39/83
f 73/45/83 202/199/83 169/139/83
f 204/202/137 215/192/137 216/206/137
f 202/199/106 208/207/106 169/139/106
f 210/208/138 215/192/138 209/209/138
f 207/210/138 214/211/138 213/212/138
f 210/208/139 211/205/139 205/213/139
f 207/210/67 212/214/67 206/215/67
f 201/198/140 212/214/140 213/212/140
f 192/130/141 209/209/141 191/131/141
f 201/198/142 214/211/142 202/199/142
f 204/202/143 211/205/143 216/206/143
f 168/108/144 208/207/144 207/210/144
f 167/109/145 212/214/145 200/201/145
f 192/130/146 205/213/146 145/133/146
f 168/108/147 206/215/147 167/109/147
f 33/1/148 81/196/148 82/2/148
f 19/4/149 67/32/149 68/5/149
f 45/7/150 93/57/150 94/8/150
f 51/10/151 52/58/151 4/11/151
f 34/3/152 82/2/152 83/13/152
f 23/15/153 71/76/153 72/16/153
f 11/18/154 59/91/154 60/19/154
f 39/21/148 87/191/148 88/22/148
f 72/16/155 73/45/155 25/24/155
f 62/25/156 63/190/156 15/26/156
f 79/28/148 80/83/148 32/29/148
f 18/31/157 66/88/157 67/32/157
f 84/33/158 85/85/158 37/34/158
f 47/36/159 95/67/159 96/37/159
f 49/39/160 50/74/160 2/40/160
f 43/42/135 91/75/135 92/43/135
f 73/45/161 74/64/161 26/46/161
f 9/47/162 57/195/162 58/48/162
f 53/50/163 54/81/163 6/51/163
f 78/53/139 79/28/139 31/30/139
f 20/6/164 68/5/164 69/55/164
f 44/44/135 92/43/135 93/57/135
f 52/58/165 53/50/165 5/52/165
f 35/14/158 83/13/158 84/33/158
f 21/56/166 69/55/166 70/59/166
f 60/19/167 61/66/167 13/61/167
f 86/62/148 87/191/148 39/21/148
f 74/64/150 75/90/150 27/65/150
f 61/66/168 62/25/168 14/27/168
f 46/9/169 94/8/169 95/67/169
f 16/68/170 64/84/170 65/69/170
f 41/71/139 89/89/139 90/72/139
f 50/74/171 51/10/171 3/12/171
f 42/73/135 90/72/135 91/75/135
f 22/60/172 70/59/172 71/76/172
f 56/77/173 57/195/173 9/47/173
f 1/41/174 49/39/174 96/37/174
f 77/79/135 78/53/135 30/54/135
f 54/81/175 55/92/175 7/82/175
f 80/83/148 81/196/148 33/1/148
f 15/26/176 63/190/176 64/84/176
f 85/85/152 86/62/152 38/63/152
f 76/86/135 77/79/135 29/80/135
f 17/70/177 65/69/177 66/88/177
f 40/23/148 88/22/148 89/89/148
f 75/90/135 76/86/135 28/87/135
f 10/49/178 58/48/178 59/91/178
f 55/92/179 56/77/179 8/78/179
f 129/93/180 130/105/180 178/94/180
f 115/96/181 116/148/181 164/97/181
f 141/99/182 142/162/182 190/100/182
f 100/102/183 148/151/183 147/103/183
f 130/105/184 131/152/184 179/106/184
f 119/107/185 120/117/185 168/108/185
f 107/110/186 108/156/186 156/111/186
f 135/113/187 136/184/187 184/114/187
f 121/116/188 169/139/188 168/108/188
f 111/118/189 159/179/189 158/119/189
f 128/121/77 176/178/77 175/122/77
f 114/124/190 115/96/190 163/98/190
f 133/126/51 181/180/51 180/127/51
f 143/129/191 144/216/191 192/130/191
f 98/132/192 146/169/192 145/133/192
f 139/135/182 140/150/182 188/136/182
f 122/138/193 170/160/193 169/139/193
f 105/140/194 106/186/194 154/141/194
f 102/143/195 150/177/195 149/144/195
f 127/123/67 175/122/67 174/146/67
f 116/148/196 117/153/196 165/149/196
f 140/150/182 141/99/182 189/101/182
f 101/145/197 149/144/197 148/151/197
f 131/152/51 132/128/51 180/127/51
f 117/153/198 118/171/198 166/154/198
f 109/155/199 157/161/199 156/111/199
f 135/113/40 183/115/40 182/157/40
f 123/159/42 171/185/42 170/160/42
f 110/120/200 158/119/200 157/161/200
f 142/162/201 143/129/201 191/131/201
f 112/163/202 113/183/202 161/164/202
f 137/166/203 138/170/203 186/167/203
f 99/104/204 147/103/204 146/169/204
f 138/170/203 139/135/203 187/137/203
f 118/171/205 119/107/205 167/109/205
f 105/140/206 153/142/206 152/172/206
f 97/134/207 144/216/207 192/130/207
f 126/147/54 174/146/54 173/174/54
f 103/176/208 151/187/208 150/177/208
f 129/93/40 177/95/40 176/178/40
f 111/118/209 112/163/209 160/165/209
f 134/158/44 182/157/44 181/180/44
f 125/175/54 173/174/54 172/181/54
f 113/183/210 114/124/210 162/125/210
f 136/184/203 137/166/203 185/168/203
f 124/182/54 172/181/54 171/185/54
f 106/186/211 107/110/211 155/112/211
f 104/173/212 152/172/212 151/187/212
f 13/61/80 109/155/80 108/156/80
f 50/74/81 146/169/81 147/103/81
f 48/38/82 144/216/82 97/134/82
f 88/22/83 184/114/83 185/168/83
f 34/3/84 130/105/84 129/93/84
f 96/37/54 49/39/54 193/188/54
f 2/40/85 3/12/85 99/104/85
f 64/84/81 63/190/81 159/179/81
f 41/71/86 137/166/86 136/184/86
f 82/2/83 178/94/83 179/106/83
f 25/24/87 121/116/87 120/117/87
f 74/64/83 73/45/83 169/139/83
f 16/68/88 112/163/88 111/118/88
f 68/5/81 67/32/81 163/98/81
f 35/14/89 131/152/89 130/105/89
f 84/33/83 180/127/83 181/180/83
f 26/46/90 122/138/90 121/116/90
f 70/59/81 69/55/81 165/149/81
f 58/48/81 154/141/81 155/112/81
f 20/6/91 116/148/91 115/96/91
f 63/190/81 62/25/81 158/119/81
f 37/34/92 133/126/92 132/128/92
f 92/43/83 188/136/83 189/101/83
f 22/60/93 118/171/93 117/153/93
f 10/49/94 11/18/94 107/110/94
f 59/91/81 155/112/81 156/111/81
f 15/26/95 111/118/95 110/120/95
f 53/50/81 149/144/81 150/177/81
f 45/7/96 141/99/96 140/150/96
f 94/8/83 190/100/83 191/131/83
f 11/18/213 12/20/213 108/156/213
f 49/39/81 145/133/81 146/169/81
f 5/52/98 6/51/98 102/143/98
f 86/62/83 182/157/83 183/115/83
f 47/36/99 143/129/99 142/162/99
f 77/79/83 173/174/83 174/146/83
f 1/41/100 2/40/100 98/132/100
f 52/58/81 148/151/81 149/144/81
f 39/21/101 135/113/101 134/158/101
f 90/72/83 186/167/83 187/137/83
f 30/54/102 126/147/102 125/175/102
f 75/90/83 171/185/83 172/181/83
f 4/11/103 5/52/103 101/145/103
f 65/69/81 64/84/81 160/165/81
f 43/42/104 139/135/104 138/170/104
f 85/85/83 181/180/83 182/157/83
f 28/87/105 124/182/105 123/159/105
f 191/131/106 209/209/106 215/192/106
f 17/70/107 113/183/107 112/163/107
f 54/81/81 150/177/81 151/187/81
f 38/63/108 134/158/108 133/126/108
f 93/57/83 189/101/83 190/100/83
f 24/17/109 120/117/109 119/107/109
f 72/16/110 195/200/110 196/194/110
f 56/77/81 152/172/81 153/142/81
f 6/51/111 7/82/111 103/176/111
f 55/92/81 151/187/81 152/172/81
f 46/9/112 142/162/112 141/99/112
f 79/28/83 175/122/83 176/178/83
f 48/38/113 144/216/113 143/129/113
f 8/78/114 9/47/114 105/140/114
f 66/88/81 65/69/81 161/164/81
f 7/82/115 8/78/115 104/173/115
f 87/191/83 183/115/83 184/114/83
f 32/29/116 128/121/116 127/123/116
f 78/53/83 174/146/83 175/122/83
f 18/31/117 114/124/117 113/183/117
f 51/10/81 147/103/81 148/151/81
f 40/23/118 136/184/118 135/113/118
f 91/75/83 187/137/83 188/136/83
f 31/30/119 127/123/119 126/147/119
f 74/64/83 170/160/83 171/185/83
f 3/12/120 4/11/120 100/102/120
f 67/32/81 66/88/81 162/125/81
f 44/44/121 140/150/121 139/135/121
f 83/13/83 179/106/83 180/127/83
f 27/65/122 123/159/122 122/138/122
f 71/76/81 70/59/81 166/154/81
f 19/4/123 115/96/123 114/124/123
f 69/55/81 68/5/81 164/97/81
f 36/35/124 132/128/124 131/152/124
f 89/89/83 185/168/83 186/167/83
f 23/15/125 119/107/125 118/171/125
f 76/86/83 172/181/83 173/174/83
f 57/195/81 153/142/81 154/141/81
f 21/56/126 117/153/126 116/148/126
f 62/25/81 61/66/81 157/161/81
f 42/73/127 138/170/127 137/166/127
f 80/83/83 176/178/83 177/95/83
f 29/80/128 125/175/128 124/182/128
f 9/47/129 10/49/129 106/186/129
f 61/66/81 60/19/81 156/111/81
f 14/27/130 110/120/130 109/155/130
f 96/37/110 95/67/110 197/197/110
f 33/1/131 129/93/131 128/121/131
f 81/196/83 177/95/83 178/94/83
f 196/194/132 195/200/132 201/198/132
f 195/200/133 194/204/133 200/201/133
f 197/197/134 203/193/134 204/202/134
f 198/189/132 193/188/132 199/203/132
f 72/16/135 71/76/135 194/204/135
f 191/131/83 203/193/83 197/197/83
f 167/109/81 200/201/81 194/204/81
f 145/133/136 205/213/136 211/205/136
f 145/133/83 199/203/83 193/188/83
f 73/45/83 196/194/83 202/199/83
f 204/202/214 203/193/214 215/192/214
f 202/199/106 214/211/106 208/207/106
f 210/208/138 216/206/138 215/192/138
f 207/210/138 208/207/138 214/211/138
f 210/208/139 216/206/139 211/205/139
f 207/210/67 213/212/67 212/214/67
f 201/198/215 200/201/215 212/214/215
f 192/130/216 210/208/216 209/209/216
f 201/198/143 213/212/143 214/211/143
f 204/202/217 199/203/217 211/205/217
f 168/108/218 169/139/218 208/207/218
f 167/109/145 206/215/145 212/214/145
f 192/130/144 210/208/144 205/213/144
f 168/108/219 207/210/219 206/215/219
