# Blender v2.79 (sub 0) OBJ File: 'm3_interior.blend'
# www.blender.org
o RB_Axle_Mesh.011
v -1.639257 -0.853252 -2.450971
v -1.639297 -0.872360 -2.454878
v -1.639337 -0.890479 -2.461173
v -1.639378 -0.907435 -2.469684
v -1.639418 -0.923052 -2.480233
v -1.639458 -0.937155 -2.492648
v -1.639499 -0.949569 -2.506751
v -1.639539 -0.960119 -2.522368
v -1.639579 -0.968630 -2.539324
v -1.639620 -0.974926 -2.557443
v -1.639660 -0.978832 -2.576551
v -1.639700 -0.980173 -2.596471
v -1.639660 -0.978832 -2.616391
v -1.639620 -0.974926 -2.635499
v -1.639579 -0.968630 -2.653618
v -1.639539 -0.960119 -2.670573
v -1.639499 -0.949569 -2.686191
v -1.639458 -0.937155 -2.700294
v -1.639418 -0.923052 -2.712708
v -1.639378 -0.907435 -2.723258
v -1.639337 -0.890479 -2.731769
v -1.639297 -0.872360 -2.738065
v -1.639257 -0.853252 -2.741970
v -1.639216 -0.833332 -2.743312
v -1.639216 -0.813411 -2.741970
v -1.639216 -0.794304 -2.738065
v -1.639216 -0.776185 -2.731769
v -1.639216 -0.759229 -2.723258
v -1.639216 -0.743612 -2.712708
v -1.639216 -0.729509 -2.700294
v -1.639216 -0.717095 -2.686191
v -1.639216 -0.706545 -2.670573
v -1.639216 -0.698034 -2.653618
v -1.639216 -0.691738 -2.635499
v -1.639216 -0.687832 -2.616391
v -1.639216 -0.686491 -2.596471
v -1.639216 -0.687832 -2.576551
v -1.639216 -0.691738 -2.557443
v -1.639216 -0.698034 -2.539324
v -1.639216 -0.706545 -2.522368
v -1.639216 -0.717095 -2.506751
v -1.639216 -0.729509 -2.492648
v -1.639216 -0.743612 -2.480233
v -1.639216 -0.759229 -2.469684
v -1.639216 -0.776185 -2.461173
v -1.639216 -0.794304 -2.454878
v -1.639216 -0.813411 -2.450971
v -1.639216 -0.833332 -2.449630
v -1.639337 -0.833332 -2.596471
v -1.427129 -0.853252 -2.450971
v -1.427169 -0.872360 -2.454878
v -1.427210 -0.890479 -2.461173
v -1.427250 -0.907435 -2.469684
v -1.427290 -0.923052 -2.480233
v -1.427331 -0.937155 -2.492648
v -1.427371 -0.949569 -2.506751
v -1.427411 -0.960119 -2.522368
v -1.427452 -0.968630 -2.539324
v -1.427492 -0.974926 -2.557443
v -1.427532 -0.978832 -2.576551
v -1.427573 -0.980172 -2.596471
v -1.427532 -0.978832 -2.616391
v -1.427492 -0.974926 -2.635499
v -1.427452 -0.968630 -2.653618
v -1.427411 -0.960119 -2.670573
v -1.427371 -0.949569 -2.686191
v -1.427331 -0.937155 -2.700294
v -1.427290 -0.923052 -2.712708
v -1.427250 -0.907435 -2.723258
v -1.427210 -0.890479 -2.731769
v -1.427169 -0.872360 -2.738065
v -1.427129 -0.853252 -2.741970
v -1.427089 -0.833332 -2.743312
v -1.427089 -0.813411 -2.741970
v -1.427089 -0.794304 -2.738065
v -1.427089 -0.776185 -2.731769
v -1.427089 -0.759229 -2.723258
v -1.427089 -0.743612 -2.712708
v -1.427089 -0.729509 -2.700294
v -1.427089 -0.717095 -2.686191
v -1.427089 -0.706545 -2.670573
v -1.427089 -0.698034 -2.653618
v -1.427089 -0.691738 -2.635499
v -1.427089 -0.687832 -2.616391
v -1.427089 -0.686491 -2.596471
v -1.427089 -0.687832 -2.576551
v -1.427089 -0.691738 -2.557443
v -1.427089 -0.698034 -2.539324
v -1.427089 -0.706545 -2.522368
v -1.427089 -0.717095 -2.506751
v -1.427089 -0.729509 -2.492648
v -1.427089 -0.743612 -2.480233
v -1.427089 -0.759229 -2.469684
v -1.427089 -0.776185 -2.461173
v -1.427089 -0.794304 -2.454878
v -1.427089 -0.813411 -2.450971
v -1.427089 -0.833332 -2.449630
v -1.290335 -0.841731 -2.535124
v -1.290352 -0.849787 -2.536771
v -1.290369 -0.857427 -2.539425
v -1.290386 -0.864576 -2.543013
v -1.290403 -0.871161 -2.547462
v -1.290420 -0.877107 -2.552696
v -1.290437 -0.882341 -2.558642
v -1.290454 -0.886789 -2.565227
v -1.290471 -0.890378 -2.572376
v -1.290488 -0.893032 -2.580015
v -1.290505 -0.894679 -2.588072
v -1.290522 -0.895244 -2.596471
v -1.290505 -0.894679 -2.604870
v -1.290488 -0.893032 -2.612926
v -1.290471 -0.890378 -2.620566
v -1.290454 -0.886789 -2.627715
v -1.290437 -0.882341 -2.634300
v -1.290420 -0.877107 -2.640246
v -1.290403 -0.871161 -2.645480
v -1.290386 -0.864576 -2.649928
v -1.290369 -0.857427 -2.653517
v -1.290352 -0.849787 -2.656171
v -1.290335 -0.841731 -2.657818
v -1.290318 -0.833332 -2.658383
v -1.290318 -0.824933 -2.657818
v -1.290318 -0.816877 -2.656171
v -1.290318 -0.809237 -2.653517
v -1.290318 -0.802088 -2.649928
v -1.290318 -0.795503 -2.645480
v -1.290318 -0.789557 -2.640246
v -1.290318 -0.784323 -2.634300
v -1.290318 -0.779874 -2.627715
v -1.290318 -0.776286 -2.620566
v -1.290318 -0.773632 -2.612926
v -1.290318 -0.771985 -2.604870
v -1.290318 -0.771419 -2.596471
v -1.290318 -0.771985 -2.588072
v -1.290318 -0.773632 -2.580015
v -1.290318 -0.776286 -2.572376
v -1.290318 -0.779874 -2.565227
v -1.290318 -0.784323 -2.558642
v -1.290318 -0.789557 -2.552696
v -1.290318 -0.795503 -2.547462
v -1.290318 -0.802088 -2.543013
v -1.290318 -0.809237 -2.539425
v -1.290318 -0.816877 -2.536771
v -1.290318 -0.824933 -2.535124
v -1.290318 -0.833332 -2.534559
v -1.138625 -0.841731 -2.535124
v -1.138642 -0.849787 -2.536771
v -1.138659 -0.857427 -2.539425
v -1.138676 -0.864576 -2.543013
v -1.138693 -0.871161 -2.547462
v -1.138710 -0.877107 -2.552696
v -1.138727 -0.882341 -2.558642
v -1.138744 -0.886789 -2.565227
v -1.138761 -0.890378 -2.572376
v -1.138778 -0.893032 -2.580015
v -1.138795 -0.894679 -2.588072
v -1.138812 -0.895244 -2.596471
v -1.138795 -0.894679 -2.604870
v -1.138778 -0.893032 -2.612926
v -1.138761 -0.890378 -2.620566
v -1.138744 -0.886789 -2.627715
v -1.138727 -0.882341 -2.634300
v -1.138710 -0.877107 -2.640246
v -1.138693 -0.871161 -2.645480
v -1.138676 -0.864576 -2.649928
v -1.138659 -0.857427 -2.653517
v -1.138642 -0.849787 -2.656171
v -1.138625 -0.841731 -2.657818
v -1.138608 -0.833332 -2.658383
v -1.138608 -0.824933 -2.657818
v -1.138608 -0.816877 -2.656171
v -1.138608 -0.809237 -2.653517
v -1.138608 -0.802088 -2.649928
v -1.138608 -0.795503 -2.645480
v -1.138608 -0.789557 -2.640246
v -1.138608 -0.784323 -2.634300
v -1.138608 -0.779874 -2.627715
v -1.138608 -0.776286 -2.620566
v -1.138608 -0.773632 -2.612926
v -1.138608 -0.771985 -2.604870
v -1.138608 -0.771419 -2.596471
v -1.138608 -0.771985 -2.588072
v -1.138608 -0.773632 -2.580015
v -1.138608 -0.776286 -2.572376
v -1.138608 -0.779874 -2.565227
v -1.138608 -0.784323 -2.558642
v -1.138608 -0.789557 -2.552696
v -1.138608 -0.795503 -2.547462
v -1.138608 -0.802088 -2.543013
v -1.138608 -0.809237 -2.539425
v -1.138608 -0.816877 -2.536771
v -1.138608 -0.824933 -2.535124
v -1.138608 -0.833332 -2.534559
v -1.138659 -0.833332 -2.596471
vt 0.000000 0.000000
vt 0.000000 0.000000
vt 0.000000 0.000000
vt 0.000000 0.000000
vt 0.000000 0.000000
vt 0.000000 0.000000
vt 0.000000 0.000000
vt 0.000000 0.000000
vt 0.000000 0.000000
vt 0.000000 0.000000
vt 0.000000 0.000000
vt 0.000000 0.000000
vt 0.000000 0.000000
vt 0.000000 0.000000
vt 0.000000 0.000000
vt 0.000000 0.000000
vt 0.000000 0.000000
vt 0.000000 0.000000
vt 0.000000 0.000000
vt 0.000000 0.000000
vt 0.000000 0.000000
vt 0.000000 0.000000
vt 0.000000 0.000000
vt 0.000000 0.000000
vt 0.000000 0.000000
vt 0.000000 0.000000
vt 0.000000 0.000000
vt 0.000000 0.000000
vt 0.000000 0.000000
vt 0.000000 0.000000
vt 0.000000 0.000000
vt 0.000000 0.000000
vt 0.000000 0.000000
vt 0.000000 0.000000
vt 0.000000 0.000000
vt 0.000000 0.000000
vt 0.000000 0.000000
vt 0.000000 0.000000
vt 0.000000 0.000000
vt 0.000000 0.000000
vt 0.000000 0.000000
vt 0.000000 0.000000
vt 0.000000 0.000000
vt 0.000000 0.000000
vt 0.000000 0.000000
vt 0.000000 0.000000
vt 0.000000 0.000000
vt 0.000000 0.000000
vt 0.000000 0.000000
vt 0.000000 0.000000
vt 0.000000 0.000000
vt 0.000000 0.000000
vt 0.000000 0.000000
vt 0.000000 0.000000
vt 0.000000 0.000000
vt 0.000000 0.000000
vt 0.000000 0.000000
vt 0.000000 0.000000
vt 0.000000 0.000000
vt 0.000000 0.000000
vt 0.000000 0.000000
vt 0.000000 0.000000
vt 0.000000 0.000000
vt 0.000000 0.000000
vt 0.000000 0.000000
vt 0.000000 0.000000
vt 0.000000 0.000000
vt 0.000000 0.000000
vt 0.000000 0.000000
vt 0.000000 0.000000
vt 0.000000 0.000000
vt 0.000000 0.000000
vt 0.000000 0.000000
vt 0.000000 0.000000
vt 0.000000 0.000000
vt 0.000000 0.000000
vt 0.000000 0.000000
vt 0.000000 0.000000
vt 0.000000 0.000000
vt 0.000000 0.000000
vt 0.000000 0.000000
vt 0.000000 0.000000
vt 0.000000 0.000000
vt 0.000000 0.000000
vt 0.000000 0.000000
vt 0.000000 0.000000
vt 0.000000 0.000000
vt 0.000000 0.000000
vt 0.000000 0.000000
vt 0.000000 0.000000
vt 0.000000 0.000000
vt 0.000000 0.000000
vt 0.000000 0.000000
vt 0.000000 0.000000
vt 0.000000 0.000000
vt 0.000000 0.000000
vt 0.000000 0.000000
vt 0.000000 0.000000
vt 0.000000 0.000000
vt 0.000000 0.000000
vt 0.000000 0.000000
vt 0.000000 0.000000
vt 0.000000 0.000000
vt 0.000000 0.000000
vt 0.000000 0.000000
vt 0.000000 0.000000
vt 0.000000 0.000000
vt 0.000000 0.000000
vt 0.000000 0.000000
vt 0.000000 0.000000
vt 0.000000 0.000000
vt 0.000000 0.000000
vt 0.000000 0.000000
vt 0.000000 0.000000
vt 0.000000 0.000000
vt 0.000000 0.000000
vt 0.000000 0.000000
vt 0.000000 0.000000
vt 0.000000 0.000000
vt 0.000000 0.000000
vt 0.000000 0.000000
vt 0.000000 0.000000
vt 0.000000 0.000000
vt 0.000000 0.000000
vt 0.000000 0.000000
vt 0.000000 0.000000
vt 0.000000 0.000000
vt 0.000000 0.000000
vt 0.000000 0.000000
vt 0.000000 0.000000
vt 0.000000 0.000000
vt 0.000000 0.000000
vt 0.000000 0.000000
vt 0.000000 0.000000
vt 0.000000 0.000000
vt 0.000000 0.000000
vt 0.000000 0.000000
vt 0.000000 0.000000
vt 0.000000 0.000000
vt 0.000000 0.000000
vt 0.000000 0.000000
vt 0.000000 0.000000
vt 0.000000 0.000000
vt 0.000000 0.000000
vt 0.000000 0.000000
vt 0.000000 0.000000
vt 0.000000 0.000000
vt 0.000000 0.000000
vt 0.000000 0.000000
vt 0.000000 0.000000
vt 0.000000 0.000000
vt 0.000000 0.000000
vt 0.000000 0.000000
vt 0.000000 0.000000
vt 0.000000 0.000000
vt 0.000000 0.000000
vt 0.000000 0.000000
vt 0.000000 0.000000
vt 0.000000 0.000000
vt 0.000000 0.000000
vt 0.000000 0.000000
vt 0.000000 0.000000
vt 0.000000 0.000000
vt 0.000000 0.000000
vt 0.000000 0.000000
vt 0.000000 0.000000
vt 0.000000 0.000000
vt 0.000000 0.000000
vt 0.000000 0.000000
vt 0.000000 0.000000
vt 0.000000 0.000000
vt 0.000000 0.000000
vt 0.000000 0.000000
vt 0.000000 0.000000
vt 0.000000 0.000000
vt 0.000000 0.000000
vt 0.000000 0.000000
vt 0.000000 0.000000
vt 0.000000 0.000000
vt 0.000000 0.000000
vt 0.000000 0.000000
vt 0.000000 0.000000
vt 0.000000 0.000000
vt 0.000000 0.000000
vt 0.000000 0.000000
vt 0.000000 0.000000
vt 0.000000 0.000000
vt 0.000000 0.000000
vt 0.000000 0.000000
vt 0.000000 0.000000
vt 0.000000 0.000000
vt 0.000000 0.000000
vt 0.000000 0.000000
vt 0.000000 0.000000
vn 1.0000 -0.0021 0.0010
vn 1.0000 -0.0007 -0.0005
vn 1.0000 -0.0004 0.0007
vn 1.0000 -0.0024 -0.0016
vn 1.0000 -0.0022 -0.0011
vn 1.0000 -0.0008 0.0003
vn 1.0000 -0.0020 0.0009
vn 1.0000 -0.0003 -0.0008
vn 1.0000 -0.0020 -0.0008
vn 1.0000 -0.0008 0.0002
vn 1.0000 -0.0020 0.0008
vn 1.0000 -0.0025 -0.0019
vn 1.0000 -0.0007 -0.0004
vn 1.0000 -0.0001 0.0008
vn 1.0000 -0.0024 0.0014
vn 1.0000 -0.0007 0.0005
vn 1.0000 -0.0021 0.0009
vn 1.0000 -0.0008 -0.0001
vn 1.0000 -0.0001 -0.0008
vn 1.0000 -0.0019 -0.0008
vn 1.0000 -0.0005 -0.0007
vn 1.0000 -0.0002 0.0008
vn 1.0000 -0.0024 -0.0014
vn 1.0000 -0.0021 -0.0009
vn 1.0000 -0.0006 0.0005
vn 1.0000 -0.0004 -0.0007
vn 1.0000 -0.0020 -0.0009
vn 1.0000 -0.0008 0.0001
vn 1.0000 -0.0025 0.0019
vn 1.0000 -0.0008 -0.0003
vn 1.0000 -0.0003 0.0008
vn 1.0000 -0.0024 0.0016
vn 1.0000 -0.0002 -0.0008
vn 1.0000 -0.0022 0.0011
vn 1.0000 -0.0006 -0.0005
vn 1.0000 -0.0005 -0.0006
vn 1.0000 -0.0019 0.0008
vn 1.0000 -0.0023 -0.0012
vn -1.0000 0.0020 0.0008
vn 1.0000 -0.0005 0.0006
vn 1.0000 -0.0021 -0.0010
vn 1.0000 -0.0007 0.0004
vn 1.0000 -0.0023 0.0012
vn 1.0000 -0.0008 -0.0002
vn 1.0000 -0.0005 0.0007
vn -0.5266 0.2801 0.8026
vn -0.5267 -0.8482 0.0571
vn -0.5265 0.4769 -0.7039
vn -0.5268 -0.3813 -0.7597
vn -0.5266 0.3824 0.7593
vn -0.5267 -0.6381 0.5616
vn -0.5264 0.5626 -0.6375
vn -0.5262 0.8036 -0.2781
vn -0.5267 -0.1702 0.8328
vn -0.5267 -0.4758 -0.7044
vn -0.5266 0.1713 -0.8326
vn -0.5267 -0.0571 -0.8482
vn -0.5267 -0.8482 -0.0571
vn -0.5264 0.5626 0.6375
vn -0.5268 -0.7044 0.4758
vn -0.5262 0.8036 0.2781
vn -0.5267 -0.0571 0.8482
vn -0.5268 -0.7597 -0.3813
vn -0.5259 0.8487 -0.0561
vn -0.5266 0.0582 0.8481
vn -0.5267 -0.8328 0.1702
vn -0.5266 0.3824 -0.7593
vn -0.5268 -0.2790 -0.8029
vn -0.5265 0.4769 0.7039
vn -0.5268 -0.8029 0.2790
vn -0.5263 0.7052 -0.4751
vn -0.5261 0.8334 -0.1693
vn -0.5268 -0.3813 0.7597
vn -0.5268 -0.7044 -0.4758
vn -0.5263 0.6390 0.5610
vn -0.5268 -0.4758 0.7044
vn -0.5267 -0.8328 -0.1702
vn -0.5262 0.7605 0.3805
vn -0.5268 -0.7597 0.3813
vn -0.5263 0.6390 -0.5610
vn -0.5267 -0.5616 0.6381
vn 0.5266 -0.0582 0.8481
vn -0.5262 0.7605 -0.3805
vn -0.5266 0.1713 0.8326
vn -0.5267 -0.5616 -0.6381
vn -0.5266 0.2800 -0.8026
vn -0.5267 -0.6381 -0.5616
vn -0.5263 0.7052 0.4751
vn -0.5267 -0.1703 -0.8328
vn -0.5261 0.8334 0.1693
vn -0.5268 -0.2790 0.8029
vn -0.5268 -0.8029 -0.2790
vn -0.5259 0.8487 0.0561
vn -0.0000 0.9977 -0.0672
vn 0.0000 -0.8937 -0.4486
vn 0.0000 -0.0672 0.9977
vn 0.0000 0.9446 0.3282
vn 0.0000 -0.8286 0.5598
vn 0.0000 0.6607 0.7506
vn 0.0000 -0.9977 -0.0672
vn 0.0000 -0.0672 -0.9977
vn -0.0000 0.2003 -0.9797
vn 0.0000 -0.5598 -0.8287
vn 0.0000 -0.2003 0.9797
vn 0.0000 0.9446 -0.3282
vn 0.0000 0.6607 -0.7506
vn -0.0000 -0.7506 0.6607
vn 0.0000 0.4486 0.8937
vn 0.0000 -0.4486 -0.8937
vn 0.0000 0.5598 -0.8287
vn 0.0000 -0.9977 0.0672
vn 0.0000 0.3282 0.9446
vn -0.0000 0.9977 0.0672
vn 0.0000 -0.9446 -0.3282
vn 0.0000 -0.3282 0.9446
vn 0.0000 0.9797 0.2003
vn 0.0000 -0.2003 -0.9797
vn -0.0000 0.8286 0.5598
vn 0.0000 -0.7506 -0.6607
vn 0.0000 0.3282 -0.9446
vn 0.0000 -0.6607 -0.7506
vn 0.0000 0.2003 0.9797
vn 0.0000 0.8937 -0.4486
vn 0.0000 -0.6607 0.7506
vn 0.0000 0.7506 -0.6607
vn 0.0000 -0.8937 0.4486
vn 0.0000 0.8937 0.4486
vn 0.0000 -0.9797 -0.2003
vn 0.0000 -0.5598 0.8286
vn 0.0000 0.7506 0.6607
vn 0.0000 -0.8286 -0.5598
vn 0.0000 -0.4486 0.8937
vn 0.0000 0.9797 -0.2003
vn 0.0000 0.8286 -0.5598
vn 0.0000 -0.9446 0.3282
vn 0.0000 0.5598 0.8286
vn 0.0000 -0.3282 -0.9446
vn -0.0000 0.4486 -0.8937
vn 0.0000 -0.9797 0.2003
vn 0.0000 0.0672 0.9977
vn 0.0000 0.5598 -0.8286
vn 0.0000 -0.5598 -0.8286
vn 0.0000 -0.0671 -0.9977
vn 0.0000 -0.9977 -0.0671
vn -0.0000 0.6608 0.7506
vn 0.0000 -0.0671 0.9977
vn 0.0000 0.0671 0.9977
vn 0.0000 0.5598 0.8287
vn -0.0000 0.8287 -0.5598
vn 0.0000 -0.5598 0.8287
vn 0.0000 0.7506 -0.6608
vn 0.0000 -0.6608 0.7506
vn 0.0000 0.8938 -0.4486
vn -1.0000 0.0021 -0.0010
vn -1.0000 0.0007 0.0005
vn -1.0000 0.0004 -0.0007
vn -1.0000 0.0024 0.0016
vn -1.0000 0.0022 0.0011
vn -1.0000 0.0008 -0.0003
vn -1.0000 0.0020 -0.0008
vn -1.0000 0.0003 0.0008
vn -1.0000 0.0008 -0.0002
vn -1.0000 0.0025 0.0018
vn -1.0000 0.0007 0.0004
vn -1.0000 0.0001 -0.0008
vn -1.0000 0.0024 -0.0014
vn -1.0000 0.0007 -0.0005
vn -1.0000 0.0021 -0.0009
vn -1.0000 0.0008 0.0001
vn -1.0000 0.0001 0.0008
vn -1.0000 0.0005 0.0007
vn -1.0000 0.0024 0.0014
vn -1.0000 0.0021 0.0009
vn -1.0000 0.0006 -0.0005
vn -1.0000 0.0004 0.0007
vn -1.0000 0.0008 -0.0001
vn -1.0000 0.0019 -0.0008
vn -1.0000 0.0025 -0.0018
vn -1.0000 0.0008 0.0003
vn -1.0000 0.0003 -0.0008
vn -1.0000 0.0024 -0.0016
vn -1.0000 0.0002 0.0008
vn -1.0000 0.0022 -0.0011
vn -1.0000 0.0006 0.0005
vn -1.0000 0.0019 0.0008
vn -1.0000 0.0005 0.0006
vn -1.0000 0.0023 0.0012
vn -1.0000 0.0005 -0.0006
vn -1.0000 0.0021 0.0010
vn -1.0000 0.0007 -0.0004
vn -1.0000 0.0023 -0.0012
vn -1.0000 0.0008 0.0002
vn -1.0000 0.0005 -0.0007
vn -0.5267 -0.6381 0.5617
vn -0.5267 -0.1703 0.8328
vn -0.5267 0.1713 -0.8326
vn -0.5264 0.5627 0.6375
vn -0.5259 0.8487 -0.0560
vn -0.5266 0.0581 0.8481
vn -0.5268 -0.8328 0.1702
vn -0.5265 0.4768 0.7039
vn -0.5267 -0.7044 -0.4758
vn -0.5267 -0.4758 0.7044
vn -0.5268 -0.8328 -0.1702
vn -0.5267 -0.5617 0.6380
vn 0.5266 -0.0581 0.8481
vn -0.5262 0.7605 -0.3804
vn -0.5267 0.1714 0.8326
vn -0.5266 0.2801 -0.8026
vn -0.5267 -0.6380 -0.5616
vn 0.0000 -0.9977 0.0671
vn 0.0000 0.9797 -0.2002
s off
f 17/1/1 18/2/1 49/3/1
f 40/4/2 41/5/2 49/3/2
f 27/6/3 28/7/3 49/3/3
f 10/8/4 11/9/4 49/3/4
f 7/10/5 8/11/5 49/3/5
f 33/12/6 34/13/6 49/3/6
f 19/14/7 20/15/7 49/3/7
f 45/16/8 46/17/8 49/3/8
f 3/18/9 4/19/9 49/3/9
f 34/13/10 35/20/10 49/3/10
f 23/21/11 24/22/11 49/3/11
f 11/9/12 12/23/12 49/3/12
f 39/24/13 40/4/13 49/3/13
f 24/22/14 25/25/14 49/3/14
f 14/26/15 15/27/15 49/3/15
f 31/28/16 32/29/16 49/3/16
f 18/2/17 19/14/17 49/3/17
f 36/30/18 37/31/18 49/3/18
f 47/32/19 48/33/19 49/3/19
f 1/34/20 2/35/20 49/3/20
f 43/36/21 44/37/21 49/3/21
f 25/25/22 26/38/22 49/3/22
f 9/39/23 10/8/23 49/3/23
f 5/40/24 6/41/24 49/3/24
f 30/42/25 31/28/25 49/3/25
f 20/15/11 21/43/11 49/3/11
f 44/37/26 45/16/26 49/3/26
f 4/19/27 5/40/27 49/3/27
f 35/20/28 36/30/28 49/3/28
f 21/43/11 22/44/11 49/3/11
f 12/23/29 13/45/29 49/3/29
f 38/46/30 39/24/30 49/3/30
f 26/38/31 27/6/31 49/3/31
f 13/45/32 14/26/32 49/3/32
f 46/17/33 47/32/33 49/3/33
f 16/47/34 17/1/34 49/3/34
f 41/5/35 42/48/35 49/3/35
f 2/35/9 3/18/9 49/3/9
f 42/48/36 43/36/36 49/3/36
f 22/44/37 23/21/37 49/3/37
f 8/11/38 9/39/38 49/3/38
f 1/34/39 48/33/39 49/3/39
f 29/49/40 30/42/40 49/3/40
f 6/41/41 7/10/41 49/3/41
f 32/29/42 33/12/42 49/3/42
f 15/27/43 16/47/43 49/3/43
f 37/31/44 38/46/44 49/3/44
f 28/7/45 29/49/45 49/3/45
f 118/50/46 71/51/46 70/52/46
f 132/53/47 85/54/47 84/55/47
f 53/56/48 102/57/48 54/58/48
f 93/59/49 142/60/49 94/61/49
f 117/62/50 70/52/50 69/63/50
f 79/64/51 128/65/51 80/66/51
f 54/58/52 103/67/52 55/68/52
f 58/69/53 107/70/53 59/71/53
f 74/72/54 123/73/54 75/74/54
f 92/75/55 141/76/55 93/59/55
f 50/77/56 99/78/56 51/79/56
f 144/80/57 97/81/57 96/82/57
f 85/54/58 134/83/58 86/84/58
f 115/85/59 68/86/59 67/87/59
f 80/66/60 129/88/60 81/89/60
f 111/90/61 64/91/61 63/92/61
f 73/93/62 122/94/62 74/72/62
f 136/95/63 89/96/63 88/97/63
f 60/98/64 109/99/64 61/100/64
f 120/101/65 73/93/65 72/102/65
f 131/103/66 84/55/66 83/104/66
f 52/105/67 101/106/67 53/56/67
f 94/61/68 143/107/68 95/108/68
f 116/109/69 69/63/69 68/86/69
f 82/110/70 131/103/70 83/104/70
f 56/111/71 105/112/71 57/113/71
f 59/71/72 108/114/72 60/98/72
f 124/115/73 77/116/73 76/117/73
f 137/118/74 90/119/74 89/96/74
f 114/120/75 67/87/75 66/121/75
f 125/122/76 78/123/76 77/116/76
f 86/84/77 135/124/77 87/125/77
f 112/126/78 65/127/78 64/91/78
f 81/89/79 130/128/79 82/110/79
f 55/68/80 104/129/80 56/111/80
f 126/130/81 79/64/81 78/123/81
f 98/131/82 97/81/82 50/77/82
f 57/113/83 106/132/83 58/69/83
f 119/133/84 72/102/84 71/51/84
f 91/134/85 140/135/85 92/75/85
f 51/79/86 100/136/86 52/105/86
f 138/137/87 91/134/87 90/119/87
f 113/138/88 66/121/88 65/127/88
f 143/107/89 96/82/89 95/108/89
f 110/139/90 63/92/90 62/140/90
f 123/73/91 76/117/91 75/74/91
f 135/124/92 88/97/92 87/125/92
f 109/99/93 62/140/93 61/100/93
f 11/9/94 61/100/94 12/23/94
f 88/97/95 40/4/95 39/24/95
f 73/93/96 25/25/96 24/22/96
f 63/92/97 15/27/97 14/26/97
f 80/66/98 32/29/98 31/28/98
f 67/87/99 19/14/99 18/2/99
f 85/54/100 37/31/100 36/30/100
f 47/32/101 97/81/101 48/33/101
f 1/34/102 51/79/102 2/35/102
f 92/75/103 44/37/103 43/36/103
f 74/72/104 26/38/104 25/25/104
f 9/39/105 59/71/105 10/8/105
f 5/40/106 55/68/106 6/41/106
f 79/64/107 31/28/107 30/42/107
f 69/63/108 21/43/108 20/15/108
f 93/59/109 45/16/109 44/37/109
f 4/19/110 54/58/110 5/40/110
f 84/55/111 36/30/111 35/20/111
f 70/52/112 22/44/112 21/43/112
f 61/100/113 13/45/113 12/23/113
f 87/125/114 39/24/114 38/46/114
f 75/74/115 27/6/115 26/38/115
f 62/140/116 14/26/116 13/45/116
f 95/108/117 47/32/117 46/17/117
f 65/127/118 17/1/118 16/47/118
f 90/119/119 42/48/119 41/5/119
f 2/35/120 52/105/120 3/18/120
f 91/134/121 43/36/121 42/48/121
f 71/51/122 23/21/122 22/44/122
f 8/11/123 58/69/123 9/39/123
f 50/77/96 48/33/96 1/34/96
f 78/123/124 30/42/124 29/49/124
f 6/41/125 56/111/125 7/10/125
f 81/89/126 33/12/126 32/29/126
f 64/91/127 16/47/127 15/27/127
f 86/84/128 38/46/128 37/31/128
f 77/116/129 29/49/129 28/7/129
f 66/121/130 18/2/130 17/1/130
f 89/96/131 41/5/131 40/4/131
f 76/117/132 28/7/132 27/6/132
f 10/8/133 60/98/133 11/9/133
f 7/10/134 57/113/134 8/11/134
f 82/110/135 34/13/135 33/12/135
f 68/86/136 20/15/136 19/14/136
f 94/61/137 46/17/137 45/16/137
f 3/18/138 53/56/138 4/19/138
f 83/104/139 35/20/139 34/13/139
f 72/102/140 24/22/140 23/21/140
f 171/141/115 124/115/115 123/73/115
f 183/142/114 136/95/114 135/124/114
f 157/143/113 110/139/113 109/99/113
f 166/144/112 119/133/112 118/50/112
f 180/145/111 133/146/111 132/53/111
f 101/106/141 150/147/141 102/57/141
f 189/148/109 142/60/109 141/76/109
f 165/149/108 118/50/108 117/62/108
f 175/150/107 128/65/107 127/151/107
f 102/57/106 151/152/106 103/67/106
f 106/132/105 155/153/105 107/70/105
f 170/154/104 123/73/104 122/94/104
f 188/155/142 141/76/142 140/135/142
f 98/131/102 147/156/102 99/78/102
f 192/157/143 145/158/143 144/80/143
f 181/159/144 134/83/144 133/146/144
f 163/160/145 116/109/145 115/85/145
f 176/161/98 129/88/98 128/65/98
f 159/162/97 112/126/97 111/90/97
f 169/163/146 122/94/146 121/164/146
f 184/165/95 137/118/95 136/95/95
f 108/114/94 157/143/94 109/99/94
f 168/166/147 121/164/147 120/101/147
f 179/167/139 132/53/139 131/103/139
f 100/136/138 149/168/138 101/106/138
f 190/169/137 143/107/137 142/60/137
f 164/170/148 117/62/148 116/109/148
f 178/171/135 131/103/135 130/128/135
f 104/129/149 153/172/149 105/112/149
f 107/70/133 156/173/133 108/114/133
f 172/174/132 125/122/132 124/115/132
f 185/175/131 138/137/131 137/118/131
f 162/176/130 115/85/130 114/120/130
f 173/177/150 126/130/150 125/122/150
f 182/178/128 135/124/128 134/83/128
f 160/179/127 113/138/127 112/126/127
f 177/180/126 130/128/126 129/88/126
f 103/67/151 152/181/151 104/129/151
f 174/182/152 127/151/152 126/130/152
f 146/183/146 145/158/146 98/131/146
f 105/112/153 154/184/153 106/132/153
f 167/185/122 120/101/122 119/133/122
f 139/186/121 188/155/121 140/135/121
f 99/78/120 148/187/120 100/136/120
f 186/188/119 139/186/119 138/137/119
f 161/189/118 114/120/118 113/138/118
f 191/190/117 144/80/117 143/107/117
f 158/191/116 111/90/116 110/139/116
f 162/176/154 194/192/154 163/160/154
f 185/175/155 194/192/155 186/188/155
f 172/174/156 194/192/156 173/177/156
f 155/153/157 194/192/157 156/173/157
f 152/181/158 194/192/158 153/172/158
f 178/171/159 194/192/159 179/167/159
f 164/170/160 194/192/160 165/149/160
f 190/169/161 194/192/161 191/190/161
f 148/187/39 194/192/39 149/168/39
f 179/167/162 194/192/162 180/145/162
f 168/166/160 194/192/160 169/163/160
f 156/173/163 194/192/163 157/143/163
f 184/165/164 194/192/164 185/175/164
f 169/163/165 194/192/165 170/154/165
f 159/162/166 194/192/166 160/179/166
f 176/161/167 194/192/167 177/180/167
f 163/160/168 194/192/168 164/170/168
f 181/159/169 194/192/169 182/178/169
f 192/157/170 194/192/170 193/193/170
f 146/183/39 194/192/39 147/156/39
f 188/155/171 194/192/171 189/148/171
f 170/154/165 194/192/165 171/141/165
f 154/184/172 194/192/172 155/153/172
f 150/147/173 194/192/173 151/152/173
f 175/150/174 194/192/174 176/161/174
f 165/149/160 194/192/160 166/144/160
f 189/148/175 194/192/175 190/169/175
f 149/168/39 194/192/39 150/147/39
f 180/145/176 194/192/176 181/159/176
f 166/144/177 194/192/177 167/185/177
f 157/143/178 194/192/178 158/191/178
f 183/142/179 194/192/179 184/165/179
f 171/141/180 194/192/180 172/174/180
f 158/191/181 194/192/181 159/162/181
f 191/190/182 194/192/182 192/157/182
f 161/189/183 194/192/183 162/176/183
f 186/188/184 194/192/184 187/194/184
f 147/156/185 194/192/185 148/187/185
f 187/194/186 194/192/186 188/155/186
f 167/185/160 194/192/160 168/166/160
f 153/172/187 194/192/187 154/184/187
f 146/183/9 194/192/9 193/193/9
f 174/182/188 194/192/188 175/150/188
f 151/152/189 194/192/189 152/181/189
f 177/180/190 194/192/190 178/171/190
f 160/179/191 194/192/191 161/189/191
f 182/178/192 194/192/192 183/142/192
f 173/177/193 194/192/193 174/182/193
f 118/50/46 119/133/46 71/51/46
f 132/53/47 133/146/47 85/54/47
f 53/56/48 101/106/48 102/57/48
f 93/59/49 141/76/49 142/60/49
f 117/62/50 118/50/50 70/52/50
f 79/64/194 127/151/194 128/65/194
f 54/58/52 102/57/52 103/67/52
f 58/69/53 106/132/53 107/70/53
f 74/72/195 122/94/195 123/73/195
f 92/75/55 140/135/55 141/76/55
f 50/77/196 98/131/196 99/78/196
f 144/80/57 145/158/57 97/81/57
f 85/54/58 133/146/58 134/83/58
f 115/85/197 116/109/197 68/86/197
f 80/66/60 128/65/60 129/88/60
f 111/90/61 112/126/61 64/91/61
f 73/93/62 121/164/62 122/94/62
f 136/95/63 137/118/63 89/96/63
f 60/98/198 108/114/198 109/99/198
f 120/101/199 121/164/199 73/93/199
f 131/103/200 132/53/200 84/55/200
f 52/105/67 100/136/67 101/106/67
f 94/61/68 142/60/68 143/107/68
f 116/109/201 117/62/201 69/63/201
f 82/110/70 130/128/70 131/103/70
f 56/111/71 104/129/71 105/112/71
f 59/71/72 107/70/72 108/114/72
f 124/115/73 125/122/73 77/116/73
f 137/118/202 138/137/202 90/119/202
f 114/120/75 115/85/75 67/87/75
f 125/122/203 126/130/203 78/123/203
f 86/84/204 134/83/204 135/124/204
f 112/126/78 113/138/78 65/127/78
f 81/89/79 129/88/79 130/128/79
f 55/68/80 103/67/80 104/129/80
f 126/130/205 127/151/205 79/64/205
f 98/131/206 145/158/206 97/81/206
f 57/113/207 105/112/207 106/132/207
f 119/133/208 120/101/208 72/102/208
f 91/134/85 139/186/85 140/135/85
f 51/79/209 99/78/209 100/136/209
f 138/137/210 139/186/210 91/134/210
f 113/138/88 114/120/88 66/121/88
f 143/107/89 144/80/89 96/82/89
f 110/139/90 111/90/90 63/92/90
f 123/73/91 124/115/91 76/117/91
f 135/124/92 136/95/92 88/97/92
f 109/99/93 110/139/93 62/140/93
f 11/9/94 60/98/94 61/100/94
f 88/97/95 89/96/95 40/4/95
f 73/93/96 74/72/96 25/25/96
f 63/92/97 64/91/97 15/27/97
f 80/66/98 81/89/98 32/29/98
f 67/87/99 68/86/99 19/14/99
f 85/54/100 86/84/100 37/31/100
f 47/32/101 96/82/101 97/81/101
f 1/34/102 50/77/102 51/79/102
f 92/75/103 93/59/103 44/37/103
f 74/72/104 75/74/104 26/38/104
f 9/39/105 58/69/105 59/71/105
f 5/40/106 54/58/106 55/68/106
f 79/64/107 80/66/107 31/28/107
f 69/63/108 70/52/108 21/43/108
f 93/59/109 94/61/109 45/16/109
f 4/19/110 53/56/110 54/58/110
f 84/55/111 85/54/111 36/30/111
f 70/52/112 71/51/112 22/44/112
f 61/100/113 62/140/113 13/45/113
f 87/125/114 88/97/114 39/24/114
f 75/74/115 76/117/115 27/6/115
f 62/140/116 63/92/116 14/26/116
f 95/108/117 96/82/117 47/32/117
f 65/127/118 66/121/118 17/1/118
f 90/119/119 91/134/119 42/48/119
f 2/35/120 51/79/120 52/105/120
f 91/134/121 92/75/121 43/36/121
f 71/51/122 72/102/122 23/21/122
f 8/11/123 57/113/123 58/69/123
f 50/77/96 97/81/96 48/33/96
f 78/123/124 79/64/124 30/42/124
f 6/41/125 55/68/125 56/111/125
f 81/89/126 82/110/126 33/12/126
f 64/91/127 65/127/127 16/47/127
f 86/84/128 87/125/128 38/46/128
f 77/116/129 78/123/129 29/49/129
f 66/121/130 67/87/130 18/2/130
f 89/96/131 90/119/131 41/5/131
f 76/117/132 77/116/132 28/7/132
f 10/8/133 59/71/133 60/98/133
f 7/10/134 56/111/134 57/113/134
f 82/110/135 83/104/135 34/13/135
f 68/86/136 69/63/136 20/15/136
f 94/61/137 95/108/137 46/17/137
f 3/18/138 52/105/138 53/56/138
f 83/104/139 84/55/139 35/20/139
f 72/102/140 73/93/140 24/22/140
f 171/141/115 172/174/115 124/115/115
f 183/142/114 184/165/114 136/95/114
f 157/143/113 158/191/113 110/139/113
f 166/144/112 167/185/112 119/133/112
f 180/145/211 181/159/211 133/146/211
f 101/106/141 149/168/141 150/147/141
f 189/148/109 190/169/109 142/60/109
f 165/149/108 166/144/108 118/50/108
f 175/150/107 176/161/107 128/65/107
f 102/57/106 150/147/106 151/152/106
f 106/132/105 154/184/105 155/153/105
f 170/154/104 171/141/104 123/73/104
f 188/155/142 189/148/142 141/76/142
f 98/131/102 146/183/102 147/156/102
f 192/157/143 193/193/143 145/158/143
f 181/159/100 182/178/100 134/83/100
f 163/160/145 164/170/145 116/109/145
f 176/161/98 177/180/98 129/88/98
f 159/162/97 160/179/97 112/126/97
f 169/163/146 170/154/146 122/94/146
f 184/165/95 185/175/95 137/118/95
f 108/114/94 156/173/94 157/143/94
f 168/166/147 169/163/147 121/164/147
f 179/167/139 180/145/139 132/53/139
f 100/136/138 148/187/138 149/168/138
f 190/169/137 191/190/137 143/107/137
f 164/170/148 165/149/148 117/62/148
f 178/171/135 179/167/135 131/103/135
f 104/129/134 152/181/134 153/172/134
f 107/70/212 155/153/212 156/173/212
f 172/174/132 173/177/132 125/122/132
f 185/175/131 186/188/131 138/137/131
f 162/176/130 163/160/130 115/85/130
f 173/177/150 174/182/150 126/130/150
f 182/178/128 183/142/128 135/124/128
f 160/179/127 161/189/127 113/138/127
f 177/180/126 178/171/126 130/128/126
f 103/67/125 151/152/125 152/181/125
f 174/182/152 175/150/152 127/151/152
f 146/183/146 193/193/146 145/158/146
f 105/112/123 153/172/123 154/184/123
f 167/185/122 168/166/122 120/101/122
f 139/186/121 187/194/121 188/155/121
f 99/78/120 147/156/120 148/187/120
f 186/188/119 187/194/119 139/186/119
f 161/189/118 162/176/118 114/120/118
f 191/190/117 192/157/117 144/80/117
f 158/191/116 159/162/116 111/90/116
