# Blender v2.82 (sub 7) OBJ File: 'table_scene3.blend'
# www.blender.org
o globe_in_support_sphere
v 0.515216 0.110676 -0.000258
v 0.514427 0.111715 0.017092
v 0.498471 0.111715 0.004353
v 0.509296 0.191190 0.129883
v 0.509691 0.176120 0.121195
v 0.525948 0.186854 0.127307
v 0.505656 0.111715 -0.014759
v 0.526053 0.111715 -0.013831
v 0.531473 0.111715 0.005854
v 0.519251 0.204223 0.135696
v 0.389615 0.191190 0.034327
v 0.397211 0.186854 0.049369
v 0.387163 0.204223 0.045591
v 0.443511 0.191191 -0.109025
v 0.431553 0.186855 -0.097153
v 0.432041 0.204223 -0.107876
v 0.596501 0.191190 -0.102064
v 0.581516 0.186855 -0.109768
v 0.591864 0.204223 -0.112618
v 0.637157 0.191190 0.045589
v 0.639854 0.186855 0.028956
v 0.645762 0.204223 0.037918
v 0.498854 0.204223 0.134768
v 0.381742 0.204223 0.025906
v 0.449087 0.204223 -0.119114
v 0.607820 0.204223 -0.099878
v 0.638577 0.204223 0.057030
v 0.433931 0.321468 0.101547
v 0.448917 0.325803 0.109252
v 0.439357 0.336538 0.094751
v 0.393274 0.321468 -0.046106
v 0.390578 0.325803 -0.029472
v 0.401415 0.336538 -0.043045
v 0.521136 0.321468 -0.130399
v 0.504484 0.325804 -0.127824
v 0.520741 0.336538 -0.121711
v 0.640817 0.321468 -0.034844
v 0.633221 0.325804 -0.049885
v 0.632432 0.336538 -0.032535
v 0.586921 0.321467 0.108508
v 0.598879 0.325803 0.096637
v 0.582134 0.336537 0.101247
v 0.524776 0.400943 0.014243
v 0.531961 0.400943 -0.004869
v 0.515216 0.401982 -0.000258
v 0.535350 0.397314 0.030283
v 0.543224 0.398876 0.010272
v 0.546456 0.390469 0.047128
v 0.555226 0.393710 0.026952
v 0.557363 0.380229 0.063673
v 0.567178 0.384919 0.044231
v 0.567282 0.367083 0.078719
v 0.578114 0.372640 0.060819
v 0.575618 0.352098 0.091364
v 0.587221 0.357785 0.075484
v 0.594117 0.341730 0.087470
v 0.550483 0.397314 -0.009969
v 0.563242 0.393710 0.005631
v 0.569936 0.390469 -0.015326
v 0.576187 0.386605 0.022665
v 0.583617 0.384919 0.000506
v 0.589042 0.380229 -0.020587
v 0.588236 0.375752 0.040005
v 0.596675 0.375752 0.017558
v 0.602772 0.372640 -0.004768
v 0.606416 0.367084 -0.025371
v 0.598345 0.361725 0.056276
v 0.607904 0.363144 0.034590
v 0.614999 0.361725 0.011978
v 0.619285 0.357785 -0.009801
v 0.621019 0.352099 -0.029392
v 0.605902 0.345810 0.070339
v 0.616425 0.348082 0.050270
v 0.624644 0.348082 0.028407
v 0.629950 0.345810 0.006376
v 0.632370 0.341730 -0.014275
v 0.610886 0.329490 0.081653
v 0.622002 0.332006 0.063652
v 0.631189 0.332904 0.043345
v 0.637656 0.332006 0.022016
v 0.641153 0.329491 0.001149
v 0.641992 0.325804 -0.018034
v 0.516005 0.400943 -0.017608
v 0.533885 0.398876 -0.023641
v 0.553458 0.393710 -0.029902
v 0.573584 0.384919 -0.035929
v 0.592739 0.372640 -0.041204
v 0.609501 0.357785 -0.045334
v 0.623031 0.341730 -0.048188
v 0.516878 0.397314 -0.036800
v 0.535658 0.393710 -0.044114
v 0.517795 0.390469 -0.056956
v 0.555858 0.386605 -0.051161
v 0.537080 0.384919 -0.065075
v 0.518696 0.380229 -0.076753
v 0.576073 0.375752 -0.057262
v 0.557332 0.375752 -0.072225
v 0.537983 0.372640 -0.084923
v 0.519515 0.367084 -0.094755
v 0.594671 0.361725 -0.061849
v 0.577000 0.363144 -0.077641
v 0.557687 0.361725 -0.091377
v 0.538300 0.357785 -0.102183
v 0.520203 0.352099 -0.109885
v 0.610381 0.345810 -0.064690
v 0.594546 0.348082 -0.080899
v 0.576293 0.348082 -0.095472
v 0.556980 0.345810 -0.107327
v 0.538088 0.341730 -0.116009
v 0.622681 0.329491 -0.065935
v 0.608996 0.332006 -0.082069
v 0.592522 0.332904 -0.097082
v 0.574235 0.332006 -0.109823
v 0.555471 0.329491 -0.119597
v 0.537486 0.325804 -0.126322
v 0.498959 0.400943 -0.006370
v 0.498747 0.398876 -0.025240
v 0.498841 0.393710 -0.045789
v 0.499328 0.384919 -0.066793
v 0.500230 0.372640 -0.086640
v 0.501482 0.357785 -0.103858
v 0.502949 0.341730 -0.117607
v 0.480976 0.397314 -0.013132
v 0.479824 0.393710 -0.033252
v 0.462090 0.390469 -0.020233
v 0.479364 0.386605 -0.054641
v 0.460328 0.384919 -0.041082
v 0.443541 0.380229 -0.027206
v 0.479808 0.375752 -0.075752
v 0.459787 0.375752 -0.062553
v 0.441731 0.372640 -0.048074
v 0.426673 0.367084 -0.033549
v 0.481193 0.361725 -0.094857
v 0.460714 0.363144 -0.082931
v 0.441682 0.361725 -0.068809
v 0.425414 0.357785 -0.053709
v 0.412496 0.352099 -0.038879
v 0.483345 0.345810 -0.110677
v 0.463036 0.348082 -0.100625
v 0.443536 0.348082 -0.087769
v 0.426294 0.345810 -0.073065
v 0.412198 0.341730 -0.057780
v 0.485963 0.329491 -0.122759
v 0.466389 0.332006 -0.114730
v 0.447021 0.332904 -0.103701
v 0.429252 0.332006 -0.090247
v 0.414158 0.329491 -0.075422
v 0.402205 0.325803 -0.060395
v 0.504379 0.400943 0.013315
v 0.486368 0.398876 0.007685
v 0.466854 0.393710 0.001246
v 0.447028 0.384919 -0.005708
v 0.428431 0.372640 -0.012700
v 0.412443 0.357785 -0.019211
v 0.399820 0.341730 -0.024855
v 0.492392 0.397314 0.028328
v 0.472900 0.393710 0.023206
v 0.479803 0.390469 0.044095
v 0.452416 0.386605 0.017033
v 0.459429 0.384919 0.039328
v 0.467438 0.380229 0.059581
v 0.432476 0.375752 0.010087
v 0.438842 0.375752 0.033208
v 0.447032 0.372640 0.054854
v 0.456194 0.367084 0.073664
v 0.414734 0.361725 0.002866
v 0.419747 0.363144 0.026029
v 0.427297 0.361725 0.048493
v 0.436631 0.357785 0.068631
v 0.446743 0.352099 0.085500
v 0.400353 0.345810 -0.004070
v 0.403638 0.348082 0.018352
v 0.409838 0.348082 0.040870
v 0.418494 0.345810 0.061812
v 0.428675 0.341730 0.079942
v 0.389671 0.329491 -0.010293
v 0.391259 0.332006 0.010805
v 0.395762 0.332904 0.032633
v 0.403067 0.332006 0.053690
v 0.412503 0.329491 0.072626
v 0.423100 0.325803 0.088639
v 0.513856 0.398876 0.029632
v 0.501701 0.393710 0.046202
v 0.488962 0.384919 0.062908
v 0.476565 0.372640 0.078434
v 0.465432 0.357785 0.091628
v 0.456163 0.341730 0.101890
v 0.524456 0.393710 0.047238
v 0.512255 0.386605 0.064812
v 0.535626 0.384919 0.065032
v 0.499487 0.375752 0.081630
v 0.523444 0.375752 0.082720
v 0.546562 0.372640 0.081620
v 0.487137 0.361725 0.096272
v 0.510715 0.363144 0.098661
v 0.534414 0.361725 0.098423
v 0.556451 0.357785 0.095769
v 0.476097 0.345810 0.107805
v 0.498436 0.348082 0.111611
v 0.521768 0.348082 0.112672
v 0.544361 0.345810 0.110911
v 0.564749 0.341730 0.106830
v 0.466877 0.329491 0.116041
v 0.487433 0.332006 0.121051
v 0.509585 0.332904 0.123513
v 0.531869 0.332006 0.123073
v 0.552794 0.329490 0.119950
v 0.571297 0.325803 0.114820
v 0.598391 0.308435 0.107360
v 0.609858 0.292910 0.104238
v 0.611426 0.311808 0.093978
v 0.620408 0.275248 0.098694
v 0.623495 0.295082 0.089122
v 0.629038 0.256329 0.090622
v 0.633906 0.276198 0.081796
v 0.635000 0.237410 0.080419
v 0.641567 0.256329 0.072200
v 0.638071 0.219748 0.068904
v 0.645910 0.236952 0.061047
v 0.647083 0.219343 0.049321
v 0.624039 0.314458 0.077159
v 0.636027 0.296587 0.070444
v 0.635022 0.315934 0.057262
v 0.645520 0.276729 0.061544
v 0.646093 0.297129 0.048949
v 0.643241 0.315934 0.035400
v 0.651551 0.256329 0.051001
v 0.653960 0.276729 0.039096
v 0.652682 0.296587 0.026146
v 0.648087 0.314458 0.013196
v 0.653927 0.236952 0.039726
v 0.658007 0.256329 0.028475
v 0.658565 0.276198 0.016208
v 0.655559 0.295082 0.003837
v 0.649680 0.311808 -0.007767
v 0.653205 0.219748 0.028652
v 0.658481 0.237410 0.017965
v 0.660719 0.256329 0.006362
v 0.659544 0.275248 -0.005397
v 0.655259 0.292910 -0.016518
v 0.648689 0.308435 -0.026422
v 0.643269 0.308435 -0.046107
v 0.643843 0.292910 -0.057978
v 0.634570 0.311808 -0.062640
v 0.641831 0.275248 -0.069725
v 0.633681 0.295082 -0.075618
v 0.636821 0.256329 -0.080427
v 0.629931 0.276198 -0.087783
v 0.628959 0.237410 -0.089249
v 0.623172 0.256329 -0.098035
v 0.618957 0.219748 -0.095728
v 0.613908 0.236952 -0.105612
v 0.603117 0.219343 -0.110350
v 0.622471 0.314458 -0.079832
v 0.619790 0.296587 -0.093308
v 0.606943 0.315935 -0.096426
v 0.614259 0.276729 -0.105088
v 0.602457 0.297129 -0.109525
v 0.588690 0.315935 -0.110999
v 0.606096 0.256329 -0.114081
v 0.595518 0.276729 -0.120051
v 0.582807 0.296587 -0.122837
v 0.569071 0.314458 -0.122469
v 0.596107 0.236952 -0.119824
v 0.586667 0.256329 -0.127181
v 0.575173 0.276198 -0.131503
v 0.562479 0.295082 -0.132467
v 0.549626 0.311808 -0.130461
v 0.585352 0.219748 -0.122560
v 0.576818 0.237410 -0.130880
v 0.566474 0.256329 -0.136594
v 0.554929 0.275248 -0.139110
v 0.543027 0.292910 -0.138472
v 0.531578 0.308435 -0.135284
v 0.511182 0.308435 -0.136212
v 0.500069 0.292910 -0.140427
v 0.492770 0.311808 -0.133048
v 0.488275 0.275248 -0.142142
v 0.480152 0.295082 -0.136212
v 0.476548 0.256329 -0.140685
v 0.467424 0.276198 -0.136405
v 0.465729 0.237410 -0.135934
v 0.455585 0.256329 -0.133145
v 0.456476 0.219748 -0.128423
v 0.445516 0.236953 -0.126675
v 0.437675 0.219343 -0.117877
v 0.472680 0.314458 -0.126854
v 0.459035 0.296587 -0.128468
v 0.452101 0.315934 -0.117213
v 0.446123 0.276729 -0.126847
v 0.438257 0.297129 -0.116995
v 0.432601 0.315934 -0.104357
v 0.435048 0.256329 -0.121863
v 0.426102 0.276729 -0.113648
v 0.419524 0.296587 -0.102420
v 0.415629 0.314458 -0.089243
v 0.426499 0.236953 -0.114138
v 0.416585 0.256329 -0.107434
v 0.408924 0.276198 -0.097838
v 0.404084 0.295082 -0.086064
v 0.402020 0.311808 -0.073220
v 0.420574 0.219748 -0.104754
v 0.410024 0.237410 -0.099210
v 0.401394 0.256329 -0.091138
v 0.395433 0.275248 -0.080935
v 0.392362 0.292910 -0.069420
v 0.391855 0.308435 -0.057546
v 0.384670 0.308435 -0.038434
v 0.377227 0.292910 -0.029168
v 0.381990 0.311808 -0.019946
v 0.371952 0.275248 -0.018481
v 0.375081 0.295082 -0.008924
v 0.369714 0.256329 -0.006878
v 0.370964 0.276198 0.003123
v 0.370888 0.237410 0.004880
v 0.370406 0.256329 0.015390
v 0.375172 0.219748 0.016002
v 0.373448 0.236952 0.026965
v 0.379392 0.219343 0.037142
v 0.381672 0.314458 0.001074
v 0.375920 0.296587 0.013553
v 0.384482 0.315934 0.023627
v 0.373472 0.276729 0.026335
v 0.380411 0.297129 0.036860
v 0.390682 0.315934 0.046145
v 0.374789 0.256329 0.038409
v 0.379838 0.276729 0.049455
v 0.388484 0.296587 0.059181
v 0.399813 0.314458 0.066957
v 0.379495 0.236952 0.048926
v 0.382807 0.256329 0.060427
v 0.389566 0.276198 0.070678
v 0.399268 0.295082 0.078920
v 0.410846 0.311808 0.084852
v 0.386589 0.219748 0.057462
v 0.388602 0.237410 0.069208
v 0.393611 0.256329 0.079910
v 0.401473 0.275248 0.088732
v 0.411475 0.292910 0.095212
v 0.422612 0.308435 0.099362
v 0.438567 0.308435 0.112102
v 0.445081 0.292910 0.122043
v 0.455323 0.311808 0.120364
v 0.453614 0.275248 0.130363
v 0.463671 0.295082 0.130341
v 0.463958 0.256329 0.136077
v 0.473856 0.276198 0.137979
v 0.475503 0.237410 0.138593
v 0.485350 0.256329 0.142300
v 0.487405 0.219748 0.137956
v 0.497299 0.236952 0.142984
v 0.508814 0.219343 0.140475
v 0.475216 0.314458 0.127161
v 0.485308 0.296587 0.136488
v 0.497533 0.315934 0.131458
v 0.496706 0.276729 0.142767
v 0.508862 0.297129 0.139419
v 0.520866 0.315934 0.132520
v 0.508597 0.256329 0.145244
v 0.520663 0.276729 0.143856
v 0.532584 0.296587 0.138639
v 0.543481 0.314458 0.130267
v 0.520054 0.236952 0.144019
v 0.532015 0.256329 0.144423
v 0.543853 0.276197 0.141163
v 0.554690 0.295082 0.134482
v 0.563909 0.311808 0.125304
v 0.530364 0.219748 0.139910
v 0.542157 0.237410 0.141626
v 0.553884 0.256329 0.140168
v 0.564703 0.275248 0.135418
v 0.573956 0.292910 0.127907
v 0.581345 0.308435 0.118598
v 0.651039 0.293315 -0.037658
v 0.656984 0.275706 -0.027482
v 0.660026 0.256329 -0.015906
v 0.659468 0.236460 -0.003639
v 0.655351 0.217576 0.008408
v 0.648442 0.200850 0.019430
v 0.650937 0.275706 -0.049442
v 0.655643 0.256329 -0.038925
v 0.647625 0.256329 -0.060943
v 0.656960 0.235929 -0.026851
v 0.650594 0.235929 -0.049972
v 0.640867 0.236460 -0.071195
v 0.654512 0.216071 -0.014070
v 0.650021 0.215529 -0.037377
v 0.641948 0.216071 -0.059697
v 0.631164 0.217576 -0.079436
v 0.648760 0.198200 -0.001591
v 0.645950 0.196724 -0.024143
v 0.639750 0.196724 -0.046661
v 0.630619 0.198200 -0.067473
v 0.619587 0.200850 -0.085368
v 0.640761 0.183167 0.009777
v 0.639173 0.180652 -0.011321
v 0.634670 0.179754 -0.033150
v 0.627365 0.180652 -0.054206
v 0.617929 0.183167 -0.073143
v 0.607333 0.186855 -0.089155
v 0.521618 0.293315 -0.140991
v 0.533134 0.275706 -0.143500
v 0.545082 0.256329 -0.142816
v 0.556576 0.236460 -0.138495
v 0.566762 0.217576 -0.130857
v 0.575109 0.200850 -0.120880
v 0.510379 0.275706 -0.144535
v 0.521836 0.256329 -0.145761
v 0.498417 0.256329 -0.144939
v 0.533726 0.235929 -0.143283
v 0.509769 0.235929 -0.144373
v 0.486578 0.236461 -0.141679
v 0.545125 0.216071 -0.137004
v 0.521571 0.215529 -0.139935
v 0.497848 0.216071 -0.139156
v 0.475743 0.217576 -0.134998
v 0.555216 0.198200 -0.127678
v 0.532899 0.196724 -0.131975
v 0.509567 0.196724 -0.133036
v 0.486952 0.198200 -0.130784
v 0.466523 0.200850 -0.125821
v 0.563555 0.183167 -0.116557
v 0.542999 0.180652 -0.121567
v 0.520847 0.179754 -0.124029
v 0.498563 0.180652 -0.123589
v 0.477638 0.183168 -0.120467
v 0.459135 0.186855 -0.115337
v 0.383350 0.293315 -0.049837
v 0.384522 0.275706 -0.061564
v 0.388865 0.256329 -0.072716
v 0.396526 0.236461 -0.082312
v 0.406938 0.217576 -0.089638
v 0.419006 0.200850 -0.094494
v 0.376506 0.275706 -0.040243
v 0.378881 0.256329 -0.051517
v 0.372425 0.256329 -0.028991
v 0.384912 0.235929 -0.062060
v 0.376472 0.235929 -0.039612
v 0.371867 0.236460 -0.016724
v 0.394405 0.216071 -0.070960
v 0.384339 0.215529 -0.049465
v 0.377750 0.216071 -0.026662
v 0.374873 0.217576 -0.004354
v 0.406394 0.198200 -0.077675
v 0.395410 0.196724 -0.057778
v 0.387191 0.196724 -0.035916
v 0.382345 0.198200 -0.013712
v 0.380752 0.200850 0.007251
v 0.419546 0.183168 -0.082169
v 0.408430 0.180652 -0.064168
v 0.399243 0.179754 -0.043861
v 0.392776 0.180652 -0.022532
v 0.389279 0.183167 -0.001665
v 0.388440 0.186854 0.017517
v 0.427315 0.293315 0.109834
v 0.416525 0.275706 0.105095
v 0.407260 0.256329 0.097519
v 0.400502 0.236460 0.087267
v 0.396751 0.217576 0.075102
v 0.395862 0.200850 0.062123
v 0.434325 0.275706 0.119307
v 0.424337 0.256329 0.113565
v 0.443765 0.256329 0.126665
v 0.416174 0.235929 0.104571
v 0.434914 0.235929 0.119534
v 0.455259 0.236460 0.130987
v 0.410642 0.216071 0.092792
v 0.427975 0.215529 0.109008
v 0.447626 0.216071 0.122321
v 0.467953 0.217576 0.131951
v 0.407961 0.198200 0.079316
v 0.423490 0.196724 0.095909
v 0.441742 0.196724 0.110483
v 0.461362 0.198200 0.121953
v 0.480806 0.200850 0.129944
v 0.407751 0.183167 0.065418
v 0.421436 0.180652 0.081553
v 0.437910 0.179754 0.096565
v 0.456197 0.180652 0.109307
v 0.474961 0.183167 0.119080
v 0.492946 0.186854 0.125806
v 0.592757 0.293315 0.117361
v 0.584916 0.275706 0.126159
v 0.574847 0.256329 0.132628
v 0.563009 0.236461 0.135888
v 0.550280 0.217576 0.135696
v 0.537662 0.200850 0.132531
v 0.603933 0.275706 0.113622
v 0.595385 0.256329 0.121347
v 0.613847 0.256329 0.106918
v 0.584309 0.235929 0.126331
v 0.604331 0.235929 0.113132
v 0.621509 0.236461 0.097322
v 0.571397 0.216071 0.127952
v 0.592175 0.215529 0.116478
v 0.610909 0.216071 0.101903
v 0.626348 0.217576 0.085547
v 0.557751 0.198200 0.126338
v 0.578331 0.196724 0.116697
v 0.597831 0.196724 0.103841
v 0.614803 0.198200 0.088726
v 0.628412 0.200850 0.072704
v 0.544469 0.183168 0.122242
v 0.564043 0.180652 0.114213
v 0.583411 0.179754 0.103185
v 0.601180 0.180652 0.089731
v 0.616274 0.183168 0.074905
v 0.628228 0.186854 0.059879
v 0.629017 0.176120 0.042529
v 0.617936 0.160560 0.038363
v 0.630613 0.170928 0.024339
v 0.603759 0.145574 0.033032
v 0.617989 0.154873 0.018695
v 0.586891 0.132429 0.026690
v 0.602001 0.140018 0.012184
v 0.568342 0.122189 0.019716
v 0.583404 0.127739 0.005192
v 0.549456 0.115344 0.012615
v 0.563579 0.118948 -0.001762
v 0.544064 0.113783 -0.008202
v 0.630079 0.166848 0.003553
v 0.615699 0.150933 -0.003383
v 0.626795 0.164576 -0.018868
v 0.597956 0.136906 -0.010604
v 0.610685 0.149514 -0.026545
v 0.620595 0.164576 -0.041387
v 0.578017 0.126053 -0.017550
v 0.591590 0.136906 -0.033725
v 0.603135 0.150933 -0.049010
v 0.611938 0.166848 -0.062329
v 0.557532 0.118948 -0.023723
v 0.571003 0.127739 -0.039845
v 0.583400 0.140018 -0.055371
v 0.593802 0.154873 -0.069148
v 0.601757 0.170928 -0.080458
v 0.538040 0.115344 -0.028844
v 0.550629 0.122189 -0.044612
v 0.562994 0.132429 -0.060098
v 0.574239 0.145574 -0.074181
v 0.583689 0.160560 -0.086016
v 0.591075 0.176120 -0.095267
v 0.574269 0.170928 -0.102406
v 0.565000 0.154873 -0.092144
v 0.553867 0.140018 -0.078951
v 0.541471 0.127739 -0.063425
v 0.528731 0.118948 -0.046719
v 0.516576 0.113783 -0.030149
v 0.554335 0.166848 -0.108321
v 0.543295 0.150933 -0.096788
v 0.531996 0.164576 -0.112127
v 0.530945 0.136906 -0.082146
v 0.519716 0.149514 -0.099178
v 0.508664 0.164576 -0.113188
v 0.518176 0.126053 -0.065329
v 0.506988 0.136906 -0.083236
v 0.496019 0.150933 -0.098939
v 0.486071 0.166848 -0.111427
v 0.505976 0.118948 -0.047754
v 0.494806 0.127739 -0.065548
v 0.483870 0.140018 -0.082136
v 0.473982 0.154874 -0.096286
v 0.465683 0.170929 -0.107347
v 0.495082 0.115344 -0.030799
v 0.483977 0.122190 -0.047644
v 0.473069 0.132429 -0.064190
v 0.463150 0.145575 -0.079235
v 0.454814 0.160560 -0.091880
v 0.448298 0.176121 -0.101764
v 0.436316 0.170928 -0.087986
v 0.443211 0.154874 -0.076000
v 0.452319 0.140018 -0.061335
v 0.463254 0.127739 -0.044747
v 0.475206 0.118948 -0.027469
v 0.487208 0.113783 -0.010788
v 0.424530 0.166848 -0.070856
v 0.432088 0.150933 -0.056793
v 0.414008 0.164576 -0.050786
v 0.442196 0.136906 -0.040522
v 0.422529 0.149514 -0.035106
v 0.405788 0.164576 -0.028924
v 0.454246 0.126053 -0.023182
v 0.433757 0.136906 -0.018075
v 0.415432 0.150933 -0.012494
v 0.400482 0.166848 -0.006893
v 0.467190 0.118948 -0.006147
v 0.446815 0.127739 -0.001022
v 0.427660 0.140018 0.004252
v 0.411147 0.154873 0.009284
v 0.398063 0.170928 0.013759
v 0.479949 0.115344 0.009453
v 0.460496 0.122189 0.014809
v 0.441390 0.132429 0.020070
v 0.424016 0.145574 0.024854
v 0.409414 0.160560 0.028876
v 0.398000 0.176120 0.032018
v 0.618234 0.170928 0.057264
v 0.604138 0.166848 0.072549
v 0.586896 0.164576 0.087253
v 0.567396 0.164576 0.100109
v 0.547087 0.166848 0.110160
v 0.527483 0.170928 0.117091
v 0.605018 0.154873 0.053193
v 0.588750 0.150933 0.068293
v 0.588701 0.140018 0.047558
v 0.569719 0.149514 0.082415
v 0.570646 0.136906 0.062036
v 0.570104 0.127739 0.040565
v 0.549239 0.150933 0.094341
v 0.550624 0.136906 0.075236
v 0.551069 0.126053 0.054125
v 0.550609 0.118948 0.032736
v 0.528950 0.154873 0.103341
v 0.530202 0.140018 0.086124
v 0.531105 0.127739 0.066277
v 0.531591 0.118948 0.045273
v 0.531685 0.113783 0.024723
v 0.510229 0.160560 0.109369
v 0.510918 0.145574 0.094239
v 0.511736 0.132429 0.076236
v 0.512637 0.122189 0.056440
v 0.513554 0.115344 0.036284
v 0.407401 0.170928 0.047672
v 0.420932 0.154873 0.044818
v 0.437693 0.140018 0.040688
v 0.456848 0.127739 0.035413
v 0.476974 0.118948 0.029386
v 0.496547 0.113783 0.023125
v 0.420051 0.166848 0.064174
v 0.435762 0.150933 0.061332
v 0.435887 0.164576 0.080383
v 0.454359 0.136906 0.056746
v 0.453432 0.149514 0.077124
v 0.454139 0.164576 0.094956
v 0.474574 0.126053 0.050645
v 0.473100 0.136906 0.071709
v 0.472745 0.150933 0.090861
v 0.473452 0.166848 0.106811
v 0.494774 0.118948 0.043598
v 0.493353 0.127739 0.064559
v 0.492449 0.140018 0.084407
v 0.492133 0.154873 0.101667
v 0.492345 0.170928 0.115493
vn 0.0000 -1.0000 -0.0000
vn -0.0055 -0.9925 0.1219
vn -0.1176 -0.9925 0.0324
vn -0.0406 -0.4472 0.8935
vn -0.0379 -0.5530 0.8323
vn 0.0764 -0.4776 0.8752
vn -0.0672 -0.9925 -0.1019
vn 0.0761 -0.9925 -0.0954
vn 0.1142 -0.9925 0.0429
vn 0.0293 -0.3556 0.9342
vn -0.8623 -0.4472 0.2374
vn -0.8088 -0.4776 0.3431
vn -0.8794 -0.3556 0.3165
vn -0.4923 -0.4472 -0.7468
vn -0.5762 -0.4776 -0.6632
vn -0.5728 -0.3556 -0.7386
vn 0.5581 -0.4472 -0.6990
vn 0.4527 -0.4776 -0.7530
vn 0.5254 -0.3556 -0.7730
vn 0.8372 -0.4472 0.3148
vn 0.8560 -0.4776 0.1979
vn 0.8975 -0.3556 0.2608
vn -0.1140 -0.3556 0.9277
vn -0.9175 -0.3556 0.1782
vn -0.4530 -0.3556 -0.8175
vn 0.6375 -0.3556 -0.6835
vn 0.8470 -0.3556 0.3951
vn -0.5581 0.4472 0.6990
vn -0.4527 0.4776 0.7530
vn -0.5199 0.5530 0.6511
vn -0.8372 0.4472 -0.3148
vn -0.8560 0.4776 -0.1979
vn -0.7799 0.5530 -0.2932
vn 0.0406 0.4472 -0.8935
vn -0.0764 0.4776 -0.8752
vn 0.0379 0.5530 -0.8323
vn 0.8623 0.4472 -0.2375
vn 0.8088 0.4776 -0.3431
vn 0.8033 0.5530 -0.2212
vn 0.4923 0.4472 0.7468
vn 0.5762 0.4776 0.6632
vn 0.4586 0.5530 0.6956
vn 0.0672 0.9925 0.1019
vn 0.1176 0.9925 -0.0324
vn -0.0000 1.0000 -0.0000
vn 0.1394 0.9674 0.2114
vn 0.1964 0.9777 0.0738
vn 0.2151 0.9205 0.3262
vn 0.2783 0.9421 0.1872
vn 0.2894 0.8507 0.4389
vn 0.3595 0.8821 0.3044
vn 0.3570 0.7612 0.5415
vn 0.4337 0.7988 0.4169
vn 0.4139 0.6591 0.6279
vn 0.4955 0.6981 0.5168
vn 0.5425 0.5891 0.5989
vn 0.2441 0.9674 -0.0672
vn 0.3327 0.9421 0.0425
vn 0.3767 0.9205 -0.1037
vn 0.4206 0.8934 0.1581
vn 0.4710 0.8821 0.0078
vn 0.5069 0.8507 -0.1396
vn 0.5022 0.8196 0.2756
vn 0.5594 0.8196 0.1235
vn 0.6009 0.7988 -0.0280
vn 0.6253 0.7612 -0.1722
vn 0.5708 0.7247 0.3860
vn 0.6355 0.7342 0.2389
vn 0.6837 0.7247 0.0857
vn 0.7132 0.6981 -0.0623
vn 0.7251 0.6591 -0.1997
vn 0.6224 0.6168 0.4818
vn 0.6936 0.6322 0.3454
vn 0.7493 0.6322 0.1971
vn 0.7857 0.6168 0.0475
vn 0.8027 0.5891 -0.0931
vn 0.6580 0.5026 0.5607
vn 0.7337 0.5197 0.4378
vn 0.7962 0.5257 0.2994
vn 0.8404 0.5197 0.1540
vn 0.8644 0.5026 0.0118
vn 0.8704 0.4776 -0.1193
vn 0.0055 0.9925 -0.1219
vn 0.1309 0.9777 -0.1640
vn 0.2641 0.9421 -0.2068
vn 0.4006 0.8821 -0.2478
vn 0.5305 0.7988 -0.2836
vn 0.6446 0.6981 -0.3116
vn 0.7372 0.5891 -0.3309
vn 0.0115 0.9674 -0.2529
vn 0.1432 0.9421 -0.3033
vn 0.0178 0.9205 -0.3903
vn 0.2804 0.8934 -0.3511
vn 0.1530 0.8821 -0.4455
vn 0.0239 0.8507 -0.5252
vn 0.4173 0.8196 -0.3925
vn 0.2903 0.8196 -0.4939
vn 0.1591 0.7988 -0.5802
vn 0.0295 0.7612 -0.6479
vn 0.5435 0.7247 -0.4236
vn 0.4236 0.7342 -0.5306
vn 0.2928 0.7247 -0.6238
vn 0.1611 0.6981 -0.6976
vn 0.0342 0.6591 -0.7513
vn 0.6506 0.6168 -0.4430
vn 0.5428 0.6322 -0.5529
vn 0.4190 0.6322 -0.6517
vn 0.2880 0.6168 -0.7325
vn 0.1595 0.5891 -0.7922
vn 0.7366 0.5026 -0.4526
vn 0.6431 0.5197 -0.5625
vn 0.5308 0.5257 -0.6648
vn 0.4062 0.5197 -0.7516
vn 0.2783 0.5026 -0.8185
vn 0.1555 0.4776 -0.8647
vn -0.1142 0.9925 -0.0429
vn -0.1155 0.9777 -0.1752
vn -0.1151 0.9421 -0.3151
vn -0.1119 0.8821 -0.4576
vn -0.1058 0.7988 -0.5922
vn -0.0972 0.6981 -0.7093
vn -0.0869 0.5891 -0.8034
vn -0.2370 0.9674 -0.0891
vn -0.2442 0.9421 -0.2299
vn -0.3657 0.9205 -0.1375
vn -0.2473 0.8934 -0.3752
vn -0.3765 0.8821 -0.2832
vn -0.4921 0.8507 -0.1850
vn -0.2443 0.8196 -0.5182
vn -0.3800 0.8196 -0.4288
vn -0.5026 0.7988 -0.3306
vn -0.6071 0.7612 -0.2282
vn -0.2349 0.7247 -0.6478
vn -0.3737 0.7342 -0.5668
vn -0.5028 0.7247 -0.4712
vn -0.6136 0.6981 -0.3688
vn -0.7039 0.6591 -0.2647
vn -0.2203 0.6168 -0.7556
vn -0.3581 0.6322 -0.6871
vn -0.4904 0.6322 -0.5999
vn -0.6077 0.6168 -0.5003
vn -0.7041 0.5891 -0.3965
vn -0.2028 0.5026 -0.8404
vn -0.3363 0.5197 -0.7854
vn -0.4682 0.5257 -0.7102
vn -0.5893 0.5197 -0.6186
vn -0.6924 0.5026 -0.5176
vn -0.7743 0.4776 -0.4151
vn -0.0761 0.9925 0.0954
vn -0.2023 0.9777 0.0557
vn -0.3352 0.9421 0.0121
vn -0.4698 0.8821 -0.0350
vn -0.5959 0.7988 -0.0824
vn -0.7046 0.6981 -0.1268
vn -0.7909 0.5891 -0.1656
vn -0.1580 0.9674 0.1979
vn -0.2941 0.9421 0.1612
vn -0.2438 0.9205 0.3053
vn -0.4332 0.8934 0.1193
vn -0.3857 0.8821 0.2705
vn -0.3280 0.8507 0.4108
vn -0.5683 0.8196 0.0722
vn -0.5252 0.8196 0.2289
vn -0.4697 0.7988 0.3758
vn -0.4047 0.7612 0.5068
vn -0.6887 0.7247 0.0232
vn -0.6546 0.7342 0.1802
vn -0.6035 0.7247 0.3326
vn -0.5404 0.6981 0.4696
vn -0.4692 0.6591 0.5877
vn -0.7867 0.6168 -0.0240
vn -0.7641 0.6322 0.1282
vn -0.7221 0.6322 0.2810
vn -0.6636 0.6168 0.4233
vn -0.5947 0.5891 0.5471
vn -0.8619 0.5026 -0.0668
vn -0.8509 0.5197 0.0771
vn -0.8201 0.5257 0.2258
vn -0.7704 0.5197 0.3693
vn -0.7062 0.5026 0.4986
vn -0.6341 0.4776 0.6081
vn -0.0095 0.9777 0.2096
vn -0.0921 0.9421 0.3225
vn -0.1784 0.8821 0.4360
vn -0.2625 0.7988 0.5413
vn -0.3384 0.6981 0.6310
vn -0.4019 0.5891 0.7010
vn 0.0624 0.9421 0.3296
vn -0.0204 0.8934 0.4489
vn 0.1381 0.8821 0.4504
vn -0.1069 0.8196 0.5628
vn 0.0554 0.8196 0.5702
vn 0.2123 0.7988 0.5629
vn -0.1907 0.7247 0.6622
vn -0.0308 0.7342 0.6782
vn 0.1298 0.7247 0.6768
vn 0.2797 0.6981 0.6591
vn -0.2659 0.6168 0.7408
vn -0.1142 0.6322 0.7663
vn 0.0441 0.6322 0.7735
vn 0.1976 0.6168 0.7619
vn 0.3366 0.5891 0.7346
vn -0.3299 0.5026 0.7991
vn -0.1896 0.5197 0.8331
vn -0.0387 0.5257 0.8498
vn 0.1132 0.5197 0.8468
vn 0.2559 0.5026 0.8257
vn 0.3824 0.4776 0.7910
vn 0.5728 0.3556 0.7386
vn 0.6509 0.2494 0.7170
vn 0.6639 0.3793 0.6445
vn 0.7227 0.1289 0.6790
vn 0.7459 0.2653 0.6109
vn 0.7815 -0.0000 0.6240
vn 0.8165 0.1371 0.5609
vn 0.8221 -0.1289 0.5545
vn 0.8684 0.0023 0.4958
vn 0.8433 -0.2494 0.4761
vn 0.8981 -0.1294 0.4203
vn 0.9064 -0.2496 0.3408
vn 0.7496 0.3969 0.5297
vn 0.8308 0.2753 0.4837
vn 0.8240 0.4066 0.3944
vn 0.8950 0.1407 0.4233
vn 0.8989 0.2789 0.3380
vn 0.8798 0.4066 0.2461
vn 0.9360 0.0024 0.3519
vn 0.9522 0.1407 0.2712
vn 0.9437 0.2753 0.1834
vn 0.9129 0.3969 0.0954
vn 0.9526 -0.1294 0.2755
vn 0.9800 0.0023 0.1992
vn 0.9837 0.1371 0.1160
vn 0.9636 0.2653 0.0318
vn 0.9241 0.3793 -0.0475
vn 0.9481 -0.2494 0.1974
vn 0.9838 -0.1289 0.1245
vn 0.9990 0.0000 0.0454
vn 0.9910 0.1289 -0.0347
vn 0.9621 0.2494 -0.1105
vn 0.9175 0.3556 -0.1782
vn 0.8794 0.3556 -0.3165
vn 0.8830 0.2494 -0.3975
vn 0.8181 0.3793 -0.4323
vn 0.8691 0.1289 -0.4775
vn 0.8115 0.2653 -0.5206
vn 0.8349 0.0000 -0.5504
vn 0.7857 0.1371 -0.6032
vn 0.7814 -0.1289 -0.6106
vn 0.7399 0.0023 -0.6727
vn 0.7134 -0.2494 -0.6549
vn 0.6773 -0.1294 -0.7243
vn 0.6042 -0.2496 -0.7567
vn 0.7354 0.3969 -0.5493
vn 0.7168 0.2753 -0.6406
vn 0.6298 0.4066 -0.6618
vn 0.6791 0.1407 -0.7204
vn 0.5992 0.2789 -0.7505
vn 0.5060 0.4066 -0.7607
vn 0.6239 0.0024 -0.7815
vn 0.5522 0.1407 -0.8218
vn 0.4661 0.2753 -0.8408
vn 0.3728 0.3969 -0.8387
vn 0.5564 -0.1294 -0.8208
vn 0.4923 0.0023 -0.8704
vn 0.4143 0.1371 -0.8998
vn 0.3281 0.2653 -0.9066
vn 0.2404 0.3793 -0.8935
vn 0.4807 -0.2494 -0.8406
vn 0.4224 -0.1289 -0.8972
vn 0.3519 0.0000 -0.9360
vn 0.2733 0.1289 -0.9533
vn 0.1922 0.2494 -0.9491
vn 0.1140 0.3556 -0.9277
vn -0.0293 0.3556 -0.9342
vn -0.1052 0.2494 -0.9627
vn -0.1583 0.3793 -0.9116
vn -0.1856 0.1289 -0.9741
vn -0.2444 0.2653 -0.9327
vn -0.2655 0.0000 -0.9641
vn -0.3309 0.1371 -0.9337
vn -0.3392 -0.1289 -0.9318
vn -0.4112 0.0023 -0.9116
vn -0.4024 -0.2494 -0.8808
vn -0.4796 -0.1294 -0.8679
vn -0.5330 -0.2496 -0.8085
vn -0.2951 0.3969 -0.8691
vn -0.3878 0.2753 -0.8797
vn -0.4348 0.4066 -0.8035
vn -0.4753 0.1407 -0.8685
vn -0.5286 0.2789 -0.8018
vn -0.5671 0.4066 -0.7163
vn -0.5504 0.0024 -0.8349
vn -0.6109 0.1407 -0.7791
vn -0.6557 0.2753 -0.7031
vn -0.6825 0.3969 -0.6138
vn -0.6087 -0.1294 -0.7828
vn -0.6757 0.0023 -0.7371
vn -0.7277 0.1371 -0.6721
vn -0.7609 0.2653 -0.5922
vn -0.7755 0.3793 -0.5048
vn -0.6509 -0.2494 -0.7170
vn -0.7227 -0.1289 -0.6790
vn -0.7815 0.0000 -0.6240
vn -0.8221 0.1289 -0.5545
vn -0.8433 0.2494 -0.4761
vn -0.8470 0.3556 -0.3951
vn -0.8975 0.3556 -0.2608
vn -0.9481 0.2494 -0.1974
vn -0.9159 0.3793 -0.1312
vn -0.9838 0.1289 -0.1245
vn -0.9625 0.2653 -0.0558
vn -0.9990 0.0000 -0.0455
vn -0.9902 0.1371 0.0262
vn -0.9910 -0.1289 0.0347
vn -0.9940 0.0023 0.1094
vn -0.9621 -0.2494 0.1105
vn -0.9736 -0.1294 0.1879
vn -0.9336 -0.2496 0.2571
vn -0.9178 0.3969 0.0121
vn -0.9564 0.2753 0.0970
vn -0.8985 0.4066 0.1652
vn -0.9729 0.1407 0.1836
vn -0.9259 0.2789 0.2549
vn -0.8565 0.4066 0.3180
vn -0.9641 0.0024 0.2655
vn -0.9297 0.1407 0.3403
vn -0.8713 0.2753 0.4063
vn -0.7946 0.3969 0.4594
vn -0.9326 -0.1294 0.3370
vn -0.9099 0.0023 0.4149
vn -0.8640 0.1371 0.4844
vn -0.7983 0.2653 0.5407
vn -0.7197 0.3793 0.5815
vn -0.8830 -0.2494 0.3975
vn -0.8691 -0.1289 0.4775
vn -0.8349 0.0000 0.5504
vn -0.7814 0.1289 0.6106
vn -0.7134 0.2494 0.6549
vn -0.6375 0.3556 0.6835
vn -0.5254 0.3556 0.7730
vn -0.4807 0.2494 0.8406
vn -0.4078 0.3793 0.8306
vn -0.4224 0.1289 0.8972
vn -0.3505 0.2653 0.8982
vn -0.3519 0.0000 0.9360
vn -0.2811 0.1371 0.9498
vn -0.2733 -0.1289 0.9533
vn -0.2031 0.0023 0.9791
vn -0.1922 -0.2494 0.9491
vn -0.1222 -0.1294 0.9840
vn -0.0440 -0.2496 0.9674
vn -0.2721 0.3969 0.8766
vn -0.2033 0.2753 0.9396
vn -0.1205 0.4066 0.9056
vn -0.1260 0.1407 0.9820
vn -0.0436 0.2789 0.9593
vn 0.0378 0.4066 0.9128
vn -0.0454 0.0024 0.9990
vn 0.0363 0.1407 0.9894
vn 0.1172 0.2753 0.9542
vn 0.1914 0.3969 0.8977
vn 0.0323 -0.1294 0.9911
vn 0.1134 0.0023 0.9935
vn 0.1937 0.1371 0.9714
vn 0.2675 0.2653 0.9263
vn 0.3307 0.3793 0.8642
vn 0.1052 -0.2494 0.9627
vn 0.1856 -0.1289 0.9741
vn 0.2655 -0.0000 0.9641
vn 0.3392 0.1289 0.9318
vn 0.4024 0.2494 0.8808
vn 0.4530 0.3556 0.8175
vn 0.9336 0.2496 -0.2571
vn 0.9736 0.1294 -0.1879
vn 0.9940 -0.0023 -0.1094
vn 0.9902 -0.1371 -0.0262
vn 0.9625 -0.2653 0.0558
vn 0.9159 -0.3793 0.1312
vn 0.9326 0.1294 -0.3370
vn 0.9641 -0.0024 -0.2655
vn 0.9099 -0.0023 -0.4149
vn 0.9729 -0.1407 -0.1836
vn 0.9297 -0.1407 -0.3403
vn 0.8640 -0.1371 -0.4844
vn 0.9564 -0.2753 -0.0970
vn 0.9259 -0.2789 -0.2549
vn 0.8713 -0.2753 -0.4063
vn 0.7983 -0.2653 -0.5407
vn 0.9178 -0.3969 -0.0121
vn 0.8985 -0.4066 -0.1652
vn 0.8565 -0.4066 -0.3180
vn 0.7946 -0.3969 -0.4594
vn 0.7197 -0.3793 -0.5815
vn 0.8619 -0.5026 0.0668
vn 0.8509 -0.5197 -0.0771
vn 0.8201 -0.5257 -0.2258
vn 0.7704 -0.5197 -0.3693
vn 0.7062 -0.5026 -0.4986
vn 0.6341 -0.4776 -0.6081
vn 0.0440 0.2496 -0.9674
vn 0.1222 0.1294 -0.9840
vn 0.2031 -0.0023 -0.9791
vn 0.2811 -0.1371 -0.9498
vn 0.3505 -0.2653 -0.8982
vn 0.4078 -0.3793 -0.8306
vn -0.0323 0.1294 -0.9911
vn 0.0454 -0.0024 -0.9990
vn -0.1134 -0.0023 -0.9935
vn 0.1260 -0.1407 -0.9820
vn -0.0363 -0.1407 -0.9894
vn -0.1937 -0.1371 -0.9714
vn 0.2033 -0.2753 -0.9396
vn 0.0436 -0.2789 -0.9593
vn -0.1172 -0.2753 -0.9542
vn -0.2675 -0.2653 -0.9263
vn 0.2721 -0.3969 -0.8766
vn 0.1205 -0.4066 -0.9056
vn -0.0378 -0.4066 -0.9128
vn -0.1914 -0.3969 -0.8977
vn -0.3307 -0.3793 -0.8642
vn 0.3299 -0.5026 -0.7991
vn 0.1896 -0.5197 -0.8331
vn 0.0387 -0.5257 -0.8498
vn -0.1132 -0.5197 -0.8468
vn -0.2559 -0.5026 -0.8258
vn -0.3824 -0.4776 -0.7910
vn -0.9064 0.2496 -0.3408
vn -0.8981 0.1294 -0.4203
vn -0.8684 -0.0023 -0.4958
vn -0.8165 -0.1371 -0.5609
vn -0.7459 -0.2653 -0.6109
vn -0.6639 -0.3793 -0.6445
vn -0.9526 0.1294 -0.2755
vn -0.9360 -0.0024 -0.3519
vn -0.9800 -0.0023 -0.1992
vn -0.8950 -0.1407 -0.4233
vn -0.9522 -0.1407 -0.2712
vn -0.9837 -0.1371 -0.1160
vn -0.8308 -0.2753 -0.4837
vn -0.8989 -0.2789 -0.3380
vn -0.9437 -0.2753 -0.1834
vn -0.9636 -0.2653 -0.0318
vn -0.7496 -0.3969 -0.5297
vn -0.8240 -0.4066 -0.3945
vn -0.8798 -0.4066 -0.2462
vn -0.9129 -0.3969 -0.0954
vn -0.9241 -0.3793 0.0475
vn -0.6581 -0.5026 -0.5607
vn -0.7337 -0.5197 -0.4378
vn -0.7962 -0.5257 -0.2994
vn -0.8404 -0.5197 -0.1540
vn -0.8644 -0.5026 -0.0118
vn -0.8704 -0.4776 0.1193
vn -0.6042 0.2496 0.7567
vn -0.6773 0.1294 0.7243
vn -0.7399 -0.0023 0.6727
vn -0.7857 -0.1371 0.6032
vn -0.8115 -0.2653 0.5206
vn -0.8181 -0.3793 0.4323
vn -0.5564 0.1294 0.8208
vn -0.6239 -0.0024 0.7815
vn -0.4923 -0.0023 0.8704
vn -0.6791 -0.1407 0.7204
vn -0.5522 -0.1407 0.8218
vn -0.4143 -0.1371 0.8998
vn -0.7168 -0.2753 0.6406
vn -0.5992 -0.2789 0.7505
vn -0.4661 -0.2753 0.8408
vn -0.3281 -0.2653 0.9066
vn -0.7354 -0.3969 0.5492
vn -0.6298 -0.4066 0.6618
vn -0.5060 -0.4066 0.7607
vn -0.3728 -0.3969 0.8387
vn -0.2404 -0.3793 0.8935
vn -0.7366 -0.5026 0.4526
vn -0.6431 -0.5197 0.5625
vn -0.5308 -0.5257 0.6648
vn -0.4062 -0.5197 0.7516
vn -0.2783 -0.5026 0.8185
vn -0.1555 -0.4776 0.8647
vn 0.5330 0.2496 0.8085
vn 0.4796 0.1294 0.8679
vn 0.4112 -0.0023 0.9116
vn 0.3309 -0.1371 0.9337
vn 0.2444 -0.2653 0.9327
vn 0.1583 -0.3793 0.9116
vn 0.6087 0.1294 0.7828
vn 0.5504 -0.0024 0.8349
vn 0.6757 -0.0023 0.7371
vn 0.4753 -0.1407 0.8685
vn 0.6109 -0.1407 0.7791
vn 0.7277 -0.1371 0.6721
vn 0.3878 -0.2753 0.8797
vn 0.5286 -0.2789 0.8018
vn 0.6557 -0.2753 0.7031
vn 0.7609 -0.2653 0.5922
vn 0.2951 -0.3969 0.8691
vn 0.4348 -0.4066 0.8035
vn 0.5671 -0.4066 0.7163
vn 0.6825 -0.3969 0.6138
vn 0.7755 -0.3793 0.5048
vn 0.2028 -0.5026 0.8404
vn 0.3363 -0.5197 0.7854
vn 0.4682 -0.5257 0.7102
vn 0.5893 -0.5197 0.6186
vn 0.6924 -0.5026 0.5176
vn 0.7743 -0.4776 0.4151
vn 0.7799 -0.5530 0.2932
vn 0.7039 -0.6591 0.2647
vn 0.7909 -0.5891 0.1656
vn 0.6071 -0.7612 0.2283
vn 0.7046 -0.6981 0.1268
vn 0.4921 -0.8507 0.1850
vn 0.5959 -0.7988 0.0824
vn 0.3657 -0.9205 0.1375
vn 0.4698 -0.8821 0.0350
vn 0.2370 -0.9674 0.0891
vn 0.3352 -0.9421 -0.0121
vn 0.2023 -0.9777 -0.0557
vn 0.7867 -0.6168 0.0240
vn 0.6887 -0.7247 -0.0232
vn 0.7641 -0.6322 -0.1282
vn 0.5683 -0.8196 -0.0722
vn 0.6546 -0.7342 -0.1802
vn 0.7221 -0.6322 -0.2810
vn 0.4332 -0.8934 -0.1193
vn 0.5252 -0.8196 -0.2289
vn 0.6035 -0.7247 -0.3326
vn 0.6636 -0.6168 -0.4233
vn 0.2941 -0.9421 -0.1612
vn 0.3857 -0.8821 -0.2705
vn 0.4698 -0.7988 -0.3758
vn 0.5404 -0.6981 -0.4696
vn 0.5947 -0.5891 -0.5471
vn 0.1580 -0.9674 -0.1979
vn 0.2438 -0.9205 -0.3053
vn 0.3280 -0.8507 -0.4108
vn 0.4047 -0.7612 -0.5068
vn 0.4692 -0.6591 -0.5877
vn 0.5199 -0.5530 -0.6511
vn 0.4019 -0.5891 -0.7010
vn 0.3384 -0.6981 -0.6310
vn 0.2625 -0.7988 -0.5413
vn 0.1784 -0.8821 -0.4360
vn 0.0921 -0.9421 -0.3225
vn 0.0095 -0.9777 -0.2096
vn 0.2659 -0.6168 -0.7408
vn 0.1907 -0.7247 -0.6622
vn 0.1142 -0.6322 -0.7663
vn 0.1069 -0.8196 -0.5628
vn 0.0309 -0.7342 -0.6782
vn -0.0441 -0.6322 -0.7735
vn 0.0204 -0.8934 -0.4489
vn -0.0554 -0.8196 -0.5702
vn -0.1298 -0.7247 -0.6768
vn -0.1976 -0.6168 -0.7619
vn -0.0624 -0.9421 -0.3296
vn -0.1381 -0.8821 -0.4504
vn -0.2123 -0.7988 -0.5629
vn -0.2797 -0.6981 -0.6591
vn -0.3366 -0.5891 -0.7346
vn -0.1394 -0.9674 -0.2114
vn -0.2151 -0.9205 -0.3262
vn -0.2894 -0.8507 -0.4389
vn -0.3570 -0.7611 -0.5415
vn -0.4139 -0.6591 -0.6279
vn -0.4586 -0.5530 -0.6956
vn -0.5425 -0.5891 -0.5989
vn -0.4955 -0.6981 -0.5168
vn -0.4337 -0.7988 -0.4170
vn -0.3595 -0.8821 -0.3044
vn -0.2783 -0.9421 -0.1872
vn -0.1964 -0.9777 -0.0738
vn -0.6224 -0.6168 -0.4818
vn -0.5708 -0.7247 -0.3860
vn -0.6936 -0.6322 -0.3454
vn -0.5022 -0.8196 -0.2756
vn -0.6355 -0.7342 -0.2389
vn -0.7493 -0.6322 -0.1971
vn -0.4206 -0.8934 -0.1581
vn -0.5594 -0.8196 -0.1235
vn -0.6837 -0.7247 -0.0857
vn -0.7857 -0.6168 -0.0475
vn -0.3327 -0.9421 -0.0425
vn -0.4710 -0.8821 -0.0078
vn -0.6009 -0.7988 0.0280
vn -0.7132 -0.6981 0.0623
vn -0.8027 -0.5891 0.0931
vn -0.2441 -0.9674 0.0672
vn -0.3767 -0.9205 0.1037
vn -0.5069 -0.8507 0.1396
vn -0.6253 -0.7612 0.1722
vn -0.7250 -0.6591 0.1996
vn -0.8033 -0.5530 0.2212
vn 0.7041 -0.5891 0.3965
vn 0.6077 -0.6168 0.5003
vn 0.4904 -0.6322 0.5999
vn 0.3581 -0.6322 0.6871
vn 0.2203 -0.6168 0.7556
vn 0.0869 -0.5891 0.8034
vn 0.6136 -0.6981 0.3688
vn 0.5028 -0.7247 0.4712
vn 0.5026 -0.7988 0.3306
vn 0.3737 -0.7342 0.5668
vn 0.3800 -0.8196 0.4288
vn 0.3765 -0.8821 0.2832
vn 0.2349 -0.7247 0.6478
vn 0.2443 -0.8196 0.5182
vn 0.2473 -0.8934 0.3752
vn 0.2442 -0.9421 0.2299
vn 0.0971 -0.6981 0.7093
vn 0.1058 -0.7988 0.5922
vn 0.1119 -0.8821 0.4576
vn 0.1151 -0.9421 0.3151
vn 0.1155 -0.9777 0.1752
vn -0.0342 -0.6591 0.7513
vn -0.0295 -0.7612 0.6479
vn -0.0239 -0.8507 0.5252
vn -0.0178 -0.9205 0.3903
vn -0.0115 -0.9674 0.2529
vn -0.7372 -0.5891 0.3309
vn -0.6446 -0.6981 0.3116
vn -0.5306 -0.7988 0.2836
vn -0.4006 -0.8821 0.2478
vn -0.2641 -0.9421 0.2068
vn -0.1309 -0.9777 0.1640
vn -0.6506 -0.6168 0.4430
vn -0.5435 -0.7247 0.4236
vn -0.5428 -0.6322 0.5529
vn -0.4173 -0.8196 0.3925
vn -0.4236 -0.7342 0.5306
vn -0.4190 -0.6322 0.6517
vn -0.2804 -0.8934 0.3512
vn -0.2904 -0.8196 0.4939
vn -0.2928 -0.7247 0.6238
vn -0.2880 -0.6168 0.7325
vn -0.1432 -0.9421 0.3033
vn -0.1530 -0.8821 0.4455
vn -0.1591 -0.7988 0.5802
vn -0.1611 -0.6981 0.6976
vn -0.1595 -0.5891 0.7922
s 1
f 1//1 2//2 3//3
f 4//4 5//5 6//6
f 1//1 3//3 7//7
f 1//1 7//7 8//8
f 1//1 8//8 9//9
f 4//4 6//6 10//10
f 11//11 12//12 13//13
f 14//14 15//15 16//16
f 17//17 18//18 19//19
f 20//20 21//21 22//22
f 4//4 10//10 23//23
f 11//11 13//13 24//24
f 14//14 16//16 25//25
f 17//17 19//19 26//26
f 20//20 22//22 27//27
f 28//28 29//29 30//30
f 31//31 32//32 33//33
f 34//34 35//35 36//36
f 37//37 38//38 39//39
f 40//40 41//41 42//42
f 43//43 44//44 45//45
f 46//46 47//47 43//43
f 48//48 49//49 46//46
f 50//50 51//51 48//48
f 52//52 53//53 50//50
f 54//54 55//55 52//52
f 42//42 56//56 54//54
f 43//43 47//47 44//44
f 47//47 57//57 44//44
f 46//46 49//49 47//47
f 49//49 58//58 47//47
f 47//47 58//58 57//57
f 58//58 59//59 57//57
f 48//48 51//51 49//49
f 51//51 60//60 49//49
f 49//49 60//60 58//58
f 60//60 61//61 58//58
f 58//58 61//61 59//59
f 61//61 62//62 59//59
f 50//50 53//53 51//51
f 53//53 63//63 51//51
f 51//51 63//63 60//60
f 63//63 64//64 60//60
f 60//60 64//64 61//61
f 64//64 65//65 61//61
f 61//61 65//65 62//62
f 65//65 66//66 62//62
f 52//52 55//55 53//53
f 55//55 67//67 53//53
f 53//53 67//67 63//63
f 67//67 68//68 63//63
f 63//63 68//68 64//64
f 68//68 69//69 64//64
f 64//64 69//69 65//65
f 69//69 70//70 65//65
f 65//65 70//70 66//66
f 70//70 71//71 66//66
f 54//54 56//56 55//55
f 56//56 72//72 55//55
f 55//55 72//72 67//67
f 72//72 73//73 67//67
f 67//67 73//73 68//68
f 73//73 74//74 68//68
f 68//68 74//74 69//69
f 74//74 75//75 69//69
f 69//69 75//75 70//70
f 75//75 76//76 70//70
f 70//70 76//76 71//71
f 76//76 39//39 71//71
f 42//42 41//41 56//56
f 41//41 77//77 56//56
f 56//56 77//77 72//72
f 77//77 78//78 72//72
f 72//72 78//78 73//73
f 78//78 79//79 73//73
f 73//73 79//79 74//74
f 79//79 80//80 74//74
f 74//74 80//80 75//75
f 80//80 81//81 75//75
f 75//75 81//81 76//76
f 81//81 82//82 76//76
f 76//76 82//82 39//39
f 82//82 37//37 39//39
f 44//44 83//83 45//45
f 57//57 84//84 44//44
f 59//59 85//85 57//57
f 62//62 86//86 59//59
f 66//66 87//87 62//62
f 71//71 88//88 66//66
f 39//39 89//89 71//71
f 44//44 84//84 83//83
f 84//84 90//90 83//83
f 57//57 85//85 84//84
f 85//85 91//91 84//84
f 84//84 91//91 90//90
f 91//91 92//92 90//90
f 59//59 86//86 85//85
f 86//86 93//93 85//85
f 85//85 93//93 91//91
f 93//93 94//94 91//91
f 91//91 94//94 92//92
f 94//94 95//95 92//92
f 62//62 87//87 86//86
f 87//87 96//96 86//86
f 86//86 96//96 93//93
f 96//96 97//97 93//93
f 93//93 97//97 94//94
f 97//97 98//98 94//94
f 94//94 98//98 95//95
f 98//98 99//99 95//95
f 66//66 88//88 87//87
f 88//88 100//100 87//87
f 87//87 100//100 96//96
f 100//100 101//101 96//96
f 96//96 101//101 97//97
f 101//101 102//102 97//97
f 97//97 102//102 98//98
f 102//102 103//103 98//98
f 98//98 103//103 99//99
f 103//103 104//104 99//99
f 71//71 89//89 88//88
f 89//89 105//105 88//88
f 88//88 105//105 100//100
f 105//105 106//106 100//100
f 100//100 106//106 101//101
f 106//106 107//107 101//101
f 101//101 107//107 102//102
f 107//107 108//108 102//102
f 102//102 108//108 103//103
f 108//108 109//109 103//103
f 103//103 109//109 104//104
f 109//109 36//36 104//104
f 39//39 38//38 89//89
f 38//38 110//110 89//89
f 89//89 110//110 105//105
f 110//110 111//111 105//105
f 105//105 111//111 106//106
f 111//111 112//112 106//106
f 106//106 112//112 107//107
f 112//112 113//113 107//107
f 107//107 113//113 108//108
f 113//113 114//114 108//108
f 108//108 114//114 109//109
f 114//114 115//115 109//109
f 109//109 115//115 36//36
f 115//115 34//34 36//36
f 83//83 116//116 45//45
f 90//90 117//117 83//83
f 92//92 118//118 90//90
f 95//95 119//119 92//92
f 99//99 120//120 95//95
f 104//104 121//121 99//99
f 36//36 122//122 104//104
f 83//83 117//117 116//116
f 117//117 123//123 116//116
f 90//90 118//118 117//117
f 118//118 124//124 117//117
f 117//117 124//124 123//123
f 124//124 125//125 123//123
f 92//92 119//119 118//118
f 119//119 126//126 118//118
f 118//118 126//126 124//124
f 126//126 127//127 124//124
f 124//124 127//127 125//125
f 127//127 128//128 125//125
f 95//95 120//120 119//119
f 120//120 129//129 119//119
f 119//119 129//129 126//126
f 129//129 130//130 126//126
f 126//126 130//130 127//127
f 130//130 131//131 127//127
f 127//127 131//131 128//128
f 131//131 132//132 128//128
f 99//99 121//121 120//120
f 121//121 133//133 120//120
f 120//120 133//133 129//129
f 133//133 134//134 129//129
f 129//129 134//134 130//130
f 134//134 135//135 130//130
f 130//130 135//135 131//131
f 135//135 136//136 131//131
f 131//131 136//136 132//132
f 136//136 137//137 132//132
f 104//104 122//122 121//121
f 122//122 138//138 121//121
f 121//121 138//138 133//133
f 138//138 139//139 133//133
f 133//133 139//139 134//134
f 139//139 140//140 134//134
f 134//134 140//140 135//135
f 140//140 141//141 135//135
f 135//135 141//141 136//136
f 141//141 142//142 136//136
f 136//136 142//142 137//137
f 142//142 33//33 137//137
f 36//36 35//35 122//122
f 35//35 143//143 122//122
f 122//122 143//143 138//138
f 143//143 144//144 138//138
f 138//138 144//144 139//139
f 144//144 145//145 139//139
f 139//139 145//145 140//140
f 145//145 146//146 140//140
f 140//140 146//146 141//141
f 146//146 147//147 141//141
f 141//141 147//147 142//142
f 147//147 148//148 142//142
f 142//142 148//148 33//33
f 148//148 31//31 33//33
f 116//116 149//149 45//45
f 123//123 150//150 116//116
f 125//125 151//151 123//123
f 128//128 152//152 125//125
f 132//132 153//153 128//128
f 137//137 154//154 132//132
f 33//33 155//155 137//137
f 116//116 150//150 149//149
f 150//150 156//156 149//149
f 123//123 151//151 150//150
f 151//151 157//157 150//150
f 150//150 157//157 156//156
f 157//157 158//158 156//156
f 125//125 152//152 151//151
f 152//152 159//159 151//151
f 151//151 159//159 157//157
f 159//159 160//160 157//157
f 157//157 160//160 158//158
f 160//160 161//161 158//158
f 128//128 153//153 152//152
f 153//153 162//162 152//152
f 152//152 162//162 159//159
f 162//162 163//163 159//159
f 159//159 163//163 160//160
f 163//163 164//164 160//160
f 160//160 164//164 161//161
f 164//164 165//165 161//161
f 132//132 154//154 153//153
f 154//154 166//166 153//153
f 153//153 166//166 162//162
f 166//166 167//167 162//162
f 162//162 167//167 163//163
f 167//167 168//168 163//163
f 163//163 168//168 164//164
f 168//168 169//169 164//164
f 164//164 169//169 165//165
f 169//169 170//170 165//165
f 137//137 155//155 154//154
f 155//155 171//171 154//154
f 154//154 171//171 166//166
f 171//171 172//172 166//166
f 166//166 172//172 167//167
f 172//172 173//173 167//167
f 167//167 173//173 168//168
f 173//173 174//174 168//168
f 168//168 174//174 169//169
f 174//174 175//175 169//169
f 169//169 175//175 170//170
f 175//175 30//30 170//170
f 33//33 32//32 155//155
f 32//32 176//176 155//155
f 155//155 176//176 171//171
f 176//176 177//177 171//171
f 171//171 177//177 172//172
f 177//177 178//178 172//172
f 172//172 178//178 173//173
f 178//178 179//179 173//173
f 173//173 179//179 174//174
f 179//179 180//180 174//174
f 174//174 180//180 175//175
f 180//180 181//181 175//175
f 175//175 181//181 30//30
f 181//181 28//28 30//30
f 149//149 43//43 45//45
f 156//156 182//182 149//149
f 158//158 183//183 156//156
f 161//161 184//184 158//158
f 165//165 185//185 161//161
f 170//170 186//186 165//165
f 30//30 187//187 170//170
f 149//149 182//182 43//43
f 182//182 46//46 43//43
f 156//156 183//183 182//182
f 183//183 188//188 182//182
f 182//182 188//188 46//46
f 188//188 48//48 46//46
f 158//158 184//184 183//183
f 184//184 189//189 183//183
f 183//183 189//189 188//188
f 189//189 190//190 188//188
f 188//188 190//190 48//48
f 190//190 50//50 48//48
f 161//161 185//185 184//184
f 185//185 191//191 184//184
f 184//184 191//191 189//189
f 191//191 192//192 189//189
f 189//189 192//192 190//190
f 192//192 193//193 190//190
f 190//190 193//193 50//50
f 193//193 52//52 50//50
f 165//165 186//186 185//185
f 186//186 194//194 185//185
f 185//185 194//194 191//191
f 194//194 195//195 191//191
f 191//191 195//195 192//192
f 195//195 196//196 192//192
f 192//192 196//196 193//193
f 196//196 197//197 193//193
f 193//193 197//197 52//52
f 197//197 54//54 52//52
f 170//170 187//187 186//186
f 187//187 198//198 186//186
f 186//186 198//198 194//194
f 198//198 199//199 194//194
f 194//194 199//199 195//195
f 199//199 200//200 195//195
f 195//195 200//200 196//196
f 200//200 201//201 196//196
f 196//196 201//201 197//197
f 201//201 202//202 197//197
f 197//197 202//202 54//54
f 202//202 42//42 54//54
f 30//30 29//29 187//187
f 29//29 203//203 187//187
f 187//187 203//203 198//198
f 203//203 204//204 198//198
f 198//198 204//204 199//199
f 204//204 205//205 199//199
f 199//199 205//205 200//200
f 205//205 206//206 200//200
f 200//200 206//206 201//201
f 206//206 207//207 201//201
f 201//201 207//207 202//202
f 207//207 208//208 202//202
f 202//202 208//208 42//42
f 208//208 40//40 42//42
f 209//209 41//41 40//40
f 210//210 211//211 209//209
f 212//212 213//213 210//210
f 214//214 215//215 212//212
f 216//216 217//217 214//214
f 218//218 219//219 216//216
f 27//27 220//220 218//218
f 209//209 211//211 41//41
f 211//211 77//77 41//41
f 210//210 213//213 211//211
f 213//213 221//221 211//211
f 211//211 221//221 77//77
f 221//221 78//78 77//77
f 212//212 215//215 213//213
f 215//215 222//222 213//213
f 213//213 222//222 221//221
f 222//222 223//223 221//221
f 221//221 223//223 78//78
f 223//223 79//79 78//78
f 214//214 217//217 215//215
f 217//217 224//224 215//215
f 215//215 224//224 222//222
f 224//224 225//225 222//222
f 222//222 225//225 223//223
f 225//225 226//226 223//223
f 223//223 226//226 79//79
f 226//226 80//80 79//79
f 216//216 219//219 217//217
f 219//219 227//227 217//217
f 217//217 227//227 224//224
f 227//227 228//228 224//224
f 224//224 228//228 225//225
f 228//228 229//229 225//225
f 225//225 229//229 226//226
f 229//229 230//230 226//226
f 226//226 230//230 80//80
f 230//230 81//81 80//80
f 218//218 220//220 219//219
f 220//220 231//231 219//219
f 219//219 231//231 227//227
f 231//231 232//232 227//227
f 227//227 232//232 228//228
f 232//232 233//233 228//228
f 228//228 233//233 229//229
f 233//233 234//234 229//229
f 229//229 234//234 230//230
f 234//234 235//235 230//230
f 230//230 235//235 81//81
f 235//235 82//82 81//81
f 27//27 22//22 220//220
f 22//22 236//236 220//220
f 220//220 236//236 231//231
f 236//236 237//237 231//231
f 231//231 237//237 232//232
f 237//237 238//238 232//232
f 232//232 238//238 233//233
f 238//238 239//239 233//233
f 233//233 239//239 234//234
f 239//239 240//240 234//234
f 234//234 240//240 235//235
f 240//240 241//241 235//235
f 235//235 241//241 82//82
f 241//241 37//37 82//82
f 242//242 38//38 37//37
f 243//243 244//244 242//242
f 245//245 246//246 243//243
f 247//247 248//248 245//245
f 249//249 250//250 247//247
f 251//251 252//252 249//249
f 26//26 253//253 251//251
f 242//242 244//244 38//38
f 244//244 110//110 38//38
f 243//243 246//246 244//244
f 246//246 254//254 244//244
f 244//244 254//254 110//110
f 254//254 111//111 110//110
f 245//245 248//248 246//246
f 248//248 255//255 246//246
f 246//246 255//255 254//254
f 255//255 256//256 254//254
f 254//254 256//256 111//111
f 256//256 112//112 111//111
f 247//247 250//250 248//248
f 250//250 257//257 248//248
f 248//248 257//257 255//255
f 257//257 258//258 255//255
f 255//255 258//258 256//256
f 258//258 259//259 256//256
f 256//256 259//259 112//112
f 259//259 113//113 112//112
f 249//249 252//252 250//250
f 252//252 260//260 250//250
f 250//250 260//260 257//257
f 260//260 261//261 257//257
f 257//257 261//261 258//258
f 261//261 262//262 258//258
f 258//258 262//262 259//259
f 262//262 263//263 259//259
f 259//259 263//263 113//113
f 263//263 114//114 113//113
f 251//251 253//253 252//252
f 253//253 264//264 252//252
f 252//252 264//264 260//260
f 264//264 265//265 260//260
f 260//260 265//265 261//261
f 265//265 266//266 261//261
f 261//261 266//266 262//262
f 266//266 267//267 262//262
f 262//262 267//267 263//263
f 267//267 268//268 263//263
f 263//263 268//268 114//114
f 268//268 115//115 114//114
f 26//26 19//19 253//253
f 19//19 269//269 253//253
f 253//253 269//269 264//264
f 269//269 270//270 264//264
f 264//264 270//270 265//265
f 270//270 271//271 265//265
f 265//265 271//271 266//266
f 271//271 272//272 266//266
f 266//266 272//272 267//267
f 272//272 273//273 267//267
f 267//267 273//273 268//268
f 273//273 274//274 268//268
f 268//268 274//274 115//115
f 274//274 34//34 115//115
f 275//275 35//35 34//34
f 276//276 277//277 275//275
f 278//278 279//279 276//276
f 280//280 281//281 278//278
f 282//282 283//283 280//280
f 284//284 285//285 282//282
f 25//25 286//286 284//284
f 275//275 277//277 35//35
f 277//277 143//143 35//35
f 276//276 279//279 277//277
f 279//279 287//287 277//277
f 277//277 287//287 143//143
f 287//287 144//144 143//143
f 278//278 281//281 279//279
f 281//281 288//288 279//279
f 279//279 288//288 287//287
f 288//288 289//289 287//287
f 287//287 289//289 144//144
f 289//289 145//145 144//144
f 280//280 283//283 281//281
f 283//283 290//290 281//281
f 281//281 290//290 288//288
f 290//290 291//291 288//288
f 288//288 291//291 289//289
f 291//291 292//292 289//289
f 289//289 292//292 145//145
f 292//292 146//146 145//145
f 282//282 285//285 283//283
f 285//285 293//293 283//283
f 283//283 293//293 290//290
f 293//293 294//294 290//290
f 290//290 294//294 291//291
f 294//294 295//295 291//291
f 291//291 295//295 292//292
f 295//295 296//296 292//292
f 292//292 296//296 146//146
f 296//296 147//147 146//146
f 284//284 286//286 285//285
f 286//286 297//297 285//285
f 285//285 297//297 293//293
f 297//297 298//298 293//293
f 293//293 298//298 294//294
f 298//298 299//299 294//294
f 294//294 299//299 295//295
f 299//299 300//300 295//295
f 295//295 300//300 296//296
f 300//300 301//301 296//296
f 296//296 301//301 147//147
f 301//301 148//148 147//147
f 25//25 16//16 286//286
f 16//16 302//302 286//286
f 286//286 302//302 297//297
f 302//302 303//303 297//297
f 297//297 303//303 298//298
f 303//303 304//304 298//298
f 298//298 304//304 299//299
f 304//304 305//305 299//299
f 299//299 305//305 300//300
f 305//305 306//306 300//300
f 300//300 306//306 301//301
f 306//306 307//307 301//301
f 301//301 307//307 148//148
f 307//307 31//31 148//148
f 308//308 32//32 31//31
f 309//309 310//310 308//308
f 311//311 312//312 309//309
f 313//313 314//314 311//311
f 315//315 316//316 313//313
f 317//317 318//318 315//315
f 24//24 319//319 317//317
f 308//308 310//310 32//32
f 310//310 176//176 32//32
f 309//309 312//312 310//310
f 312//312 320//320 310//310
f 310//310 320//320 176//176
f 320//320 177//177 176//176
f 311//311 314//314 312//312
f 314//314 321//321 312//312
f 312//312 321//321 320//320
f 321//321 322//322 320//320
f 320//320 322//322 177//177
f 322//322 178//178 177//177
f 313//313 316//316 314//314
f 316//316 323//323 314//314
f 314//314 323//323 321//321
f 323//323 324//324 321//321
f 321//321 324//324 322//322
f 324//324 325//325 322//322
f 322//322 325//325 178//178
f 325//325 179//179 178//178
f 315//315 318//318 316//316
f 318//318 326//326 316//316
f 316//316 326//326 323//323
f 326//326 327//327 323//323
f 323//323 327//327 324//324
f 327//327 328//328 324//324
f 324//324 328//328 325//325
f 328//328 329//329 325//325
f 325//325 329//329 179//179
f 329//329 180//180 179//179
f 317//317 319//319 318//318
f 319//319 330//330 318//318
f 318//318 330//330 326//326
f 330//330 331//331 326//326
f 326//326 331//331 327//327
f 331//331 332//332 327//327
f 327//327 332//332 328//328
f 332//332 333//333 328//328
f 328//328 333//333 329//329
f 333//333 334//334 329//329
f 329//329 334//334 180//180
f 334//334 181//181 180//180
f 24//24 13//13 319//319
f 13//13 335//335 319//319
f 319//319 335//335 330//330
f 335//335 336//336 330//330
f 330//330 336//336 331//331
f 336//336 337//337 331//331
f 331//331 337//337 332//332
f 337//337 338//338 332//332
f 332//332 338//338 333//333
f 338//338 339//339 333//333
f 333//333 339//339 334//334
f 339//339 340//340 334//334
f 334//334 340//340 181//181
f 340//340 28//28 181//181
f 341//341 29//29 28//28
f 342//342 343//343 341//341
f 344//344 345//345 342//342
f 346//346 347//347 344//344
f 348//348 349//349 346//346
f 350//350 351//351 348//348
f 23//23 352//352 350//350
f 341//341 343//343 29//29
f 343//343 203//203 29//29
f 342//342 345//345 343//343
f 345//345 353//353 343//343
f 343//343 353//353 203//203
f 353//353 204//204 203//203
f 344//344 347//347 345//345
f 347//347 354//354 345//345
f 345//345 354//354 353//353
f 354//354 355//355 353//353
f 353//353 355//355 204//204
f 355//355 205//205 204//204
f 346//346 349//349 347//347
f 349//349 356//356 347//347
f 347//347 356//356 354//354
f 356//356 357//357 354//354
f 354//354 357//357 355//355
f 357//357 358//358 355//355
f 355//355 358//358 205//205
f 358//358 206//206 205//205
f 348//348 351//351 349//349
f 351//351 359//359 349//349
f 349//349 359//359 356//356
f 359//359 360//360 356//356
f 356//356 360//360 357//357
f 360//360 361//361 357//357
f 357//357 361//361 358//358
f 361//361 362//362 358//358
f 358//358 362//362 206//206
f 362//362 207//207 206//206
f 350//350 352//352 351//351
f 352//352 363//363 351//351
f 351//351 363//363 359//359
f 363//363 364//364 359//359
f 359//359 364//364 360//360
f 364//364 365//365 360//360
f 360//360 365//365 361//361
f 365//365 366//366 361//361
f 361//361 366//366 362//362
f 366//366 367//367 362//362
f 362//362 367//367 207//207
f 367//367 208//208 207//207
f 23//23 10//10 352//352
f 10//10 368//368 352//352
f 352//352 368//368 363//363
f 368//368 369//369 363//363
f 363//363 369//369 364//364
f 369//369 370//370 364//364
f 364//364 370//370 365//365
f 370//370 371//371 365//365
f 365//365 371//371 366//366
f 371//371 372//372 366//366
f 366//366 372//372 367//367
f 372//372 373//373 367//367
f 367//367 373//373 208//208
f 373//373 40//40 208//208
f 241//241 242//242 37//37
f 240//240 374//374 241//241
f 239//239 375//375 240//240
f 238//238 376//376 239//239
f 237//237 377//377 238//238
f 236//236 378//378 237//237
f 22//22 379//379 236//236
f 241//241 374//374 242//242
f 374//374 243//243 242//242
f 240//240 375//375 374//374
f 375//375 380//380 374//374
f 374//374 380//380 243//243
f 380//380 245//245 243//243
f 239//239 376//376 375//375
f 376//376 381//381 375//375
f 375//375 381//381 380//380
f 381//381 382//382 380//380
f 380//380 382//382 245//245
f 382//382 247//247 245//245
f 238//238 377//377 376//376
f 377//377 383//383 376//376
f 376//376 383//383 381//381
f 383//383 384//384 381//381
f 381//381 384//384 382//382
f 384//384 385//385 382//382
f 382//382 385//385 247//247
f 385//385 249//249 247//247
f 237//237 378//378 377//377
f 378//378 386//386 377//377
f 377//377 386//386 383//383
f 386//386 387//387 383//383
f 383//383 387//387 384//384
f 387//387 388//388 384//384
f 384//384 388//388 385//385
f 388//388 389//389 385//385
f 385//385 389//389 249//249
f 389//389 251//251 249//249
f 236//236 379//379 378//378
f 379//379 390//390 378//378
f 378//378 390//390 386//386
f 390//390 391//391 386//386
f 386//386 391//391 387//387
f 391//391 392//392 387//387
f 387//387 392//392 388//388
f 392//392 393//393 388//388
f 388//388 393//393 389//389
f 393//393 394//394 389//389
f 389//389 394//394 251//251
f 394//394 26//26 251//251
f 22//22 21//21 379//379
f 21//21 395//395 379//379
f 379//379 395//395 390//390
f 395//395 396//396 390//390
f 390//390 396//396 391//391
f 396//396 397//397 391//391
f 391//391 397//397 392//392
f 397//397 398//398 392//392
f 392//392 398//398 393//393
f 398//398 399//399 393//393
f 393//393 399//399 394//394
f 399//399 400//400 394//394
f 394//394 400//400 26//26
f 400//400 17//17 26//26
f 274//274 275//275 34//34
f 273//273 401//401 274//274
f 272//272 402//402 273//273
f 271//271 403//403 272//272
f 270//270 404//404 271//271
f 269//269 405//405 270//270
f 19//19 406//406 269//269
f 274//274 401//401 275//275
f 401//401 276//276 275//275
f 273//273 402//402 401//401
f 402//402 407//407 401//401
f 401//401 407//407 276//276
f 407//407 278//278 276//276
f 272//272 403//403 402//402
f 403//403 408//408 402//402
f 402//402 408//408 407//407
f 408//408 409//409 407//407
f 407//407 409//409 278//278
f 409//409 280//280 278//278
f 271//271 404//404 403//403
f 404//404 410//410 403//403
f 403//403 410//410 408//408
f 410//410 411//411 408//408
f 408//408 411//411 409//409
f 411//411 412//412 409//409
f 409//409 412//412 280//280
f 412//412 282//282 280//280
f 270//270 405//405 404//404
f 405//405 413//413 404//404
f 404//404 413//413 410//410
f 413//413 414//414 410//410
f 410//410 414//414 411//411
f 414//414 415//415 411//411
f 411//411 415//415 412//412
f 415//415 416//416 412//412
f 412//412 416//416 282//282
f 416//416 284//284 282//282
f 269//269 406//406 405//405
f 406//406 417//417 405//405
f 405//405 417//417 413//413
f 417//417 418//418 413//413
f 413//413 418//418 414//414
f 418//418 419//419 414//414
f 414//414 419//419 415//415
f 419//419 420//420 415//415
f 415//415 420//420 416//416
f 420//420 421//421 416//416
f 416//416 421//421 284//284
f 421//421 25//25 284//284
f 19//19 18//18 406//406
f 18//18 422//422 406//406
f 406//406 422//422 417//417
f 422//422 423//423 417//417
f 417//417 423//423 418//418
f 423//423 424//424 418//418
f 418//418 424//424 419//419
f 424//424 425//425 419//419
f 419//419 425//425 420//420
f 425//425 426//426 420//420
f 420//420 426//426 421//421
f 426//426 427//427 421//421
f 421//421 427//427 25//25
f 427//427 14//14 25//25
f 307//307 308//308 31//31
f 306//306 428//428 307//307
f 305//305 429//429 306//306
f 304//304 430//430 305//305
f 303//303 431//431 304//304
f 302//302 432//432 303//303
f 16//16 433//433 302//302
f 307//307 428//428 308//308
f 428//428 309//309 308//308
f 306//306 429//429 428//428
f 429//429 434//434 428//428
f 428//428 434//434 309//309
f 434//434 311//311 309//309
f 305//305 430//430 429//429
f 430//430 435//435 429//429
f 429//429 435//435 434//434
f 435//435 436//436 434//434
f 434//434 436//436 311//311
f 436//436 313//313 311//311
f 304//304 431//431 430//430
f 431//431 437//437 430//430
f 430//430 437//437 435//435
f 437//437 438//438 435//435
f 435//435 438//438 436//436
f 438//438 439//439 436//436
f 436//436 439//439 313//313
f 439//439 315//315 313//313
f 303//303 432//432 431//431
f 432//432 440//440 431//431
f 431//431 440//440 437//437
f 440//440 441//441 437//437
f 437//437 441//441 438//438
f 441//441 442//442 438//438
f 438//438 442//442 439//439
f 442//442 443//443 439//439
f 439//439 443//443 315//315
f 443//443 317//317 315//315
f 302//302 433//433 432//432
f 433//433 444//444 432//432
f 432//432 444//444 440//440
f 444//444 445//445 440//440
f 440//440 445//445 441//441
f 445//445 446//446 441//441
f 441//441 446//446 442//442
f 446//446 447//447 442//442
f 442//442 447//447 443//443
f 447//447 448//448 443//443
f 443//443 448//448 317//317
f 448//448 24//24 317//317
f 16//16 15//15 433//433
f 15//15 449//449 433//433
f 433//433 449//449 444//444
f 449//449 450//450 444//444
f 444//444 450//450 445//445
f 450//450 451//451 445//445
f 445//445 451//451 446//446
f 451//451 452//452 446//446
f 446//446 452//452 447//447
f 452//452 453//453 447//447
f 447//447 453//453 448//448
f 453//453 454//454 448//448
f 448//448 454//454 24//24
f 454//454 11//11 24//24
f 340//340 341//341 28//28
f 339//339 455//455 340//340
f 338//338 456//456 339//339
f 337//337 457//457 338//338
f 336//336 458//458 337//337
f 335//335 459//459 336//336
f 13//13 460//460 335//335
f 340//340 455//455 341//341
f 455//455 342//342 341//341
f 339//339 456//456 455//455
f 456//456 461//461 455//455
f 455//455 461//461 342//342
f 461//461 344//344 342//342
f 338//338 457//457 456//456
f 457//457 462//462 456//456
f 456//456 462//462 461//461
f 462//462 463//463 461//461
f 461//461 463//463 344//344
f 463//463 346//346 344//344
f 337//337 458//458 457//457
f 458//458 464//464 457//457
f 457//457 464//464 462//462
f 464//464 465//465 462//462
f 462//462 465//465 463//463
f 465//465 466//466 463//463
f 463//463 466//466 346//346
f 466//466 348//348 346//346
f 336//336 459//459 458//458
f 459//459 467//467 458//458
f 458//458 467//467 464//464
f 467//467 468//468 464//464
f 464//464 468//468 465//465
f 468//468 469//469 465//465
f 465//465 469//469 466//466
f 469//469 470//470 466//466
f 466//466 470//470 348//348
f 470//470 350//350 348//348
f 335//335 460//460 459//459
f 460//460 471//471 459//459
f 459//459 471//471 467//467
f 471//471 472//472 467//467
f 467//467 472//472 468//468
f 472//472 473//473 468//468
f 468//468 473//473 469//469
f 473//473 474//474 469//469
f 469//469 474//474 470//470
f 474//474 475//475 470//470
f 470//470 475//475 350//350
f 475//475 23//23 350//350
f 13//13 12//12 460//460
f 12//12 476//476 460//460
f 460//460 476//476 471//471
f 476//476 477//477 471//471
f 471//471 477//477 472//472
f 477//477 478//478 472//472
f 472//472 478//478 473//473
f 478//478 479//479 473//473
f 473//473 479//479 474//474
f 479//479 480//480 474//474
f 474//474 480//480 475//475
f 480//480 481//481 475//475
f 475//475 481//481 23//23
f 481//481 4//4 23//23
f 373//373 209//209 40//40
f 372//372 482//482 373//373
f 371//371 483//483 372//372
f 370//370 484//484 371//371
f 369//369 485//485 370//370
f 368//368 486//486 369//369
f 10//10 487//487 368//368
f 373//373 482//482 209//209
f 482//482 210//210 209//209
f 372//372 483//483 482//482
f 483//483 488//488 482//482
f 482//482 488//488 210//210
f 488//488 212//212 210//210
f 371//371 484//484 483//483
f 484//484 489//489 483//483
f 483//483 489//489 488//488
f 489//489 490//490 488//488
f 488//488 490//490 212//212
f 490//490 214//214 212//212
f 370//370 485//485 484//484
f 485//485 491//491 484//484
f 484//484 491//491 489//489
f 491//491 492//492 489//489
f 489//489 492//492 490//490
f 492//492 493//493 490//490
f 490//490 493//493 214//214
f 493//493 216//216 214//214
f 369//369 486//486 485//485
f 486//486 494//494 485//485
f 485//485 494//494 491//491
f 494//494 495//495 491//491
f 491//491 495//495 492//492
f 495//495 496//496 492//492
f 492//492 496//496 493//493
f 496//496 497//497 493//493
f 493//493 497//497 216//216
f 497//497 218//218 216//216
f 368//368 487//487 486//486
f 487//487 498//498 486//486
f 486//486 498//498 494//494
f 498//498 499//499 494//494
f 494//494 499//499 495//495
f 499//499 500//500 495//495
f 495//495 500//500 496//496
f 500//500 501//501 496//496
f 496//496 501//501 497//497
f 501//501 502//502 497//497
f 497//497 502//502 218//218
f 502//502 27//27 218//218
f 10//10 6//6 487//487
f 6//6 503//503 487//487
f 487//487 503//503 498//498
f 503//503 504//504 498//498
f 498//498 504//504 499//499
f 504//504 505//505 499//499
f 499//499 505//505 500//500
f 505//505 506//506 500//500
f 500//500 506//506 501//501
f 506//506 507//507 501//501
f 501//501 507//507 502//502
f 507//507 508//508 502//502
f 502//502 508//508 27//27
f 508//508 20//20 27//27
f 509//509 21//21 20//20
f 510//510 511//511 509//509
f 512//512 513//513 510//510
f 514//514 515//515 512//512
f 516//516 517//517 514//514
f 518//518 519//519 516//516
f 9//9 520//520 518//518
f 509//509 511//511 21//21
f 511//511 395//395 21//21
f 510//510 513//513 511//511
f 513//513 521//521 511//511
f 511//511 521//521 395//395
f 521//521 396//396 395//395
f 512//512 515//515 513//513
f 515//515 522//522 513//513
f 513//513 522//522 521//521
f 522//522 523//523 521//521
f 521//521 523//523 396//396
f 523//523 397//397 396//396
f 514//514 517//517 515//515
f 517//517 524//524 515//515
f 515//515 524//524 522//522
f 524//524 525//525 522//522
f 522//522 525//525 523//523
f 525//525 526//526 523//523
f 523//523 526//526 397//397
f 526//526 398//398 397//397
f 516//516 519//519 517//517
f 519//519 527//527 517//517
f 517//517 527//527 524//524
f 527//527 528//528 524//524
f 524//524 528//528 525//525
f 528//528 529//529 525//525
f 525//525 529//529 526//526
f 529//529 530//530 526//526
f 526//526 530//530 398//398
f 530//530 399//399 398//398
f 518//518 520//520 519//519
f 520//520 531//531 519//519
f 519//519 531//531 527//527
f 531//531 532//532 527//527
f 527//527 532//532 528//528
f 532//532 533//533 528//528
f 528//528 533//533 529//529
f 533//533 534//534 529//529
f 529//529 534//534 530//530
f 534//534 535//535 530//530
f 530//530 535//535 399//399
f 535//535 400//400 399//399
f 9//9 8//8 520//520
f 8//8 536//536 520//520
f 520//520 536//536 531//531
f 536//536 537//537 531//531
f 531//531 537//537 532//532
f 537//537 538//538 532//532
f 532//532 538//538 533//533
f 538//538 539//539 533//533
f 533//533 539//539 534//534
f 539//539 540//540 534//534
f 534//534 540//540 535//535
f 540//540 541//541 535//535
f 535//535 541//541 400//400
f 541//541 17//17 400//400
f 541//541 18//18 17//17
f 540//540 542//542 541//541
f 539//539 543//543 540//540
f 538//538 544//544 539//539
f 537//537 545//545 538//538
f 536//536 546//546 537//537
f 8//8 547//547 536//536
f 541//541 542//542 18//18
f 542//542 422//422 18//18
f 540//540 543//543 542//542
f 543//543 548//548 542//542
f 542//542 548//548 422//422
f 548//548 423//423 422//422
f 539//539 544//544 543//543
f 544//544 549//549 543//543
f 543//543 549//549 548//548
f 549//549 550//550 548//548
f 548//548 550//550 423//423
f 550//550 424//424 423//423
f 538//538 545//545 544//544
f 545//545 551//551 544//544
f 544//544 551//551 549//549
f 551//551 552//552 549//549
f 549//549 552//552 550//550
f 552//552 553//553 550//550
f 550//550 553//553 424//424
f 553//553 425//425 424//424
f 537//537 546//546 545//545
f 546//546 554//554 545//545
f 545//545 554//554 551//551
f 554//554 555//555 551//551
f 551//551 555//555 552//552
f 555//555 556//556 552//552
f 552//552 556//556 553//553
f 556//556 557//557 553//553
f 553//553 557//557 425//425
f 557//557 426//426 425//425
f 536//536 547//547 546//546
f 547//547 558//558 546//546
f 546//546 558//558 554//554
f 558//558 559//559 554//554
f 554//554 559//559 555//555
f 559//559 560//560 555//555
f 555//555 560//560 556//556
f 560//560 561//561 556//556
f 556//556 561//561 557//557
f 561//561 562//562 557//557
f 557//557 562//562 426//426
f 562//562 427//427 426//426
f 8//8 7//7 547//547
f 7//7 563//563 547//547
f 547//547 563//563 558//558
f 563//563 564//564 558//558
f 558//558 564//564 559//559
f 564//564 565//565 559//559
f 559//559 565//565 560//560
f 565//565 566//566 560//560
f 560//560 566//566 561//561
f 566//566 567//567 561//561
f 561//561 567//567 562//562
f 567//567 568//568 562//562
f 562//562 568//568 427//427
f 568//568 14//14 427//427
f 568//568 15//15 14//14
f 567//567 569//569 568//568
f 566//566 570//570 567//567
f 565//565 571//571 566//566
f 564//564 572//572 565//565
f 563//563 573//573 564//564
f 7//7 574//574 563//563
f 568//568 569//569 15//15
f 569//569 449//449 15//15
f 567//567 570//570 569//569
f 570//570 575//575 569//569
f 569//569 575//575 449//449
f 575//575 450//450 449//449
f 566//566 571//571 570//570
f 571//571 576//576 570//570
f 570//570 576//576 575//575
f 576//576 577//577 575//575
f 575//575 577//577 450//450
f 577//577 451//451 450//450
f 565//565 572//572 571//571
f 572//572 578//578 571//571
f 571//571 578//578 576//576
f 578//578 579//579 576//576
f 576//576 579//579 577//577
f 579//579 580//580 577//577
f 577//577 580//580 451//451
f 580//580 452//452 451//451
f 564//564 573//573 572//572
f 573//573 581//581 572//572
f 572//572 581//581 578//578
f 581//581 582//582 578//578
f 578//578 582//582 579//579
f 582//582 583//583 579//579
f 579//579 583//583 580//580
f 583//583 584//584 580//580
f 580//580 584//584 452//452
f 584//584 453//453 452//452
f 563//563 574//574 573//573
f 574//574 585//585 573//573
f 573//573 585//585 581//581
f 585//585 586//586 581//581
f 581//581 586//586 582//582
f 586//586 587//587 582//582
f 582//582 587//587 583//583
f 587//587 588//588 583//583
f 583//583 588//588 584//584
f 588//588 589//589 584//584
f 584//584 589//589 453//453
f 589//589 454//454 453//453
f 7//7 3//3 574//574
f 3//3 590//590 574//574
f 574//574 590//590 585//585
f 590//590 591//591 585//585
f 585//585 591//591 586//586
f 591//591 592//592 586//586
f 586//586 592//592 587//587
f 592//592 593//593 587//587
f 587//587 593//593 588//588
f 593//593 594//594 588//588
f 588//588 594//594 589//589
f 594//594 595//595 589//589
f 589//589 595//595 454//454
f 595//595 11//11 454//454
f 508//508 509//509 20//20
f 507//507 596//596 508//508
f 506//506 597//597 507//507
f 505//505 598//598 506//506
f 504//504 599//599 505//505
f 503//503 600//600 504//504
f 6//6 601//601 503//503
f 508//508 596//596 509//509
f 596//596 510//510 509//509
f 507//507 597//597 596//596
f 597//597 602//602 596//596
f 596//596 602//602 510//510
f 602//602 512//512 510//510
f 506//506 598//598 597//597
f 598//598 603//603 597//597
f 597//597 603//603 602//602
f 603//603 604//604 602//602
f 602//602 604//604 512//512
f 604//604 514//514 512//512
f 505//505 599//599 598//598
f 599//599 605//605 598//598
f 598//598 605//605 603//603
f 605//605 606//606 603//603
f 603//603 606//606 604//604
f 606//606 607//607 604//604
f 604//604 607//607 514//514
f 607//607 516//516 514//514
f 504//504 600//600 599//599
f 600//600 608//608 599//599
f 599//599 608//608 605//605
f 608//608 609//609 605//605
f 605//605 609//609 606//606
f 609//609 610//610 606//606
f 606//606 610//610 607//607
f 610//610 611//611 607//607
f 607//607 611//611 516//516
f 611//611 518//518 516//516
f 503//503 601//601 600//600
f 601//601 612//612 600//600
f 600//600 612//612 608//608
f 612//612 613//613 608//608
f 608//608 613//613 609//609
f 613//613 614//614 609//609
f 609//609 614//614 610//610
f 614//614 615//615 610//610
f 610//610 615//615 611//611
f 615//615 616//616 611//611
f 611//611 616//616 518//518
f 616//616 9//9 518//518
f 6//6 5//5 601//601
f 5//5 617//617 601//601
f 601//601 617//617 612//612
f 617//617 618//618 612//612
f 612//612 618//618 613//613
f 618//618 619//619 613//613
f 613//613 619//619 614//614
f 619//619 620//620 614//614
f 614//614 620//620 615//615
f 620//620 621//621 615//615
f 615//615 621//621 616//616
f 621//621 2//2 616//616
f 616//616 2//2 9//9
f 2//2 1//1 9//9
f 595//595 12//12 11//11
f 594//594 622//622 595//595
f 593//593 623//623 594//594
f 592//592 624//624 593//593
f 591//591 625//625 592//592
f 590//590 626//626 591//591
f 3//3 627//627 590//590
f 595//595 622//622 12//12
f 622//622 476//476 12//12
f 594//594 623//623 622//622
f 623//623 628//628 622//622
f 622//622 628//628 476//476
f 628//628 477//477 476//476
f 593//593 624//624 623//623
f 624//624 629//629 623//623
f 623//623 629//629 628//628
f 629//629 630//630 628//628
f 628//628 630//630 477//477
f 630//630 478//478 477//477
f 592//592 625//625 624//624
f 625//625 631//631 624//624
f 624//624 631//631 629//629
f 631//631 632//632 629//629
f 629//629 632//632 630//630
f 632//632 633//633 630//630
f 630//630 633//633 478//478
f 633//633 479//479 478//478
f 591//591 626//626 625//625
f 626//626 634//634 625//625
f 625//625 634//634 631//631
f 634//634 635//635 631//631
f 631//631 635//635 632//632
f 635//635 636//636 632//632
f 632//632 636//636 633//633
f 636//636 637//637 633//633
f 633//633 637//637 479//479
f 637//637 480//480 479//479
f 590//590 627//627 626//626
f 627//627 638//638 626//626
f 626//626 638//638 634//634
f 638//638 639//639 634//634
f 634//634 639//639 635//635
f 639//639 640//640 635//635
f 635//635 640//640 636//636
f 640//640 641//641 636//636
f 636//636 641//641 637//637
f 641//641 642//642 637//637
f 637//637 642//642 480//480
f 642//642 481//481 480//480
f 3//3 2//2 627//627
f 2//2 621//621 627//627
f 627//627 621//621 638//638
f 621//621 620//620 638//638
f 638//638 620//620 639//639
f 620//620 619//619 639//639
f 639//639 619//619 640//640
f 619//619 618//618 640//640
f 640//640 618//618 641//641
f 618//618 617//617 641//641
f 641//641 617//617 642//642
f 617//617 5//5 642//642
f 642//642 5//5 481//481
f 5//5 4//4 481//481
