# Blender v2.82 (sub 7) OBJ File: 'table_scene3.blend'
# www.blender.org
o Macbeth_support_Cube.050
v -0.105428 0.027380 0.538903
v -0.105428 0.024834 0.541336
v -0.110711 0.027386 0.538909
v -0.105428 0.026592 0.539653
v -0.105428 0.025881 0.540330
v -0.107061 0.027380 0.538903
v -0.107104 0.026566 0.539678
v -0.107049 0.025916 0.540298
v -0.108532 0.027381 0.538904
v -0.108464 0.026596 0.539651
v -0.108223 0.026032 0.540189
v -0.107061 0.024959 0.541217
v -0.108532 0.025321 0.540873
v -0.105428 0.024957 0.541215
v -0.107113 0.025105 0.541074
v -0.108461 0.025447 0.540749
v -0.105428 0.025318 0.540869
v -0.107053 0.025447 0.540746
v -0.108223 0.025690 0.540516
v -0.110452 0.027384 0.538907
v -0.109702 0.027383 0.538905
v -0.110452 0.026597 0.539659
v -0.110146 0.026575 0.539677
v -0.109438 0.026599 0.539650
v -0.109702 0.025886 0.540335
v -0.109434 0.025918 0.540302
v -0.108932 0.026033 0.540190
v -0.105428 0.025222 0.541744
v -0.105428 0.027781 0.539324
v -0.110711 0.027774 0.539317
v -0.105428 0.025349 0.541627
v -0.105428 0.025713 0.541285
v -0.107061 0.025347 0.541625
v -0.107104 0.025497 0.541487
v -0.107049 0.025841 0.541163
v -0.108532 0.025710 0.541281
v -0.108464 0.025841 0.541160
v -0.108223 0.026085 0.540931
v -0.107061 0.027780 0.539323
v -0.108532 0.027779 0.539322
v -0.105428 0.026992 0.540074
v -0.107113 0.026970 0.540093
v -0.108461 0.026996 0.540067
v -0.105428 0.026280 0.540749
v -0.107053 0.026313 0.540717
v -0.108223 0.026428 0.540606
v -0.110452 0.026986 0.540067
v -0.109702 0.026275 0.540744
v -0.110452 0.027776 0.539319
v -0.110146 0.026962 0.540094
v -0.109438 0.026311 0.540713
v -0.109702 0.027778 0.539321
v -0.109434 0.026993 0.540068
v -0.108932 0.026427 0.540605
v -0.105428 0.188118 0.386042
v -0.110711 0.188124 0.386049
v -0.105428 0.190676 0.383622
v -0.107061 0.188118 0.386042
v -0.108532 0.188119 0.386043
v -0.105428 0.188907 0.385292
v -0.107113 0.188928 0.385273
v -0.108461 0.188902 0.385299
v -0.105428 0.189618 0.384617
v -0.107053 0.189586 0.384649
v -0.108223 0.189470 0.384760
v -0.110452 0.188912 0.385298
v -0.109702 0.189624 0.384622
v -0.110452 0.188122 0.386047
v -0.110146 0.188936 0.385272
v -0.109438 0.189587 0.384653
v -0.109702 0.188120 0.386045
v -0.109434 0.188905 0.385298
v -0.108932 0.189471 0.384761
v -0.105428 0.190549 0.383738
v -0.105428 0.190185 0.384081
v -0.107061 0.190551 0.383740
v -0.107104 0.190401 0.383879
v -0.107049 0.190057 0.384203
v -0.108532 0.190189 0.384085
v -0.108464 0.190057 0.384206
v -0.108223 0.189813 0.384435
v -0.105428 0.188518 0.386463
v -0.105428 0.191064 0.384030
v -0.110711 0.188512 0.386457
v -0.105428 0.189307 0.385713
v -0.105428 0.190017 0.385036
v -0.107061 0.188518 0.386463
v -0.107104 0.189332 0.385688
v -0.107049 0.189982 0.385068
v -0.108532 0.188517 0.386462
v -0.108464 0.189302 0.385715
v -0.108223 0.189866 0.385177
v -0.107061 0.190939 0.384149
v -0.108532 0.190577 0.384493
v -0.105428 0.190941 0.384151
v -0.107113 0.190793 0.384291
v -0.108461 0.190451 0.384617
v -0.105428 0.190580 0.384497
v -0.107053 0.190451 0.384620
v -0.108223 0.190208 0.384850
v -0.110452 0.188514 0.386459
v -0.109702 0.188516 0.386461
v -0.110452 0.189301 0.385707
v -0.110146 0.189324 0.385689
v -0.109438 0.189299 0.385716
v -0.109702 0.190012 0.385030
v -0.109434 0.189980 0.385064
v -0.108932 0.189866 0.385176
v 0.227298 0.027380 0.538903
v 0.232581 0.027386 0.538909
v 0.227298 0.024834 0.541336
v 0.228931 0.027380 0.538903
v 0.230403 0.027381 0.538904
v 0.227298 0.026592 0.539653
v 0.228983 0.026571 0.539673
v 0.230331 0.026598 0.539649
v 0.227298 0.025881 0.540330
v 0.228924 0.025915 0.540299
v 0.230093 0.026032 0.540189
v 0.232322 0.026597 0.539659
v 0.231572 0.025886 0.540335
v 0.232322 0.027384 0.538907
v 0.232016 0.026570 0.539681
v 0.231308 0.025919 0.540300
v 0.231572 0.027383 0.538905
v 0.231304 0.026597 0.539652
v 0.230802 0.026033 0.540190
v 0.227298 0.024957 0.541215
v 0.227298 0.025318 0.540869
v 0.228931 0.024959 0.541217
v 0.228974 0.025105 0.541074
v 0.228919 0.025446 0.540748
v 0.230403 0.025321 0.540873
v 0.230334 0.025449 0.540748
v 0.230093 0.025690 0.540516
v 0.227298 0.027781 0.539324
v 0.227298 0.025222 0.541744
v 0.232581 0.027774 0.539317
v 0.227298 0.026992 0.540074
v 0.227298 0.026280 0.540749
v 0.228931 0.027780 0.539323
v 0.228974 0.026966 0.540097
v 0.228919 0.026314 0.540716
v 0.230403 0.027779 0.539322
v 0.230334 0.026994 0.540069
v 0.230093 0.026428 0.540606
v 0.228931 0.025347 0.541625
v 0.230403 0.025710 0.541281
v 0.227298 0.025349 0.541627
v 0.228983 0.025497 0.541487
v 0.230331 0.025839 0.541161
v 0.227298 0.025713 0.541285
v 0.228924 0.025843 0.541161
v 0.230093 0.026085 0.540931
v 0.232322 0.027776 0.539319
v 0.231572 0.027778 0.539321
v 0.232322 0.026986 0.540067
v 0.232016 0.026967 0.540089
v 0.231308 0.026995 0.540066
v 0.231572 0.026275 0.540744
v 0.231304 0.026310 0.540714
v 0.230802 0.026427 0.540605
v 0.227298 0.188118 0.386042
v 0.227298 0.190676 0.383622
v 0.232581 0.188124 0.386049
v 0.227298 0.188907 0.385292
v 0.227298 0.189618 0.384617
v 0.228931 0.188118 0.386042
v 0.228974 0.188932 0.385268
v 0.228919 0.189584 0.384650
v 0.230403 0.188119 0.386043
v 0.230334 0.188904 0.385297
v 0.230093 0.189470 0.384760
v 0.228931 0.190551 0.383740
v 0.230403 0.190189 0.384085
v 0.227298 0.190549 0.383738
v 0.228983 0.190401 0.383879
v 0.230331 0.190059 0.384204
v 0.227298 0.190185 0.384081
v 0.228924 0.190055 0.384204
v 0.230093 0.189813 0.384435
v 0.232322 0.188122 0.386047
v 0.231572 0.188120 0.386045
v 0.232322 0.188912 0.385298
v 0.232016 0.188931 0.385276
v 0.231308 0.188903 0.385300
v 0.231572 0.189623 0.384622
v 0.231304 0.189588 0.384652
v 0.230802 0.189471 0.384761
v 0.227298 0.188518 0.386463
v 0.232581 0.188512 0.386457
v 0.227298 0.191064 0.384030
v 0.228931 0.188518 0.386463
v 0.230403 0.188517 0.386462
v 0.227298 0.189307 0.385713
v 0.228983 0.189327 0.385693
v 0.230331 0.189300 0.385717
v 0.227298 0.190017 0.385036
v 0.228924 0.189983 0.385067
v 0.230093 0.189866 0.385177
v 0.232322 0.189301 0.385707
v 0.231572 0.190012 0.385030
v 0.232322 0.188514 0.386459
v 0.232016 0.189328 0.385684
v 0.231308 0.189979 0.385065
v 0.231572 0.188516 0.386461
v 0.231304 0.189301 0.385714
v 0.230802 0.189866 0.385176
v 0.227298 0.190941 0.384151
v 0.227298 0.190580 0.384497
v 0.228931 0.190939 0.384149
v 0.228974 0.190793 0.384291
v 0.228919 0.190453 0.384618
v 0.230403 0.190577 0.384493
v 0.230334 0.190449 0.384618
v 0.230093 0.190208 0.384850
vt 0.621153 0.753847
vt 0.378847 0.996153
vt 0.378847 0.753847
vt 0.621153 0.503847
vt 0.378847 0.746153
vt 0.378847 0.503847
vt 0.871153 0.503847
vt 0.628847 0.746153
vt 0.628847 0.503847
vt 0.621153 0.003847
vt 0.378847 0.246153
vt 0.378847 0.003847
vt 0.621153 0.253847
vt 0.378847 0.496153
vt 0.378847 0.253847
vt 0.128847 0.747342
vt 0.127658 0.746153
vt 0.128847 0.746153
vt 0.128847 0.748414
vt 0.127627 0.747380
vt 0.128847 0.750000
vt 0.127666 0.748362
vt 0.126586 0.746153
vt 0.126812 0.748189
vt 0.126636 0.747337
vt 0.127663 0.750000
vt 0.378847 0.997342
vt 0.377658 0.996153
vt 0.378847 0.998414
vt 0.377627 0.997380
vt 0.378847 1.000000
vt 0.377666 0.998362
vt 0.376586 0.996153
vt 0.376812 0.998189
vt 0.376636 0.997337
vt 0.377663 1.000000
vt 0.377658 0.003847
vt 0.378847 0.002658
vt 0.376586 0.003847
vt 0.377620 0.002627
vt 0.375000 0.003847
vt 0.376638 0.002666
vt 0.378847 0.001586
vt 0.376812 0.001812
vt 0.377663 0.001636
vt 0.375000 0.002663
vt 0.126812 0.750000
vt 0.125000 0.748188
vt 0.622342 0.996153
vt 0.621153 0.997342
vt 0.621153 0.996153
vt 0.623414 0.996153
vt 0.622380 0.997373
vt 0.625000 0.996153
vt 0.623362 0.997334
vt 0.621153 0.998414
vt 0.623188 0.998188
vt 0.622337 0.998364
vt 0.625000 0.997337
vt 0.872342 0.746153
vt 0.871153 0.747342
vt 0.871153 0.746153
vt 0.873414 0.746153
vt 0.872380 0.747373
vt 0.875000 0.746153
vt 0.873362 0.747334
vt 0.871153 0.748414
vt 0.873189 0.748189
vt 0.872337 0.748364
vt 0.875000 0.747337
vt 0.621153 0.002658
vt 0.622342 0.003847
vt 0.621153 0.001586
vt 0.622373 0.002620
vt 0.621153 0.000000
vt 0.622334 0.001638
vt 0.623414 0.003847
vt 0.623188 0.001812
vt 0.623364 0.002663
vt 0.622337 0.000000
vt 0.625000 0.998188
vt 0.623188 1.000000
vt 0.127658 0.503847
vt 0.128847 0.502658
vt 0.128847 0.503847
vt 0.126586 0.503847
vt 0.127620 0.502627
vt 0.125000 0.503847
vt 0.126638 0.502666
vt 0.128847 0.501586
vt 0.126812 0.501812
vt 0.127663 0.501636
vt 0.125000 0.502663
vt 0.378847 0.247342
vt 0.377658 0.246153
vt 0.378847 0.248414
vt 0.377627 0.247380
vt 0.378847 0.251586
vt 0.377666 0.248362
vt 0.376586 0.246153
vt 0.376812 0.248188
vt 0.376636 0.247337
vt 0.377663 0.251636
vt 0.377658 0.253847
vt 0.378847 0.252658
vt 0.376586 0.253847
vt 0.377620 0.252627
vt 0.375000 0.253847
vt 0.376638 0.252666
vt 0.376812 0.251812
vt 0.375000 0.252663
vt 0.125000 0.501812
vt 0.126812 0.500000
vt 0.871153 0.502658
vt 0.872342 0.503847
vt 0.871153 0.501586
vt 0.872373 0.502620
vt 0.871153 0.500000
vt 0.872334 0.501638
vt 0.873414 0.503847
vt 0.873189 0.501812
vt 0.873364 0.502663
vt 0.872337 0.500000
vt 0.621153 0.252658
vt 0.622342 0.253847
vt 0.621153 0.251586
vt 0.622373 0.252620
vt 0.621153 0.248414
vt 0.622334 0.251638
vt 0.623414 0.253847
vt 0.623188 0.251812
vt 0.623364 0.252663
vt 0.622337 0.248364
vt 0.622342 0.246153
vt 0.621153 0.247342
vt 0.621153 0.246153
vt 0.623414 0.246153
vt 0.622380 0.247373
vt 0.625000 0.246153
vt 0.623362 0.247334
vt 0.623188 0.248188
vt 0.625000 0.247337
vt 0.873188 0.500000
vt 0.875000 0.501812
vt 0.372342 0.746153
vt 0.371153 0.747342
vt 0.371153 0.746153
vt 0.373414 0.746153
vt 0.372380 0.747373
vt 0.376586 0.746153
vt 0.373362 0.747334
vt 0.371153 0.748414
vt 0.373189 0.748189
vt 0.372337 0.748364
vt 0.376636 0.747337
vt 0.378847 0.747342
vt 0.377658 0.746153
vt 0.378847 0.748414
vt 0.377627 0.747380
vt 0.378847 0.751586
vt 0.377666 0.748362
vt 0.376812 0.748189
vt 0.377663 0.751636
vt 0.377658 0.753847
vt 0.378847 0.752658
vt 0.376586 0.753847
vt 0.377620 0.752627
vt 0.375000 0.753847
vt 0.376638 0.752666
vt 0.376812 0.751812
vt 0.375000 0.752663
vt 0.375000 0.748188
vt 0.373188 0.750000
vt 0.628847 0.747342
vt 0.627658 0.746153
vt 0.628847 0.748414
vt 0.627627 0.747380
vt 0.628847 0.750000
vt 0.627666 0.748362
vt 0.626586 0.746153
vt 0.626812 0.748189
vt 0.626636 0.747337
vt 0.627663 0.750000
vt 0.621153 0.752658
vt 0.622342 0.753847
vt 0.621153 0.751586
vt 0.622373 0.752620
vt 0.621153 0.748414
vt 0.622334 0.751638
vt 0.623414 0.753847
vt 0.623188 0.751812
vt 0.623364 0.752663
vt 0.622337 0.748364
vt 0.622342 0.746153
vt 0.621153 0.747342
vt 0.621153 0.746153
vt 0.623414 0.746153
vt 0.622380 0.747373
vt 0.623362 0.747334
vt 0.623188 0.748189
vt 0.626812 0.750000
vt 0.625000 0.748188
vt 0.371153 0.502658
vt 0.372342 0.503847
vt 0.371153 0.503847
vt 0.371153 0.501586
vt 0.372373 0.502620
vt 0.371153 0.500000
vt 0.372334 0.501638
vt 0.373414 0.503847
vt 0.373189 0.501812
vt 0.373364 0.502663
vt 0.372337 0.500000
vt 0.378847 0.497342
vt 0.377658 0.496153
vt 0.378847 0.498414
vt 0.377627 0.497380
vt 0.378847 0.501586
vt 0.377666 0.498362
vt 0.376586 0.496153
vt 0.376812 0.498188
vt 0.376636 0.497337
vt 0.377663 0.501636
vt 0.377658 0.503847
vt 0.378847 0.502658
vt 0.376586 0.503847
vt 0.377620 0.502627
vt 0.376638 0.502666
vt 0.376812 0.501812
vt 0.373188 0.500000
vt 0.375000 0.501812
vt 0.627658 0.503847
vt 0.628847 0.502658
vt 0.626586 0.503847
vt 0.627620 0.502627
vt 0.623414 0.503847
vt 0.626638 0.502666
vt 0.628847 0.501586
vt 0.626812 0.501812
vt 0.627663 0.501636
vt 0.623364 0.502663
vt 0.621153 0.502658
vt 0.622342 0.503847
vt 0.621153 0.501586
vt 0.622373 0.502620
vt 0.621153 0.498414
vt 0.622334 0.501638
vt 0.623188 0.501812
vt 0.622337 0.498364
vt 0.622342 0.496153
vt 0.621153 0.497342
vt 0.621153 0.496153
vt 0.623414 0.496153
vt 0.622380 0.497373
vt 0.625000 0.496153
vt 0.623362 0.497334
vt 0.623188 0.498188
vt 0.625000 0.497337
vt 0.625000 0.501812
vt 0.626812 0.500000
vt 0.376812 1.000000
vt 0.375000 0.001812
vt 0.875000 0.748188
vt 0.623188 0.000000
vt 0.375000 0.251812
vt 0.625000 0.248188
vt 0.375000 0.751812
vt 0.625000 0.498188
vt 0.125000 0.746153
vt 0.621153 1.000000
vt 0.875000 0.503847
vt 0.128847 0.500000
vt 0.628847 0.500000
vt 0.371153 0.750000
vt 0.871153 0.750000
vn 0.0000 -0.7246 0.6891
vn 1.0000 0.0000 0.0000
vn 0.0000 0.6891 0.7246
vn -1.0000 -0.0000 0.0000
vn 0.0000 0.7246 -0.6891
vn -0.0003 -0.6894 -0.7244
vn -0.0003 -0.6901 -0.7237
vn -0.0003 -0.6910 -0.7228
vn -0.0009 -0.6894 -0.7244
vn -0.0009 -0.6902 -0.7237
vn -0.0012 -0.6910 -0.7229
vn -0.0016 -0.7006 -0.7135
vn -0.0053 -0.7000 -0.7141
vn -0.0083 -0.6980 -0.7161
vn -0.0006 -0.6927 -0.7212
vn -0.0015 -0.6925 -0.7215
vn -0.0027 -0.6921 -0.7218
vn -0.0110 -0.6909 -0.7228
vn -0.0033 -0.6897 -0.7240
vn -0.0017 -0.6895 -0.7243
vn -0.0098 -0.6946 -0.7194
vn -0.0032 -0.6909 -0.7229
vn -0.0018 -0.6903 -0.7235
vn -0.0017 -0.6909 -0.7229
vn -0.0017 0.6774 0.7356
vn -0.0006 0.6855 0.7281
vn -0.0004 0.6873 0.7264
vn -0.0051 0.6782 0.7348
vn -0.0018 0.6857 0.7278
vn -0.0011 0.6873 0.7264
vn -0.0002 0.6888 0.7249
vn -0.0009 0.6888 0.7249
vn -0.0017 0.6887 0.7250
vn -0.0003 0.6882 0.7255
vn -0.0009 0.6881 0.7256
vn -0.0017 0.6880 0.7257
vn -0.0110 0.6872 0.7264
vn -0.0101 0.6834 0.7299
vn -0.0080 0.6801 0.7330
vn -0.0033 0.6885 0.7252
vn -0.0030 0.6873 0.7264
vn -0.0026 0.6863 0.7273
vn -0.0016 0.6873 0.7264
vn -0.0003 -0.6888 -0.7249
vn -0.0009 -0.6888 -0.7249
vn -0.0017 -0.6888 -0.7250
vn -0.0003 -0.6882 -0.7255
vn -0.0010 -0.6881 -0.7256
vn -0.0016 -0.6880 -0.7257
vn -0.0106 -0.6872 -0.7264
vn -0.0102 -0.6835 -0.7299
vn -0.0081 -0.6802 -0.7329
vn -0.0033 -0.6885 -0.7252
vn -0.0031 -0.6873 -0.7264
vn -0.0027 -0.6862 -0.7274
vn -0.0017 -0.6775 -0.7356
vn -0.0005 -0.6855 -0.7281
vn -0.0003 -0.6873 -0.7264
vn -0.0051 -0.6781 -0.7350
vn -0.0017 -0.6857 -0.7279
vn -0.0011 -0.6873 -0.7264
vn -0.0017 -0.6873 -0.7264
vn -0.0003 0.6894 0.7244
vn -0.0003 0.6901 0.7237
vn -0.0003 0.6909 0.7229
vn -0.0009 0.6894 0.7243
vn -0.0010 0.6902 0.7237
vn -0.0011 0.6909 0.7229
vn -0.0017 0.7006 0.7135
vn -0.0051 0.7001 0.7140
vn -0.0082 0.6979 0.7161
vn -0.0006 0.6928 0.7211
vn -0.0017 0.6925 0.7215
vn -0.0026 0.6920 0.7219
vn -0.0108 0.6909 0.7229
vn -0.0033 0.6897 0.7241
vn -0.0017 0.6895 0.7243
vn -0.0098 0.6946 0.7193
vn -0.0032 0.6910 0.7228
vn -0.0017 0.6903 0.7235
vn -0.0016 0.6910 0.7228
vn 0.0003 -0.6894 -0.7244
vn 0.0009 -0.6894 -0.7244
vn 0.0017 -0.6895 -0.7243
vn 0.0003 -0.6901 -0.7237
vn 0.0010 -0.6901 -0.7237
vn 0.0016 -0.6903 -0.7235
vn 0.0110 -0.6909 -0.7228
vn 0.0100 -0.6947 -0.7192
vn 0.0081 -0.6979 -0.7162
vn 0.0032 -0.6898 -0.7240
vn 0.0031 -0.6910 -0.7229
vn 0.0027 -0.6921 -0.7218
vn 0.0016 -0.7006 -0.7135
vn 0.0006 -0.6927 -0.7212
vn 0.0004 -0.6910 -0.7229
vn 0.0052 -0.6998 -0.7143
vn 0.0017 -0.6925 -0.7214
vn 0.0011 -0.6910 -0.7229
vn 0.0017 -0.6910 -0.7229
vn 0.0002 0.6888 0.7249
vn 0.0003 0.6882 0.7255
vn 0.0004 0.6873 0.7264
vn 0.0009 0.6888 0.7249
vn 0.0010 0.6881 0.7256
vn 0.0011 0.6873 0.7264
vn 0.0017 0.6774 0.7356
vn 0.0052 0.6781 0.7350
vn 0.0081 0.6801 0.7330
vn 0.0006 0.6855 0.7281
vn 0.0017 0.6857 0.7279
vn 0.0026 0.6862 0.7274
vn 0.0110 0.6872 0.7264
vn 0.0033 0.6885 0.7252
vn 0.0017 0.6887 0.7250
vn 0.0100 0.6835 0.7299
vn 0.0030 0.6873 0.7264
vn 0.0017 0.6880 0.7257
vn 0.0016 0.6873 0.7264
vn 0.0003 -0.6888 -0.7249
vn 0.0003 -0.6882 -0.7255
vn 0.0003 -0.6873 -0.7264
vn 0.0009 -0.6888 -0.7249
vn 0.0009 -0.6881 -0.7256
vn 0.0011 -0.6873 -0.7264
vn 0.0017 -0.6774 -0.7356
vn 0.0051 -0.6781 -0.7350
vn 0.0082 -0.6802 -0.7329
vn 0.0006 -0.6855 -0.7281
vn 0.0017 -0.6857 -0.7279
vn 0.0027 -0.6862 -0.7274
vn 0.0105 -0.6872 -0.7264
vn 0.0033 -0.6885 -0.7252
vn 0.0017 -0.6887 -0.7250
vn 0.0100 -0.6836 -0.7298
vn 0.0032 -0.6872 -0.7264
vn 0.0018 -0.6879 -0.7258
vn 0.0017 -0.6873 -0.7264
vn 0.0003 0.6894 0.7244
vn 0.0008 0.6894 0.7244
vn 0.0017 0.6895 0.7243
vn 0.0003 0.6901 0.7237
vn 0.0009 0.6901 0.7237
vn 0.0017 0.6903 0.7236
vn 0.0107 0.6909 0.7228
vn 0.0102 0.6947 0.7192
vn 0.0081 0.6980 0.7161
vn 0.0034 0.6897 0.7240
vn 0.0031 0.6910 0.7229
vn 0.0027 0.6921 0.7218
vn 0.0017 0.7007 0.7135
vn 0.0005 0.6928 0.7211
vn 0.0004 0.6910 0.7229
vn 0.0051 0.7000 0.7141
vn 0.0017 0.6925 0.7214
vn 0.0011 0.6910 0.7229
vn 0.0016 0.6910 0.7228
vn -0.0002 -0.6891 -0.7246
vn -0.0009 -0.6891 -0.7246
vn -0.0017 -0.6891 -0.7246
vn -0.0032 -0.6891 -0.7246
vn -0.0109 -0.6891 -0.7246
vn -0.1051 -0.7206 0.6853
vn -0.3216 -0.6862 0.6525
vn -0.5547 -0.6029 0.5734
vn -0.7945 -0.4401 0.4184
vn -0.9729 -0.1675 0.1593
vn -0.0003 0.6891 0.7246
vn -0.0008 0.6891 0.7246
vn -0.0017 0.6891 0.7246
vn -0.0033 0.6891 0.7246
vn -0.0108 0.6891 0.7246
vn -0.1050 0.7206 -0.6853
vn -0.3216 0.6861 -0.6525
vn -0.5547 0.6030 -0.5734
vn -0.7946 0.4400 -0.4184
vn -0.9729 0.1675 -0.1593
vn 0.0000 -0.6888 -0.7249
vn 0.0000 -0.6882 -0.7255
vn 0.0000 -0.6873 -0.7264
vn 0.0000 -0.6855 -0.7281
vn 0.0000 -0.6774 -0.7356
vn 0.0000 0.6894 0.7244
vn 0.0000 0.6901 0.7237
vn 0.0000 0.6910 0.7229
vn 0.0000 0.6928 0.7212
vn 0.0000 0.7006 0.7135
vn 0.9729 0.1675 -0.1593
vn 0.7946 0.4400 -0.4184
vn 0.5547 0.6029 -0.5734
vn 0.3216 0.6862 -0.6525
vn 0.1051 0.7206 -0.6853
vn 0.0003 -0.6891 -0.7246
vn 0.0009 -0.6891 -0.7246
vn 0.0017 -0.6891 -0.7246
vn 0.0033 -0.6891 -0.7246
vn 0.0108 -0.6891 -0.7246
vn 0.0002 0.6891 0.7246
vn 0.0008 0.6891 0.7246
vn 0.0017 0.6891 0.7246
vn 0.0033 0.6891 0.7247
vn 0.0105 0.6891 0.7246
vn 0.1050 -0.7206 0.6853
vn 0.3216 -0.6862 0.6525
vn 0.5548 -0.6029 0.5734
vn 0.7946 -0.4400 0.4184
vn 0.9729 -0.1675 0.1593
vn 0.0000 -0.6894 -0.7244
vn 0.0000 -0.6901 -0.7237
vn 0.0000 -0.6910 -0.7229
vn 0.0000 -0.6927 -0.7212
vn 0.0000 -0.7006 -0.7135
vn 0.0000 0.6888 0.7249
vn 0.0000 0.6882 0.7255
vn 0.0000 0.6873 0.7264
vn 0.0000 0.6855 0.7281
vn 0.0000 0.6774 0.7356
vn 0.0000 -0.6891 -0.7246
vn -0.0003 -0.6894 -0.7243
vn -0.0004 -0.6901 -0.7237
vn -0.0004 -0.6910 -0.7229
vn -0.0009 -0.6895 -0.7243
vn -0.0008 -0.6901 -0.7237
vn -0.0009 -0.6909 -0.7229
vn -0.0017 -0.6994 -0.7148
vn -0.0049 -0.6989 -0.7152
vn -0.0080 -0.6980 -0.7161
vn -0.0006 -0.6926 -0.7214
vn -0.0018 -0.6925 -0.7214
vn -0.0025 -0.6920 -0.7219
vn -0.0094 -0.6910 -0.7228
vn -0.0033 -0.6898 -0.7240
vn -0.0091 -0.6943 -0.7196
vn -0.0031 -0.6909 -0.7229
vn -0.0017 -0.6903 -0.7235
vn -0.0016 0.6788 0.7343
vn -0.0006 0.6856 0.7280
vn -0.0003 0.6873 0.7264
vn -0.0047 0.6792 0.7339
vn -0.0017 0.6857 0.7279
vn -0.0012 0.6873 0.7264
vn -0.0003 0.6888 0.7250
vn -0.0009 0.6888 0.7250
vn -0.0003 0.6882 0.7256
vn -0.0010 0.6881 0.7256
vn -0.0017 0.6879 0.7258
vn -0.0093 0.6872 0.7264
vn -0.0092 0.6838 0.7296
vn -0.0082 0.6802 0.7330
vn -0.0032 0.6885 0.7253
vn -0.0027 0.6863 0.7274
vn -0.0009 -0.6888 -0.7250
vn -0.0003 -0.6881 -0.7256
vn -0.0009 -0.6881 -0.7256
vn -0.0018 -0.6879 -0.7258
vn -0.0096 -0.6872 -0.7264
vn -0.0090 -0.6838 -0.7296
vn -0.0082 -0.6801 -0.7331
vn -0.0031 -0.6885 -0.7252
vn -0.0027 -0.6863 -0.7274
vn -0.0017 -0.6786 -0.7345
vn -0.0006 -0.6857 -0.7279
vn -0.0004 -0.6873 -0.7264
vn -0.0048 -0.6792 -0.7339
vn -0.0017 -0.6857 -0.7278
vn -0.0003 0.6895 0.7243
vn -0.0004 0.6910 0.7229
vn -0.0009 0.6895 0.7243
vn -0.0009 0.6901 0.7237
vn -0.0011 0.6910 0.7228
vn -0.0017 0.6995 0.7147
vn -0.0049 0.6988 0.7153
vn -0.0081 0.6980 0.7160
vn -0.0006 0.6925 0.7214
vn -0.0017 0.6925 0.7214
vn -0.0027 0.6921 0.7218
vn -0.0098 0.6909 0.7228
vn -0.0032 0.6898 0.7240
vn -0.0092 0.6943 0.7197
vn -0.0031 0.6909 0.7229
vn -0.0016 0.6903 0.7235
vn 0.0008 -0.6895 -0.7243
vn 0.0009 -0.6901 -0.7237
vn 0.0017 -0.6903 -0.7236
vn 0.0096 -0.6909 -0.7228
vn 0.0090 -0.6943 -0.7196
vn 0.0082 -0.6979 -0.7161
vn 0.0033 -0.6898 -0.7240
vn 0.0032 -0.6910 -0.7229
vn 0.0027 -0.6920 -0.7219
vn 0.0017 -0.6993 -0.7148
vn 0.0006 -0.6926 -0.7214
vn 0.0004 -0.6910 -0.7228
vn 0.0048 -0.6989 -0.7152
vn 0.0016 -0.6925 -0.7214
vn 0.0003 0.6888 0.7249
vn 0.0004 0.6881 0.7256
vn 0.0003 0.6873 0.7264
vn 0.0009 0.6888 0.7250
vn 0.0009 0.6881 0.7256
vn 0.0017 0.6787 0.7344
vn 0.0048 0.6792 0.7340
vn 0.0080 0.6802 0.7330
vn 0.0006 0.6856 0.7279
vn 0.0017 0.6858 0.7278
vn 0.0027 0.6863 0.7273
vn 0.0094 0.6873 0.7264
vn 0.0032 0.6885 0.7252
vn 0.0092 0.6839 0.7295
vn 0.0031 0.6873 0.7264
vn 0.0003 -0.6888 -0.7250
vn 0.0003 -0.6882 -0.7256
vn 0.0004 -0.6873 -0.7264
vn 0.0017 -0.6786 -0.7345
vn 0.0047 -0.6791 -0.7340
vn 0.0081 -0.6801 -0.7331
vn 0.0006 -0.6856 -0.7279
vn 0.0017 -0.6858 -0.7278
vn 0.0098 -0.6872 -0.7264
vn 0.0031 -0.6885 -0.7252
vn 0.0017 -0.6888 -0.7250
vn 0.0089 -0.6839 -0.7295
vn 0.0030 -0.6873 -0.7263
vn 0.0017 -0.6879 -0.7258
vn 0.0003 0.6895 0.7243
vn 0.0009 0.6895 0.7243
vn 0.0016 0.6903 0.7236
vn 0.0096 0.6909 0.7229
vn 0.0090 0.6944 0.7196
vn 0.0082 0.6978 0.7162
vn 0.0032 0.6898 0.7240
vn 0.0027 0.6920 0.7219
vn 0.0017 0.6995 0.7147
vn 0.0006 0.6925 0.7214
vn 0.0048 0.6989 0.7152
vn 0.0017 0.6925 0.7215
vn -0.0003 -0.6891 -0.7246
vn -0.0008 -0.6891 -0.7246
vn -0.0018 -0.6891 -0.7246
vn -0.0033 -0.6891 -0.7246
vn -0.0106 -0.6891 -0.7246
vn -0.1050 -0.7207 0.6853
vn -0.3216 -0.6861 0.6525
vn -0.5547 -0.6030 0.5733
vn -0.7946 -0.4400 0.4184
vn -0.0009 0.6891 0.7246
vn -0.0034 0.6891 0.7246
vn -0.0104 0.6891 0.7246
vn -0.3216 0.6862 -0.6525
vn -0.5547 0.6029 -0.5734
vn 0.0000 0.6900 0.7238
vn 0.0000 0.7006 0.7136
vn 0.7945 0.4400 -0.4185
vn 0.5546 0.6030 -0.5734
vn 0.3216 0.6861 -0.6525
vn 0.1050 0.7206 -0.6853
vn 0.0008 -0.6891 -0.7246
vn 0.0032 -0.6891 -0.7247
vn 0.0109 -0.6891 -0.7246
vn 0.0004 0.6891 0.7246
vn 0.0009 0.6891 0.7246
vn 0.0034 0.6891 0.7246
vn 0.0109 0.6891 0.7246
vn 0.1051 -0.7207 0.6853
vn 0.3216 -0.6861 0.6525
vn 0.5547 -0.6030 0.5734
vn 0.7945 -0.4400 0.4185
s off
f 137/1/1 2/2/1 111/3/1
f 191/4/2 110/5/2 165/6/2
f 82/7/3 136/8/3 190/9/3
f 30/10/4 56/11/4 3/12/4
f 83/13/5 164/14/5 57/15/5
f 4/16/6 6/17/6 1/18/6
f 5/19/7 7/20/7 4/16/7
f 17/21/8 8/22/8 5/19/8
f 7/20/9 9/23/9 6/17/9
f 7/20/10 11/24/10 10/25/10
f 18/26/11 11/24/11 8/22/11
f 12/27/12 14/28/12 2/2/12
f 13/29/13 15/30/13 12/27/13
f 25/31/14 16/32/14 13/29/14
f 15/30/15 17/33/15 14/28/15
f 15/30/16 19/34/16 18/35/16
f 26/36/17 19/34/17 16/32/17
f 20/37/18 22/38/18 3/12/18
f 21/39/19 23/40/19 20/37/19
f 9/41/20 24/42/20 21/39/20
f 23/40/21 25/43/21 22/38/21
f 23/40/22 27/44/22 26/45/22
f 10/46/23 27/44/23 24/42/23
f 11/24/24 19/47/24 27/48/24
f 31/49/25 33/50/25 28/51/25
f 32/52/26 34/53/26 31/49/26
f 44/54/27 35/55/27 32/52/27
f 34/53/28 36/56/28 33/50/28
f 34/53/29 38/57/29 37/58/29
f 45/59/30 38/57/30 35/55/30
f 39/60/31 41/61/31 29/62/31
f 40/63/32 42/64/32 39/60/32
f 52/65/33 43/66/33 40/63/33
f 42/64/34 44/67/34 41/61/34
f 42/64/35 46/68/35 45/69/35
f 53/70/36 46/68/36 43/66/36
f 47/71/37 49/72/37 30/10/37
f 48/73/38 50/74/38 47/71/38
f 36/75/39 51/76/39 48/73/39
f 50/74/40 52/77/40 49/72/40
f 50/74/41 54/78/41 53/79/41
f 37/80/42 54/78/42 51/76/42
f 38/57/43 46/81/43 54/82/43
f 58/83/44 60/84/44 55/85/44
f 59/86/45 61/87/45 58/83/45
f 71/88/46 62/89/46 59/86/46
f 61/87/47 63/90/47 60/84/47
f 61/87/48 65/91/48 64/92/48
f 72/93/49 65/91/49 62/89/49
f 66/94/50 68/95/50 56/11/50
f 67/96/51 69/97/51 66/94/51
f 79/98/52 70/99/52 67/96/52
f 69/97/53 71/100/53 68/95/53
f 69/97/54 73/101/54 72/102/54
f 80/103/55 73/101/55 70/99/55
f 74/104/56 76/105/56 57/15/56
f 75/106/57 77/107/57 74/104/57
f 63/108/58 78/109/58 75/106/58
f 77/107/59 79/98/59 76/105/59
f 77/107/60 81/110/60 80/103/60
f 64/111/61 81/110/61 78/109/61
f 65/91/62 73/112/62 81/113/62
f 85/114/63 87/115/63 82/7/63
f 86/116/64 88/117/64 85/114/64
f 98/118/65 89/119/65 86/116/65
f 88/117/66 90/120/66 87/115/66
f 88/117/67 92/121/67 91/122/67
f 99/123/68 92/121/68 89/119/68
f 93/124/69 95/125/69 83/13/69
f 94/126/70 96/127/70 93/124/70
f 106/128/71 97/129/71 94/126/71
f 96/127/72 98/130/72 95/125/72
f 96/127/73 100/131/73 99/132/73
f 107/133/74 100/131/74 97/129/74
f 101/134/75 103/135/75 84/136/75
f 102/137/76 104/138/76 101/134/76
f 90/139/77 105/140/77 102/137/77
f 104/138/78 106/128/78 103/135/78
f 104/138/79 108/141/79 107/133/79
f 91/142/80 108/141/80 105/140/80
f 92/121/81 100/143/81 108/144/81
f 112/145/82 114/146/82 109/147/82
f 113/148/83 115/149/83 112/145/83
f 125/150/84 116/151/84 113/148/84
f 115/149/85 117/152/85 114/146/85
f 115/149/86 119/153/86 118/154/86
f 126/155/87 119/153/87 116/151/87
f 120/156/88 122/157/88 110/5/88
f 121/158/89 123/159/89 120/156/89
f 133/160/90 124/161/90 121/158/90
f 123/159/91 125/150/91 122/157/91
f 123/159/92 127/162/92 126/155/92
f 134/163/93 127/162/93 124/161/93
f 128/164/94 130/165/94 111/3/94
f 129/166/95 131/167/95 128/164/95
f 117/168/96 132/169/96 129/166/96
f 131/167/97 133/160/97 130/165/97
f 131/167/98 135/170/98 134/163/98
f 118/171/99 135/170/99 132/169/99
f 119/153/100 127/172/100 135/173/100
f 139/174/101 141/175/101 136/8/101
f 140/176/102 142/177/102 139/174/102
f 152/178/103 143/179/103 140/176/103
f 142/177/104 144/180/104 141/175/104
f 142/177/105 146/181/105 145/182/105
f 153/183/106 146/181/106 143/179/106
f 147/184/107 149/185/107 137/1/107
f 148/186/108 150/187/108 147/184/108
f 160/188/109 151/189/109 148/186/109
f 150/187/110 152/190/110 149/185/110
f 150/187/111 154/191/111 153/192/111
f 161/193/112 154/191/112 151/189/112
f 155/194/113 157/195/113 138/196/113
f 156/197/114 158/198/114 155/194/114
f 144/180/115 159/199/115 156/197/115
f 158/198/116 160/188/116 157/195/116
f 158/198/117 162/200/117 161/193/117
f 145/182/118 162/200/118 159/199/118
f 146/181/119 154/201/119 162/202/119
f 166/203/120 168/204/120 163/205/120
f 167/206/121 169/207/121 166/203/121
f 179/208/122 170/209/122 167/206/122
f 169/207/123 171/210/123 168/204/123
f 169/207/124 173/211/124 172/212/124
f 180/213/125 173/211/125 170/209/125
f 174/214/126 176/215/126 164/14/126
f 175/216/127 177/217/127 174/214/127
f 187/218/128 178/219/128 175/216/128
f 177/217/129 179/220/129 176/215/129
f 177/217/130 181/221/130 180/222/130
f 188/223/131 181/221/131 178/219/131
f 182/224/132 184/225/132 165/6/132
f 183/226/133 185/227/133 182/224/133
f 171/210/134 186/228/134 183/226/134
f 185/227/135 187/218/135 184/225/135
f 185/227/136 189/229/136 188/223/136
f 172/212/137 189/229/137 186/228/137
f 173/211/138 181/230/138 189/231/138
f 193/232/139 195/233/139 190/9/139
f 194/234/140 196/235/140 193/232/140
f 206/236/141 197/237/141 194/234/141
f 196/235/142 198/238/142 195/233/142
f 196/235/143 200/239/143 199/240/143
f 207/241/144 200/239/144 197/237/144
f 201/242/145 203/243/145 191/4/145
f 202/244/146 204/245/146 201/242/146
f 214/246/147 205/247/147 202/244/147
f 204/245/148 206/236/148 203/243/148
f 204/245/149 208/248/149 207/241/149
f 215/249/150 208/248/150 205/247/150
f 209/250/151 211/251/151 192/252/151
f 210/253/152 212/254/152 209/250/152
f 198/255/153 213/256/153 210/253/153
f 212/254/154 214/246/154 211/251/154
f 212/254/155 216/257/155 215/249/155
f 199/258/156 216/257/156 213/256/156
f 200/239/157 208/259/157 216/260/157
f 1/18/158 58/83/158 55/85/158
f 6/17/159 59/86/159 58/83/159
f 9/23/160 71/88/160 59/86/160
f 21/39/161 68/95/161 71/100/161
f 20/37/162 56/11/162 68/95/162
f 28/51/163 12/27/163 2/2/163
f 33/50/164 13/29/164 12/27/164
f 36/56/165 25/31/165 13/29/165
f 48/73/166 22/38/166 25/43/166
f 47/71/167 3/12/167 22/38/167
f 82/7/168 39/60/168 29/62/168
f 87/115/169 40/63/169 39/60/169
f 90/120/170 52/65/170 40/63/170
f 102/137/171 49/72/171 52/77/171
f 101/134/172 30/10/172 49/72/172
f 57/15/173 93/124/173 83/13/173
f 76/105/174 94/126/174 93/124/174
f 79/98/175 106/128/175 94/126/175
f 67/96/176 103/135/176 106/128/176
f 66/94/177 84/136/177 103/135/177
f 55/85/178 166/203/178 163/205/178
f 60/84/179 167/206/179 166/203/179
f 63/90/180 179/208/180 167/206/180
f 75/106/181 176/215/181 179/220/181
f 74/104/182 164/14/182 176/215/182
f 190/9/183 85/114/183 82/7/183
f 195/233/184 86/116/184 85/114/184
f 198/238/185 98/118/185 86/116/185
f 210/253/186 95/125/186 98/130/186
f 209/250/187 83/13/187 95/125/187
f 165/6/188 201/242/188 191/4/188
f 184/225/189 202/244/189 201/242/189
f 187/218/190 214/246/190 202/244/190
f 175/216/191 211/251/191 214/246/191
f 174/214/192 192/252/192 211/251/192
f 163/205/193 112/145/193 109/147/193
f 168/204/194 113/148/194 112/145/194
f 171/210/195 125/150/195 113/148/195
f 183/226/196 122/157/196 125/150/196
f 182/224/197 110/5/197 122/157/197
f 136/8/198 193/232/198 190/9/198
f 141/175/199 194/234/199 193/232/199
f 144/180/200 206/236/200 194/234/200
f 156/197/201 203/243/201 206/236/201
f 155/194/202 191/4/202 203/243/202
f 111/3/203 147/184/203 137/1/203
f 130/165/204 148/186/204 147/184/204
f 133/160/205 160/188/205 148/186/205
f 121/158/206 157/195/206 160/188/206
f 120/156/207 138/196/207 157/195/207
f 109/147/208 4/16/208 1/18/208
f 114/146/209 5/19/209 4/16/209
f 117/152/210 17/21/210 5/19/210
f 129/166/211 14/28/211 17/33/211
f 128/164/212 2/2/212 14/28/212
f 29/62/213 139/174/213 136/8/213
f 41/61/214 140/176/214 139/174/214
f 44/67/215 152/178/215 140/176/215
f 32/52/216 149/185/216 152/190/216
f 31/49/217 137/1/217 149/185/217
f 163/205/218 1/18/218 55/85/218
f 137/1/1 28/51/1 2/2/1
f 191/4/2 138/196/2 110/5/2
f 82/7/3 29/62/3 136/8/3
f 30/10/4 84/136/4 56/11/4
f 83/13/5 192/252/5 164/14/5
f 4/16/219 7/20/219 6/17/219
f 5/19/220 8/22/220 7/20/220
f 17/21/221 18/26/221 8/22/221
f 7/20/222 10/25/222 9/23/222
f 7/20/223 8/22/223 11/24/223
f 18/26/224 19/47/224 11/24/224
f 12/27/225 15/30/225 14/28/225
f 13/29/226 16/32/226 15/30/226
f 25/31/227 26/36/227 16/32/227
f 15/30/228 18/35/228 17/33/228
f 15/30/229 16/32/229 19/34/229
f 26/36/230 27/261/230 19/34/230
f 20/37/231 23/40/231 22/38/231
f 21/39/232 24/42/232 23/40/232
f 9/41/20 10/46/20 24/42/20
f 23/40/233 26/45/233 25/43/233
f 23/40/234 24/42/234 27/44/234
f 10/46/235 11/262/235 27/44/235
f 31/49/236 34/53/236 33/50/236
f 32/52/237 35/55/237 34/53/237
f 44/54/238 45/59/238 35/55/238
f 34/53/239 37/58/239 36/56/239
f 34/53/240 35/55/240 38/57/240
f 45/59/241 46/81/241 38/57/241
f 39/60/242 42/64/242 41/61/242
f 40/63/243 43/66/243 42/64/243
f 52/65/33 53/70/33 43/66/33
f 42/64/244 45/69/244 44/67/244
f 42/64/245 43/66/245 46/68/245
f 53/70/246 54/263/246 46/68/246
f 47/71/247 50/74/247 49/72/247
f 48/73/248 51/76/248 50/74/248
f 36/75/249 37/80/249 51/76/249
f 50/74/250 53/79/250 52/77/250
f 50/74/41 51/76/41 54/78/41
f 37/80/251 38/264/251 54/78/251
f 58/83/44 61/87/44 60/84/44
f 59/86/252 62/89/252 61/87/252
f 71/88/46 72/93/46 62/89/46
f 61/87/253 64/92/253 63/90/253
f 61/87/254 62/89/254 65/91/254
f 72/93/255 73/112/255 65/91/255
f 66/94/256 69/97/256 68/95/256
f 67/96/257 70/99/257 69/97/257
f 79/98/258 80/103/258 70/99/258
f 69/97/259 72/102/259 71/100/259
f 69/97/54 70/99/54 73/101/54
f 80/103/260 81/110/260 73/101/260
f 74/104/261 77/107/261 76/105/261
f 75/106/262 78/109/262 77/107/262
f 63/108/263 64/111/263 78/109/263
f 77/107/264 80/103/264 79/98/264
f 77/107/265 78/109/265 81/110/265
f 64/111/61 65/265/61 81/110/61
f 85/114/266 88/117/266 87/115/266
f 86/116/64 89/119/64 88/117/64
f 98/118/267 99/123/267 89/119/267
f 88/117/268 91/122/268 90/120/268
f 88/117/269 89/119/269 92/121/269
f 99/123/270 100/143/270 92/121/270
f 93/124/271 96/127/271 95/125/271
f 94/126/272 97/129/272 96/127/272
f 106/128/273 107/133/273 97/129/273
f 96/127/274 99/132/274 98/130/274
f 96/127/275 97/129/275 100/131/275
f 107/133/276 108/141/276 100/131/276
f 101/134/277 104/138/277 103/135/277
f 102/137/278 105/140/278 104/138/278
f 90/139/77 91/142/77 105/140/77
f 104/138/279 107/133/279 106/128/279
f 104/138/280 105/140/280 108/141/280
f 91/142/281 92/266/281 108/141/281
f 112/145/82 115/149/82 114/146/82
f 113/148/282 116/151/282 115/149/282
f 125/150/84 126/155/84 116/151/84
f 115/149/85 118/154/85 117/152/85
f 115/149/283 116/151/283 119/153/283
f 126/155/284 127/162/284 119/153/284
f 120/156/285 123/159/285 122/157/285
f 121/158/286 124/161/286 123/159/286
f 133/160/287 134/163/287 124/161/287
f 123/159/288 126/155/288 125/150/288
f 123/159/289 124/161/289 127/162/289
f 134/163/290 135/170/290 127/162/290
f 128/164/291 131/167/291 130/165/291
f 129/166/292 132/169/292 131/167/292
f 117/168/293 118/171/293 132/169/293
f 131/167/294 134/163/294 133/160/294
f 131/167/295 132/169/295 135/170/295
f 118/171/99 119/267/99 135/170/99
f 139/174/296 142/177/296 141/175/296
f 140/176/297 143/179/297 142/177/297
f 152/178/298 153/183/298 143/179/298
f 142/177/299 145/182/299 144/180/299
f 142/177/300 143/179/300 146/181/300
f 153/183/106 154/201/106 146/181/106
f 147/184/301 150/187/301 149/185/301
f 148/186/302 151/189/302 150/187/302
f 160/188/303 161/193/303 151/189/303
f 150/187/304 153/192/304 152/190/304
f 150/187/305 151/189/305 154/191/305
f 161/193/306 162/200/306 154/191/306
f 155/194/307 158/198/307 157/195/307
f 156/197/308 159/199/308 158/198/308
f 144/180/115 145/182/115 159/199/115
f 158/198/309 161/193/309 160/188/309
f 158/198/310 159/199/310 162/200/310
f 145/182/118 146/181/118 162/200/118
f 166/203/311 169/207/311 168/204/311
f 167/206/312 170/209/312 169/207/312
f 179/208/313 180/213/313 170/209/313
f 169/207/123 172/212/123 171/210/123
f 169/207/124 170/209/124 173/211/124
f 180/213/125 181/230/125 173/211/125
f 174/214/314 177/217/314 176/215/314
f 175/216/315 178/219/315 177/217/315
f 187/218/316 188/223/316 178/219/316
f 177/217/317 180/222/317 179/220/317
f 177/217/318 178/219/318 181/221/318
f 188/223/131 189/229/131 181/221/131
f 182/224/319 185/227/319 184/225/319
f 183/226/320 186/228/320 185/227/320
f 171/210/321 172/212/321 186/228/321
f 185/227/322 188/223/322 187/218/322
f 185/227/323 186/228/323 189/229/323
f 172/212/324 173/211/324 189/229/324
f 193/232/325 196/235/325 195/233/325
f 194/234/326 197/237/326 196/235/326
f 206/236/141 207/241/141 197/237/141
f 196/235/142 199/240/142 198/238/142
f 196/235/143 197/237/143 200/239/143
f 207/241/327 208/248/327 200/239/327
f 201/242/328 204/245/328 203/243/328
f 202/244/329 205/247/329 204/245/329
f 214/246/330 215/249/330 205/247/330
f 204/245/331 207/241/331 206/236/331
f 204/245/149 205/247/149 208/248/149
f 215/249/332 216/257/332 208/248/332
f 209/250/333 212/254/333 211/251/333
f 210/253/334 213/256/334 212/254/334
f 198/255/153 199/258/153 213/256/153
f 212/254/335 215/249/335 214/246/335
f 212/254/336 213/256/336 216/257/336
f 199/258/156 200/268/156 216/257/156
f 1/18/337 6/17/337 58/83/337
f 6/17/338 9/23/338 59/86/338
f 9/23/339 21/269/339 71/88/339
f 21/39/340 20/37/340 68/95/340
f 20/37/341 3/12/341 56/11/341
f 28/51/342 33/50/342 12/27/342
f 33/50/343 36/56/343 13/29/343
f 36/56/344 48/270/344 25/31/344
f 48/73/345 47/71/345 22/38/345
f 47/71/167 30/10/167 3/12/167
f 82/7/168 87/115/168 39/60/168
f 87/115/346 90/120/346 40/63/346
f 90/120/170 102/271/170 52/65/170
f 102/137/347 101/134/347 49/72/347
f 101/134/348 84/136/348 30/10/348
f 57/15/173 76/105/173 93/124/173
f 76/105/349 79/98/349 94/126/349
f 79/98/350 67/96/350 106/128/350
f 67/96/176 66/94/176 103/135/176
f 66/94/177 56/11/177 84/136/177
f 55/85/178 60/84/178 166/203/178
f 60/84/179 63/90/179 167/206/179
f 63/90/180 75/272/180 179/208/180
f 75/106/181 74/104/181 176/215/181
f 74/104/182 57/15/182 164/14/182
f 190/9/183 195/233/183 85/114/183
f 195/233/351 198/238/351 86/116/351
f 198/238/185 210/273/185 98/118/185
f 210/253/186 209/250/186 95/125/186
f 209/250/352 192/252/352 83/13/352
f 165/6/188 184/225/188 201/242/188
f 184/225/353 187/218/353 202/244/353
f 187/218/354 175/216/354 214/246/354
f 175/216/355 174/214/355 211/251/355
f 174/214/356 164/14/356 192/252/356
f 163/205/193 168/204/193 112/145/193
f 168/204/357 171/210/357 113/148/357
f 171/210/195 183/226/195 125/150/195
f 183/226/358 182/224/358 122/157/358
f 182/224/359 165/6/359 110/5/359
f 136/8/360 141/175/360 193/232/360
f 141/175/361 144/180/361 194/234/361
f 144/180/200 156/197/200 206/236/200
f 156/197/362 155/194/362 203/243/362
f 155/194/363 138/196/363 191/4/363
f 111/3/364 130/165/364 147/184/364
f 130/165/365 133/160/365 148/186/365
f 133/160/366 121/158/366 160/188/366
f 121/158/367 120/156/367 157/195/367
f 120/156/207 110/5/207 138/196/207
f 109/147/208 114/146/208 4/16/208
f 114/146/209 117/152/209 5/19/209
f 117/152/210 129/274/210 17/21/210
f 129/166/211 128/164/211 14/28/211
f 128/164/212 111/3/212 2/2/212
f 29/62/213 41/61/213 139/174/213
f 41/61/214 44/67/214 140/176/214
f 44/67/215 32/275/215 152/178/215
f 32/52/216 31/49/216 149/185/216
f 31/49/217 28/51/217 137/1/217
f 163/205/218 109/147/218 1/18/218
