# Blender v2.82 (sub 7) OBJ File: 'table_scene3.blend'
# www.blender.org
o Teeth_Teeth_Cubo.002
v -0.344474 0.319112 0.011861
v -0.344705 0.318206 0.011151
v -0.344226 0.318206 0.011690
v -0.345182 0.319112 0.010557
v -0.344962 0.319112 0.011312
v -0.344921 0.318206 0.010410
v -0.344437 0.317288 0.010852
v -0.344025 0.317288 0.011316
v -0.344955 0.319112 0.010039
v -0.344464 0.319112 0.010010
v -0.344699 0.318206 0.009903
v -0.344217 0.318206 0.009874
v -0.344431 0.317288 0.009779
v -0.344622 0.317288 0.010216
v -0.343975 0.319112 0.010560
v -0.343523 0.318206 0.011154
v -0.343738 0.318206 0.010413
v -0.343420 0.317288 0.010855
v -0.343604 0.317288 0.010218
v -0.344016 0.317288 0.009755
v -0.343756 0.319112 0.011315
v -0.343744 0.318206 0.011661
v -0.343982 0.319112 0.011833
v -0.343610 0.317288 0.011292
v -0.343642 0.316401 0.010637
v -0.343517 0.316411 0.010370
v -0.343904 0.316411 0.010664
v -0.343856 0.315878 0.010153
v -0.343743 0.315774 0.010029
v -0.343655 0.315878 0.010000
v -0.343952 0.315774 0.009918
v -0.343951 0.315774 0.009647
v -0.343831 0.315556 0.009720
v -0.343742 0.315774 0.009758
v -0.343638 0.316401 0.009960
v -0.343899 0.316411 0.009667
v -0.343853 0.315878 0.009635
v -0.344285 0.316411 0.009962
v -0.344159 0.316401 0.009684
v -0.344054 0.315878 0.009788
v -0.344163 0.316401 0.010360
v -0.342566 0.317495 0.016872
v -0.342917 0.316557 0.015886
v -0.342349 0.316429 0.016522
v -0.343403 0.317765 0.015330
v -0.343146 0.317626 0.016224
v -0.343170 0.316694 0.015010
v -0.342675 0.315497 0.015384
v -0.342186 0.315387 0.015931
v -0.343130 0.317829 0.014715
v -0.342544 0.317791 0.014678
v -0.342902 0.316756 0.014407
v -0.342327 0.316719 0.014371
v -0.342662 0.315668 0.014112
v -0.342892 0.315615 0.014631
v -0.341964 0.317660 0.015327
v -0.341507 0.316454 0.015883
v -0.341759 0.316591 0.015007
v -0.341462 0.315408 0.015381
v -0.341678 0.315526 0.014628
v -0.342167 0.315636 0.014081
v -0.341707 0.317520 0.016220
v -0.341774 0.316392 0.016486
v -0.341980 0.317457 0.016835
v -0.341692 0.315355 0.015900
v -0.341803 0.314414 0.014982
v -0.341652 0.314458 0.014667
v -0.342115 0.314445 0.015018
v -0.342100 0.313893 0.014326
v -0.341974 0.313780 0.014162
v -0.341860 0.313900 0.014144
v -0.342223 0.313816 0.014032
v -0.342219 0.313859 0.013711
v -0.342096 0.313579 0.013762
v -0.341971 0.313823 0.013841
v -0.341794 0.314522 0.014181
v -0.342102 0.314604 0.013836
v -0.342094 0.313975 0.013712
v -0.342565 0.314590 0.014188
v -0.342414 0.314612 0.013856
v -0.342334 0.313968 0.013895
v -0.342422 0.314504 0.014657
v -0.341363 0.314769 0.023101
v -0.341574 0.313577 0.021924
v -0.341207 0.313417 0.022921
v -0.341738 0.314931 0.022084
v -0.341465 0.313747 0.020794
v -0.341446 0.312090 0.021577
v -0.341130 0.311953 0.022434
v -0.341029 0.315184 0.020343
v -0.341627 0.315105 0.020932
v -0.340332 0.315137 0.020569
v -0.340880 0.313825 0.020218
v -0.340197 0.313778 0.020439
v -0.340849 0.312303 0.020109
v -0.341353 0.312237 0.020605
v -0.339958 0.314974 0.021586
v -0.340068 0.314800 0.022739
v -0.339829 0.313619 0.021436
v -0.340039 0.311979 0.022129
v -0.339945 0.312126 0.021157
v -0.340261 0.312263 0.020299
v -0.340524 0.313371 0.023142
v -0.339938 0.313448 0.022566
v -0.340666 0.314721 0.023327
v -0.340543 0.311913 0.022624
v -0.340806 0.310369 0.021622
v -0.340479 0.310430 0.021324
v -0.341239 0.309429 0.020789
v -0.341099 0.309226 0.020669
v -0.340877 0.309438 0.020687
v -0.341328 0.309271 0.020404
v -0.341177 0.309325 0.020034
v -0.341228 0.308845 0.020176
v -0.340949 0.309280 0.020298
v -0.340430 0.310504 0.020697
v -0.340621 0.310611 0.020156
v -0.340951 0.309532 0.020080
v -0.340999 0.310615 0.020037
v -0.341318 0.310594 0.020351
v -0.341313 0.309523 0.020182
v -0.341176 0.310413 0.021519
v -0.341375 0.310481 0.020962
v -0.361810 0.319112 0.021265
v -0.362279 0.318206 0.020683
v -0.362004 0.319112 0.020555
v -0.362512 0.317288 0.021343
v -0.362089 0.318206 0.021378
v -0.362676 0.317288 0.020745
v -0.362782 0.318206 0.020099
v -0.362517 0.319112 0.019960
v -0.363075 0.319112 0.019867
v -0.363108 0.317288 0.020243
v -0.363329 0.318206 0.020008
v -0.363579 0.317288 0.020165
v -0.363615 0.318206 0.020397
v -0.363367 0.319112 0.020264
v -0.363173 0.319112 0.020973
v -0.363661 0.317288 0.021097
v -0.363425 0.318206 0.021092
v -0.363228 0.317288 0.021600
v -0.362922 0.318206 0.021676
v -0.362660 0.319112 0.021569
v -0.362375 0.318206 0.021767
v -0.362102 0.319112 0.021661
v -0.362758 0.317288 0.021678
v -0.363290 0.316401 0.021294
v -0.363817 0.315878 0.020936
v -0.363581 0.316411 0.021253
v -0.363579 0.315878 0.020851
v -0.363124 0.316411 0.021089
v -0.363744 0.315774 0.020878
v -0.363723 0.315774 0.020642
v -0.363972 0.315774 0.020731
v -0.363955 0.315556 0.020636
v -0.363951 0.315774 0.020496
v -0.363777 0.315878 0.020486
v -0.363825 0.317288 0.020499
v -0.363859 0.316401 0.020928
v -0.364014 0.315878 0.020571
v -0.363963 0.316411 0.020550
v -0.363505 0.316411 0.020387
v -0.363807 0.316401 0.020341
v -0.363238 0.316401 0.020706
v -0.358650 0.317495 0.025596
v -0.359285 0.316557 0.024764
v -0.358877 0.317626 0.024757
v -0.359646 0.315387 0.025401
v -0.359062 0.316429 0.025587
v -0.359838 0.315497 0.024693
v -0.359881 0.316694 0.024075
v -0.359486 0.317765 0.024054
v -0.360150 0.317829 0.023947
v -0.360351 0.315615 0.024101
v -0.360533 0.316756 0.023970
v -0.360911 0.315668 0.024011
v -0.360877 0.316719 0.024433
v -0.360501 0.317791 0.024419
v -0.360273 0.317660 0.025258
v -0.361015 0.315526 0.025116
v -0.360654 0.316591 0.025256
v -0.360502 0.315408 0.025709
v -0.360057 0.316454 0.025945
v -0.359665 0.317520 0.025961
v -0.359406 0.316392 0.026050
v -0.359000 0.317457 0.026068
v -0.359942 0.315355 0.025799
v -0.360650 0.314414 0.025206
v -0.361322 0.313900 0.024700
v -0.360997 0.314458 0.025160
v -0.361038 0.313893 0.024598
v -0.360450 0.314445 0.024964
v -0.361244 0.313780 0.024614
v -0.361218 0.313816 0.024335
v -0.361515 0.313823 0.024442
v -0.361513 0.313579 0.024294
v -0.361489 0.313859 0.024163
v -0.361272 0.313968 0.024167
v -0.361207 0.315636 0.024409
v -0.361327 0.314522 0.024775
v -0.361556 0.313975 0.024269
v -0.361447 0.314604 0.024329
v -0.360901 0.314590 0.024133
v -0.361261 0.314612 0.024079
v -0.360585 0.314504 0.024509
v -0.354085 0.314769 0.030002
v -0.354956 0.313577 0.029183
v -0.354733 0.314931 0.029133
v -0.354771 0.311953 0.029833
v -0.354321 0.313417 0.030035
v -0.355317 0.312090 0.029101
v -0.355962 0.313747 0.028658
v -0.355759 0.315105 0.028597
v -0.356578 0.315184 0.028778
v -0.356183 0.312237 0.028649
v -0.356765 0.313825 0.028834
v -0.356873 0.312303 0.028801
v -0.356952 0.313778 0.029528
v -0.356769 0.315137 0.029485
v -0.356121 0.314974 0.030353
v -0.356488 0.312126 0.030130
v -0.356317 0.313619 0.030379
v -0.355622 0.311979 0.030581
v -0.355311 0.313448 0.030905
v -0.355094 0.314800 0.030889
v -0.354508 0.313371 0.030728
v -0.354276 0.314721 0.030709
v -0.354932 0.311913 0.030429
v -0.355628 0.310369 0.029662
v -0.356373 0.309438 0.029092
v -0.356056 0.310430 0.029774
v -0.356090 0.309429 0.028844
v -0.355513 0.310413 0.029296
v -0.356267 0.309226 0.028896
v -0.356365 0.309271 0.028561
v -0.356660 0.309280 0.028820
v -0.356610 0.308845 0.028520
v -0.356758 0.309325 0.028485
v -0.356559 0.309523 0.028451
v -0.357034 0.312263 0.029397
v -0.356609 0.310504 0.029473
v -0.356841 0.309532 0.028700
v -0.356958 0.310611 0.029017
v -0.356852 0.310615 0.028636
v -0.356415 0.310594 0.028540
v -0.355871 0.310481 0.028825
vn -0.4057 -0.2758 0.8714
vn -0.8174 -0.3488 0.4585
vn -0.3387 -0.3334 0.8798
vn -0.9618 -0.2722 -0.0292
vn -0.8293 -0.3166 0.4605
vn -0.9574 -0.2817 -0.0633
vn -0.7885 -0.4283 0.4413
vn -0.3162 -0.4975 0.8078
vn -0.6491 -0.0700 -0.7575
vn 0.3210 0.2250 -0.9200
vn -0.5676 -0.0457 -0.8220
vn 0.3723 0.2173 -0.9023
vn -0.5649 -0.0682 -0.8224
vn -0.9454 -0.3198 -0.0633
vn 0.8377 0.2937 -0.4604
vn 0.9846 0.1537 0.0828
vn 0.8496 0.2568 -0.4607
vn 0.9958 -0.0436 0.0809
vn 0.8696 0.1605 -0.4669
vn 0.3816 0.1702 -0.9085
vn 0.9675 0.2301 0.1050
vn 0.5750 -0.1169 0.8098
vn 0.4842 -0.0383 0.8741
vn 0.5628 -0.3605 0.7438
vn 0.5117 -0.5678 0.6448
vn 0.9744 -0.2172 0.0581
vn -0.3024 -0.6303 0.7150
vn -0.2752 -0.7216 0.6353
vn 0.3806 -0.8123 0.4418
vn 0.9252 -0.3790 0.0200
vn -0.6452 -0.6742 0.3594
vn -0.4213 -0.4739 -0.7733
vn 0.0872 -0.9331 -0.3488
vn 0.8455 -0.2339 -0.4800
vn 0.8764 0.0610 -0.4777
vn 0.3811 0.1153 -0.9173
vn 0.3780 -0.0941 -0.9210
vn -0.9308 -0.3586 -0.0705
vn -0.5613 -0.1016 -0.8214
vn -0.8777 -0.4693 -0.0969
vn -0.7599 -0.5003 0.4149
vn -0.4289 -0.3597 0.8287
vn -0.8428 -0.3467 0.4117
vn -0.3663 -0.4226 0.8290
vn -0.9789 -0.1953 -0.0606
vn -0.8523 -0.3144 0.4181
vn -0.9750 -0.2005 -0.0957
vn -0.8197 -0.4251 0.3839
vn -0.3554 -0.5769 0.7355
vn -0.6487 0.0793 -0.7569
vn 0.3410 0.3222 -0.8831
vn -0.5655 0.1060 -0.8179
vn 0.3915 0.3085 -0.8669
vn -0.5643 0.0837 -0.8213
vn -0.9658 -0.2390 -0.1008
vn 0.8591 0.2911 -0.4211
vn 0.9928 0.0694 0.0978
vn 0.8682 0.2538 -0.4263
vn 0.9896 -0.1262 0.0695
vn 0.8812 0.1580 -0.4455
vn 0.3974 0.2621 -0.8794
vn 0.9811 0.1431 0.1301
vn 0.5611 -0.2656 0.7840
vn 0.4758 -0.1900 0.8588
vn 0.5315 -0.4968 0.6861
vn 0.4660 -0.6846 0.5605
vn 0.9558 -0.2932 0.0236
vn -0.3509 -0.6967 0.6257
vn -0.3299 -0.7783 0.5343
vn 0.3184 -0.8896 0.3273
vn 0.8952 -0.4443 -0.0353
vn -0.6943 -0.6675 0.2691
vn -0.4507 -0.3342 -0.8278
vn 0.0207 -0.8819 -0.4710
vn 0.8286 -0.2284 -0.5111
vn 0.8808 0.0607 -0.4695
vn 0.3929 0.2091 -0.8955
vn 0.3746 0.0028 -0.9272
vn -0.9540 -0.2775 -0.1133
vn -0.5632 0.0503 -0.8248
vn -0.9089 -0.3872 -0.1545
vn -0.7963 -0.4948 0.3480
vn -0.7160 -0.1728 0.6764
vn -0.9856 -0.1228 0.1166
vn -0.6756 -0.2175 0.7045
vn -0.9863 -0.1309 0.1002
vn -0.8995 -0.0384 -0.4353
vn -0.9873 -0.1028 0.1209
vn -0.6680 -0.3190 0.6723
vn -0.2639 0.0600 -0.9627
vn -0.8980 -0.0626 -0.4354
vn 0.6711 0.1370 -0.7286
vn -0.2136 0.0671 -0.9746
vn 0.7058 0.0875 -0.7029
vn -0.2128 0.0630 -0.9751
vn -0.9031 0.0160 -0.4292
vn 0.9871 0.1069 -0.1191
vn 0.8975 0.0306 0.4400
vn 0.9927 0.0262 -0.1177
vn 0.8752 -0.2990 0.3803
vn 0.9789 -0.1463 -0.1429
vn 0.7001 -0.0257 -0.7136
vn 0.2392 -0.2154 0.9468
vn 0.9003 -0.0776 0.4282
vn 0.1914 -0.1129 0.9750
vn 0.2262 -0.4352 0.8714
vn 0.1936 -0.5963 0.7790
vn 0.8252 -0.4627 0.3239
vn -0.6579 -0.4805 0.5799
vn 0.0804 -0.8253 0.5589
vn 0.7698 -0.5745 0.2781
vn -0.9507 -0.2916 0.1055
vn -0.1976 -0.2920 -0.9358
vn -0.1743 -0.9307 -0.3215
vn 0.8435 -0.4936 -0.2119
vn 0.9445 -0.2834 -0.1665
vn 0.6766 -0.1185 -0.7267
vn 0.6283 -0.2396 -0.7401
vn -0.2268 0.0530 -0.9725
vn -0.9032 0.0547 -0.4257
vn -0.8960 -0.0338 -0.4428
vn -0.6713 -0.3897 0.6304
vn -0.9892 -0.0880 0.1169
vn 0.9517 -0.2758 0.1351
vn 0.8301 -0.3488 -0.4351
vn 0.8382 -0.3167 -0.4439
vn 0.8495 -0.4975 0.1755
vn 0.9222 -0.3334 0.1959
vn 0.8000 -0.4283 -0.4203
vn 0.4691 -0.2817 -0.8370
vn 0.5001 -0.2722 -0.8221
vn -0.2809 -0.0700 -0.9572
vn 0.4625 -0.3198 -0.8269
vn -0.3795 -0.0457 -0.9241
vn -0.3813 -0.0682 -0.9219
vn -0.9594 0.2174 -0.1800
vn -0.9462 0.2250 -0.2326
vn -0.8428 0.2937 0.4511
vn -0.8656 0.1605 0.4743
vn -0.8495 0.2568 0.4609
vn -0.4752 -0.0436 0.8788
vn -0.4676 0.1537 0.8705
vn -0.4396 0.2301 0.8682
vn 0.3652 -0.1169 0.9236
vn 0.4687 -0.0383 0.8825
vn 0.3166 -0.3606 0.8774
vn 0.2614 -0.5677 0.7806
vn -0.4878 -0.3790 0.7864
vn -0.4827 -0.2172 0.8484
vn 0.6825 -0.7216 0.1158
vn 0.7642 -0.6303 0.1365
vn 0.1628 -0.8124 0.5599
vn 0.6531 -0.6742 -0.3449
vn -0.8634 -0.2338 0.4470
vn -0.3400 -0.9331 -0.1172
vn -0.4185 -0.4739 -0.7748
vn 0.3975 -0.4693 -0.7885
vn -0.9696 0.1702 -0.1756
vn -0.8784 0.0611 0.4741
vn -0.9781 -0.0942 -0.1854
vn -0.9767 0.1153 -0.1809
vn 0.4485 -0.3586 -0.8187
vn -0.3824 -0.1016 -0.9184
vn 0.7622 -0.5003 -0.4107
vn 0.9285 -0.3597 0.0924
vn 0.8047 -0.3467 -0.4819
vn 0.8152 -0.3144 -0.4864
vn 0.8103 -0.5769 0.1032
vn 0.8946 -0.4226 0.1450
vn 0.7688 -0.4251 -0.4777
vn 0.4515 -0.2005 -0.8695
vn 0.4830 -0.1953 -0.8536
vn -0.2806 0.0793 -0.9565
vn 0.4421 -0.2390 -0.8645
vn -0.3772 0.1060 -0.9200
vn -0.3807 0.0837 -0.9209
vn -0.9402 0.3085 -0.1446
vn -0.9262 0.3222 -0.1958
vn -0.8214 0.2911 0.4905
vn -0.8540 0.1580 0.4957
vn -0.8308 0.2538 0.4953
vn -0.4814 -0.1262 0.8674
vn -0.4595 0.0694 0.8855
vn -0.4260 0.1431 0.8933
vn 0.3512 -0.2656 0.8978
vn 0.4604 -0.1900 0.8672
vn 0.2853 -0.4967 0.8197
vn 0.2157 -0.6846 0.6962
vn -0.5178 -0.4443 0.7311
vn -0.5013 -0.2932 0.8141
vn 0.6278 -0.7782 0.0148
vn 0.7158 -0.6967 0.0471
vn 0.1007 -0.8896 0.4454
vn 0.6042 -0.6676 -0.4351
vn -0.8803 -0.2283 0.4159
vn -0.4062 -0.8819 -0.2394
vn -0.4480 -0.3343 -0.8292
vn 0.3662 -0.3873 -0.8461
vn -0.9539 0.2621 -0.1465
vn -0.8739 0.0607 0.4823
vn -0.9815 0.0028 -0.1916
vn -0.9649 0.2091 -0.1590
vn 0.4253 -0.2774 -0.8615
vn -0.3843 0.0503 -0.9219
vn 0.7259 -0.4949 -0.4777
vn 0.9574 -0.1728 -0.2313
vn 0.6352 -0.1227 -0.7625
vn 0.6219 -0.1309 -0.7721
vn 0.9278 -0.3190 -0.1933
vn 0.9589 -0.2175 -0.1821
vn 0.6398 -0.1028 -0.7617
vn 0.1256 -0.0384 -0.9913
vn 0.1248 -0.0627 -0.9902
vn -0.6630 0.0600 -0.7462
vn 0.1327 0.0160 -0.9910
vn -0.7004 0.0671 -0.7105
vn -0.7013 0.0630 -0.7101
vn -0.9741 0.0875 0.2083
vn -0.9767 0.1370 0.1652
vn -0.6382 0.1069 0.7624
vn -0.6536 -0.1463 0.7426
vn -0.6400 0.0262 0.7679
vn -0.1585 -0.2990 0.9410
vn -0.1320 -0.0776 0.9882
vn -0.1206 0.0306 0.9922
vn 0.6632 -0.2154 0.7168
vn 0.7129 -0.1128 0.6921
vn 0.6071 -0.4352 0.6648
vn 0.5474 -0.5964 0.5871
vn -0.1867 -0.5745 0.7969
vn -0.1785 -0.4627 0.8684
vn 0.8449 -0.4804 -0.2353
vn 0.8945 -0.3897 -0.2190
vn 0.4248 -0.8253 0.3720
vn 0.6069 -0.2914 -0.7394
vn -0.6376 -0.4936 0.5915
vn -0.6766 -0.2919 -0.6760
vn 0.1174 -0.0337 -0.9925
vn -0.9799 -0.0257 0.1977
vn -0.6546 -0.2834 0.7009
vn -0.9630 -0.2396 0.1231
vn -0.9781 -0.1185 0.1708
vn -0.6915 0.0530 -0.7204
vn 0.1358 0.0547 -0.9892
vn 0.6374 -0.0880 -0.7655
s 1
f 1//1 2//2 3//3
f 4//4 2//2 5//5
f 6//6 7//7 2//2
f 2//2 8//8 3//3
f 9//9 6//6 4//4
f 10//10 11//11 9//9
f 12//12 13//13 11//11
f 11//11 14//14 6//6
f 15//15 12//12 10//10
f 15//15 16//16 17//17
f 17//17 18//18 19//19
f 12//12 19//19 20//20
f 21//21 22//22 16//16
f 23//23 3//3 22//22
f 22//22 8//8 24//24
f 16//16 24//24 18//18
f 18//18 25//25 26//26
f 24//24 27//27 25//25
f 25//25 28//28 29//29
f 25//25 30//30 26//26
f 31//31 29//29 28//28
f 31//31 32//32 33//33
f 32//32 34//34 33//33
f 29//29 34//34 30//30
f 20//20 35//35 36//36
f 19//19 26//26 35//35
f 35//35 30//30 34//34
f 35//35 37//37 36//36
f 13//13 38//38 14//14
f 20//20 39//39 13//13
f 39//39 37//37 32//32
f 39//39 40//40 38//38
f 7//7 27//27 8//8
f 14//14 41//41 7//7
f 41//41 40//40 31//31
f 41//41 28//28 27//27
f 42//42 43//43 44//44
f 45//45 43//43 46//46
f 47//47 48//48 43//43
f 43//43 49//49 44//44
f 50//50 47//47 45//45
f 51//51 52//52 50//50
f 53//53 54//54 52//52
f 52//52 55//55 47//47
f 56//56 53//53 51//51
f 56//56 57//57 58//58
f 58//58 59//59 60//60
f 53//53 60//60 61//61
f 62//62 63//63 57//57
f 64//64 44//44 63//63
f 63//63 49//49 65//65
f 57//57 65//65 59//59
f 59//59 66//66 67//67
f 65//65 68//68 66//66
f 66//66 69//69 70//70
f 66//66 71//71 67//67
f 72//72 70//70 69//69
f 72//72 73//73 74//74
f 73//73 75//75 74//74
f 70//70 75//75 71//71
f 61//61 76//76 77//77
f 60//60 67//67 76//76
f 76//76 71//71 75//75
f 76//76 78//78 77//77
f 54//54 79//79 55//55
f 61//61 80//80 54//54
f 80//80 78//78 73//73
f 80//80 81//81 79//79
f 48//48 68//68 49//49
f 55//55 82//82 48//48
f 82//82 81//81 72//72
f 82//82 69//69 68//68
f 83//83 84//84 85//85
f 86//86 87//87 84//84
f 87//87 88//88 84//84
f 84//84 89//89 85//85
f 90//90 87//87 91//91
f 92//92 93//93 90//90
f 94//94 95//95 93//93
f 93//93 96//96 87//87
f 97//97 94//94 92//92
f 98//98 99//99 97//97
f 99//99 100//100 101//101
f 94//94 101//101 102//102
f 98//98 103//103 104//104
f 105//105 85//85 103//103
f 85//85 106//106 103//103
f 104//104 106//106 100//100
f 100//100 107//107 108//108
f 89//89 107//107 106//106
f 107//107 109//109 110//110
f 107//107 111//111 108//108
f 112//112 110//110 109//109
f 112//112 113//113 114//114
f 113//113 115//115 114//114
f 110//110 115//115 111//111
f 102//102 116//116 117//117
f 101//101 108//108 116//116
f 116//116 111//111 115//115
f 116//116 118//118 117//117
f 96//96 119//119 120//120
f 95//95 117//117 119//119
f 119//119 118//118 113//113
f 119//119 121//121 120//120
f 88//88 122//122 89//89
f 96//96 123//123 88//88
f 123//123 121//121 112//112
f 123//123 109//109 122//122
f 124//124 125//125 126//126
f 127//127 125//125 128//128
f 129//129 130//130 125//125
f 125//125 131//131 126//126
f 130//130 132//132 131//131
f 133//133 134//134 130//130
f 135//135 136//136 134//134
f 134//134 137//137 132//132
f 136//136 138//138 137//137
f 136//136 139//139 140//140
f 140//140 141//141 142//142
f 138//138 142//142 143//143
f 143//143 144//144 145//145
f 142//142 146//146 144//144
f 144//144 127//127 128//128
f 145//145 128//128 124//124
f 141//141 147//147 146//146
f 148//148 147//147 149//149
f 147//147 150//150 151//151
f 146//146 151//151 127//127
f 152//152 153//153 150//150
f 152//152 154//154 155//155
f 154//154 156//156 155//155
f 153//153 156//156 157//157
f 158//158 159//159 139//139
f 160//160 159//159 161//161
f 159//159 148//148 149//149
f 139//139 149//149 141//141
f 162//162 135//135 133//133
f 157//157 163//163 162//162
f 163//163 160//160 161//161
f 163//163 158//158 135//135
f 151//151 129//129 127//127
f 150//150 164//164 151//151
f 164//164 157//157 162//162
f 164//164 133//133 129//129
f 165//165 166//166 167//167
f 168//168 166//166 169//169
f 170//170 171//171 166//166
f 166//166 172//172 167//167
f 171//171 173//173 172//172
f 174//174 175//175 171//171
f 176//176 177//177 175//175
f 175//175 178//178 173//173
f 177//177 179//179 178//178
f 177//177 180//180 181//181
f 181//181 182//182 183//183
f 179//179 183//183 184//184
f 184//184 185//185 186//186
f 183//183 187//187 185//185
f 185//185 168//168 169//169
f 186//186 169//169 165//165
f 182//182 188//188 187//187
f 189//189 188//188 190//190
f 188//188 191//191 192//192
f 187//187 192//192 168//168
f 193//193 194//194 191//191
f 193//193 195//195 196//196
f 195//195 197//197 196//196
f 194//194 197//197 198//198
f 199//199 200//200 180//180
f 201//201 200//200 202//202
f 200//200 189//189 190//190
f 180//180 190//190 182//182
f 203//203 176//176 174//174
f 198//198 204//204 203//203
f 204//204 201//201 202//202
f 204//204 199//199 176//176
f 192//192 170//170 168//168
f 191//191 205//205 192//192
f 205//205 198//198 203//203
f 205//205 174//174 170//170
f 206//206 207//207 208//208
f 209//209 207//207 210//210
f 211//211 212//212 207//207
f 208//208 212//212 213//213
f 212//212 214//214 213//213
f 215//215 216//216 212//212
f 217//217 218//218 216//216
f 216//216 219//219 214//214
f 218//218 220//220 219//219
f 218//218 221//221 222//222
f 222//222 223//223 224//224
f 222//222 225//225 220//220
f 225//225 226//226 227//227
f 224//224 228//228 226//226
f 228//228 210//210 226//226
f 227//227 210//210 206//206
f 223//223 229//229 228//228
f 230//230 229//229 231//231
f 229//229 232//232 233//233
f 229//229 209//209 228//228
f 234//234 235//235 232//232
f 234//234 236//236 237//114
f 236//236 238//237 237//114
f 235//235 238//237 239//238
f 240//239 241//240 221//221
f 242//241 241//240 243//242
f 241//240 230//230 231//231
f 221//221 231//231 223//223
f 215//215 244//243 217//217
f 239//238 244//243 245//244
f 244//243 242//241 243//242
f 217//217 243//242 240//239
f 233//233 211//211 209//209
f 232//232 246//245 233//233
f 246//245 239//238 245//244
f 246//245 215//215 211//211
f 1//1 5//5 2//2
f 4//4 6//6 2//2
f 6//6 14//14 7//7
f 2//2 7//7 8//8
f 9//9 11//11 6//6
f 10//10 12//12 11//11
f 12//12 20//20 13//13
f 11//11 13//13 14//14
f 15//15 17//17 12//12
f 15//15 21//21 16//16
f 17//17 16//16 18//18
f 12//12 17//17 19//19
f 21//21 23//23 22//22
f 23//23 1//1 3//3
f 22//22 3//3 8//8
f 16//16 22//22 24//24
f 18//18 24//24 25//25
f 24//24 8//8 27//27
f 25//25 27//27 28//28
f 25//25 29//29 30//30
f 31//31 33//33 29//29
f 31//31 40//40 32//32
f 32//32 37//37 34//34
f 29//29 33//33 34//34
f 20//20 19//19 35//35
f 19//19 18//18 26//26
f 35//35 26//26 30//30
f 35//35 34//34 37//37
f 13//13 39//39 38//38
f 20//20 36//36 39//39
f 39//39 36//36 37//37
f 39//39 32//32 40//40
f 7//7 41//41 27//27
f 14//14 38//38 41//41
f 41//41 38//38 40//40
f 41//41 31//31 28//28
f 42//42 46//46 43//43
f 45//45 47//47 43//43
f 47//47 55//55 48//48
f 43//43 48//48 49//49
f 50//50 52//52 47//47
f 51//51 53//53 52//52
f 53//53 61//61 54//54
f 52//52 54//54 55//55
f 56//56 58//58 53//53
f 56//56 62//62 57//57
f 58//58 57//57 59//59
f 53//53 58//58 60//60
f 62//62 64//64 63//63
f 64//64 42//42 44//44
f 63//63 44//44 49//49
f 57//57 63//63 65//65
f 59//59 65//65 66//66
f 65//65 49//49 68//68
f 66//66 68//68 69//69
f 66//66 70//70 71//71
f 72//72 74//74 70//70
f 72//72 81//81 73//73
f 73//73 78//78 75//75
f 70//70 74//74 75//75
f 61//61 60//60 76//76
f 60//60 59//59 67//67
f 76//76 67//67 71//71
f 76//76 75//75 78//78
f 54//54 80//80 79//79
f 61//61 77//77 80//80
f 80//80 77//77 78//78
f 80//80 73//73 81//81
f 48//48 82//82 68//68
f 55//55 79//79 82//82
f 82//82 79//79 81//81
f 82//82 72//72 69//69
f 83//83 86//86 84//84
f 86//86 91//91 87//87
f 87//87 96//96 88//88
f 84//84 88//88 89//89
f 90//90 93//93 87//87
f 92//92 94//94 93//93
f 94//94 102//102 95//95
f 93//93 95//95 96//96
f 97//97 99//99 94//94
f 98//98 104//104 99//99
f 99//99 104//104 100//100
f 94//94 99//99 101//101
f 98//98 105//105 103//103
f 105//105 83//83 85//85
f 85//85 89//89 106//106
f 104//104 103//103 106//106
f 100//100 106//106 107//107
f 89//89 122//122 107//107
f 107//107 122//122 109//109
f 107//107 110//110 111//111
f 112//112 114//114 110//110
f 112//112 121//121 113//113
f 113//113 118//118 115//115
f 110//110 114//114 115//115
f 102//102 101//101 116//116
f 101//101 100//100 108//108
f 116//116 108//108 111//111
f 116//116 115//115 118//118
f 96//96 95//95 119//119
f 95//95 102//102 117//117
f 119//119 117//117 118//118
f 119//119 113//113 121//121
f 88//88 123//123 122//122
f 96//96 120//120 123//123
f 123//123 120//120 121//121
f 123//123 112//112 109//109
f 124//124 128//128 125//125
f 127//127 129//129 125//125
f 129//129 133//133 130//130
f 125//125 130//130 131//131
f 130//130 134//134 132//132
f 133//133 135//135 134//134
f 135//135 158//158 136//136
f 134//134 136//136 137//137
f 136//136 140//140 138//138
f 136//136 158//158 139//139
f 140//140 139//139 141//141
f 138//138 140//140 142//142
f 143//143 142//142 144//144
f 142//142 141//141 146//146
f 144//144 146//146 127//127
f 145//145 144//144 128//128
f 141//141 149//149 147//147
f 148//148 152//152 147//147
f 147//147 152//152 150//150
f 146//146 147//147 151//151
f 152//152 155//155 153//153
f 152//152 148//148 154//154
f 154//154 160//160 156//156
f 153//153 155//155 156//156
f 158//158 161//161 159//159
f 160//160 154//154 159//159
f 159//159 154//154 148//148
f 139//139 159//159 149//149
f 162//162 163//163 135//135
f 157//157 156//156 163//163
f 163//163 156//156 160//160
f 163//163 161//161 158//158
f 151//151 164//164 129//129
f 150//150 153//153 164//164
f 164//164 153//153 157//157
f 164//164 162//162 133//133
f 165//165 169//169 166//166
f 168//168 170//170 166//166
f 170//170 174//174 171//171
f 166//166 171//171 172//172
f 171//171 175//175 173//173
f 174//174 176//176 175//175
f 176//176 199//199 177//177
f 175//175 177//177 178//178
f 177//177 181//181 179//179
f 177//177 199//199 180//180
f 181//181 180//180 182//182
f 179//179 181//181 183//183
f 184//184 183//183 185//185
f 183//183 182//182 187//187
f 185//185 187//187 168//168
f 186//186 185//185 169//169
f 182//182 190//190 188//188
f 189//189 193//193 188//188
f 188//188 193//193 191//191
f 187//187 188//188 192//192
f 193//193 196//196 194//194
f 193//193 189//189 195//195
f 195//195 201//201 197//197
f 194//194 196//196 197//197
f 199//199 202//202 200//200
f 201//201 195//195 200//200
f 200//200 195//195 189//189
f 180//180 200//200 190//190
f 203//203 204//204 176//176
f 198//198 197//197 204//204
f 204//204 197//197 201//201
f 204//204 202//202 199//199
f 192//192 205//205 170//170
f 191//191 194//194 205//205
f 205//205 194//194 198//198
f 205//205 203//203 174//174
f 206//206 210//210 207//207
f 209//209 211//211 207//207
f 211//211 215//215 212//212
f 208//208 207//207 212//212
f 212//212 216//216 214//214
f 215//215 217//217 216//216
f 217//217 240//239 218//218
f 216//216 218//218 219//219
f 218//218 222//222 220//220
f 218//218 240//239 221//221
f 222//222 221//221 223//223
f 222//222 224//224 225//225
f 225//225 224//224 226//226
f 224//224 223//223 228//228
f 228//228 209//209 210//210
f 227//227 226//226 210//210
f 223//223 231//231 229//229
f 230//230 234//234 229//229
f 229//229 234//234 232//232
f 229//229 233//233 209//209
f 234//234 237//114 235//235
f 234//234 230//230 236//236
f 236//236 242//241 238//237
f 235//235 237//114 238//237
f 240//239 243//242 241//240
f 242//241 236//236 241//240
f 241//240 236//236 230//230
f 221//221 241//240 231//231
f 215//215 245//244 244//243
f 239//238 238//237 244//243
f 244//243 238//237 242//241
f 217//217 244//243 243//242
f 233//233 246//245 211//211
f 232//232 235//235 246//245
f 246//245 235//235 239//238
f 246//245 245//244 215//215
