# Blender v2.82 (sub 7) OBJ File: 'bathroom.blend'
# www.blender.org
o Mirror
v -1.662080 2.495030 0.372933
v -1.662080 1.504000 0.372933
v -1.662080 1.504000 -0.613499
v -1.662080 2.495030 -0.613499
v -1.662080 2.487420 2.197721
v -1.662080 1.511610 2.197720
v -1.662080 1.511610 1.143400
v -1.662080 2.487420 1.143400
v -0.854588 1.074620 2.044690
v -0.853878 1.075400 2.046800
v -0.816063 0.989054 2.065570
v -0.853140 1.076120 2.048920
v -0.852379 1.076800 2.051050
v -0.851601 1.077430 2.053190
v -0.850811 1.078030 2.055330
v -0.850004 1.078580 2.057470
v -0.849178 1.079090 2.059620
v -0.848328 1.079530 2.061780
v -0.847450 1.079890 2.063930
v -0.846549 1.080180 2.066090
v -0.845628 1.080420 2.068250
v -0.844694 1.080610 2.070410
v -0.843749 1.080780 2.072570
v -0.842793 1.080900 2.074720
v -0.841820 1.080960 2.076870
v -0.840829 1.080960 2.079010
v -0.839816 1.080880 2.081130
v -0.838786 1.080730 2.083250
v -0.837742 1.080530 2.085350
v -0.836687 1.080280 2.087450
v -0.835624 1.080000 2.089540
v -0.834553 1.079680 2.091620
v -0.833472 1.079300 2.093680
v -0.832378 1.078860 2.095720
v -0.831270 1.078340 2.097730
v -0.830151 1.077760 2.099720
v -0.829022 1.077120 2.101690
v -0.827887 1.076440 2.103650
v -0.826747 1.075730 2.105590
v -0.825604 1.074980 2.107510
v -0.824454 1.074180 2.109410
v -0.823300 1.073310 2.111270
v -0.822139 1.072380 2.113090
v -0.820973 1.071380 2.114880
v -0.819804 1.070330 2.116640
v -0.818633 1.069240 2.118380
v -0.817460 1.068130 2.120100
v -0.816287 1.066980 2.121790
v -0.815115 1.065780 2.123450
v -0.813944 1.064530 2.125070
v -0.812775 1.063210 2.126630
v -0.811608 1.061830 2.128150
v -0.810443 1.060420 2.129630
v -0.809280 1.058960 2.131090
v -0.808119 1.057490 2.132520
v -0.806962 1.055980 2.133920
v -0.805812 1.054430 2.135270
v -0.804669 1.052840 2.136580
v -0.803537 1.051190 2.137820
v -0.802413 1.049490 2.139010
v -0.801297 1.047760 2.140160
v -0.800188 1.046000 2.141270
v -0.799083 1.044220 2.142360
v -0.797987 1.042410 2.143410
v -0.796902 1.040570 2.144420
v -0.795832 1.038700 2.145360
v -0.794780 1.036780 2.146240
v -0.793743 1.034830 2.147050
v -0.792719 1.032850 2.147820
v -0.791706 1.030840 2.148550
v -0.790700 1.028830 2.149250
v -0.789707 1.026790 2.149920
v -0.788729 1.024740 2.150530
v -0.787773 1.022650 2.151080
v -0.786841 1.020540 2.151550
v -0.785931 1.018410 2.151960
v -0.785038 1.016250 2.152320
v -0.784160 1.014090 2.152640
v -0.783291 1.011910 2.152930
v -0.782439 1.009720 2.153180
v -0.781607 1.007530 2.153380
v -0.780801 1.005320 2.153510
v -0.780026 1.003090 2.153560
v -0.779277 1.000860 2.153550
v -0.778550 0.998613 2.153490
v -0.777840 0.996364 2.153380
v -0.777142 0.994112 2.153250
v -0.776463 0.991859 2.153080
v -0.775808 0.989606 2.152850
v -0.775184 0.987353 2.152560
v -0.774595 0.985102 2.152190
v -0.774036 0.982852 2.151760
v -0.773503 0.980605 2.151280
v -0.772989 0.978361 2.150750
v -0.772489 0.976121 2.150200
v -0.772010 0.973888 2.149610
v -0.771557 0.971665 2.148970
v -0.771138 0.969456 2.148260
v -0.770758 0.967263 2.147490
v -0.770411 0.965086 2.146650
v -0.770091 0.962922 2.145770
v -0.769793 0.960770 2.144850
v -0.769510 0.958627 2.143900
v -0.769249 0.956499 2.142910
v -0.769016 0.954392 2.141880
v -0.768818 0.952311 2.140790
v -0.768661 0.950263 2.139640
v -0.768540 0.948241 2.138430
v -0.768447 0.946244 2.137180
v -0.768376 0.944265 2.135900
v -0.768320 0.942302 2.134590
v -0.768287 0.940361 2.133240
v -0.768283 0.938451 2.131860
v -0.768314 0.936579 2.130430
v -0.768387 0.934752 2.128950
v -0.768495 0.932965 2.127410
v -0.768632 0.931210 2.125840
v -0.768791 0.929482 2.124240
v -0.768965 0.927774 2.122620
v -0.769162 0.926095 2.120980
v -0.769386 0.924455 2.119300
v -0.769645 0.922863 2.117580
v -0.769945 0.921329 2.115820
v -0.770278 0.919844 2.114020
v -0.770640 0.918400 2.112190
v -0.771023 0.916988 2.110330
v -0.771420 0.915601 2.108460
v -0.771839 0.914248 2.106580
v -0.772283 0.912941 2.104670
v -0.772760 0.911691 2.102730
v -0.773275 0.910508 2.100750
v -0.773821 0.909383 2.098760
v -0.774394 0.908304 2.096740
v -0.774985 0.907264 2.094700
v -0.775591 0.906250 2.092660
v -0.776215 0.905276 2.090600
v -0.776862 0.904353 2.088530
v -0.777539 0.903492 2.086450
v -0.778249 0.902706 2.084340
v -0.778987 0.901983 2.082220
v -0.779748 0.901312 2.080090
v -0.780527 0.900682 2.077950
v -0.781317 0.900082 2.075810
v -0.782123 0.899523 2.073670
v -0.782948 0.899019 2.071520
v -0.783798 0.898581 2.069360
v -0.784677 0.898222 2.067210
v -0.785578 0.897929 2.065050
v -0.786499 0.897692 2.062890
v -0.787434 0.897497 2.060730
v -0.788378 0.897332 2.058570
v -0.789334 0.897211 2.056420
v -0.790307 0.897145 2.054270
v -0.791298 0.897147 2.052130
v -0.792310 0.897228 2.050010
v -0.793341 0.897378 2.047890
v -0.794386 0.897582 2.045790
v -0.795441 0.897830 2.043690
v -0.796503 0.898108 2.041600
v -0.797574 0.898429 2.039520
v -0.798655 0.898803 2.037460
v -0.799749 0.899244 2.035420
v -0.800857 0.899764 2.033410
v -0.801977 0.900349 2.031420
v -0.803105 0.900988 2.029450
v -0.804241 0.901669 2.027490
v -0.805380 0.902379 2.025550
v -0.806524 0.903129 2.023630
v -0.807672 0.903930 2.021730
v -0.808827 0.904794 2.019870
v -0.809988 0.905731 2.018050
v -0.811154 0.906730 2.016260
v -0.812323 0.907778 2.014500
v -0.813495 0.908866 2.012760
v -0.814667 0.909980 2.011040
v -0.815840 0.911131 2.009350
v -0.817012 0.912328 2.007690
v -0.818183 0.913581 2.006070
v -0.819352 0.914900 2.004510
v -0.820519 0.916273 2.002990
v -0.821685 0.917692 2.001510
v -0.822848 0.919144 2.000050
v -0.824008 0.920620 1.998620
v -0.825165 0.922127 1.997220
v -0.826315 0.923674 1.995870
v -0.827457 0.925268 1.994560
v -0.828590 0.926918 1.993320
v -0.829714 0.928614 1.992130
v -0.830830 0.930348 1.990980
v -0.831940 0.932110 1.989870
v -0.833044 0.933890 1.988780
v -0.834140 0.935696 1.987730
v -0.835224 0.937533 1.986720
v -0.836294 0.939407 1.985780
v -0.837347 0.941325 1.984900
v -0.838384 0.943278 1.984090
v -0.839408 0.945260 1.983320
v -0.840422 0.947263 1.982590
v -0.841427 0.949280 1.981890
v -0.842421 0.951315 1.981220
v -0.843397 0.953372 1.980610
v -0.844353 0.955454 1.980060
v -0.845285 0.957565 1.979590
v -0.846196 0.959700 1.979180
v -0.847089 0.961855 1.978820
v -0.847968 0.964022 1.978500
v -0.848836 0.966199 1.978210
v -0.849688 0.968385 1.977960
v -0.850520 0.970582 1.977760
v -0.851326 0.972792 1.977630
v -0.852101 0.975016 1.977580
v -0.852850 0.977251 1.977590
v -0.853578 0.979495 1.977650
v -0.854288 0.981744 1.977760
v -0.854985 0.983995 1.977890
v -0.855664 0.986248 1.978060
v -0.856318 0.988502 1.978290
v -0.856943 0.990755 1.978580
v -0.857532 0.993006 1.978950
v -0.858091 0.995255 1.979380
v -0.858625 0.997502 1.979860
v -0.859139 0.999746 1.980390
v -0.859638 1.001990 1.980940
v -0.860117 1.004220 1.981530
v -0.860569 1.006440 1.982170
v -0.860989 1.008650 1.982880
v -0.861369 1.010840 1.983650
v -0.861716 1.013020 1.984490
v -0.862036 1.015190 1.985370
v -0.862334 1.017340 1.986290
v -0.862617 1.019480 1.987240
v -0.862878 1.021610 1.988230
v -0.863110 1.023720 1.989260
v -0.863308 1.025800 1.990350
v -0.863465 1.027850 1.991500
v -0.863587 1.029870 1.992710
v -0.863681 1.031860 1.993960
v -0.863752 1.033840 1.995250
v -0.863807 1.035810 1.996550
v -0.863840 1.037750 1.997900
v -0.863844 1.039660 1.999280
v -0.863812 1.041530 2.000710
v -0.863740 1.043360 2.002190
v -0.863632 1.045140 2.003730
v -0.863496 1.046900 2.005300
v -0.863337 1.048630 2.006900
v -0.863162 1.050330 2.008520
v -0.862965 1.052010 2.010170
v -0.862740 1.053650 2.011840
v -0.862481 1.055240 2.013560
v -0.862182 1.056780 2.015320
v -0.861849 1.058260 2.017120
v -0.861487 1.059710 2.018960
v -0.861105 1.061120 2.020810
v -0.860707 1.062510 2.022680
v -0.860289 1.063860 2.024560
v -0.859844 1.065170 2.026470
v -0.859367 1.066420 2.028410
v -0.858852 1.067600 2.030390
v -0.858306 1.068730 2.032380
v -0.857734 1.069800 2.034400
v -0.857142 1.070840 2.036440
v -0.856537 1.071860 2.038480
v -0.855912 1.072830 2.040540
v -0.855264 1.073760 2.042610
vt 0.457533 0.542467
vt 0.457533 0.124200
vt 0.875800 0.124200
vt 0.875800 0.542467
vt 0.002990 0.542467
vt 0.002990 0.124200
vt 0.451555 0.124200
vt 0.451555 0.542467
vt 0.936177 0.297197
vt 0.935220 0.297542
vt 0.926686 0.259638
vt 0.934257 0.297859
vt 0.933288 0.298154
vt 0.932316 0.298430
vt 0.931343 0.298694
vt 0.930367 0.298939
vt 0.929390 0.299161
vt 0.928411 0.299353
vt 0.927430 0.299510
vt 0.926449 0.299639
vt 0.925467 0.299743
vt 0.924486 0.299829
vt 0.923505 0.299901
vt 0.922526 0.299954
vt 0.921550 0.299983
vt 0.920578 0.299982
vt 0.919612 0.299946
vt 0.918650 0.299881
vt 0.917693 0.299791
vt 0.916739 0.299682
vt 0.915789 0.299560
vt 0.914844 0.299420
vt 0.913907 0.299255
vt 0.912980 0.299061
vt 0.912065 0.298833
vt 0.911160 0.298576
vt 0.910264 0.298296
vt 0.909375 0.297997
vt 0.908492 0.297686
vt 0.907618 0.297356
vt 0.906756 0.297005
vt 0.905909 0.296626
vt 0.905080 0.296214
vt 0.904266 0.295776
vt 0.903466 0.295315
vt 0.902676 0.294838
vt 0.901895 0.294349
vt 0.901125 0.293844
vt 0.900371 0.293318
vt 0.899636 0.292768
vt 0.898925 0.292189
vt 0.898235 0.291586
vt 0.897561 0.290963
vt 0.896900 0.290326
vt 0.896250 0.289678
vt 0.895613 0.289016
vt 0.894996 0.288338
vt 0.894403 0.287638
vt 0.893838 0.286914
vt 0.893296 0.286169
vt 0.892775 0.285408
vt 0.892269 0.284635
vt 0.891774 0.283853
vt 0.891296 0.283060
vt 0.890840 0.282254
vt 0.890410 0.281431
vt 0.890012 0.280589
vt 0.889641 0.279732
vt 0.889292 0.278862
vt 0.888960 0.277983
vt 0.888641 0.277097
vt 0.888339 0.276204
vt 0.888061 0.275301
vt 0.887812 0.274387
vt 0.887596 0.273460
vt 0.887409 0.272523
vt 0.887246 0.271577
vt 0.887101 0.270626
vt 0.886969 0.269670
vt 0.886856 0.268711
vt 0.886767 0.267746
vt 0.886707 0.266776
vt 0.886682 0.265800
vt 0.886687 0.264819
vt 0.886716 0.263834
vt 0.886763 0.262846
vt 0.886824 0.261858
vt 0.886903 0.260869
vt 0.887007 0.259880
vt 0.887139 0.258891
vt 0.887306 0.257903
vt 0.887502 0.256915
vt 0.887721 0.255929
vt 0.887959 0.254944
vt 0.888210 0.253960
vt 0.888479 0.252980
vt 0.888771 0.252004
vt 0.889091 0.251035
vt 0.889443 0.250072
vt 0.889823 0.249116
vt 0.890225 0.248167
vt 0.890644 0.247222
vt 0.891076 0.246281
vt 0.891524 0.245347
vt 0.891993 0.244422
vt 0.892487 0.243509
vt 0.893011 0.242609
vt 0.893560 0.241722
vt 0.894129 0.240845
vt 0.894714 0.239977
vt 0.895309 0.239115
vt 0.895919 0.238263
vt 0.896547 0.237424
vt 0.897197 0.236603
vt 0.897873 0.235801
vt 0.898570 0.235016
vt 0.899285 0.234246
vt 0.900012 0.233487
vt 0.900749 0.232737
vt 0.901497 0.232000
vt 0.902260 0.231280
vt 0.903041 0.230582
vt 0.903843 0.229908
vt 0.904661 0.229256
vt 0.905493 0.228622
vt 0.906336 0.228003
vt 0.907185 0.227394
vt 0.908043 0.226800
vt 0.908912 0.226226
vt 0.909794 0.225677
vt 0.910690 0.225158
vt 0.911599 0.224664
vt 0.912517 0.224191
vt 0.913442 0.223734
vt 0.914371 0.223289
vt 0.915306 0.222861
vt 0.916247 0.222456
vt 0.917196 0.222078
vt 0.918152 0.221733
vt 0.919116 0.221416
vt 0.920084 0.221121
vt 0.921056 0.220845
vt 0.922030 0.220581
vt 0.923006 0.220336
vt 0.923983 0.220115
vt 0.924962 0.219922
vt 0.925942 0.219765
vt 0.926924 0.219636
vt 0.927905 0.219532
vt 0.928887 0.219447
vt 0.929868 0.219374
vt 0.930847 0.219321
vt 0.931823 0.219292
vt 0.932795 0.219293
vt 0.933761 0.219329
vt 0.934723 0.219394
vt 0.935680 0.219484
vt 0.936633 0.219593
vt 0.937584 0.219715
vt 0.938528 0.219856
vt 0.939465 0.220020
vt 0.940393 0.220214
vt 0.941308 0.220442
vt 0.942213 0.220699
vt 0.943109 0.220979
vt 0.943998 0.221278
vt 0.944880 0.221590
vt 0.945755 0.221919
vt 0.946617 0.222271
vt 0.947464 0.222650
vt 0.948293 0.223061
vt 0.949106 0.223499
vt 0.949907 0.223960
vt 0.950696 0.224437
vt 0.951478 0.224926
vt 0.952248 0.225431
vt 0.953002 0.225957
vt 0.953737 0.226507
vt 0.954447 0.227086
vt 0.955138 0.227689
vt 0.955812 0.228312
vt 0.956472 0.228949
vt 0.957123 0.229597
vt 0.957759 0.230259
vt 0.958376 0.230938
vt 0.958970 0.231638
vt 0.959535 0.232362
vt 0.960077 0.233106
vt 0.960598 0.233867
vt 0.961104 0.234641
vt 0.961598 0.235422
vt 0.962076 0.236215
vt 0.962533 0.237021
vt 0.962962 0.237844
vt 0.963361 0.238686
vt 0.963732 0.239543
vt 0.964081 0.240413
vt 0.964413 0.241293
vt 0.964732 0.242178
vt 0.965033 0.243071
vt 0.965311 0.243974
vt 0.965561 0.244888
vt 0.965777 0.245815
vt 0.965963 0.246752
vt 0.966127 0.247698
vt 0.966272 0.248649
vt 0.966404 0.249605
vt 0.966517 0.250564
vt 0.966606 0.251529
vt 0.966666 0.252499
vt 0.966690 0.253475
vt 0.966686 0.254456
vt 0.966657 0.255441
vt 0.966610 0.256429
vt 0.966549 0.257417
vt 0.966469 0.258406
vt 0.966366 0.259395
vt 0.966234 0.260384
vt 0.966067 0.261372
vt 0.965871 0.262360
vt 0.965651 0.263346
vt 0.965413 0.264331
vt 0.965162 0.265315
vt 0.964893 0.266295
vt 0.964602 0.267271
vt 0.964282 0.268241
vt 0.963930 0.269203
vt 0.963550 0.270159
vt 0.963148 0.271108
vt 0.962728 0.272053
vt 0.962297 0.272994
vt 0.961849 0.273928
vt 0.961380 0.274853
vt 0.960886 0.275767
vt 0.960362 0.276666
vt 0.959813 0.277553
vt 0.959243 0.278430
vt 0.958659 0.279298
vt 0.958063 0.280160
vt 0.957453 0.281012
vt 0.956825 0.281851
vt 0.956175 0.282673
vt 0.955500 0.283475
vt 0.954802 0.284259
vt 0.954088 0.285029
vt 0.953360 0.285788
vt 0.952624 0.286538
vt 0.951875 0.287275
vt 0.951112 0.287995
vt 0.950332 0.288694
vt 0.949530 0.289367
vt 0.948712 0.290019
vt 0.947879 0.290653
vt 0.947037 0.291272
vt 0.946187 0.291881
vt 0.945329 0.292475
vt 0.944461 0.293049
vt 0.943579 0.293598
vt 0.942683 0.294117
vt 0.941774 0.294611
vt 0.940856 0.295084
vt 0.939931 0.295541
vt 0.939002 0.295986
vt 0.938067 0.296414
vt 0.937126 0.296819
vn 1.0000 0.0000 0.0000
vn 0.8678 0.2927 -0.4016
vn 0.8676 0.2926 -0.4020
vn 0.8677 0.2926 -0.4019
vn 0.8675 0.2925 -0.4023
vn 0.8675 0.2925 -0.4025
vn 0.8676 0.2925 -0.4022
vn 0.8676 0.2926 -0.4022
vn 0.8677 0.2926 -0.4018
vn 0.8676 0.2925 -0.4021
vn 0.8676 0.2926 -0.4021
vn 0.8675 0.2926 -0.4022
vn 0.8678 0.2925 -0.4016
vn 0.8675 0.2927 -0.4023
vn 0.8677 0.2925 -0.4019
vn 0.8675 0.2926 -0.4023
vn 0.8678 0.2925 -0.4017
vn 0.8674 0.2927 -0.4024
vn 0.8678 0.2924 -0.4018
vn 0.8675 0.2927 -0.4022
vn 0.8677 0.2926 -0.4020
vn 0.8676 0.2927 -0.4021
vn 0.8677 0.2924 -0.4019
vn 0.8677 0.2924 -0.4020
vn 0.8675 0.2927 -0.4021
vn 0.8676 0.2927 -0.4020
vn 0.8677 0.2925 -0.4020
vn 0.8676 0.2925 -0.4020
vn 0.8676 0.2928 -0.4020
vn 0.8675 0.2930 -0.4019
vn 0.8677 0.2924 -0.4021
vn 0.8676 0.2927 -0.4019
vn 0.8675 0.2931 -0.4019
vn 0.8677 0.2920 -0.4022
vn 0.8676 0.2924 -0.4021
vn 0.8676 0.2928 -0.4018
vn 0.8676 0.2923 -0.4022
vn 0.8676 0.2926 -0.4019
vn 0.8676 0.2924 -0.4022
vn 0.8678 0.2928 -0.4016
vn 0.8677 0.2928 -0.4017
vn 0.8678 0.2926 -0.4016
vn 0.8677 0.2925 -0.4018
vn 0.8679 0.2923 -0.4017
vn 0.8678 0.2925 -0.4018
vn 0.8674 0.2929 -0.4023
vn 0.8674 0.2929 -0.4022
vn 0.8678 0.2922 -0.4019
vn 0.8678 0.2921 -0.4019
vn 0.8675 0.2928 -0.4021
vn 0.8675 0.2930 -0.4020
vn 0.8675 0.2929 -0.4020
vn 0.8675 0.2928 -0.4020
vn 0.8677 0.2923 -0.4020
vn 0.8677 0.2923 -0.4021
vn 0.8676 0.2931 -0.4018
vn 0.8676 0.2928 -0.4019
vn 0.8677 0.2928 -0.4018
vn 0.8676 0.2923 -0.4023
vn 0.8677 0.2927 -0.4019
vn 0.8675 0.2924 -0.4023
s 1
f 1/1/1 2/2/1 3/3/1
f 1/1/1 3/3/1 4/4/1
f 5/5/1 6/6/1 7/7/1
f 5/5/1 7/7/1 8/8/1
f 9/9/2 10/10/3 11/11/3
f 10/10/3 12/12/4 11/11/3
f 12/12/4 13/13/4 11/11/3
f 13/13/4 14/14/3 11/11/3
f 14/14/3 15/15/5 11/11/3
f 15/15/5 16/16/6 11/11/3
f 16/16/6 17/17/4 11/11/3
f 17/17/4 18/18/7 11/11/3
f 18/18/7 19/19/5 11/11/3
f 19/19/5 20/20/4 11/11/3
f 20/20/4 21/21/8 11/11/3
f 21/21/8 22/22/9 11/11/3
f 22/22/9 23/23/5 11/11/3
f 23/23/5 24/24/10 11/11/3
f 24/24/10 25/25/11 11/11/3
f 25/25/11 26/26/4 11/11/3
f 26/26/4 27/27/11 11/11/3
f 27/27/11 28/28/11 11/11/3
f 28/28/11 29/29/12 11/11/3
f 29/29/12 30/30/11 11/11/3
f 30/30/11 31/31/4 11/11/3
f 31/31/4 32/32/13 11/11/3
f 32/32/13 33/33/11 11/11/3
f 33/33/11 34/34/14 11/11/3
f 34/34/14 35/35/15 11/11/3
f 35/35/15 36/36/16 11/11/3
f 36/36/16 37/37/17 11/11/3
f 37/37/17 38/38/15 11/11/3
f 38/38/15 39/39/18 11/11/3
f 39/39/18 40/40/11 11/11/3
f 40/40/11 41/41/3 11/11/3
f 41/41/3 42/42/11 11/11/3
f 42/42/11 43/43/3 11/11/3
f 43/43/3 44/44/19 11/11/3
f 44/44/19 45/45/19 11/11/3
f 45/45/19 46/46/15 11/11/3
f 46/46/15 47/47/20 11/11/3
f 47/47/20 48/48/11 11/11/3
f 48/48/11 49/49/11 11/11/3
f 49/49/11 50/50/21 11/11/3
f 50/50/21 51/51/19 11/11/3
f 51/51/19 52/52/20 11/11/3
f 52/52/20 53/53/3 11/11/3
f 53/53/3 54/54/15 11/11/3
f 54/54/15 55/55/3 11/11/3
f 55/55/3 56/56/22 11/11/3
f 56/56/22 57/57/20 11/11/3
f 57/57/20 58/58/22 11/11/3
f 58/58/22 59/59/11 11/11/3
f 59/59/11 60/60/23 11/11/3
f 60/60/23 61/61/24 11/11/3
f 61/61/24 62/62/25 11/11/3
f 62/62/25 63/63/22 11/11/3
f 63/63/22 64/64/11 11/11/3
f 64/64/11 65/65/26 11/11/3
f 65/65/26 66/66/22 11/11/3
f 66/66/22 67/67/22 11/11/3
f 67/67/22 68/68/24 11/11/3
f 68/68/24 69/69/3 11/11/3
f 69/69/3 70/70/26 11/11/3
f 70/70/26 71/71/11 11/11/3
f 71/71/11 72/72/24 11/11/3
f 72/72/24 73/73/26 11/11/3
f 73/73/26 74/74/24 11/11/3
f 74/74/24 75/75/27 11/11/3
f 75/75/27 76/76/27 11/11/3
f 76/76/27 77/77/24 11/11/3
f 77/77/24 78/78/26 11/11/3
f 78/78/26 79/79/28 11/11/3
f 79/79/28 80/80/29 11/11/3
f 80/80/29 81/81/29 11/11/3
f 81/81/29 82/82/3 11/11/3
f 82/82/3 83/83/24 11/11/3
f 83/83/24 84/84/24 11/11/3
f 84/84/24 85/85/27 11/11/3
f 85/85/27 86/86/24 11/11/3
f 86/86/24 87/87/26 11/11/3
f 87/87/26 88/88/3 11/11/3
f 88/88/3 89/89/26 11/11/3
f 89/89/26 90/90/3 11/11/3
f 90/90/3 91/91/24 11/11/3
f 91/91/24 92/92/3 11/11/3
f 92/92/3 93/93/26 11/11/3
f 93/93/26 94/94/30 11/11/3
f 94/94/30 95/95/31 11/11/3
f 95/95/31 96/96/32 11/11/3
f 96/96/32 97/97/33 11/11/3
f 97/97/33 98/98/3 11/11/3
f 98/98/3 99/99/31 11/11/3
f 99/99/31 100/100/3 11/11/3
f 100/100/3 101/101/34 11/11/3
f 101/101/34 102/102/31 11/11/3
f 102/102/31 103/103/3 11/11/3
f 103/103/3 104/104/3 11/11/3
f 104/104/3 105/105/10 11/11/3
f 105/105/10 106/106/26 11/11/3
f 106/106/26 107/107/35 11/11/3
f 107/107/35 108/108/3 11/11/3
f 108/108/3 109/109/3 11/11/3
f 109/109/3 110/110/4 11/11/3
f 110/110/4 111/111/28 11/11/3
f 111/111/28 112/112/26 11/11/3
f 112/112/26 113/113/3 11/11/3
f 113/113/3 114/114/35 11/11/3
f 114/114/35 115/115/10 11/11/3
f 115/115/10 116/116/36 11/11/3
f 116/116/36 117/117/37 11/11/3
f 117/117/37 118/118/3 11/11/3
f 118/118/3 119/119/38 11/11/3
f 119/119/38 120/120/37 11/11/3
f 120/120/37 121/121/4 11/11/3
f 121/121/4 122/122/10 11/11/3
f 122/122/10 123/123/39 11/11/3
f 123/123/39 124/124/35 11/11/3
f 124/124/35 125/125/3 11/11/3
f 125/125/3 126/126/4 11/11/3
f 126/126/4 127/127/10 11/11/3
f 127/127/10 128/128/3 11/11/3
f 128/128/3 129/129/4 11/11/3
f 129/129/4 130/130/38 11/11/3
f 130/130/38 131/131/3 11/11/3
f 131/131/3 132/132/10 11/11/3
f 132/132/10 133/133/40 11/11/3
f 133/133/40 134/134/4 11/11/3
f 134/134/4 135/135/41 11/11/3
f 135/135/41 136/136/21 11/11/3
f 136/136/21 137/137/4 11/11/3
f 137/137/4 138/138/7 11/11/3
f 138/138/7 139/139/11 11/11/3
f 139/139/11 140/140/5 11/11/3
f 140/140/5 141/141/28 11/11/3
f 141/141/28 142/142/8 11/11/3
f 142/142/8 143/143/11 11/11/3
f 143/143/11 144/144/3 11/11/3
f 144/144/3 145/145/4 11/11/3
f 145/145/4 146/146/11 11/11/3
f 146/146/11 147/147/11 11/11/3
f 147/147/11 148/148/4 11/11/3
f 148/148/4 149/149/11 11/11/3
f 149/149/11 150/150/9 11/11/3
f 150/150/9 151/151/4 11/11/3
f 151/151/4 152/152/21 11/11/3
f 152/152/21 153/153/42 11/11/3
f 153/153/42 154/154/12 11/11/3
f 154/154/12 155/155/10 11/11/3
f 155/155/10 156/156/12 11/11/3
f 156/156/12 157/157/16 11/11/3
f 157/157/16 158/158/3 11/11/3
f 158/158/3 159/159/43 11/11/3
f 159/159/43 160/160/4 11/11/3
f 160/160/4 161/161/11 11/11/3
f 161/161/11 162/162/12 11/11/3
f 162/162/12 163/163/3 11/11/3
f 163/163/3 164/164/11 11/11/3
f 164/164/11 165/165/11 11/11/3
f 165/165/11 166/166/12 11/11/3
f 166/166/12 167/167/11 11/11/3
f 167/167/11 168/168/15 11/11/3
f 168/168/15 169/169/15 11/11/3
f 169/169/15 170/170/11 11/11/3
f 170/170/11 171/171/12 11/11/3
f 171/171/12 172/172/28 11/11/3
f 172/172/28 173/173/15 11/11/3
f 173/173/15 174/174/19 11/11/3
f 174/174/19 175/175/20 11/11/3
f 175/175/20 176/176/20 11/11/3
f 176/176/20 177/177/44 11/11/3
f 177/177/44 178/178/15 11/11/3
f 178/178/15 179/179/45 11/11/3
f 179/179/45 180/180/20 11/11/3
f 180/180/20 181/181/23 11/11/3
f 181/181/23 182/182/27 11/11/3
f 182/182/27 183/183/27 11/11/3
f 183/183/27 184/184/25 11/11/3
f 184/184/25 185/185/11 11/11/3
f 185/185/11 186/186/27 11/11/3
f 186/186/27 187/187/46 11/11/3
f 187/187/46 188/188/24 11/11/3
f 188/188/24 189/189/3 11/11/3
f 189/189/3 190/190/11 11/11/3
f 190/190/11 191/191/27 11/11/3
f 191/191/27 192/192/27 11/11/3
f 192/192/27 193/193/23 11/11/3
f 193/193/23 194/194/25 11/11/3
f 194/194/25 195/195/23 11/11/3
f 195/195/23 196/196/47 11/11/3
f 196/196/47 197/197/24 11/11/3
f 197/197/24 198/198/24 11/11/3
f 198/198/24 199/199/48 11/11/3
f 199/199/48 200/200/49 11/11/3
f 200/200/49 201/201/24 11/11/3
f 201/201/24 202/202/50 11/11/3
f 202/202/50 203/203/26 11/11/3
f 203/203/26 204/204/22 11/11/3
f 204/204/22 205/205/24 11/11/3
f 205/205/24 206/206/27 11/11/3
f 206/206/27 207/207/3 11/11/3
f 207/207/3 208/208/3 11/11/3
f 208/208/3 209/209/24 11/11/3
f 209/209/24 210/210/51 11/11/3
f 210/210/51 211/211/52 11/11/3
f 211/211/52 212/212/24 11/11/3
f 212/212/24 213/213/53 11/11/3
f 213/213/53 214/214/26 11/11/3
f 214/214/26 215/215/27 11/11/3
f 215/215/27 216/216/54 11/11/3
f 216/216/54 217/217/3 11/11/3
f 217/217/3 218/218/29 11/11/3
f 218/218/29 219/219/27 11/11/3
f 219/219/27 220/220/55 11/11/3
f 220/220/55 221/221/28 11/11/3
f 221/221/28 222/222/3 11/11/3
f 222/222/3 223/223/3 11/11/3
f 223/223/3 224/224/3 11/11/3
f 224/224/3 225/225/26 11/11/3
f 225/225/26 226/226/3 11/11/3
f 226/226/3 227/227/35 11/11/3
f 227/227/35 228/228/3 11/11/3
f 228/228/3 229/229/3 11/11/3
f 229/229/3 230/230/32 11/11/3
f 230/230/32 231/231/56 11/11/3
f 231/231/56 232/232/35 11/11/3
f 232/232/35 233/233/10 11/11/3
f 233/233/10 234/234/3 11/11/3
f 234/234/3 235/235/3 11/11/3
f 235/235/3 236/236/57 11/11/3
f 236/236/57 237/237/3 11/11/3
f 237/237/3 238/238/10 11/11/3
f 238/238/10 239/239/3 11/11/3
f 239/239/3 240/240/3 11/11/3
f 240/240/3 241/241/10 11/11/3
f 241/241/10 242/242/39 11/11/3
f 242/242/39 243/243/4 11/11/3
f 243/243/4 244/244/36 11/11/3
f 244/244/36 245/245/10 11/11/3
f 245/245/10 246/246/58 11/11/3
f 246/246/58 247/247/11 11/11/3
f 247/247/11 248/248/10 11/11/3
f 248/248/10 249/249/59 11/11/3
f 249/249/59 250/250/9 11/11/3
f 250/250/9 251/251/10 11/11/3
f 251/251/10 252/252/60 11/11/3
f 252/252/60 253/253/32 11/11/3
f 253/253/32 254/254/10 11/11/3
f 254/254/10 255/255/4 11/11/3
f 255/255/4 256/256/61 11/11/3
f 256/256/61 257/257/39 11/11/3
f 257/257/39 258/258/4 11/11/3
f 258/258/4 259/259/10 11/11/3
f 259/259/10 260/260/3 11/11/3
f 260/260/3 261/261/3 11/11/3
f 261/261/3 262/262/7 11/11/3
f 262/262/7 263/263/7 11/11/3
f 263/263/7 264/264/11 11/11/3
f 264/264/11 265/265/5 11/11/3
f 265/265/5 9/9/2 11/11/3
