# Blender v2.78 (sub 0) OBJ File: 'color_checker.blend'
# www.blender.org
o Plane.018
v 2.500000 0.000000 -1.500000
v 3.500000 0.000000 -1.500000
v 2.500000 0.000000 -2.500000
v 3.500000 0.000000 -2.500000
vn 0.0000 1.0000 0.0000
s off
f 2//1 3//1 1//1
f 2//1 4//1 3//1
