# Blender v2.79 (sub 0) OBJ File: 'demo_gt_rendu.blend'
# www.blender.org
o Suzanne
v 0.279310 2.707477 0.550919
v -0.279310 2.707477 0.550919
v 0.319212 2.642078 0.535895
v -0.319212 2.642078 0.535895
v 0.349138 2.581542 0.493079
v -0.349138 2.581542 0.493079
v 0.224446 2.555053 0.542150
v -0.224446 2.555053 0.542150
v 0.224446 2.620887 0.575152
v -0.224446 2.620887 0.575152
v 0.224446 2.696881 0.570548
v -0.224446 2.696881 0.570548
v 0.174569 2.718941 0.567247
v -0.174569 2.718941 0.567247
v 0.129680 2.662141 0.564469
v -0.129680 2.662141 0.564469
v 0.099754 2.607337 0.529816
v -0.099754 2.607337 0.529816
v 0.049877 2.708170 0.465111
v -0.049877 2.708170 0.465111
v 0.089778 2.739698 0.510012
v -0.089778 2.739698 0.510012
v 0.154618 2.759761 0.538586
v -0.154618 2.759761 0.538586
v 0.174569 2.804662 0.507058
v -0.174569 2.804662 0.507058
v 0.129680 2.817255 0.455556
v -0.129680 2.817255 0.455556
v 0.099754 2.807353 0.389376
v -0.099754 2.807353 0.389376
v 0.224446 2.836708 0.344386
v -0.224446 2.836708 0.344386
v 0.224446 2.841312 0.420381
v -0.224446 2.841312 0.420381
v 0.224446 2.815258 0.487430
v -0.224446 2.815258 0.487430
v 0.279310 2.793197 0.490731
v -0.279310 2.793197 0.490731
v 0.319212 2.797192 0.426982
v -0.319212 2.797192 0.426982
v 0.349138 2.781558 0.352638
v -0.349138 2.781558 0.352638
v 0.399015 2.673777 0.416127
v -0.399015 2.673777 0.416127
v 0.359113 2.713902 0.473275
v -0.359113 2.713902 0.473275
v 0.299261 2.745430 0.518176
v -0.299261 2.745430 0.518176
v 0.304249 2.751162 0.526340
v -0.304249 2.751162 0.526340
v 0.284298 2.803012 0.496028
v -0.284298 2.803012 0.496028
v 0.224446 2.832020 0.493944
v -0.224446 2.832020 0.493944
v 0.169581 2.817342 0.516438
v -0.169581 2.817342 0.516438
v 0.144643 2.768359 0.550832
v -0.144643 2.768359 0.550832
v 0.169581 2.723458 0.582359
v -0.169581 2.723458 0.582359
v 0.224446 2.771225 0.554914
v -0.224446 2.771225 0.554914
v 0.224446 2.697315 0.588526
v -0.224446 2.697315 0.588526
v 0.284298 2.709127 0.561949
v -0.284298 2.709127 0.561949
v 0.000000 2.837664 0.441225
v 0.000000 2.825506 0.510706
v 0.000000 2.255162 0.844134
v 0.000000 2.460128 0.736784
v 0.000000 2.535254 0.696223
v 0.000000 2.200446 0.870364
v 0.000000 2.773828 0.376348
v 0.000000 2.848084 0.299832
v 0.000000 2.609669 -0.404264
v 0.000000 2.322366 -0.440217
v 0.000000 2.073802 -0.247404
v 0.000000 2.011883 0.167830
v 0.129680 2.449270 0.573765
v -0.129680 2.449270 0.573765
v 0.199507 2.321513 0.669563
v -0.199507 2.321513 0.669563
v 0.224446 2.186809 0.764145
v -0.224446 2.186809 0.764145
v 0.234421 2.070430 0.815389
v -0.234421 2.070430 0.815389
v 0.209483 2.038990 0.831370
v -0.209483 2.038990 0.831370
v 0.114717 2.038208 0.856296
v -0.114717 2.038208 0.856296
v 0.000000 2.038643 0.874274
v 0.279310 2.462297 0.540240
v -0.279310 2.462297 0.540240
v 0.404003 2.518228 0.507062
v -0.404003 2.518228 0.507062
v 0.528695 2.581801 0.389292
v -0.528695 2.581801 0.389292
v 0.548645 2.783208 0.363668
v -0.548645 2.783208 0.363668
v 0.453879 2.823246 0.359933
v -0.453879 2.823246 0.359933
v 0.314224 2.907404 0.349597
v -0.314224 2.907404 0.349597
v 0.204495 3.006240 0.316766
v -0.204495 3.006240 0.316766
v 0.099754 2.994429 0.343342
v -0.099754 2.994429 0.343342
v 0.039901 2.873186 0.422378
v -0.039901 2.873186 0.422378
v 0.104741 2.840965 0.463285
v -0.104741 2.840965 0.463285
v 0.079803 2.780951 0.499329
v -0.079803 2.780951 0.499329
v 0.129680 2.662141 0.564469
v -0.129680 2.662141 0.564469
v 0.239409 2.606991 0.572720
v -0.239409 2.606991 0.572720
v 0.314224 2.620018 0.539196
v -0.314224 2.620018 0.539196
v 0.399015 2.676730 0.481092
v -0.399015 2.676730 0.481092
v 0.408990 2.733878 0.440966
v -0.408990 2.733878 0.440966
v 0.384052 2.780429 0.420469
v -0.384052 2.780429 0.420469
v 0.274323 2.833148 0.426113
v -0.274323 2.833148 0.426113
v 0.159606 2.863806 0.435058
v -0.159606 2.863806 0.435058
v 0.000000 2.210260 0.875661
v 0.069828 2.234752 0.858465
v -0.069828 2.234752 0.858465
v 0.074815 2.164924 0.889211
v -0.074815 2.164924 0.889211
v 0.039901 2.134700 0.898244
v -0.039901 2.134700 0.898244
v 0.000000 2.127752 0.897028
v 0.000000 2.513975 0.674598
v 0.000000 2.539682 0.650453
v 0.064840 2.535600 0.653319
v -0.064840 2.535600 0.653319
v 0.079803 2.497647 0.686062
v -0.079803 2.497647 0.686062
v 0.054865 2.462125 0.704909
v -0.054865 2.462125 0.704909
v 0.254372 2.562871 0.579322
v -0.254372 2.562871 0.579322
v 0.394027 2.598739 0.517570
v -0.394027 2.598739 0.517570
v 0.463855 2.667697 0.450868
v -0.463855 2.667697 0.450868
v 0.473830 2.777563 0.416387
v -0.473830 2.777563 0.416387
v 0.438916 2.823768 0.438793
v -0.438916 2.823768 0.438793
v 0.279310 2.918957 0.426807
v -0.279310 2.918957 0.426807
v 0.199507 2.982271 0.412823
v -0.199507 2.982271 0.412823
v 0.129680 2.975757 0.429585
v -0.129680 2.975757 0.429585
v 0.064840 2.874924 0.494290
v -0.064840 2.874924 0.494290
v 0.079803 2.585887 0.672860
v -0.079803 2.585887 0.672860
v 0.134668 2.369022 0.745904
v -0.134668 2.369022 0.745904
v 0.159606 2.225719 0.828241
v -0.159606 2.225719 0.828241
v 0.169581 2.155891 0.858987
v -0.169581 2.155891 0.858987
v 0.149631 2.095443 0.877053
v -0.149631 2.095443 0.877053
v 0.104741 2.087280 0.882785
v -0.104741 2.087280 0.882785
v 0.000000 2.081982 0.892599
v 0.000000 2.631917 0.573502
v 0.000000 2.731968 0.533723
v 0.209483 2.862156 0.424028
v -0.209483 2.862156 0.424028
v 0.104741 2.689498 0.551354
v -0.104741 2.689498 0.551354
v 0.084791 2.729102 0.529641
v -0.084791 2.729102 0.529641
v 0.074815 2.251080 0.847000
v -0.074815 2.251080 0.847000
v 0.049877 2.383352 0.766314
v -0.049877 2.383352 0.766314
v 0.000000 2.383352 0.766314
v 0.000000 2.441715 0.719240
v 0.059852 2.484620 0.719587
v -0.059852 2.484620 0.719587
v 0.084791 2.514844 0.710554
v -0.084791 2.514844 0.710554
v 0.069828 2.558095 0.667996
v -0.069828 2.558095 0.667996
v 0.024938 2.562177 0.665130
v -0.024938 2.562177 0.665130
v 0.000000 2.538554 0.718283
v 0.029926 2.561395 0.690056
v -0.029926 2.561395 0.690056
v 0.059852 2.557313 0.692923
v -0.059852 2.557313 0.692923
v 0.069828 2.526308 0.726882
v -0.069828 2.526308 0.726882
v 0.049877 2.505464 0.723234
v -0.049877 2.505464 0.723234
v 0.000000 2.485054 0.737565
v 0.164594 2.381092 0.615541
v -0.164594 2.381092 0.615541
v 0.104741 2.475152 0.671385
v -0.104741 2.475152 0.671385
v 0.114717 2.438415 0.697180
v -0.114717 2.438415 0.697180
v 0.149631 2.413748 0.592612
v -0.149631 2.413748 0.592612
v 0.000000 2.135916 0.891296
v 0.029926 2.139998 0.888429
v -0.029926 2.139998 0.888429
v 0.059852 2.173088 0.883479
v -0.059852 2.173088 0.883479
v 0.059852 2.219640 0.862981
v -0.059852 2.219640 0.862981
v 0.000000 2.173435 0.840574
v 0.059852 2.192629 0.833192
v -0.059852 2.192629 0.833192
v 0.059852 2.151375 0.843875
v -0.059852 2.151375 0.843875
v 0.029926 2.128099 0.854124
v -0.029926 2.128099 0.854124
v 0.000000 2.124017 0.856990
v 0.109729 2.741782 0.539020
v -0.109729 2.741782 0.539020
v 0.119704 2.706261 0.557868
v -0.119704 2.706261 0.557868
v 0.214470 2.843397 0.449389
v -0.214470 2.843397 0.449389
v 0.174569 2.845047 0.460419
v -0.174569 2.845047 0.460419
v 0.269335 2.832801 0.469017
v -0.269335 2.832801 0.469017
v 0.359113 2.779648 0.445395
v -0.359113 2.779648 0.445395
v 0.374076 2.744126 0.464242
v -0.374076 2.744126 0.464242
v 0.369089 2.692277 0.494553
v -0.369089 2.692277 0.494553
v 0.304249 2.657624 0.549357
v -0.304249 2.657624 0.549357
v 0.239409 2.645813 0.575933
v -0.239409 2.645813 0.575933
v 0.144643 2.684635 0.579146
v -0.144643 2.684635 0.579146
v 0.114717 2.782602 0.510359
v -0.114717 2.782602 0.510359
v 0.134668 2.823421 0.481698
v -0.134668 2.823421 0.481698
v 0.149631 2.806659 0.475184
v -0.149631 2.806659 0.475184
v 0.124692 2.774004 0.498113
v -0.124692 2.774004 0.498113
v 0.154618 2.684201 0.561168
v -0.154618 2.684201 0.561168
v 0.239409 2.652326 0.559171
v -0.239409 2.652326 0.559171
v 0.294273 2.660056 0.535461
v -0.294273 2.660056 0.535461
v 0.349138 2.697575 0.484739
v -0.349138 2.697575 0.484739
v 0.354126 2.734312 0.458944
v -0.354126 2.734312 0.458944
v 0.339163 2.765752 0.442963
v -0.339163 2.765752 0.442963
v 0.264347 2.820121 0.459638
v -0.264347 2.820121 0.459638
v 0.179557 2.829935 0.464935
v -0.179557 2.829935 0.464935
v 0.214470 2.828285 0.453905
v -0.214470 2.828285 0.453905
v 0.129680 2.705826 0.539889
v -0.129680 2.705826 0.539889
v 0.124692 2.734400 0.519826
v -0.124692 2.734400 0.519826
v 0.069828 2.805268 0.360367
v -0.069828 2.805268 0.360367
v 0.124692 2.914265 0.289930
v -0.124692 2.914265 0.289930
v 0.214470 2.917912 0.269086
v -0.214470 2.917912 0.269086
v 0.309237 2.834188 0.297400
v -0.309237 2.834188 0.297400
v 0.433929 2.758194 0.302004
v -0.433929 2.758194 0.302004
v 0.508744 2.722238 0.302873
v -0.508744 2.722238 0.302873
v 0.493781 2.564170 0.346822
v -0.493781 2.564170 0.346822
v 0.384052 2.492780 0.427421
v -0.384052 2.492780 0.427421
v 0.279310 2.463859 0.490388
v -0.279310 2.463859 0.490388
v 0.000000 2.916346 0.032504
v 0.000000 2.826539 -0.190875
v 0.000000 1.992339 -0.068317
v 0.000000 2.168827 0.478146
v 0.000000 1.999733 0.810179
v 0.000000 2.046544 0.685895
v 0.000000 2.160404 0.587665
v 0.000000 2.190975 0.535728
v 0.543658 2.483396 0.153667
v -0.543658 2.483396 0.153667
v 0.548645 2.491038 0.069074
v -0.548645 2.491038 0.069074
v 0.493781 2.319158 -0.114960
v -0.493781 2.319158 -0.114960
v 0.294273 2.311512 -0.316801
v -0.294273 2.311512 -0.316801
v 0.468842 2.342178 0.265012
v -0.468842 2.342178 0.265012
v 0.379064 2.215375 0.171215
v -0.379064 2.215375 0.171215
v 0.408990 2.179155 -0.010564
v -0.408990 2.179155 -0.010564
v 0.214470 2.125827 -0.155951
v -0.214470 2.125827 -0.155951
v 0.149631 2.306226 0.552315
v -0.149631 2.306226 0.552315
v 0.114717 2.219114 0.497687
v -0.114717 2.219114 0.497687
v 0.184544 2.109858 0.671911
v -0.184544 2.109858 0.671911
v 0.159606 2.222937 0.598607
v -0.159606 2.222937 0.598607
v 0.209483 2.009459 0.754594
v -0.209483 2.009459 0.754594
v 0.089778 2.079634 0.680944
v -0.089778 2.079634 0.680944
v 0.079803 2.191062 0.596610
v -0.079803 2.191062 0.596610
v 0.104741 2.007463 0.786468
v -0.104741 2.007463 0.786468
v 0.139655 2.351562 0.538765
v -0.139655 2.351562 0.538765
v 0.134668 2.394466 0.539112
v -0.134668 2.394466 0.539112
v 0.129680 2.434504 0.535377
v -0.129680 2.434504 0.535377
v 0.134668 2.196966 0.440105
v -0.134668 2.196966 0.440105
v 0.189532 2.080148 0.186936
v -0.189532 2.080148 0.186936
v 0.219458 2.065555 -0.016121
v -0.219458 2.065555 -0.016121
v 0.289286 2.653530 -0.307079
v -0.289286 2.653530 -0.307079
v 0.289286 2.800831 -0.166730
v -0.289286 2.800831 -0.166730
v 0.289286 2.871791 0.021127
v -0.289286 2.871791 0.021127
v 0.294273 2.772002 0.243554
v -0.294273 2.772002 0.243554
v 0.463855 2.676380 0.237562
v -0.463855 2.676380 0.237562
v 0.404003 2.680809 0.191792
v -0.404003 2.680809 0.191792
v 0.408990 2.728313 -0.018301
v -0.408990 2.728313 -0.018301
v 0.508744 2.680633 0.070027
v -0.508744 2.680633 0.070027
v 0.508744 2.620357 -0.076576
v -0.508744 2.620357 -0.076576
v 0.408990 2.661088 -0.166120
v -0.408990 2.661088 -0.166120
v 0.408990 2.532634 -0.270947
v -0.408990 2.532634 -0.270947
v 0.508744 2.490687 -0.174455
v -0.508744 2.490687 -0.174455
v 0.394027 2.297357 -0.215446
v -0.394027 2.297357 -0.215446
v 0.309237 2.152491 -0.083257
v -0.309237 2.152491 -0.083257
v 0.523707 2.437797 -0.015431
v -0.523707 2.437797 -0.015431
v 0.259360 2.305528 0.351689
v -0.259360 2.305528 0.351689
v 0.274323 2.161440 0.172518
v -0.274323 2.161440 0.172518
v 0.568596 2.467152 -0.060420
v -0.568596 2.467152 -0.060420
v 0.493781 2.221541 0.197357
v -0.493781 2.221541 0.197357
v 0.663362 2.167432 0.076895
v -0.663362 2.167432 0.076895
v 0.817980 2.211811 -0.033493
v -0.817980 2.211811 -0.033493
v 0.862870 2.353463 -0.126859
v -0.862870 2.353463 -0.126859
v 0.788054 2.451430 -0.195646
v -0.788054 2.451430 -0.195646
v 0.653387 2.475228 -0.127035
v -0.653387 2.475228 -0.127035
v 0.648399 2.451171 -0.091860
v -0.648399 2.451171 -0.091860
v 0.758128 2.426157 -0.153523
v -0.758128 2.426157 -0.153523
v 0.808005 2.342868 -0.107231
v -0.808005 2.342868 -0.107231
v 0.773091 2.232655 -0.029845
v -0.773091 2.232655 -0.029845
v 0.658375 2.208686 0.066212
v -0.658375 2.208686 0.066212
v 0.528695 2.255413 0.167479
v -0.528695 2.255413 0.167479
v 0.588547 2.448393 -0.035059
v -0.588547 2.448393 -0.035059
v 0.603510 2.394024 -0.051734
v -0.603510 2.394024 -0.051734
v 0.563609 2.251243 0.109463
v -0.563609 2.251243 0.109463
v 0.663362 2.206167 0.019226
v -0.663362 2.206167 0.019226
v 0.758128 2.226489 -0.055987
v -0.758128 2.226489 -0.055987
v 0.788054 2.308127 -0.113310
v -0.788054 2.308127 -0.113310
v 0.748153 2.368141 -0.149354
v -0.748153 2.368141 -0.149354
v 0.653387 2.388638 -0.102802
v -0.653387 2.388638 -0.102802
v 0.538670 2.414521 -0.005182
v -0.538670 2.414521 -0.005182
v 0.533682 2.330363 0.005154
v -0.533682 2.330363 0.005154
v 0.483806 2.289543 0.033816
v -0.483806 2.289543 0.033816
v 0.523707 2.285461 0.036682
v -0.523707 2.285461 0.036682
v 0.538670 2.248724 0.062477
v -0.538670 2.248724 0.062477
v 0.518719 2.232396 0.073941
v -0.518719 2.232396 0.073941
v 0.463855 2.315079 0.174340
v -0.463855 2.315079 0.174340
v 0.458867 2.265574 0.129873
v -0.458867 2.265574 0.129873
v 0.458867 2.292497 0.098780
v -0.458867 2.292497 0.098780
v 0.508744 2.369620 0.026345
v -0.508744 2.369620 0.026345
v 0.568596 2.369967 -0.016559
v -0.568596 2.369967 -0.016559
v 0.568596 2.345822 -0.042266
v -0.568596 2.345822 -0.042266
v 0.518719 2.215199 0.049450
v -0.518719 2.215199 0.049450
v 0.543658 2.231527 0.037985
v -0.543658 2.231527 0.037985
v 0.528695 2.264183 0.015056
v -0.528695 2.264183 0.015056
v 0.488793 2.272346 0.009324
v -0.488793 2.272346 0.009324
v 0.538670 2.313166 -0.019337
v -0.538670 2.313166 -0.019337
v 0.663362 2.360411 -0.125643
v -0.663362 2.360411 -0.125643
v 0.758128 2.342780 -0.168113
v -0.758128 2.342780 -0.168113
v 0.803017 2.286849 -0.134935
v -0.803017 2.286849 -0.134935
v 0.773091 2.208076 -0.073531
v -0.773091 2.208076 -0.073531
v 0.668350 2.186104 -0.009348
v -0.668350 2.186104 -0.009348
v 0.563609 2.235262 0.078023
v -0.563609 2.235262 0.078023
v 0.608498 2.365797 -0.074575
v -0.608498 2.365797 -0.074575
v 0.568596 2.277644 -0.000490
v -0.568596 2.277644 -0.000490
v 0.598522 2.250287 0.012625
v -0.598522 2.250287 0.012625
v 0.638424 2.271478 -0.026632
v -0.638424 2.271478 -0.026632
v 0.613485 2.301702 -0.035665
v -0.613485 2.301702 -0.035665
v 0.648399 2.325759 -0.070840
v -0.648399 2.325759 -0.070840
v 0.673338 2.298401 -0.057725
v -0.673338 2.298401 -0.057725
v 0.708251 2.307781 -0.070406
v -0.708251 2.307781 -0.070406
v 0.693288 2.340436 -0.093335
v -0.693288 2.340436 -0.093335
v 0.653387 2.391763 -0.202507
v -0.653387 2.391763 -0.202507
v 0.798030 2.385162 -0.246627
v -0.798030 2.385162 -0.246627
v 0.872845 2.312556 -0.159080
v -0.872845 2.312556 -0.159080
v 0.837931 2.174551 -0.086558
v -0.837931 2.174551 -0.086558
v 0.663362 2.115407 -0.014558
v -0.663362 2.115407 -0.014558
v 0.503756 2.155186 0.085494
v -0.503756 2.155186 0.085494
v 0.548645 2.400450 -0.129379
v -0.548645 2.400450 -0.129379
vn 0.6617 0.2490 0.7072
vn -0.6617 0.2490 0.7072
vn 0.8268 0.0218 0.5620
vn -0.8268 0.0218 0.5620
vn 0.4076 -0.3844 0.8283
vn -0.4076 -0.3844 0.8283
vn 0.3791 0.0187 0.9252
vn -0.3791 0.0187 0.9252
vn -0.0859 0.0603 0.9945
vn 0.0859 0.0603 0.9945
vn -0.2664 -0.4320 0.8617
vn 0.2664 -0.4320 0.8617
vn -0.7824 0.0341 0.6218
vn 0.7606 0.0396 0.6480
vn -0.4706 0.3319 0.8175
vn 0.4706 0.3319 0.8175
vn -0.4649 0.6564 0.5941
vn 0.4649 0.6564 0.5942
vn -0.7656 0.5838 0.2704
vn 0.7683 0.5849 0.2599
vn -0.2560 0.9663 -0.0288
vn 0.2487 0.9668 -0.0586
vn -0.0821 0.9492 0.3037
vn 0.1017 0.9273 0.3603
vn 0.3329 0.8789 0.3415
vn -0.3861 0.8736 0.2964
vn 0.4246 0.9037 -0.0548
vn -0.4059 0.9135 -0.0287
vn 0.8251 0.5192 0.2229
vn -0.8299 0.5131 0.2191
vn 0.6888 0.5554 0.4659
vn -0.6617 0.5806 0.4743
vn 0.8400 0.0399 -0.5412
vn -0.7816 -0.0621 -0.6207
vn 0.2074 0.3810 -0.9010
vn -0.2037 0.3546 -0.9126
vn -0.4056 0.3311 -0.8520
vn 0.4381 0.4168 -0.7965
vn -0.8642 0.0315 -0.5021
vn 0.7861 -0.0331 -0.6172
vn -0.7782 -0.5877 -0.2213
vn 0.7782 -0.5877 -0.2213
vn -0.4381 -0.8907 0.1216
vn 0.4381 -0.8907 0.1216
vn 0.2037 -0.9788 0.0237
vn -0.2037 -0.9788 0.0237
vn 0.7684 -0.5849 -0.2599
vn -0.7683 -0.5849 -0.2599
vn 0.4000 0.4744 0.7842
vn -0.4000 0.4744 0.7842
vn 0.3069 0.3940 0.8663
vn -0.3069 0.3940 0.8663
vn 0.0945 0.4121 0.9062
vn -0.0945 0.4121 0.9062
vn -0.0624 0.5501 0.8328
vn 0.0624 0.5501 0.8328
vn -0.0624 0.5946 0.8016
vn 0.0624 0.5946 0.8016
vn 0.0996 0.7046 0.7026
vn -0.0996 0.7046 0.7026
vn 0.3036 0.6747 0.6728
vn -0.3036 0.6747 0.6728
vn 0.4002 0.5724 0.7157
vn -0.4002 0.5724 0.7157
vn 0.1367 -0.4489 0.8831
vn -0.1054 -0.3873 0.9159
vn 0.2303 -0.4528 0.8613
vn -0.1916 -0.4358 0.8794
vn 0.5788 -0.0452 0.8142
vn -0.5788 -0.0452 0.8142
vn 0.7763 0.3086 0.5497
vn -0.7763 0.3086 0.5497
vn 0.7471 0.4690 0.4710
vn -0.7471 0.4690 0.4710
vn 0.3747 -0.4509 0.8102
vn -0.3747 -0.4509 0.8102
vn 0.3557 -0.2606 0.8975
vn -0.4177 -0.0665 0.9061
vn 0.6947 -0.0078 0.7192
vn -0.6947 -0.0078 0.7192
vn 0.7028 0.0208 0.7110
vn -0.5537 0.2032 0.8075
vn 0.3127 0.7894 0.5283
vn -0.8227 0.5477 0.1525
vn 0.5091 0.8559 0.0909
vn -0.5041 0.8579 0.0996
vn 0.5977 0.7871 0.1525
vn -0.5977 0.7871 0.1525
vn -0.0486 0.9697 0.2394
vn 0.0371 0.9739 0.2237
vn -0.7104 0.5954 0.3754
vn 0.7386 0.6296 0.2409
vn -0.6013 0.7761 0.1898
vn 0.5774 0.8043 0.1407
vn 0.5070 -0.1749 0.8440
vn -0.5364 0.1837 0.8237
vn 0.2226 0.1069 0.9690
vn -0.2226 0.1069 0.9690
vn -0.0348 -0.0061 0.9994
vn 0.1073 0.0835 0.9907
vn -0.0899 -0.2892 0.9530
vn 0.0770 -0.0036 0.9970
vn 0.0547 0.4268 0.9027
vn -0.0279 -0.4190 0.9075
vn 0.4260 0.4689 0.7737
vn -0.1687 0.2812 0.9447
vn 0.3352 0.3815 0.8615
vn -0.4350 0.3585 0.8260
vn 0.3579 0.2557 0.8981
vn -0.3223 0.2942 0.8998
vn 0.3069 0.7062 0.6380
vn -0.4815 0.2872 0.8280
vn -0.1598 0.8405 0.5177
vn 0.1598 0.8405 0.5177
vn 0.6819 0.1470 0.7165
vn -0.1854 0.0820 0.9792
vn 0.0585 0.5080 0.8594
vn -0.0585 0.5080 0.8594
vn -0.0066 0.3694 0.9292
vn -0.0585 0.5024 0.8626
vn 0.1008 -0.1811 0.9783
vn -0.1008 -0.1811 0.9783
vn 0.1322 -0.0311 0.9907
vn -0.1322 -0.0311 0.9907
vn 0.3128 0.4014 0.8608
vn -0.3143 0.1751 0.9330
vn 0.3288 0.5129 0.7930
vn -0.3288 0.5129 0.7930
vn 0.3233 0.4757 0.8181
vn -0.3233 0.4757 0.8181
vn -0.0232 0.6155 0.7878
vn 0.0000 0.6278 0.7784
vn -0.0043 0.5202 0.8541
vn 0.0000 0.5189 0.8548
vn -0.0000 0.5746 0.8184
vn 0.8447 -0.4110 0.3429
vn -0.8447 -0.4110 0.3429
vn 0.9500 0.1293 -0.2842
vn -0.9500 0.1293 -0.2843
vn 0.0693 0.4901 -0.8689
vn -0.1018 0.5277 -0.8433
vn -1.0000 0.0000 0.0000
vn 0.6905 0.7200 0.0697
vn 0.4071 -0.6301 0.6613
vn -0.4319 -0.5581 0.7085
vn 0.2873 -0.0300 0.9574
vn -0.2873 -0.0300 0.9574
vn -0.6326 0.7597 0.1504
vn 0.6326 0.7597 0.1504
vn 0.0862 0.9941 0.0657
vn -0.0862 0.9941 0.0657
vn 0.7532 0.5749 0.3195
vn -0.7639 0.5723 0.2982
vn 0.3416 -0.0010 0.9398
vn -0.3416 -0.0010 0.9398
vn 0.0502 0.7497 0.6599
vn -0.0375 0.7434 0.6678
vn -0.1304 -0.0484 0.9903
vn 0.1304 -0.0484 0.9903
vn -0.5059 0.5526 0.6623
vn 0.5059 0.5526 0.6623
vn -0.5774 -0.1407 0.8043
vn 0.5774 -0.1407 0.8043
vn 0.5460 0.0601 0.8356
vn -0.3319 0.6008 0.7273
vn 0.3231 0.5690 0.7562
vn -0.2815 0.6043 0.7454
vn 0.7357 0.6378 0.2279
vn -0.8753 0.4200 0.2398
vn 0.8480 0.5039 0.1643
vn -0.8973 0.3895 0.2077
vn 0.8505 0.5199 0.0795
vn -0.8505 0.5199 0.0795
vn 0.1783 0.1718 0.9688
vn -0.2524 -0.4596 0.8515
vn -0.1296 0.3996 0.9075
vn 0.1296 0.3996 0.9075
vn -0.4472 0.5140 0.7320
vn 0.4472 0.5140 0.7320
vn 0.0000 0.5747 0.8184
vn -0.1582 0.9329 -0.3236
vn 0.1582 0.9329 -0.3236
vn -0.6463 0.7209 -0.2500
vn 0.6463 0.7209 -0.2500
vn 1.0000 0.0000 0.0000
vn 0.3051 -0.7055 0.6397
vn -0.3051 -0.7055 0.6397
vn 0.0217 0.2994 0.9539
vn -0.0217 0.2994 0.9539
vn 0.1353 0.2484 0.9592
vn -0.1353 0.2484 0.9592
vn -0.4681 0.3080 0.8283
vn 0.4681 0.3080 0.8283
vn -0.2710 0.5751 0.7719
vn 0.2710 0.5751 0.7719
vn -0.1717 0.5587 0.8114
vn 0.2595 0.6367 0.7261
vn -0.4332 0.0368 0.9005
vn 0.6684 -0.0400 0.7427
vn -0.1599 -0.4626 0.8720
vn 0.1599 -0.4626 0.8720
vn 0.3900 -0.0759 0.9177
vn -0.3900 -0.0759 0.9177
vn 0.6547 -0.0304 0.7553
vn -0.6547 -0.0304 0.7553
vn 0.5378 0.3863 0.7493
vn -0.5378 0.3863 0.7493
vn 0.5657 0.5668 0.5990
vn -0.5774 0.5590 0.5952
vn 0.4082 0.8033 0.4336
vn -0.5214 0.8506 0.0675
vn 0.1796 0.9833 0.0288
vn -0.1796 0.9833 0.0288
vn 0.1881 0.8069 0.5599
vn -0.1881 0.8069 0.5599
vn -0.0870 0.7757 0.6251
vn 0.0870 0.7757 0.6251
vn 0.2804 0.3587 0.8903
vn -0.3553 -0.0457 0.9337
vn 0.3015 0.2730 0.9135
vn -0.3015 0.2730 0.9135
vn -0.3766 -0.4506 0.8094
vn 0.0631 0.2858 0.9562
vn 0.0823 -0.2853 0.9549
vn 0.2016 -0.5300 0.8237
vn -0.3707 0.2746 0.8873
vn 0.3707 0.2746 0.8873
vn -0.2692 0.5052 0.8199
vn 0.4568 0.5519 0.6977
vn -0.2797 0.8913 0.3568
vn 0.2797 0.8913 0.3568
vn -0.0213 0.9319 0.3621
vn 0.0487 0.9774 0.2059
vn 0.3778 0.9067 0.1877
vn -0.3378 0.8773 0.3409
vn 0.4988 0.8278 0.2567
vn -0.4988 0.8278 0.2567
vn 0.5425 0.1642 0.8238
vn -0.5425 0.1642 0.8238
vn 0.8305 0.2678 0.4885
vn -0.8305 0.2678 0.4885
vn 0.7814 0.4442 0.4383
vn -0.7814 0.4442 0.4383
vn -0.4338 0.6422 -0.6319
vn 0.4338 0.6422 -0.6319
vn -0.8515 0.0955 -0.5155
vn 0.8515 0.0955 -0.5155
vn -0.2664 0.4757 -0.8383
vn 0.2197 0.4441 -0.8686
vn 0.5932 0.4333 -0.6785
vn -0.5914 0.4410 -0.6751
vn 0.3714 0.5221 -0.7678
vn -0.3653 0.5541 -0.7480
vn 0.2901 0.5853 -0.7572
vn -0.2901 0.5853 -0.7572
vn 0.8873 -0.1437 -0.4383
vn -0.7964 -0.2308 -0.5589
vn 0.5108 -0.8573 -0.0640
vn -0.5108 -0.8573 -0.0640
vn 0.3695 -0.9080 0.1976
vn -0.3695 -0.9080 0.1976
vn 0.3617 -0.8034 -0.4729
vn -0.1649 -0.9626 -0.2148
vn 0.1952 -0.6407 -0.7426
vn -0.3011 -0.5582 -0.7731
vn -0.0107 -0.9358 -0.3525
vn -0.2562 -0.7805 -0.5702
vn 0.1533 -0.9123 0.3798
vn -0.1533 -0.9123 0.3798
vn 0.1260 -0.9259 0.3561
vn -0.1260 -0.9259 0.3561
vn 0.9396 -0.0460 -0.3393
vn -0.9396 -0.0460 -0.3393
vn 0.9278 -0.0361 -0.3713
vn -0.9278 -0.0361 -0.3713
vn 0.2192 -0.4962 -0.8401
vn -0.2192 -0.4962 -0.8401
vn 0.1211 -0.6129 -0.7808
vn 0.1497 -0.8259 -0.5436
vn 0.9094 -0.1135 -0.4002
vn -0.3706 -0.9197 -0.1300
vn 0.9202 -0.1001 -0.3784
vn -0.9202 -0.1001 -0.3784
vn 0.9173 0.1662 -0.3619
vn -0.9457 0.1124 -0.3050
vn 0.9004 0.1613 -0.4041
vn -0.9337 0.1030 -0.3429
vn 0.8945 0.4173 -0.1605
vn -0.9501 0.0905 -0.2984
vn 0.1596 -0.9214 0.3544
vn -0.1835 -0.9825 -0.0308
vn 0.3693 -0.8459 -0.3848
vn -0.3727 -0.8473 -0.3785
vn 0.2986 -0.9511 0.0787
vn -0.3263 -0.9382 0.1155
vn 0.2995 -0.8514 0.4306
vn -0.2995 -0.8514 0.4306
vn 0.3287 -0.8815 0.3390
vn -0.3287 -0.8815 0.3390
vn 0.8305 0.0163 -0.5568
vn -0.8642 -0.2902 0.4110
vn 0.9166 -0.2248 0.3307
vn -0.9166 -0.2248 0.3307
vn 0.2950 -0.5856 -0.7550
vn -0.4189 -0.6907 -0.5895
vn 0.1272 0.9203 -0.3700
vn -0.1119 0.9296 -0.3511
vn 0.1320 0.6952 -0.7066
vn -0.1320 0.6952 -0.7066
vn 0.3878 0.1145 -0.9146
vn -0.3878 0.1145 -0.9146
vn 0.4951 0.6421 -0.5853
vn -0.4951 0.6421 -0.5853
vn 0.2561 0.9415 0.2190
vn -0.2561 0.9415 0.2190
vn 0.5966 0.7306 -0.3322
vn -0.5966 0.7306 -0.3322
vn 0.7125 0.4437 -0.5437
vn -0.7125 0.4437 -0.5437
vn 0.7104 -0.2851 -0.6434
vn -0.6304 -0.2160 -0.7456
vn 0.6823 -0.2087 -0.7007
vn -0.6823 -0.2087 -0.7007
vn 0.6574 0.4764 -0.5838
vn -0.6574 0.4764 -0.5838
vn 0.7289 0.6232 -0.2834
vn -0.7289 0.6232 -0.2834
vn 0.7791 0.6072 0.1558
vn -0.7791 0.6072 0.1558
vn 0.3669 0.5569 -0.7451
vn -0.3238 0.7307 -0.6010
vn 0.2854 0.9286 0.2371
vn -0.1548 0.9027 0.4015
vn -0.1681 -0.4813 -0.8603
vn 0.1681 -0.4813 -0.8603
vn 0.2925 0.9067 0.3039
vn -0.2925 0.9067 0.3039
vn -0.1616 0.7082 0.6873
vn 0.1616 0.7082 0.6873
vn 0.8681 -0.2075 -0.4509
vn -0.9340 0.3439 0.0974
vn 0.9276 0.2725 0.2555
vn -0.9276 0.2725 0.2555
vn 0.9750 0.2056 -0.0845
vn -0.9750 0.2056 -0.0845
vn 0.9817 -0.1330 -0.1366
vn -0.9956 0.0565 -0.0749
vn 0.7466 -0.5275 0.4052
vn -0.6374 -0.5736 0.5145
vn 0.3723 -0.7077 0.6005
vn -0.3720 -0.7079 0.6004
vn 0.3986 -0.5594 0.7268
vn -0.3986 -0.5594 0.7268
vn 0.6328 -0.5538 0.5412
vn -0.6328 -0.5538 0.5412
vn 0.7325 -0.3829 0.5629
vn -0.7325 -0.3829 0.5629
vn 0.2637 0.1221 0.9568
vn -0.2637 0.1221 0.9568
vn 0.5881 -0.6813 -0.4360
vn -0.5236 -0.7208 -0.4541
vn 0.4694 -0.6847 -0.5576
vn -0.5396 -0.7176 -0.4403
vn 0.4463 -0.8607 0.2450
vn -0.2144 -0.9747 0.0634
vn 0.6973 -0.7002 0.1531
vn -0.7365 -0.6650 0.1238
vn 0.4972 -0.7902 -0.3583
vn -0.4972 -0.7902 -0.3583
vn 0.3691 0.7419 0.5598
vn -0.3244 0.8644 0.3842
vn 0.4467 0.5908 0.6718
vn -0.4467 0.5908 0.6718
vn 0.3188 0.6956 0.6438
vn -0.1817 0.5586 0.8093
vn 0.2076 0.4916 0.8457
vn -0.2925 0.4857 0.8237
vn 0.3398 0.6058 0.7194
vn -0.5847 0.2689 0.7654
vn 0.5957 0.0900 0.7982
vn -0.5957 0.0900 0.7982
vn 0.4843 0.8439 0.2308
vn -0.4843 0.8439 0.2308
vn -0.2675 0.9602 -0.0799
vn 0.2675 0.9602 -0.0799
vn -0.8576 0.4485 0.2518
vn 0.7885 0.5198 0.3287
vn -0.5257 0.1506 0.8373
vn 0.5242 0.1545 0.8375
vn 0.4663 -0.1163 0.8769
vn -0.4390 -0.0109 0.8984
vn 0.7104 -0.0660 0.7007
vn -0.7104 -0.0660 0.7007
vn 0.7507 -0.6432 0.1509
vn -0.6302 -0.5530 0.5450
vn -0.1788 0.7791 0.6009
vn 0.2175 0.7621 0.6098
vn 0.9042 -0.4269 0.0147
vn -0.9042 -0.4269 0.0147
vn 0.0400 0.8181 0.5737
vn -0.0400 0.8181 0.5737
vn 0.2734 0.9269 -0.2572
vn -0.2734 0.9269 -0.2572
vn 0.4480 0.0780 0.8906
vn -0.7177 0.5264 0.4558
vn 0.5534 -0.0951 0.8275
vn -0.9008 -0.2472 0.3570
vn 0.5724 0.1802 0.7999
vn -0.5815 -0.0682 0.8107
vn 0.5597 -0.0983 0.8229
vn -0.6138 0.2185 0.7587
vn 0.8271 0.3321 -0.4533
vn -0.8271 0.3321 -0.4533
vn 0.9227 -0.3556 0.1488
vn -0.8717 -0.4824 0.0866
vn 0.9972 -0.0565 -0.0489
vn -0.9972 -0.0565 -0.0489
vn 0.6895 -0.3781 0.6178
vn -0.6895 -0.3781 0.6178
vn 0.7815 -0.4548 0.4271
vn -0.7930 -0.4108 0.4499
vn 0.7022 -0.5075 0.4993
vn -0.7022 -0.5075 0.4993
vn 0.1240 0.8238 -0.5532
vn -0.2408 0.7190 -0.6519
vn 0.9435 0.3176 -0.0949
vn -0.9251 0.3725 -0.0732
vn 0.6213 -0.5761 0.5311
vn -0.6213 -0.5761 0.5311
vn -0.0000 0.8184 -0.5746
vn 0.6197 -0.3496 0.7027
vn -0.6197 -0.3496 0.7027
vn 0.2752 -0.4994 0.8215
vn -0.2752 -0.4994 0.8215
vn -0.7929 -0.6073 0.0490
vn 0.7929 -0.6073 0.0490
vn -0.8096 -0.1083 -0.5769
vn 0.8538 -0.0770 -0.5149
vn -0.5621 0.6275 -0.5387
vn 0.5433 0.3041 -0.7825
vn -0.0071 0.8914 -0.4531
vn 0.1096 0.8044 -0.5839
vn 0.1046 0.6031 0.7907
vn -0.1738 0.5738 0.8004
vn 0.2461 0.6245 0.7412
vn -0.4134 0.5565 0.7207
vn 0.3009 0.6212 0.7236
vn -0.3009 0.6212 0.7236
vn 0.2104 0.5719 0.7929
vn -0.1220 0.6072 0.7851
vn -0.0099 0.8464 0.5325
vn 0.0099 0.8464 0.5325
vn 0.3787 0.5016 0.7778
vn -0.4244 0.4938 0.7590
vn 0.2530 0.3899 0.8854
vn -0.2570 0.6129 0.7472
vn -0.4870 0.8581 0.1626
vn 0.2981 0.9527 0.0597
vn 0.6693 0.5617 0.4864
vn -0.6693 0.5617 0.4864
vn 0.4388 0.3390 0.8322
vn -0.4723 0.3310 0.8169
vn 0.5786 0.3532 0.7351
vn -0.2975 0.1640 0.9405
vn 0.5002 0.7021 0.5068
vn -0.5002 0.7021 0.5068
vn 0.2980 0.9104 0.2869
vn -0.2980 0.9104 0.2869
vn 0.0929 -0.8654 0.4923
vn -0.0929 -0.8654 0.4923
vn 0.4688 -0.6303 0.6188
vn -0.4688 -0.6303 0.6188
vn 0.9309 -0.0572 0.3608
vn -0.9264 -0.0375 0.3746
vn 0.8465 0.3988 -0.3527
vn -0.8267 0.4585 -0.3262
vn -0.2511 0.6492 -0.7180
vn 0.2146 0.5751 -0.7895
vn -0.4841 0.6947 -0.5320
vn 0.4196 0.6088 -0.6733
vn -0.5256 -0.4913 -0.6945
vn 0.5470 -0.4928 -0.6767
vn -0.1466 -0.5599 -0.8155
vn 0.1466 -0.5599 -0.8155
vn 0.4046 -0.5035 -0.7634
vn -0.4046 -0.5035 -0.7634
vn -0.8073 0.4853 -0.3357
vn 0.7330 0.5825 -0.3513
vn 0.4200 -0.6921 -0.5870
vn -0.4200 -0.6921 -0.5870
vn -0.0687 -0.8607 0.5044
vn 0.0687 -0.8607 0.5044
vn 0.6713 0.2493 0.6980
vn -0.6713 0.2493 0.6980
vn 0.8326 0.0201 0.5535
vn -0.8326 0.0201 0.5535
vn 0.4258 -0.4055 0.8089
vn -0.4258 -0.4055 0.8089
vn 0.3265 0.0572 0.9435
vn -0.3265 0.0572 0.9435
vn -0.0649 0.0025 0.9979
vn 0.0649 0.0025 0.9979
vn -0.2738 -0.4028 0.8734
vn 0.2738 -0.4028 0.8734
vn -0.7606 0.0396 0.6480
vn 0.7824 0.0341 0.6218
vn -0.4658 0.3446 0.8150
vn 0.4658 0.3446 0.8150
vn -0.4983 0.6355 0.5897
vn 0.4983 0.6355 0.5897
vn -0.7683 0.5849 0.2599
vn 0.7656 0.5838 0.2704
vn -0.2487 0.9668 -0.0586
vn 0.2560 0.9663 -0.0288
vn -0.1017 0.9273 0.3603
vn 0.0821 0.9492 0.3037
vn 0.3861 0.8736 0.2964
vn -0.3329 0.8789 0.3415
vn 0.4059 0.9135 -0.0287
vn -0.4246 0.9037 -0.0548
vn 0.8299 0.5131 0.2191
vn -0.8251 0.5192 0.2229
vn 0.6617 0.5806 0.4743
vn -0.6888 0.5554 0.4659
vn 0.7816 -0.0621 -0.6207
vn -0.8400 0.0399 -0.5412
vn 0.2037 0.3546 -0.9126
vn -0.2074 0.3810 -0.9010
vn -0.4381 0.4168 -0.7965
vn 0.4056 0.3311 -0.8520
vn -0.7861 -0.0331 -0.6172
vn 0.8642 0.0315 -0.5021
vn -0.8519 -0.5074 -0.1295
vn 0.8519 -0.5074 -0.1295
vn -0.4056 -0.9138 0.0221
vn 0.4056 -0.9138 0.0221
vn 0.2074 -0.9769 0.0523
vn -0.2074 -0.9769 0.0523
vn 0.8297 -0.5440 -0.1250
vn -0.8297 -0.5440 -0.1250
vn 0.1054 -0.3873 0.9159
vn -0.1367 -0.4489 0.8831
vn 0.1916 -0.4358 0.8794
vn -0.2303 -0.4528 0.8613
vn 0.5959 0.0430 0.8019
vn -0.5959 0.0430 0.8019
vn 0.7563 0.3511 0.5520
vn -0.7563 0.3511 0.5520
vn 0.8069 0.3935 0.4405
vn -0.8069 0.3935 0.4405
vn 0.2334 -0.3014 0.9245
vn -0.2334 -0.3014 0.9245
vn 0.4177 -0.0665 0.9061
vn -0.3557 -0.2606 0.8975
vn 0.6872 -0.0020 0.7265
vn -0.6872 -0.0020 0.7265
vn 0.5537 0.2032 0.8075
vn -0.7028 0.0208 0.7110
vn 0.8227 0.5477 0.1525
vn -0.3127 0.7894 0.5283
vn 0.5041 0.8579 0.0996
vn -0.5091 0.8559 0.0909
vn 0.6155 0.7566 0.2208
vn -0.6155 0.7566 0.2208
vn -0.0371 0.9739 0.2237
vn 0.0486 0.9697 0.2394
vn -0.7386 0.6296 0.2409
vn 0.7104 0.5954 0.3754
vn -0.5774 0.8043 0.1407
vn 0.6013 0.7761 0.1898
vn 0.5364 0.1837 0.8237
vn -0.5070 -0.1749 0.8440
vn 0.2181 0.1086 0.9699
vn -0.2181 0.1086 0.9699
vn -0.1073 0.0835 0.9907
vn 0.0348 -0.0061 0.9994
vn -0.0770 -0.0036 0.9970
vn 0.0899 -0.2892 0.9530
vn 0.0279 -0.4190 0.9075
vn -0.0547 0.4268 0.9027
vn 0.1687 0.2812 0.9447
vn -0.4260 0.4689 0.7737
vn 0.4350 0.3585 0.8260
vn -0.3352 0.3815 0.8615
vn 0.3223 0.2942 0.8998
vn -0.3579 0.2557 0.8981
vn 0.4815 0.2872 0.8280
vn -0.3069 0.7062 0.6380
vn -0.0317 0.4085 0.9122
vn 0.0317 0.4085 0.9122
vn 0.1854 0.0820 0.9792
vn -0.6819 0.1470 0.7165
vn 0.2623 0.2306 0.9370
vn -0.2623 0.2306 0.9370
vn 0.0585 0.5024 0.8626
vn 0.0066 0.3694 0.9292
vn -0.0136 -0.0963 0.9953
vn 0.0136 -0.0963 0.9953
vn 0.2404 0.0123 0.9706
vn -0.2404 0.0123 0.9706
vn 0.3143 0.1751 0.9330
vn -0.3128 0.4014 0.8608
vn 0.2821 0.5378 0.7945
vn -0.2821 0.5378 0.7945
vn 0.3272 0.4196 0.8467
vn -0.3272 0.4196 0.8467
vn 0.0232 0.6155 0.7878
vn 0.0043 0.5202 0.8541
vn 0.7826 -0.5731 0.2430
vn -0.7826 -0.5731 0.2430
vn 0.9448 0.0044 -0.3277
vn -0.9448 0.0044 -0.3277
vn 0.1018 0.5277 -0.8433
vn -0.0693 0.4901 -0.8689
vn -0.6905 0.7200 0.0697
vn 0.4319 -0.5581 0.7085
vn -0.4071 -0.6301 0.6613
vn -0.6667 0.7372 -0.1103
vn 0.6667 0.7372 -0.1103
vn 0.1348 0.9909 0.0041
vn -0.1348 0.9909 0.0041
vn 0.7639 0.5723 0.2982
vn -0.7532 0.5749 0.3195
vn 0.4116 -0.5244 0.7454
vn -0.4116 -0.5244 0.7454
vn 0.0375 0.7434 0.6678
vn -0.0502 0.7497 0.6599
vn 0.1304 0.3362 0.9327
vn -0.1304 0.3362 0.9327
vn -0.0631 -0.3451 0.9364
vn 0.0631 -0.3451 0.9364
vn 0.7325 0.5867 0.3453
vn -0.7325 0.5867 0.3453
vn 0.3319 0.6008 0.7273
vn -0.5460 0.0601 0.8356
vn 0.2815 0.6043 0.7454
vn -0.3231 0.5690 0.7562
vn 0.8753 0.4200 0.2398
vn -0.7357 0.6378 0.2279
vn 0.8973 0.3895 0.2077
vn -0.8480 0.5039 0.1643
vn 0.9586 0.2134 0.1883
vn -0.9586 0.2134 0.1883
vn 0.2524 -0.4596 0.8515
vn -0.1783 0.1718 0.9688
vn -0.1751 0.3863 0.9056
vn 0.1751 0.3863 0.9056
vn -0.1219 0.4109 0.9035
vn 0.1219 0.4109 0.9035
vn -0.1562 0.7941 0.5874
vn 0.1562 0.7941 0.5874
vn -0.7238 0.6050 -0.3317
vn 0.7238 0.6050 -0.3317
vn 0.0478 0.3149 0.9479
vn -0.0478 0.3149 0.9479
vn -0.5488 0.1720 0.8180
vn 0.5488 0.1720 0.8180
vn -0.4945 0.4027 0.7703
vn 0.4945 0.4027 0.7703
vn -0.2595 0.6367 0.7261
vn 0.1717 0.5587 0.8114
vn -0.6684 -0.0400 0.7427
vn 0.4332 0.0368 0.9005
vn -0.1156 -0.0819 0.9899
vn 0.1156 -0.0819 0.9899
vn 0.4242 -0.1296 0.8963
vn -0.4242 -0.1296 0.8963
vn 0.4767 0.1708 0.8623
vn -0.4767 0.1708 0.8623
vn 0.5871 0.3940 0.7071
vn -0.5871 0.3940 0.7071
vn 0.5774 0.5590 0.5952
vn -0.5657 0.5668 0.5990
vn 0.5214 0.8506 0.0675
vn -0.4082 0.8033 0.4336
vn 0.3358 0.7876 0.5166
vn -0.3358 0.7877 0.5166
vn 0.1452 0.8345 0.5316
vn -0.1452 0.8345 0.5316
vn 0.0301 0.7476 0.6634
vn -0.0301 0.7476 0.6634
vn 0.3553 -0.0457 0.9337
vn -0.2804 0.3587 0.8903
vn 0.2627 0.3549 0.8972
vn -0.2627 0.3549 0.8972
vn -0.0631 0.2858 0.9562
vn 0.3766 -0.4506 0.8094
vn -0.2016 -0.5300 0.8237
vn -0.0823 -0.2853 0.9549
vn -0.3356 0.3273 0.8833
vn 0.3356 0.3273 0.8833
vn -0.4568 0.5519 0.6977
vn 0.2692 0.5052 0.8199
vn -0.0247 0.8579 0.5133
vn 0.0247 0.8579 0.5133
vn -0.0487 0.9774 0.2059
vn 0.0213 0.9319 0.3621
vn 0.3378 0.8773 0.3409
vn -0.3778 0.9067 0.1877
vn 0.4988 0.8278 0.2568
vn -0.4988 0.8278 0.2568
vn 0.7895 0.0440 0.6122
vn -0.7895 0.0440 0.6122
vn 0.8070 0.2702 0.5252
vn -0.8070 0.2702 0.5252
vn 0.7868 0.4469 0.4258
vn -0.7868 0.4469 0.4258
vn -0.6357 0.3487 -0.6887
vn 0.6357 0.3487 -0.6887
vn -0.8507 0.0814 -0.5193
vn 0.8507 0.0814 -0.5193
vn -0.2197 0.4441 -0.8686
vn 0.2664 0.4757 -0.8383
vn 0.5914 0.4410 -0.6751
vn -0.5932 0.4333 -0.6785
vn 0.3653 0.5541 -0.7480
vn -0.3714 0.5221 -0.7678
vn 0.2760 0.5820 -0.7649
vn -0.2760 0.5820 -0.7649
vn 0.7964 -0.2308 -0.5589
vn -0.8873 -0.1437 -0.4383
vn 0.5442 -0.8291 0.1286
vn -0.5442 -0.8291 0.1286
vn 0.4027 -0.9149 -0.0287
vn -0.4027 -0.9149 -0.0287
vn 0.1649 -0.9626 -0.2148
vn -0.3617 -0.8034 -0.4729
vn 0.3011 -0.5582 -0.7731
vn -0.1952 -0.6407 -0.7426
vn 0.2562 -0.7805 -0.5702
vn 0.0107 -0.9358 -0.3525
vn 0.0778 -0.8522 0.5174
vn -0.0778 -0.8522 0.5174
vn 0.1094 -0.9154 0.3874
vn -0.1094 -0.9154 0.3874
vn 0.8150 -0.5408 0.2080
vn -0.8150 -0.5408 0.2080
vn 0.9358 -0.0717 -0.3450
vn -0.9358 -0.0717 -0.3450
vn 0.1132 -0.5931 -0.7971
vn -0.1132 -0.5931 -0.7971
vn -0.1497 -0.8259 -0.5436
vn -0.1211 -0.6129 -0.7808
vn 0.3706 -0.9197 -0.1300
vn -0.9094 -0.1135 -0.4002
vn 0.9193 -0.0976 -0.3814
vn -0.9193 -0.0976 -0.3814
vn 0.9457 0.1124 -0.3050
vn -0.9173 0.1662 -0.3619
vn 0.9337 0.1030 -0.3429
vn -0.9004 0.1613 -0.4041
vn 0.9501 0.0905 -0.2984
vn -0.8945 0.4173 -0.1605
vn 0.1835 -0.9825 -0.0308
vn -0.1596 -0.9214 0.3544
vn 0.3727 -0.8473 -0.3785
vn -0.3693 -0.8459 -0.3848
vn 0.3263 -0.9382 0.1155
vn -0.2986 -0.9511 0.0787
vn 0.2620 -0.8534 0.4506
vn -0.2620 -0.8534 0.4506
vn 0.2996 -0.8511 0.4312
vn -0.2996 -0.8511 0.4312
vn 0.8642 -0.2902 0.4110
vn -0.8305 0.0163 -0.5568
vn 0.6869 -0.3180 0.6535
vn -0.6869 -0.3180 0.6535
vn 0.4189 -0.6907 -0.5895
vn -0.2950 -0.5856 -0.7550
vn 0.1119 0.9296 -0.3511
vn -0.1272 0.9203 -0.3700
vn 0.1208 0.6848 -0.7187
vn -0.1208 0.6848 -0.7187
vn 0.3140 0.0316 -0.9489
vn -0.3140 0.0316 -0.9489
vn 0.3231 0.6557 -0.6824
vn -0.3231 0.6557 -0.6824
vn 0.0452 0.9983 0.0375
vn -0.0452 0.9983 0.0375
vn 0.6144 0.7297 -0.3000
vn -0.6144 0.7297 -0.3000
vn 0.6935 0.4341 -0.5751
vn -0.6935 0.4341 -0.5751
vn 0.6304 -0.2160 -0.7456
vn -0.7104 -0.2851 -0.6434
vn 0.3179 0.0316 -0.9476
vn -0.3179 0.0316 -0.9476
vn 0.6289 0.5363 -0.5629
vn -0.6289 0.5363 -0.5629
vn 0.7088 0.6599 -0.2493
vn -0.7088 0.6599 -0.2493
vn 0.6885 0.6673 0.2839
vn -0.6885 0.6673 0.2839
vn 0.3238 0.7307 -0.6010
vn -0.3669 0.5569 -0.7451
vn 0.1548 0.9027 0.4015
vn -0.2854 0.9286 0.2371
vn -0.1819 -0.4675 -0.8651
vn 0.1819 -0.4675 -0.8651
vn -0.2638 0.6669 -0.6969
vn 0.2638 0.6669 -0.6969
vn 0.9340 0.3439 0.0974
vn -0.8681 -0.2075 -0.4509
vn 0.9758 0.2050 0.0761
vn -0.9758 0.2050 0.0761
vn 0.9613 -0.0134 -0.2752
vn -0.9613 -0.0134 -0.2752
vn 0.9956 0.0565 -0.0749
vn -0.9817 -0.1330 -0.1366
vn 0.6374 -0.5736 0.5145
vn -0.7466 -0.5275 0.4052
vn 0.3720 -0.7079 0.6004
vn -0.3723 -0.7077 0.6005
vn 0.5281 -0.5962 0.6047
vn -0.5281 -0.5962 0.6047
vn 0.3070 0.0280 0.9513
vn -0.3070 0.0280 0.9513
vn 0.5236 -0.7208 -0.4541
vn -0.5881 -0.6813 -0.4360
vn 0.5396 -0.7176 -0.4403
vn -0.4694 -0.6847 -0.5576
vn 0.2144 -0.9747 0.0634
vn -0.4463 -0.8607 0.2450
vn 0.7365 -0.6650 0.1238
vn -0.6973 -0.7002 0.1531
vn 0.3244 0.8644 0.3842
vn -0.3691 0.7419 0.5598
vn 0.4649 0.6987 0.5438
vn -0.4649 0.6987 0.5438
vn 0.1817 0.5586 0.8093
vn -0.3188 0.6956 0.6438
vn 0.2925 0.4857 0.8237
vn -0.2076 0.4916 0.8457
vn 0.5847 0.2689 0.7654
vn -0.3398 0.6058 0.7194
vn 0.6509 0.2631 0.7121
vn -0.6509 0.2631 0.7121
vn 0.4075 0.9132 -0.0057
vn -0.4075 0.9132 -0.0057
vn -0.2655 0.9612 -0.0748
vn 0.2655 0.9612 -0.0748
vn -0.7885 0.5198 0.3287
vn 0.8576 0.4485 0.2518
vn -0.5242 0.1545 0.8375
vn 0.5257 0.1506 0.8373
vn 0.4390 -0.0109 0.8984
vn -0.4663 -0.1163 0.8769
vn 0.6888 -0.0325 0.7242
vn -0.6888 -0.0325 0.7242
vn 0.6302 -0.5530 0.5450
vn -0.7507 -0.6432 0.1509
vn -0.2175 0.7621 0.6098
vn 0.1788 0.7791 0.6009
vn 0.9046 -0.4196 0.0756
vn -0.9046 -0.4196 0.0756
vn 0.1782 0.4902 0.8532
vn -0.1782 0.4902 0.8532
vn -0.2335 0.9497 -0.2088
vn 0.2335 0.9497 -0.2088
vn 0.7177 0.5264 0.4558
vn -0.4480 0.0780 0.8906
vn 0.5313 0.8307 0.1662
vn -0.5313 0.8307 0.1662
vn 0.9008 -0.2472 0.3570
vn -0.5534 -0.0951 0.8275
vn 0.5815 -0.0682 0.8107
vn -0.5724 0.1802 0.7999
vn 0.6138 0.2185 0.7587
vn -0.5597 -0.0983 0.8229
vn 0.8779 -0.3875 0.2814
vn -0.8779 -0.3875 0.2814
vn 0.8717 -0.4824 0.0866
vn -0.9227 -0.3556 0.1488
vn 0.7661 -0.4685 0.4400
vn -0.7661 -0.4685 0.4400
vn 0.7930 -0.4108 0.4499
vn -0.7815 -0.4548 0.4271
vn 0.2408 0.7190 -0.6519
vn -0.1240 0.8238 -0.5532
vn 0.9251 0.3725 -0.0732
vn -0.9435 0.3176 -0.0949
vn 0.7071 -0.5787 0.4063
vn -0.7071 -0.5787 0.4063
vn -0.0157 0.8913 -0.4531
vn 0.0157 0.8913 -0.4531
vn 0.6266 -0.4204 0.6563
vn -0.6266 -0.4204 0.6563
vn 0.2714 -0.5456 0.7928
vn -0.2714 -0.5456 0.7928
vn -0.8651 -0.4699 0.1753
vn 0.8651 -0.4699 0.1753
vn -0.8538 -0.0770 -0.5149
vn 0.8096 -0.1083 -0.5769
vn -0.5433 0.3041 -0.7825
vn 0.5621 0.6275 -0.5387
vn -0.1096 0.8044 -0.5839
vn 0.0071 0.8914 -0.4531
vn 0.1738 0.5738 0.8004
vn -0.1046 0.6031 0.7907
vn 0.4134 0.5565 0.7207
vn -0.2461 0.6245 0.7412
vn 0.3228 0.5055 0.8002
vn -0.3228 0.5055 0.8002
vn 0.1220 0.6072 0.7851
vn -0.2104 0.5719 0.7929
vn 0.5679 0.6168 0.5451
vn -0.5679 0.6168 0.5451
vn 0.4244 0.4938 0.7590
vn -0.3787 0.5016 0.7778
vn 0.2570 0.6129 0.7472
vn -0.2530 0.3899 0.8854
vn 0.1351 0.5508 0.8236
vn -0.1351 0.5508 0.8236
vn -0.2981 0.9527 0.0597
vn 0.4870 0.8581 0.1626
vn 0.5571 0.3479 0.7541
vn -0.5571 0.3479 0.7541
vn 0.4723 0.3310 0.8169
vn -0.4388 0.3390 0.8322
vn 0.2975 0.1640 0.9405
vn -0.5786 0.3532 0.7351
vn 0.5771 0.6296 0.5201
vn -0.5771 0.6296 0.5201
vn 0.0931 -0.8527 0.5141
vn -0.0931 -0.8527 0.5141
vn 0.5161 -0.7445 0.4235
vn -0.5161 -0.7445 0.4235
vn 0.9264 -0.0375 0.3746
vn -0.9309 -0.0572 0.3608
vn 0.8267 0.4585 -0.3262
vn -0.8465 0.3988 -0.3527
vn -0.2146 0.5751 -0.7895
vn 0.2511 0.6492 -0.7180
vn -0.4196 0.6088 -0.6733
vn 0.4841 0.6947 -0.5320
vn -0.5470 -0.4928 -0.6767
vn 0.5256 -0.4913 -0.6945
vn -0.2556 -0.6152 -0.7458
vn 0.2556 -0.6152 -0.7458
vn -0.7330 0.5825 -0.3513
vn 0.8073 0.4853 -0.3357
vn 0.6844 -0.5473 -0.4818
vn -0.6844 -0.5473 -0.4818
vn -0.3604 -0.9244 0.1249
vn 0.3604 -0.9244 0.1249
s off
f 47//1 3//1 45//1
f 4//2 48//2 46//2
f 45//3 5//3 43//3
f 6//4 46//4 44//4
f 3//5 7//5 5//5
f 8//6 4//6 6//6
f 1//7 9//7 3//7
f 10//8 2//8 4//8
f 11//9 15//9 9//9
f 16//10 12//10 10//10
f 9//11 17//11 7//11
f 18//12 10//12 8//12
f 21//13 17//13 15//13
f 22//14 18//14 20//14
f 13//15 21//15 15//15
f 22//16 14//16 16//16
f 23//17 27//17 21//17
f 28//18 24//18 22//18
f 27//19 19//19 21//19
f 28//20 20//20 30//20
f 33//21 29//21 27//21
f 34//22 30//22 32//22
f 35//23 27//23 25//23
f 36//24 28//24 34//24
f 37//25 33//25 35//25
f 38//26 34//26 40//26
f 39//27 31//27 33//27
f 40//28 32//28 42//28
f 45//29 41//29 39//29
f 46//30 42//30 44//30
f 47//31 39//31 37//31
f 48//32 40//32 46//32
f 37//33 49//33 47//33
f 38//34 50//34 52//34
f 35//35 51//35 37//35
f 36//36 52//36 54//36
f 25//37 53//37 35//37
f 26//38 54//38 56//38
f 23//39 55//39 25//39
f 24//40 56//40 58//40
f 23//41 59//41 57//41
f 60//42 24//42 58//42
f 13//43 63//43 59//43
f 64//44 14//44 60//44
f 11//45 65//45 63//45
f 66//46 12//46 64//46
f 1//47 49//47 65//47
f 50//48 2//48 66//48
f 61//49 65//49 49//49
f 50//50 66//50 62//50
f 63//51 65//51 61//51
f 62//52 66//52 64//52
f 61//53 59//53 63//53
f 64//54 60//54 62//54
f 61//55 57//55 59//55
f 60//56 58//56 62//56
f 61//57 55//57 57//57
f 58//58 56//58 62//58
f 61//59 53//59 55//59
f 56//60 54//60 62//60
f 61//61 51//61 53//61
f 54//62 52//62 62//62
f 61//63 49//63 51//63
f 52//64 50//64 62//64
f 174//65 91//65 89//65
f 175//66 91//66 176//66
f 172//67 89//67 87//67
f 173//68 90//68 175//68
f 85//69 172//69 87//69
f 173//70 86//70 88//70
f 83//71 170//71 85//71
f 171//72 84//72 86//72
f 81//73 168//73 83//73
f 169//74 82//74 84//74
f 79//75 146//75 164//75
f 147//76 80//76 165//76
f 94//77 146//77 92//77
f 95//78 147//78 149//78
f 94//79 150//79 148//79
f 151//80 95//80 149//80
f 98//81 150//81 96//81
f 99//82 151//82 153//82
f 100//83 152//83 98//83
f 101//84 153//84 155//84
f 102//85 154//85 100//85
f 103//86 155//86 157//86
f 102//87 158//87 156//87
f 159//88 103//88 157//88
f 106//89 158//89 104//89
f 107//90 159//90 161//90
f 108//91 160//91 106//91
f 109//92 161//92 163//92
f 67//93 162//93 108//93
f 67//94 163//94 68//94
f 128//95 162//95 110//95
f 129//96 163//96 161//96
f 128//97 158//97 160//97
f 159//98 129//98 161//98
f 156//99 179//99 126//99
f 157//100 180//100 159//100
f 154//101 126//101 124//101
f 155//102 127//102 157//102
f 152//103 124//103 122//103
f 153//104 125//104 155//104
f 150//105 122//105 120//105
f 151//106 123//106 153//106
f 148//107 120//107 118//107
f 149//108 121//108 151//108
f 146//109 118//109 116//109
f 147//110 119//110 149//110
f 164//111 116//111 114//111
f 165//112 117//112 147//112
f 114//113 177//113 164//113
f 177//114 115//114 165//114
f 162//115 112//115 110//115
f 163//116 113//116 68//116
f 112//117 178//117 183//117
f 178//118 113//118 184//118
f 181//119 178//119 177//119
f 182//120 178//120 184//120
f 135//121 176//121 174//121
f 176//122 136//122 175//122
f 133//123 174//123 172//123
f 175//124 134//124 173//124
f 133//125 170//125 131//125
f 134//126 171//126 173//126
f 166//127 185//127 168//127
f 186//128 167//128 169//128
f 131//129 168//129 185//129
f 169//130 132//130 186//130
f 190//131 187//131 144//131
f 190//132 188//132 189//132
f 187//133 69//133 185//133
f 188//134 69//134 189//134
f 131//135 69//135 130//135
f 132//135 69//135 186//135
f 142//136 191//136 144//136
f 192//137 143//137 145//137
f 140//138 193//138 142//138
f 194//139 141//139 143//139
f 197//140 140//140 139//140
f 198//141 141//141 196//141
f 71//142 139//142 138//142
f 71//143 139//143 198//143
f 144//144 70//144 190//144
f 145//145 70//145 192//145
f 191//146 208//146 70//146
f 192//147 208//147 207//147
f 71//148 200//148 197//148
f 201//149 71//149 198//149
f 197//150 202//150 195//150
f 203//151 198//151 196//151
f 202//152 193//152 195//152
f 203//153 194//153 205//153
f 193//154 206//154 191//154
f 207//155 194//155 192//155
f 204//156 200//156 199//156
f 205//157 201//157 203//157
f 199//158 206//158 204//158
f 207//159 199//159 205//159
f 139//160 164//160 177//160
f 165//161 139//161 177//161
f 140//162 211//162 164//162
f 212//163 141//163 165//163
f 144//164 211//164 142//164
f 145//165 212//165 214//165
f 187//166 213//166 144//166
f 188//167 214//167 167//167
f 209//168 166//168 81//168
f 210//169 167//169 214//169
f 215//170 213//170 209//170
f 216//171 214//171 212//171
f 79//172 211//172 215//172
f 212//173 80//173 216//173
f 130//174 222//174 131//174
f 130//175 223//175 72//175
f 133//176 222//176 220//176
f 223//177 134//177 221//177
f 135//178 220//178 218//178
f 221//179 136//179 219//179
f 137//180 218//180 217//180
f 219//180 137//180 217//180
f 218//181 231//181 217//181
f 219//182 231//182 230//182
f 218//183 227//183 229//183
f 228//184 219//184 230//184
f 220//142 225//142 227//142
f 226//185 221//185 228//185
f 72//186 225//186 222//186
f 72//187 226//187 224//187
f 224//188 229//188 225//188
f 230//189 224//189 226//189
f 225//190 229//190 227//190
f 228//191 230//191 226//191
f 183//192 234//192 232//192
f 235//193 184//193 233//193
f 112//194 232//194 254//194
f 233//195 113//195 255//195
f 112//196 256//196 110//196
f 113//197 257//197 255//197
f 114//198 234//198 181//198
f 115//199 235//199 253//199
f 114//200 250//200 252//200
f 251//201 115//201 253//201
f 116//202 248//202 250//202
f 249//203 117//203 251//203
f 118//204 246//204 248//204
f 247//205 119//205 249//205
f 120//206 244//206 246//206
f 245//207 121//207 247//207
f 124//208 244//208 122//208
f 125//209 245//209 243//209
f 126//210 242//210 124//210
f 127//211 243//211 241//211
f 126//212 236//212 240//212
f 237//213 127//213 241//213
f 179//214 238//214 236//214
f 239//215 180//215 237//215
f 128//216 256//216 238//216
f 257//217 129//217 239//217
f 256//218 276//218 238//218
f 257//219 277//219 259//219
f 236//220 276//220 278//220
f 277//221 237//221 279//221
f 236//222 274//222 240//222
f 237//223 275//223 279//223
f 240//224 272//224 242//224
f 241//225 273//225 275//225
f 244//226 272//226 270//226
f 273//227 245//227 271//227
f 244//228 268//228 246//228
f 245//229 269//229 271//229
f 248//230 268//230 266//230
f 269//231 249//231 267//231
f 248//232 264//232 250//232
f 249//233 265//233 267//233
f 250//234 262//234 252//234
f 251//235 263//235 265//235
f 234//236 262//236 280//236
f 263//237 235//237 281//237
f 256//238 260//238 258//238
f 261//239 257//239 259//239
f 254//240 282//240 260//240
f 283//241 255//241 261//241
f 232//242 280//242 282//242
f 281//243 233//243 283//243
f 67//244 284//244 73//244
f 285//245 67//245 73//245
f 108//246 286//246 284//246
f 287//247 109//247 285//247
f 104//248 286//248 106//248
f 105//249 287//249 289//249
f 102//250 288//250 104//250
f 103//251 289//251 291//251
f 100//252 290//252 102//252
f 101//253 291//253 293//253
f 100//254 294//254 292//254
f 295//255 101//255 293//255
f 96//256 294//256 98//256
f 97//257 295//257 297//257
f 96//258 298//258 296//258
f 299//259 97//259 297//259
f 94//260 300//260 298//260
f 301//261 95//261 299//261
f 309//262 338//262 308//262
f 309//263 339//263 329//263
f 308//264 336//264 307//264
f 308//265 337//265 339//265
f 307//266 340//266 306//266
f 307//267 341//267 337//267
f 89//268 306//268 340//268
f 306//269 90//269 341//269
f 87//270 340//270 334//270
f 341//271 88//271 335//271
f 85//272 334//272 330//272
f 335//273 86//273 331//273
f 83//274 330//274 332//274
f 331//275 84//275 333//275
f 330//276 338//276 332//276
f 339//277 331//277 333//277
f 334//278 336//278 330//278
f 335//279 337//279 341//279
f 332//280 328//280 326//280
f 333//281 329//281 339//281
f 81//282 332//282 326//282
f 333//283 82//283 327//283
f 342//284 215//284 209//284
f 343//285 216//285 345//285
f 326//286 209//286 81//286
f 327//287 210//287 343//287
f 215//288 346//288 79//288
f 216//289 347//289 345//289
f 346//290 92//290 79//290
f 347//291 93//291 301//291
f 324//292 304//292 77//292
f 325//293 304//293 353//293
f 352//294 78//294 304//294
f 353//295 78//295 351//295
f 78//296 348//296 305//296
f 349//297 78//297 305//297
f 305//298 328//298 309//298
f 329//299 305//299 309//299
f 328//300 342//300 326//300
f 329//301 343//301 349//301
f 296//302 318//302 310//302
f 319//303 297//303 311//303
f 316//304 77//304 76//304
f 317//305 77//305 325//305
f 358//306 303//306 302//306
f 359//307 303//307 357//307
f 303//308 354//308 75//308
f 355//309 303//309 75//309
f 75//310 316//310 76//310
f 317//311 75//311 76//311
f 292//312 362//312 364//312
f 363//313 293//313 365//313
f 364//314 368//314 366//314
f 369//315 365//315 367//315
f 366//316 370//316 372//316
f 371//317 367//317 373//317
f 372//318 376//318 374//318
f 377//319 373//319 375//319
f 378//320 376//320 314//320
f 379//321 377//321 375//321
f 316//322 374//322 378//322
f 375//323 317//323 379//323
f 354//324 372//324 374//324
f 373//325 355//325 375//325
f 356//326 366//326 372//326
f 367//327 357//327 373//327
f 358//328 364//328 366//328
f 365//329 359//329 367//329
f 292//330 360//330 290//330
f 293//331 361//331 365//331
f 360//332 302//332 74//332
f 361//333 302//333 359//333
f 284//334 288//334 290//334
f 289//335 285//335 291//335
f 284//336 360//336 74//336
f 361//337 285//337 74//337
f 73//338 284//338 74//338
f 74//339 285//339 73//339
f 296//340 362//340 294//340
f 297//341 363//341 311//341
f 310//342 368//342 362//342
f 369//343 311//343 363//343
f 312//344 370//344 368//344
f 371//345 313//345 369//345
f 376//346 382//346 314//346
f 377//347 383//347 371//347
f 350//348 384//348 348//348
f 351//349 385//349 387//349
f 384//350 320//350 318//350
f 385//351 321//351 387//351
f 298//352 384//352 318//352
f 385//353 299//353 319//353
f 300//354 342//354 384//354
f 343//355 301//355 385//355
f 342//356 348//356 384//356
f 385//357 349//357 343//357
f 300//358 346//358 344//358
f 345//359 347//359 301//359
f 322//360 378//360 314//360
f 323//361 379//361 381//361
f 378//362 324//362 316//362
f 379//363 325//363 381//363
f 386//364 322//364 320//364
f 387//365 323//365 381//365
f 352//366 386//366 350//366
f 353//367 387//367 381//367
f 324//368 380//368 352//368
f 353//369 381//369 325//369
f 388//370 402//370 400//370
f 389//371 403//371 415//371
f 400//372 404//372 398//372
f 405//373 401//373 399//373
f 404//374 396//374 398//374
f 405//375 397//375 407//375
f 406//376 394//376 396//376
f 407//377 395//377 409//377
f 408//378 392//378 394//378
f 409//379 393//379 411//379
f 392//380 412//380 390//380
f 413//381 393//381 391//381
f 410//382 418//382 412//382
f 419//383 411//383 413//383
f 408//384 420//384 410//384
f 421//385 409//385 411//385
f 424//386 408//386 406//386
f 425//387 409//387 423//387
f 426//388 406//388 404//388
f 427//389 407//389 425//389
f 428//390 404//390 402//390
f 429//391 405//391 427//391
f 402//392 416//392 428//392
f 417//393 403//393 429//393
f 320//394 442//394 318//394
f 321//395 443//395 445//395
f 390//396 444//396 320//396
f 391//397 445//397 413//397
f 310//398 442//398 312//398
f 443//399 311//399 313//399
f 382//400 414//400 388//400
f 415//401 383//401 389//401
f 412//402 440//402 444//402
f 441//403 413//403 445//403
f 446//404 440//404 438//404
f 447//405 441//405 445//405
f 434//135 438//135 436//135
f 439//135 435//135 437//135
f 448//406 434//406 432//406
f 449//407 435//407 447//407
f 448//408 450//408 430//408
f 449//409 451//409 433//409
f 430//410 416//410 414//410
f 431//411 417//411 451//411
f 312//412 430//412 382//412
f 431//413 313//413 383//413
f 442//414 448//414 312//414
f 443//415 449//415 447//415
f 442//416 444//416 446//416
f 447//417 445//417 443//417
f 416//418 452//418 476//418
f 453//419 417//419 477//419
f 432//420 452//420 450//420
f 433//421 453//421 463//421
f 432//422 460//422 462//422
f 461//423 433//423 463//423
f 436//424 460//424 434//424
f 437//425 461//425 459//425
f 438//426 458//426 436//426
f 439//427 459//427 457//427
f 438//428 454//428 456//428
f 455//429 439//429 457//429
f 440//430 474//430 454//430
f 475//430 441//430 455//430
f 428//431 476//431 464//431
f 477//432 429//432 465//432
f 426//433 464//433 466//433
f 465//434 427//434 467//434
f 424//435 466//435 468//435
f 467//436 425//436 469//436
f 424//437 470//437 422//437
f 425//438 471//438 469//438
f 422//439 472//439 420//439
f 423//440 473//440 471//440
f 420//441 474//441 418//441
f 421//442 475//442 473//442
f 456//443 478//443 458//443
f 457//444 479//444 481//444
f 480//445 484//445 478//445
f 481//446 485//446 483//446
f 484//447 488//447 486//447
f 489//448 485//448 487//448
f 488//449 492//449 486//449
f 489//450 493//450 491//450
f 464//451 486//451 492//451
f 487//452 465//452 493//452
f 484//453 476//453 452//453
f 485//454 477//454 487//454
f 462//455 484//455 452//455
f 463//456 485//456 479//456
f 458//135 462//135 460//135
f 463//135 459//135 461//135
f 474//457 456//457 454//457
f 475//458 457//458 481//458
f 472//459 480//459 474//459
f 481//460 473//460 475//460
f 488//461 472//461 470//461
f 489//462 473//462 483//462
f 490//463 470//463 468//463
f 491//464 471//464 489//464
f 466//465 490//465 468//465
f 491//466 467//466 469//466
f 464//467 492//467 466//467
f 467//468 493//468 465//468
f 392//469 504//469 502//469
f 505//470 393//470 503//470
f 394//471 502//471 500//471
f 503//472 395//472 501//472
f 394//473 498//473 396//473
f 395//474 499//474 501//474
f 396//475 496//475 398//475
f 397//476 497//476 499//476
f 398//477 494//477 400//477
f 399//478 495//478 497//478
f 400//479 506//479 388//479
f 401//480 507//480 495//480
f 502//481 506//481 494//481
f 503//482 507//482 505//482
f 494//483 500//483 502//483
f 501//484 495//484 503//484
f 496//485 498//485 500//485
f 501//486 499//486 497//486
f 382//487 506//487 314//487
f 383//488 507//488 389//488
f 314//489 504//489 322//489
f 505//490 315//490 323//490
f 320//491 504//491 390//491
f 505//492 321//492 391//492
f 47//493 1//493 3//493
f 4//494 2//494 48//494
f 45//495 3//495 5//495
f 6//496 4//496 46//496
f 3//497 9//497 7//497
f 8//498 10//498 4//498
f 1//499 11//499 9//499
f 10//500 12//500 2//500
f 11//501 13//501 15//501
f 16//502 14//502 12//502
f 9//503 15//503 17//503
f 18//504 16//504 10//504
f 21//505 19//505 17//505
f 22//506 16//506 18//506
f 13//507 23//507 21//507
f 22//508 24//508 14//508
f 23//509 25//509 27//509
f 28//510 26//510 24//510
f 27//511 29//511 19//511
f 28//512 22//512 20//512
f 33//513 31//513 29//513
f 34//514 28//514 30//514
f 35//515 33//515 27//515
f 36//516 26//516 28//516
f 37//517 39//517 33//517
f 38//518 36//518 34//518
f 39//519 41//519 31//519
f 40//520 34//520 32//520
f 45//521 43//521 41//521
f 46//522 40//522 42//522
f 47//523 45//523 39//523
f 48//524 38//524 40//524
f 37//525 51//525 49//525
f 38//526 48//526 50//526
f 35//527 53//527 51//527
f 36//528 38//528 52//528
f 25//529 55//529 53//529
f 26//530 36//530 54//530
f 23//531 57//531 55//531
f 24//532 26//532 56//532
f 23//533 13//533 59//533
f 60//534 14//534 24//534
f 13//535 11//535 63//535
f 64//536 12//536 14//536
f 11//537 1//537 65//537
f 66//538 2//538 12//538
f 1//539 47//539 49//539
f 50//540 48//540 2//540
f 174//541 176//541 91//541
f 175//542 90//542 91//542
f 172//543 174//543 89//543
f 173//544 88//544 90//544
f 85//545 170//545 172//545
f 173//546 171//546 86//546
f 83//547 168//547 170//547
f 171//548 169//548 84//548
f 81//549 166//549 168//549
f 169//550 167//550 82//550
f 79//551 92//551 146//551
f 147//552 93//552 80//552
f 94//553 148//553 146//553
f 95//554 93//554 147//554
f 94//555 96//555 150//555
f 151//556 97//556 95//556
f 98//557 152//557 150//557
f 99//558 97//558 151//558
f 100//559 154//559 152//559
f 101//560 99//560 153//560
f 102//561 156//561 154//561
f 103//562 101//562 155//562
f 102//563 104//563 158//563
f 159//564 105//564 103//564
f 106//565 160//565 158//565
f 107//566 105//566 159//566
f 108//567 162//567 160//567
f 109//568 107//568 161//568
f 67//569 68//569 162//569
f 67//570 109//570 163//570
f 128//571 160//571 162//571
f 129//572 111//572 163//572
f 128//573 179//573 158//573
f 159//574 180//574 129//574
f 156//575 158//575 179//575
f 157//576 127//576 180//576
f 154//577 156//577 126//577
f 155//578 125//578 127//578
f 152//579 154//579 124//579
f 153//580 123//580 125//580
f 150//581 152//581 122//581
f 151//582 121//582 123//582
f 148//583 150//583 120//583
f 149//584 119//584 121//584
f 146//585 148//585 118//585
f 147//586 117//586 119//586
f 164//587 146//587 116//587
f 165//588 115//588 117//588
f 114//589 181//589 177//589
f 177//590 182//590 115//590
f 162//591 68//591 112//591
f 163//592 111//592 113//592
f 112//593 68//593 178//593
f 178//594 68//594 113//594
f 181//595 183//595 178//595
f 182//596 177//596 178//596
f 135//597 137//597 176//597
f 176//598 137//598 136//598
f 133//599 135//599 174//599
f 175//600 136//600 134//600
f 133//601 172//601 170//601
f 134//602 132//602 171//602
f 166//603 187//603 185//603
f 186//604 188//604 167//604
f 131//605 170//605 168//605
f 169//606 171//606 132//606
f 190//132 189//132 187//132
f 190//607 145//607 188//607
f 187//134 189//134 69//134
f 188//608 186//608 69//608
f 131//135 185//135 69//135
f 132//135 130//135 69//135
f 142//609 193//609 191//609
f 192//610 194//610 143//610
f 140//611 195//611 193//611
f 194//612 196//612 141//612
f 197//613 195//613 140//613
f 198//614 139//614 141//614
f 71//615 197//615 139//615
f 71//185 138//185 139//185
f 144//616 191//616 70//616
f 145//617 190//617 70//617
f 191//146 206//146 208//146
f 192//147 70//147 208//147
f 71//618 199//618 200//618
f 201//619 199//619 71//619
f 197//620 200//620 202//620
f 203//621 201//621 198//621
f 202//622 204//622 193//622
f 203//623 196//623 194//623
f 193//624 204//624 206//624
f 207//625 205//625 194//625
f 204//626 202//626 200//626
f 205//627 199//627 201//627
f 199//628 208//628 206//628
f 207//629 208//629 199//629
f 139//630 140//630 164//630
f 165//631 141//631 139//631
f 140//632 142//632 211//632
f 212//633 143//633 141//633
f 144//634 213//634 211//634
f 145//635 143//635 212//635
f 187//636 166//636 213//636
f 188//637 145//637 214//637
f 209//638 213//638 166//638
f 210//639 82//639 167//639
f 215//640 211//640 213//640
f 216//641 210//641 214//641
f 79//642 164//642 211//642
f 212//643 165//643 80//643
f 130//644 72//644 222//644
f 130//645 132//645 223//645
f 133//646 131//646 222//646
f 223//647 132//647 134//647
f 135//648 133//648 220//648
f 221//649 134//649 136//649
f 137//650 135//650 218//650
f 219//651 136//651 137//651
f 218//181 229//181 231//181
f 219//182 217//182 231//182
f 218//652 220//652 227//652
f 228//653 221//653 219//653
f 220//142 222//142 225//142
f 226//185 223//185 221//185
f 72//186 224//186 225//186
f 72//187 223//187 226//187
f 224//654 231//654 229//654
f 230//655 231//655 224//655
f 183//656 181//656 234//656
f 235//657 182//657 184//657
f 112//658 183//658 232//658
f 233//659 184//659 113//659
f 112//660 254//660 256//660
f 113//661 111//661 257//661
f 114//662 252//662 234//662
f 115//663 182//663 235//663
f 114//664 116//664 250//664
f 251//665 117//665 115//665
f 116//666 118//666 248//666
f 249//667 119//667 117//667
f 118//668 120//668 246//668
f 247//669 121//669 119//669
f 120//670 122//670 244//670
f 245//671 123//671 121//671
f 124//672 242//672 244//672
f 125//673 123//673 245//673
f 126//674 240//674 242//674
f 127//675 125//675 243//675
f 126//676 179//676 236//676
f 237//677 180//677 127//677
f 179//678 128//678 238//678
f 239//679 129//679 180//679
f 128//680 110//680 256//680
f 257//681 111//681 129//681
f 256//682 258//682 276//682
f 257//683 239//683 277//683
f 236//684 238//684 276//684
f 277//685 239//685 237//685
f 236//686 278//686 274//686
f 237//687 241//687 275//687
f 240//688 274//688 272//688
f 241//689 243//689 273//689
f 244//690 242//690 272//690
f 273//691 243//691 245//691
f 244//692 270//692 268//692
f 245//693 247//693 269//693
f 248//694 246//694 268//694
f 269//695 247//695 249//695
f 248//696 266//696 264//696
f 249//697 251//697 265//697
f 250//698 264//698 262//698
f 251//699 253//699 263//699
f 234//700 252//700 262//700
f 263//701 253//701 235//701
f 256//702 254//702 260//702
f 261//703 255//703 257//703
f 254//704 232//704 282//704
f 283//705 233//705 255//705
f 232//706 234//706 280//706
f 281//707 235//707 233//707
f 67//708 108//708 284//708
f 285//709 109//709 67//709
f 108//710 106//710 286//710
f 287//711 107//711 109//711
f 104//712 288//712 286//712
f 105//713 107//713 287//713
f 102//714 290//714 288//714
f 103//715 105//715 289//715
f 100//716 292//716 290//716
f 101//717 103//717 291//717
f 100//718 98//718 294//718
f 295//719 99//719 101//719
f 96//720 296//720 294//720
f 97//721 99//721 295//721
f 96//722 94//722 298//722
f 299//723 95//723 97//723
f 94//724 92//724 300//724
f 301//725 93//725 95//725
f 309//726 328//726 338//726
f 309//727 308//727 339//727
f 308//728 338//728 336//728
f 308//729 307//729 337//729
f 307//730 336//730 340//730
f 307//731 306//731 341//731
f 89//732 91//732 306//732
f 306//733 91//733 90//733
f 87//734 89//734 340//734
f 341//735 90//735 88//735
f 85//736 87//736 334//736
f 335//737 88//737 86//737
f 83//738 85//738 330//738
f 331//739 86//739 84//739
f 330//740 336//740 338//740
f 339//741 337//741 331//741
f 334//742 340//742 336//742
f 335//743 331//743 337//743
f 332//744 338//744 328//744
f 333//745 327//745 329//745
f 81//746 83//746 332//746
f 333//747 84//747 82//747
f 342//748 344//748 215//748
f 343//749 210//749 216//749
f 326//750 342//750 209//750
f 327//751 82//751 210//751
f 215//752 344//752 346//752
f 216//753 80//753 347//753
f 346//754 300//754 92//754
f 347//755 80//755 93//755
f 324//756 352//756 304//756
f 325//757 77//757 304//757
f 352//758 350//758 78//758
f 353//759 304//759 78//759
f 78//760 350//760 348//760
f 349//761 351//761 78//761
f 305//762 348//762 328//762
f 329//763 349//763 305//763
f 328//764 348//764 342//764
f 329//765 327//765 343//765
f 296//766 298//766 318//766
f 319//767 299//767 297//767
f 316//768 324//768 77//768
f 317//769 76//769 77//769
f 358//770 356//770 303//770
f 359//771 302//771 303//771
f 303//772 356//772 354//772
f 355//773 357//773 303//773
f 75//774 354//774 316//774
f 317//775 355//775 75//775
f 292//776 294//776 362//776
f 363//777 295//777 293//777
f 364//778 362//778 368//778
f 369//779 363//779 365//779
f 366//780 368//780 370//780
f 371//781 369//781 367//781
f 372//782 370//782 376//782
f 377//783 371//783 373//783
f 378//784 374//784 376//784
f 379//785 315//785 377//785
f 316//786 354//786 374//786
f 375//787 355//787 317//787
f 354//788 356//788 372//788
f 373//789 357//789 355//789
f 356//790 358//790 366//790
f 367//791 359//791 357//791
f 358//792 360//792 364//792
f 365//793 361//793 359//793
f 292//794 364//794 360//794
f 293//795 291//795 361//795
f 360//796 358//796 302//796
f 361//797 74//797 302//797
f 284//798 286//798 288//798
f 289//799 287//799 285//799
f 284//800 290//800 360//800
f 361//801 291//801 285//801
f 296//802 310//802 362//802
f 297//803 295//803 363//803
f 310//804 312//804 368//804
f 369//805 313//805 311//805
f 312//806 382//806 370//806
f 371//807 383//807 313//807
f 376//808 370//808 382//808
f 377//809 315//809 383//809
f 350//810 386//810 384//810
f 351//811 349//811 385//811
f 384//812 386//812 320//812
f 385//813 319//813 321//813
f 298//814 300//814 384//814
f 385//815 301//815 299//815
f 300//816 344//816 342//816
f 343//817 345//817 301//817
f 322//818 380//818 378//818
f 323//819 315//819 379//819
f 378//820 380//820 324//820
f 379//821 317//821 325//821
f 386//822 380//822 322//822
f 387//823 321//823 323//823
f 352//824 380//824 386//824
f 353//825 351//825 387//825
f 388//826 414//826 402//826
f 389//827 401//827 403//827
f 400//828 402//828 404//828
f 405//829 403//829 401//829
f 404//830 406//830 396//830
f 405//831 399//831 397//831
f 406//832 408//832 394//832
f 407//833 397//833 395//833
f 408//834 410//834 392//834
f 409//835 395//835 393//835
f 392//836 410//836 412//836
f 413//837 411//837 393//837
f 410//838 420//838 418//838
f 419//839 421//839 411//839
f 408//840 422//840 420//840
f 421//841 423//841 409//841
f 424//842 422//842 408//842
f 425//843 407//843 409//843
f 426//844 424//844 406//844
f 427//845 405//845 407//845
f 428//846 426//846 404//846
f 429//847 403//847 405//847
f 402//848 414//848 416//848
f 417//849 415//849 403//849
f 320//850 444//850 442//850
f 321//851 319//851 443//851
f 390//852 412//852 444//852
f 391//853 321//853 445//853
f 310//854 318//854 442//854
f 443//855 319//855 311//855
f 382//856 430//856 414//856
f 415//857 431//857 383//857
f 412//858 418//858 440//858
f 441//859 419//859 413//859
f 446//860 444//860 440//860
f 447//861 439//861 441//861
f 434//862 446//862 438//862
f 439//863 447//863 435//863
f 448//864 446//864 434//864
f 449//865 433//865 435//865
f 448//866 432//866 450//866
f 449//867 431//867 451//867
f 430//868 450//868 416//868
f 431//869 415//869 417//869
f 312//870 448//870 430//870
f 431//871 449//871 313//871
f 442//872 446//872 448//872
f 443//873 313//873 449//873
f 416//874 450//874 452//874
f 453//875 451//875 417//875
f 432//876 462//876 452//876
f 433//877 451//877 453//877
f 432//422 434//422 460//422
f 461//423 435//423 433//423
f 436//878 458//878 460//878
f 437//879 435//879 461//879
f 438//880 456//880 458//880
f 439//881 437//881 459//881
f 438//882 440//882 454//882
f 455//883 441//883 439//883
f 440//884 418//884 474//884
f 475//885 419//885 441//885
f 428//886 416//886 476//886
f 477//887 417//887 429//887
f 426//888 428//888 464//888
f 465//889 429//889 427//889
f 424//890 426//890 466//890
f 467//891 427//891 425//891
f 424//892 468//892 470//892
f 425//893 423//893 471//893
f 422//894 470//894 472//894
f 423//895 421//895 473//895
f 420//896 472//896 474//896
f 421//897 419//897 475//897
f 456//898 480//898 478//898
f 457//899 459//899 479//899
f 480//900 482//900 484//900
f 481//901 479//901 485//901
f 484//902 482//902 488//902
f 489//903 483//903 485//903
f 488//904 490//904 492//904
f 489//905 487//905 493//905
f 464//906 476//906 486//906
f 487//907 477//907 465//907
f 484//908 486//908 476//908
f 485//909 453//909 477//909
f 462//910 478//910 484//910
f 463//911 453//911 485//911
f 458//912 478//912 462//912
f 463//913 479//913 459//913
f 474//914 480//914 456//914
f 475//915 455//915 457//915
f 472//916 482//916 480//916
f 481//917 483//917 473//917
f 488//918 482//918 472//918
f 489//919 471//919 473//919
f 490//920 488//920 470//920
f 491//921 469//921 471//921
f 466//922 492//922 490//922
f 491//923 493//923 467//923
f 392//924 390//924 504//924
f 505//925 391//925 393//925
f 394//926 392//926 502//926
f 503//927 393//927 395//927
f 394//928 500//928 498//928
f 395//929 397//929 499//929
f 396//930 498//930 496//930
f 397//931 399//931 497//931
f 398//932 496//932 494//932
f 399//933 401//933 495//933
f 400//934 494//934 506//934
f 401//935 389//935 507//935
f 502//936 504//936 506//936
f 503//937 495//937 507//937
f 494//938 496//938 500//938
f 501//939 497//939 495//939
f 382//940 388//940 506//940
f 383//941 315//941 507//941
f 314//942 506//942 504//942
f 505//943 507//943 315//943
f 320//944 322//944 504//944
f 505//945 323//945 321//945
