# Blender v2.79 (sub 0) OBJ File: 'amici_prism.blend'
# www.blender.org
o Plane
v 4.738735 13.539755 16.277086
v 4.738734 -10.934546 16.277086
v 4.738735 13.539755 -14.925886
v 4.738734 -10.934546 -14.925886
vn 1.0000 -0.0000 0.0000
s off
f 2//1 3//1 1//1
f 2//1 4//1 3//1
