# Blender v2.79 (sub 0) OBJ File: 'amici_prism.blend'
# www.blender.org
o Plane.002_Plane.003
v 0.695000 0.000000 1.000000
v -0.705000 0.000000 -1.000000
v 0.695000 0.000000 -1.000000
v 0.695000 3.000000 1.000000
v 0.695000 3.000000 -1.000000
v -0.705000 3.000000 -1.000000
vn 0.0000 -1.0000 0.0000
vn 0.0000 1.0000 0.0000
vn -0.8192 0.0000 0.5735
vn 0.0000 0.0000 -1.0000
vn 1.0000 0.0000 0.0000
s off
f 1//1 2//1 3//1
f 4//2 5//2 6//2
f 1//3 6//3 2//3
f 2//4 5//4 3//4
f 3//5 4//5 1//5
f 1//3 4//3 6//3
f 2//4 6//4 5//4
f 3//5 5//5 4//5
