# Blender v2.79 (sub 0) OBJ File: 'm3.blend'
# www.blender.org
o Front_Windshield_Plane.019
v 0.273019 1.193378 0.519892
v 0.328312 1.191754 0.518054
v 0.272998 1.201183 0.501383
v 0.220706 1.194578 0.521198
v 0.273068 1.174643 0.564695
v 0.328508 1.173024 0.562757
v 0.328229 1.199555 0.499582
v 0.220706 1.202388 0.502665
v 0.220706 1.175828 0.566067
v 0.979369 1.148533 0.452422
v 1.049661 1.140887 0.441472
v 0.973780 1.156669 0.436301
v 0.911124 1.155598 0.462858
v 0.989316 1.129377 0.492284
v 1.062103 1.121630 0.479859
v 1.038697 1.149421 0.426908
v 0.907566 1.163592 0.445948
v 0.919651 1.136469 0.503853
v 0.082436 1.196635 0.523505
v 0.082436 1.177825 0.568380
v 0.125741 1.196149 0.522925
v 0.082436 1.204471 0.504970
v 0.040800 1.196925 0.523869
v 0.040800 1.178100 0.568717
v 0.125741 1.177359 0.567823
v 0.125741 1.203977 0.504383
v 0.040800 1.204767 0.505343
v 0.508763 1.183549 0.507914
v 0.569666 1.180120 0.503202
v 0.508074 1.191374 0.489640
v 0.447115 1.186782 0.512070
v 0.510404 1.164763 0.552126
v 0.572115 1.161289 0.547184
v 0.568637 1.187965 0.485027
v 0.446704 1.194594 0.493715
v 0.448095 1.168028 0.556479
v 0.735376 1.170294 0.486924
v 0.740864 1.151269 0.529948
v 0.789360 1.166467 0.480198
v 0.733074 1.178220 0.469157
v 0.682507 1.173579 0.492786
v 0.686917 1.154622 0.536194
v 0.795926 1.147384 0.522718
v 0.786608 1.174423 0.462644
v 0.680656 1.181475 0.474855
v 0.274887 0.426905 2.175124
v 0.335783 0.425514 2.170472
v 0.274837 0.448081 2.133281
v 0.220706 0.427563 2.178064
v 0.274907 0.418221 2.192800
v 0.335866 0.416832 2.188130
v 0.335586 0.446683 2.128671
v 0.220706 0.448753 2.136207
v 0.220706 0.418872 2.195746
v 1.336342 0.368223 1.923658
v 1.436467 0.362079 1.870926
v 1.327839 0.389773 1.886279
v 1.235850 0.374456 1.972678
v 1.337798 0.359524 1.940497
v 1.430854 0.353998 1.890961
v 1.429659 0.383416 1.833455
v 1.227348 0.396067 1.934674
v 1.239430 0.365565 1.988730
v 0.082436 0.427325 2.180483
v 0.082436 0.418608 2.198165
v 0.125741 0.427590 2.180389
v 0.082436 0.448575 2.138626
v 0.040800 0.427056 2.180287
v 0.040800 0.418333 2.197969
v 0.125741 0.418882 2.198071
v 0.125741 0.448820 2.138532
v 0.040800 0.448321 2.138430
v 0.571336 0.415143 2.142888
v 0.663058 0.409992 2.129194
v 0.569687 0.436370 2.101505
v 0.484472 0.419618 2.154457
v 0.572034 0.406437 2.160369
v 0.664099 0.401267 2.146573
v 0.660598 0.431264 2.088055
v 0.483488 0.440812 2.112881
v 0.484889 0.410926 2.172020
v 0.944561 0.392817 2.075243
v 0.946891 0.384008 2.092186
v 1.039596 0.386809 2.048893
v 0.939052 0.414285 2.035133
v 0.850614 0.398693 2.096192
v 0.852488 0.389915 2.113309
v 1.042378 0.377969 2.065611
v 1.033014 0.408342 2.009314
v 0.846184 0.420091 2.055671
v 0.273499 1.008337 0.960991
v 0.330233 1.006772 0.958145
v 0.273308 1.082515 0.785769
v 0.220706 1.009397 0.962976
v 0.273719 0.921655 1.160408
v 0.331111 0.920117 1.157143
v 0.329468 1.080927 0.783318
v 0.220706 1.083631 0.787490
v 0.220706 0.922652 1.162665
v 1.072257 0.960143 0.846164
v 1.152318 0.952850 0.823961
v 1.035497 1.035607 0.689745
v 0.994906 0.966942 0.866633
v 1.114429 0.871955 1.023964
v 1.198170 0.864885 0.996771
v 1.112334 1.028108 0.671878
v 0.961553 1.042541 0.706267
v 1.033187 0.878611 1.048977
v 0.082436 1.010864 0.965338
v 0.082436 0.923849 1.165049
v 0.125741 1.010571 0.964997
v 0.082436 1.085333 0.789830
v 0.040800 1.011010 0.965426
v 0.040800 0.923929 1.165030
v 0.125741 0.923644 1.164800
v 0.125741 1.084963 0.789397
v 0.040800 1.085536 0.790025
v 0.524852 0.998011 0.943150
v 0.593680 0.994139 0.936182
v 0.518449 1.072387 0.770247
v 0.456721 1.001563 0.949231
v 0.532208 0.911101 1.139983
v 0.604658 0.907027 1.131976
v 0.584122 1.068691 0.764178
v 0.452898 1.075812 0.775562
v 0.461112 0.914800 1.146941
v 0.789178 0.982431 0.910551
v 0.813774 0.894459 1.102019
v 0.853760 0.978067 0.898901
v 0.767765 1.057731 0.742277
v 0.725732 0.986374 0.920169
v 0.745494 0.898703 1.113372
v 0.883198 0.889850 1.088100
v 0.828128 1.053579 0.732589
v 0.708529 1.061413 0.750397
v 0.274406 0.635733 1.765036
v 0.333860 0.634282 1.760816
v 0.274186 0.729497 1.575046
v 0.220706 0.636530 1.767822
v 0.274597 0.552888 1.928762
v 0.334624 0.551460 1.924358
v 0.332981 0.728019 1.571072
v 0.220706 0.730358 1.577716
v 0.220706 0.553630 1.931619
v 1.245773 0.580934 1.560754
v 1.340739 0.574388 1.517851
v 1.203909 0.676396 1.392473
v 1.152604 0.587294 1.600090
v 1.282162 0.496568 1.705561
v 1.380180 0.490121 1.658266
v 1.295337 0.669713 1.354606
v 1.114509 0.682823 1.427215
v 1.185736 0.502885 1.748907
v 0.082436 0.636883 1.770239
v 0.082436 0.553747 1.934038
v 0.125741 0.636955 1.770137
v 0.082436 0.730981 1.580128
v 0.040800 0.636758 1.770052
v 0.040800 0.553565 1.933842
v 0.125741 0.553896 1.933944
v 0.125741 0.730964 1.580003
v 0.040800 0.730921 1.579968
v 0.555228 0.624469 1.737343
v 0.639017 0.619761 1.726017
v 0.547872 0.718460 1.549540
v 0.474856 0.628624 1.747023
v 0.561633 0.541425 1.899235
v 0.648577 0.536542 1.886970
v 0.628037 0.713955 1.539285
v 0.470464 0.722469 1.558353
v 0.478680 0.545708 1.909667
v 0.890730 0.604489 1.682105
v 0.912137 0.520514 1.839080
v 0.975249 0.599078 1.660933
v 0.866141 0.699549 1.499902
v 0.807339 0.609687 1.699044
v 0.824547 0.525980 1.857608
v 1.000842 0.514870 1.815854
v 0.945847 0.694400 1.481073
v 0.787576 0.704440 1.515031
v -0.273019 1.193378 0.519892
v -0.273068 1.174643 0.564695
v -0.220706 1.194578 0.521198
v -0.272998 1.201183 0.501383
v -0.328312 1.191754 0.518054
v -0.328508 1.173024 0.562757
v -0.220706 1.175828 0.566067
v -0.220706 1.202388 0.502665
v -0.328229 1.199555 0.499582
v -0.979369 1.148533 0.452422
v -0.989316 1.129377 0.492284
v -0.911123 1.155598 0.462858
v -0.973780 1.156668 0.436301
v -1.049661 1.140887 0.441472
v -1.062103 1.121630 0.479859
v -0.919651 1.136469 0.503853
v -0.907566 1.163592 0.445948
v -1.038697 1.149421 0.426908
v -0.082436 1.196635 0.523505
v -0.040800 1.196925 0.523869
v -0.082436 1.204471 0.504970
v -0.125741 1.196149 0.522925
v -0.082436 1.177825 0.568380
v -0.040800 1.178100 0.568717
v -0.040800 1.204767 0.505343
v -0.125741 1.203977 0.504383
v -0.125741 1.177359 0.567823
v -0.508763 1.183549 0.507913
v -0.510404 1.164763 0.552126
v -0.447115 1.186782 0.512070
v -0.508074 1.191374 0.489640
v -0.569666 1.180120 0.503203
v -0.572115 1.161289 0.547184
v -0.448095 1.168028 0.556479
v -0.446704 1.194593 0.493715
v -0.568637 1.187965 0.485027
v -0.735376 1.170294 0.486924
v -0.682507 1.173579 0.492786
v -0.733074 1.178220 0.469157
v -0.789360 1.166467 0.480198
v -0.740864 1.151269 0.529948
v -0.686917 1.154622 0.536194
v -0.680656 1.181475 0.474855
v -0.786608 1.174423 0.462644
v -0.795926 1.147384 0.522718
v -0.274887 0.426905 2.175124
v -0.274907 0.418221 2.192800
v -0.220706 0.427563 2.178064
v -0.274837 0.448081 2.133281
v -0.335783 0.425514 2.170472
v -0.335866 0.416832 2.188130
v -0.220706 0.418872 2.195746
v -0.220706 0.448753 2.136207
v -0.335586 0.446683 2.128671
v -1.336342 0.368223 1.923658
v -1.337798 0.359524 1.940497
v -1.235850 0.374456 1.972678
v -1.327839 0.389773 1.886279
v -1.436467 0.362079 1.870926
v -1.430854 0.353998 1.890961
v -1.239430 0.365565 1.988730
v -1.227348 0.396067 1.934674
v -1.429659 0.383416 1.833455
v -0.082436 0.427324 2.180483
v -0.040800 0.427056 2.180287
v -0.082436 0.448575 2.138626
v -0.125741 0.427590 2.180389
v -0.082436 0.418608 2.198165
v -0.040800 0.418333 2.197969
v -0.040800 0.448321 2.138430
v -0.125741 0.448820 2.138532
v -0.125741 0.418882 2.198071
v -0.571336 0.415143 2.142888
v -0.572034 0.406437 2.160369
v -0.484472 0.419618 2.154457
v -0.569687 0.436370 2.101505
v -0.663058 0.409992 2.129194
v -0.664099 0.401267 2.146573
v -0.484888 0.410926 2.172020
v -0.483488 0.440812 2.112881
v -0.660597 0.431264 2.088055
v -0.944561 0.392817 2.075243
v -0.850614 0.398693 2.096192
v -0.939052 0.414285 2.035133
v -1.039596 0.386809 2.048893
v -0.946891 0.384008 2.092186
v -0.852487 0.389915 2.113309
v -0.846184 0.420091 2.055671
v -1.033014 0.408342 2.009314
v -1.042378 0.377969 2.065611
v -0.273499 1.008337 0.960991
v -0.273719 0.921655 1.160408
v -0.220706 1.009397 0.962976
v -0.273308 1.082515 0.785769
v -0.330233 1.006772 0.958144
v -0.331111 0.920118 1.157143
v -0.220706 0.922651 1.162665
v -0.220706 1.083631 0.787490
v -0.329468 1.080927 0.783318
v -1.072257 0.960143 0.846164
v -1.114429 0.871955 1.023964
v -0.994906 0.966942 0.866633
v -1.035497 1.035607 0.689745
v -1.152318 0.952850 0.823961
v -1.198170 0.864885 0.996771
v -1.033187 0.878611 1.048977
v -0.961553 1.042541 0.706267
v -1.112334 1.028108 0.671878
v -0.082436 1.010864 0.965338
v -0.040800 1.011010 0.965426
v -0.082436 1.085333 0.789830
v -0.125741 1.010571 0.964997
v -0.082436 0.923849 1.165049
v -0.040800 0.923929 1.165030
v -0.040800 1.085536 0.790025
v -0.125741 1.084963 0.789397
v -0.125741 0.923644 1.164800
v -0.524852 0.998011 0.943150
v -0.532208 0.911101 1.139984
v -0.456721 1.001563 0.949231
v -0.518449 1.072387 0.770247
v -0.593680 0.994139 0.936182
v -0.604658 0.907027 1.131976
v -0.461112 0.914800 1.146941
v -0.452898 1.075812 0.775562
v -0.584122 1.068691 0.764178
v -0.789178 0.982431 0.910551
v -0.725732 0.986374 0.920169
v -0.767765 1.057731 0.742277
v -0.853760 0.978067 0.898901
v -0.813774 0.894459 1.102019
v -0.745494 0.898703 1.113372
v -0.708529 1.061413 0.750397
v -0.828128 1.053579 0.732589
v -0.883198 0.889850 1.088100
v -0.274406 0.635733 1.765036
v -0.274597 0.552888 1.928762
v -0.220706 0.636530 1.767822
v -0.274186 0.729497 1.575046
v -0.333860 0.634282 1.760816
v -0.334624 0.551460 1.924358
v -0.220706 0.553630 1.931619
v -0.220706 0.730358 1.577716
v -0.332981 0.728019 1.571072
v -1.245773 0.580934 1.560754
v -1.282162 0.496568 1.705561
v -1.152604 0.587294 1.600090
v -1.203909 0.676396 1.392473
v -1.340739 0.574388 1.517851
v -1.380180 0.490121 1.658266
v -1.185736 0.502885 1.748907
v -1.114509 0.682823 1.427215
v -1.295337 0.669713 1.354606
v -0.082436 0.636883 1.770239
v -0.040800 0.636758 1.770052
v -0.082436 0.730981 1.580128
v -0.125741 0.636955 1.770137
v -0.082436 0.553747 1.934038
v -0.040800 0.553565 1.933842
v -0.040800 0.730921 1.579968
v -0.125741 0.730965 1.580003
v -0.125741 0.553896 1.933944
v -0.555228 0.624469 1.737343
v -0.561633 0.541425 1.899235
v -0.474856 0.628624 1.747023
v -0.547872 0.718460 1.549540
v -0.639017 0.619761 1.726017
v -0.648577 0.536542 1.886970
v -0.478680 0.545708 1.909667
v -0.470464 0.722469 1.558353
v -0.628037 0.713955 1.539285
v -0.890730 0.604489 1.682105
v -0.807339 0.609687 1.699044
v -0.866141 0.699549 1.499902
v -0.975249 0.599078 1.660933
v -0.912137 0.520514 1.839080
v -0.824547 0.525980 1.857608
v -0.787576 0.704440 1.515031
v -0.945847 0.694400 1.481073
v -1.000842 0.514870 1.815854
v 1.419029 0.352547 1.902277
v 1.335731 0.357251 1.947067
v 1.240549 0.363034 1.993806
v 0.853083 0.387447 2.118723
v 0.947631 0.381528 2.097545
v 1.043258 0.375475 2.070899
v 0.664430 0.398815 2.152071
v 0.572255 0.403991 2.165899
v 0.485021 0.408485 2.177577
v 0.040800 0.415883 2.203564
v 0.082436 0.416160 2.203760
v 0.125741 0.416436 2.203665
v 0.335893 0.414394 2.193717
v 0.274914 0.415782 2.198392
v 0.220706 0.416432 2.201341
v 0.328204 1.201893 0.494224
v 0.272992 1.203521 0.496020
v 0.220706 1.204729 0.497300
v 0.040800 1.207117 0.499978
v 0.082436 1.206819 0.499605
v 0.125741 1.206322 0.499018
v 0.568320 1.190316 0.479755
v 0.507861 1.193720 0.484337
v 0.446577 1.196934 0.488387
v 1.028471 1.152593 0.424256
v 0.970371 1.159293 0.432051
v 0.906492 1.166020 0.441081
v 0.680085 1.183843 0.469662
v 0.732364 1.180598 0.464018
v 0.785764 1.176814 0.457573
v 0.171553 1.176696 0.567051
v 0.171553 1.195465 0.522150
v 0.171553 1.203283 0.503606
v 0.404590 0.444336 2.121998
v 0.405082 0.423161 2.163715
v 0.405291 0.414477 2.181337
v 0.854667 1.142581 0.514140
v 0.847072 1.161702 0.472283
v 0.843894 1.169680 0.455010
v 1.532145 0.377029 1.778416
v 1.536410 0.355980 1.816339
v 1.521254 0.348731 1.840773
v 0.000000 0.448192 2.138259
v 0.000000 0.426920 2.180116
v 0.000000 0.418196 2.197798
v 0.753627 0.425752 2.072715
v 0.757023 0.404423 2.113567
v 0.758459 0.395674 2.130823
v 0.171553 0.448924 2.137831
v 0.171553 0.427715 2.179688
v 0.171553 0.419016 2.197370
v 0.386894 1.170858 0.560078
v 0.386404 1.189592 0.515506
v 0.386198 1.197396 0.497085
v 1.128851 0.402267 1.976424
v 1.136449 0.380684 2.015313
v 1.139655 0.371816 2.031740
v 1.136450 1.113557 0.467007
v 1.120977 1.132950 0.430266
v 1.102964 1.142011 0.417642
v 0.000000 1.178190 0.568830
v 0.000000 1.197021 0.523997
v 0.000000 1.204865 0.505475
v 0.631522 1.157833 0.541818
v 0.628141 1.176721 0.498104
v 0.626722 1.184590 0.480043
v 0.220706 0.488692 2.058088
v 0.274745 0.487993 2.055188
v 0.335219 0.486584 2.050657
v 1.211463 0.436757 1.863742
v 1.310407 0.430460 1.817276
v 1.410780 0.424076 1.766563
v 0.125741 0.488835 2.060413
v 0.082436 0.488627 2.060507
v 0.040800 0.488400 2.060311
v 0.481652 0.480758 2.035287
v 0.566612 0.476377 2.024271
v 0.656007 0.471356 2.011274
v 1.020729 0.448913 1.935444
v 0.928774 0.454741 1.960274
v 0.837921 0.460416 1.980044
v 0.171553 0.730786 1.579297
v 0.171553 0.636872 1.769435
v 0.171553 0.553896 1.933243
v 1.028150 0.688867 1.457269
v 1.062130 0.593373 1.634077
v 1.091697 0.509008 1.786329
v 0.398078 0.725737 1.565579
v 0.400274 0.631978 1.754899
v 0.402186 0.549137 1.918097
v 1.387779 0.662903 1.315177
v 1.436604 0.567748 1.473166
v 1.478994 0.483609 1.608997
v 0.000000 0.730873 1.579816
v 0.000000 0.636682 1.769886
v 0.000000 0.553466 1.933672
v 0.708694 0.709200 1.527733
v 0.723846 0.614751 1.713198
v 0.737038 0.531309 1.873039
v 0.220706 1.140669 0.650442
v 0.273159 1.139510 0.648939
v 0.328874 1.137903 0.646807
v 0.935632 1.100639 0.580976
v 1.006925 1.093600 0.567515
v 1.081251 1.085941 0.553013
v 0.125741 1.142124 0.652255
v 0.082436 1.142554 0.652765
v 0.040800 1.142801 0.653049
v 0.449928 1.132862 0.639967
v 0.513474 1.129535 0.635247
v 0.576697 1.125977 0.629875
v 0.808213 1.111609 0.602687
v 0.751129 1.115598 0.610856
v 0.695164 1.119077 0.617818
v 0.171553 0.923263 1.164076
v 0.171553 1.010095 0.964258
v 0.171553 1.084404 0.788644
v 0.955694 0.884645 1.070719
v 0.921622 0.972999 0.884501
v 0.891948 1.048625 0.720773
v 0.393402 0.917884 1.152707
v 0.391207 1.004561 0.954278
v 0.389295 1.078735 0.779970
v 1.283160 0.857608 0.968488
v 1.233735 0.945309 0.800891
v 1.190617 1.020325 0.653338
v 0.000000 0.923938 1.164955
v 0.000000 1.011047 0.965407
v 0.000000 1.085596 0.790063
v 0.676431 0.902815 1.123059
v 0.661280 0.990182 0.928473
v 0.648091 1.064956 0.757510
v 0.220706 0.828077 1.372324
v 0.273952 0.827148 1.369825
v 0.332046 0.825641 1.366167
v 1.073890 0.782315 1.240203
v 1.159238 0.775791 1.210337
v 1.246854 0.768934 1.177817
v 0.125741 0.828877 1.374553
v 0.082436 0.828987 1.374725
v 0.040800 0.828998 1.374618
v 0.465788 0.820207 1.354659
v 0.540040 0.816353 1.346771
v 0.616348 0.812064 1.337647
v 0.914531 0.793703 1.286665
v 0.839960 0.798578 1.303022
v 0.766535 0.803144 1.316247
v -1.419029 0.352547 1.902277
v -1.335731 0.357251 1.947067
v -1.240549 0.363034 1.993806
v -0.853083 0.387447 2.118723
v -0.947631 0.381528 2.097545
v -1.043258 0.375475 2.070899
v -0.664430 0.398815 2.152071
v -0.572255 0.403991 2.165899
v -0.485021 0.408485 2.177577
v -0.040800 0.415883 2.203564
v -0.082436 0.416160 2.203760
v -0.125741 0.416436 2.203665
v -0.335893 0.414394 2.193717
v -0.274914 0.415782 2.198392
v -0.220706 0.416432 2.201341
v -0.328204 1.201893 0.494224
v -0.272992 1.203521 0.496020
v -0.220706 1.204729 0.497300
v -0.040800 1.207117 0.499978
v -0.082436 1.206819 0.499605
v -0.125741 1.206322 0.499018
v -0.568320 1.190316 0.479755
v -0.507861 1.193720 0.484337
v -0.446577 1.196934 0.488387
v -1.028471 1.152593 0.424256
v -0.970371 1.159293 0.432051
v -0.906492 1.166020 0.441081
v -0.680085 1.183843 0.469662
v -0.732364 1.180598 0.464018
v -0.785764 1.176814 0.457573
v -0.171553 1.176696 0.567051
v -0.171553 1.195465 0.522150
v -0.171553 1.203283 0.503606
v -0.404590 0.444336 2.121998
v -0.405082 0.423161 2.163715
v -0.405291 0.414477 2.181337
v -0.854667 1.142581 0.514140
v -0.847072 1.161702 0.472283
v -0.843894 1.169680 0.455010
v -1.532145 0.377029 1.778416
v -1.536410 0.355980 1.816339
v -1.521254 0.348731 1.840773
v -0.753627 0.425752 2.072715
v -0.757023 0.404423 2.113567
v -0.758459 0.395674 2.130823
v -0.171553 0.448924 2.137831
v -0.171553 0.427715 2.179688
v -0.171553 0.419016 2.197370
v -0.386894 1.170857 0.560078
v -0.386404 1.189592 0.515506
v -0.386198 1.197396 0.497085
v -1.128851 0.402267 1.976424
v -1.136449 0.380684 2.015313
v -1.139655 0.371816 2.031740
v -1.136450 1.113557 0.467007
v -1.120977 1.132950 0.430266
v -1.102964 1.142011 0.417642
v -0.631522 1.157833 0.541818
v -0.628141 1.176721 0.498104
v -0.626722 1.184590 0.480043
v -0.220706 0.488692 2.058088
v -0.274745 0.487993 2.055188
v -0.335219 0.486584 2.050657
v -1.211464 0.436757 1.863742
v -1.310407 0.430460 1.817276
v -1.410780 0.424076 1.766563
v -0.125741 0.488835 2.060413
v -0.082436 0.488627 2.060507
v -0.040800 0.488400 2.060311
v -0.481652 0.480758 2.035287
v -0.566612 0.476377 2.024271
v -0.656007 0.471356 2.011274
v -1.020729 0.448913 1.935444
v -0.928774 0.454741 1.960274
v -0.837921 0.460416 1.980044
v -0.171553 0.730786 1.579297
v -0.171553 0.636872 1.769435
v -0.171553 0.553896 1.933243
v -1.028150 0.688867 1.457269
v -1.062130 0.593373 1.634077
v -1.091697 0.509008 1.786329
v -0.398078 0.725737 1.565579
v -0.400274 0.631978 1.754899
v -0.402186 0.549137 1.918097
v -1.387779 0.662903 1.315177
v -1.436604 0.567748 1.473166
v -1.478994 0.483609 1.608997
v -0.708694 0.709200 1.527733
v -0.723846 0.614751 1.713198
v -0.737038 0.531309 1.873039
v -0.220706 1.140669 0.650442
v -0.273159 1.139510 0.648939
v -0.328874 1.137903 0.646807
v -0.935632 1.100639 0.580976
v -1.006925 1.093601 0.567515
v -1.081251 1.085941 0.553013
v -0.125741 1.142124 0.652255
v -0.082436 1.142554 0.652765
v -0.040800 1.142801 0.653049
v -0.449928 1.132862 0.639967
v -0.513474 1.129535 0.635247
v -0.576697 1.125977 0.629875
v -0.808213 1.111609 0.602687
v -0.751129 1.115598 0.610856
v -0.695164 1.119077 0.617818
v -0.171553 0.923263 1.164076
v -0.171553 1.010095 0.964258
v -0.171553 1.084404 0.788644
v -0.955694 0.884645 1.070719
v -0.921622 0.972999 0.884501
v -0.891948 1.048625 0.720773
v -0.393402 0.917884 1.152707
v -0.391207 1.004561 0.954278
v -0.389295 1.078735 0.779970
v -1.283160 0.857608 0.968488
v -1.233735 0.945309 0.800891
v -1.190617 1.020325 0.653338
v -0.676431 0.902815 1.123059
v -0.661280 0.990182 0.928473
v -0.648091 1.064956 0.757510
v -0.220706 0.828077 1.372324
v -0.273952 0.827148 1.369825
v -0.332046 0.825640 1.366167
v -1.073890 0.782315 1.240203
v -1.159238 0.775791 1.210337
v -1.246854 0.768934 1.177817
v -0.125741 0.828877 1.374553
v -0.082436 0.828987 1.374725
v -0.040800 0.828998 1.374618
v -0.465788 0.820207 1.354659
v -0.540040 0.816353 1.346771
v -0.616348 0.812064 1.337647
v -0.914531 0.793703 1.286665
v -0.839960 0.798578 1.303022
v -0.766535 0.803144 1.316247
v 1.483264 0.349510 1.864994
v 0.758916 0.393215 2.136282
v 1.140665 0.369305 2.036936
v 0.405357 0.412038 2.186913
v 0.171553 0.416573 2.202964
v 0.842926 1.172088 0.450028
v 0.626284 1.186948 0.474808
v 1.074699 1.146604 0.419013
v 0.386135 1.199734 0.491738
v 0.171553 1.205626 0.498242
v 0.171553 0.488899 2.059712
v 0.403672 0.484246 2.044142
v 1.114666 0.442922 1.903839
v 1.511869 0.417648 1.713727
v 0.747292 0.465951 1.996472
v 0.171553 1.141500 0.651490
v 0.868889 1.106745 0.592873
v 0.387810 1.135727 0.643874
v 1.157093 1.077971 0.537990
v 0.637845 1.122415 0.624012
v 0.171553 0.828597 1.373841
v 0.991943 0.788341 1.266088
v 0.395740 0.823383 1.361171
v 1.335604 0.761911 1.143970
v 0.692563 0.807580 1.327426
v -1.483264 0.349510 1.864994
v 0.000000 0.415744 2.203393
v -0.758916 0.393215 2.136282
v -1.140665 0.369305 2.036936
v -0.405357 0.412038 2.186913
v -0.171553 0.416573 2.202964
v -0.842926 1.172088 0.450028
v 0.000000 1.207216 0.500111
v -0.626284 1.186948 0.474808
v -1.074699 1.146604 0.419013
v -0.386135 1.199734 0.491738
v -0.171553 1.205626 0.498242
v -0.171553 0.488899 2.059712
v -0.403672 0.484246 2.044142
v -1.114666 0.442922 1.903839
v -1.511869 0.417648 1.713727
v 0.000000 0.488282 2.060140
v -0.747292 0.465951 1.996472
v -0.171553 1.141500 0.651490
v -0.868889 1.106745 0.592873
v -0.387810 1.135727 0.643874
v -1.157093 1.077971 0.537990
v 0.000000 1.142879 0.653134
v -0.637845 1.122415 0.624012
v -0.171553 0.828597 1.373841
v -0.991943 0.788341 1.266088
v -0.395740 0.823383 1.361171
v -1.335604 0.761911 1.143970
v 0.000000 0.828978 1.374495
v -0.692563 0.807580 1.327426
vn 0.0354 0.9214 0.3869
vn 0.0462 0.9215 0.3854
vn 0.0456 0.9208 0.3872
vn 0.0586 0.9207 0.3859
vn 0.0579 0.9200 0.3876
vn 0.0357 0.9221 0.3851
vn 0.0473 0.9218 0.3848
vn 0.0600 0.9208 0.3852
vn 0.0354 0.9185 0.3938
vn 0.0456 0.9180 0.3939
vn 0.0355 0.9161 0.3994
vn 0.0578 0.9172 0.3942
vn 0.0457 0.9156 0.3993
vn 0.0276 0.9187 0.3940
vn 0.0275 0.9217 0.3868
vn 0.0224 0.9187 0.3943
vn 0.0222 0.9218 0.3870
vn 0.0276 0.9162 0.3997
vn 0.0225 0.9162 0.4001
vn 0.0275 0.9225 0.3850
vn 0.0364 0.9224 0.3845
vn 0.0219 0.9226 0.3851
vn 0.0276 0.9228 0.3844
vn 0.1606 0.9051 0.3936
vn 0.1625 0.9010 0.4022
vn 0.1576 0.9037 0.3979
vn 0.1655 0.9024 0.3977
vn 0.1655 0.8993 0.4047
vn 0.1663 0.9052 0.3910
vn 0.1715 0.9026 0.3948
vn 0.1689 0.9004 0.4010
vn 0.1624 0.8937 0.4181
vn 0.1573 0.8973 0.4125
vn 0.1620 0.8861 0.4342
vn 0.1566 0.8917 0.4246
vn 0.1640 0.8971 0.4103
vn 0.1649 0.8845 0.4363
vn 0.1494 0.9067 0.3944
vn 0.1488 0.9017 0.4058
vn 0.1368 0.9095 0.3926
vn 0.1487 0.8977 0.4147
vn 0.1362 0.9054 0.4020
vn 0.1523 0.9077 0.3909
vn 0.1576 0.9078 0.3887
vn 0.1393 0.9103 0.3898
vn 0.1440 0.9103 0.3880
vn 0.0065 0.9215 0.3883
vn 0.0120 0.9224 0.3860
vn 0.0126 0.9216 0.3879
vn 0.0061 0.9222 0.3865
vn 0.0109 0.9227 0.3854
vn 0.0000 0.9214 0.3885
vn 0.0000 0.9222 0.3867
vn 0.0053 0.9225 0.3858
vn 0.0174 0.9225 0.3855
vn 0.0179 0.9217 0.3874
vn 0.0163 0.9228 0.3849
vn 0.0214 0.9228 0.3845
vn 0.0129 0.9185 0.3951
vn 0.0182 0.9186 0.3947
vn 0.0130 0.9160 0.4009
vn 0.0183 0.9161 0.4006
vn 0.0067 0.9184 0.3955
vn 0.0000 0.9184 0.3956
vn 0.0068 0.9159 0.4012
vn 0.0000 0.9159 0.4014
vn 0.0781 0.9180 0.3887
vn 0.0855 0.9177 0.3879
vn 0.0843 0.9171 0.3895
vn 0.0893 0.9163 0.3905
vn 0.0790 0.9187 0.3870
vn 0.0876 0.9179 0.3870
vn 0.0925 0.9171 0.3879
vn 0.0903 0.9168 0.3889
vn 0.0780 0.9152 0.3953
vn 0.0843 0.9143 0.3962
vn 0.0781 0.9129 0.4006
vn 0.0891 0.9133 0.3974
vn 0.0893 0.9109 0.4028
vn 0.0845 0.9119 0.4015
vn 0.0694 0.9162 0.3946
vn 0.0695 0.9190 0.3881
vn 0.0695 0.9139 0.3999
vn 0.0580 0.9149 0.3995
vn 0.0703 0.9196 0.3864
vn 0.0807 0.9188 0.3863
vn 0.0717 0.9198 0.3857
vn 0.1070 0.9137 0.3920
vn 0.0973 0.9159 0.3895
vn 0.1088 0.9144 0.3898
vn 0.1003 0.9160 0.3885
vn 0.1123 0.9145 0.3887
vn 0.0958 0.9152 0.3915
vn 0.1213 0.9118 0.3922
vn 0.1235 0.9126 0.3898
vn 0.1276 0.9126 0.3884
vn 0.1209 0.9084 0.4003
vn 0.1066 0.9106 0.3994
vn 0.1208 0.9055 0.4067
vn 0.1066 0.9080 0.4052
vn 0.1361 0.9022 0.4093
vn 0.0955 0.9122 0.3985
vn 0.0956 0.9097 0.4041
vn 0.0448 0.8940 0.4458
vn 0.0623 0.9056 0.4195
vn 0.0641 0.8931 0.4453
vn 0.0805 0.9043 0.4192
vn 0.0826 0.8917 0.4450
vn 0.0433 0.9065 0.4199
vn 0.0604 0.9149 0.3990
vn 0.0783 0.9137 0.3987
vn 0.0452 0.8904 0.4528
vn 0.0644 0.8895 0.4524
vn 0.0454 0.8891 0.4554
vn 0.0829 0.8881 0.4520
vn 0.0642 0.8881 0.4550
vn 0.0268 0.8909 0.4533
vn 0.0263 0.8945 0.4462
vn 0.0115 0.8910 0.4537
vn 0.0110 0.8946 0.4467
vn 0.0274 0.8896 0.4559
vn 0.0123 0.8897 0.4563
vn 0.0251 0.9070 0.4204
vn 0.0417 0.9158 0.3993
vn 0.0102 0.9071 0.4208
vn 0.0241 0.9163 0.3998
vn 0.2705 0.8622 0.4283
vn 0.2747 0.8697 0.4100
vn 0.2838 0.8569 0.4304
vn 0.2877 0.8552 0.4310
vn 0.2888 0.8519 0.4368
vn 0.2605 0.8763 0.4051
vn 0.2570 0.8874 0.3825
vn 0.2734 0.8744 0.4007
vn 0.2712 0.8585 0.4352
vn 0.2836 0.8538 0.4365
vn 0.2683 0.8577 0.4386
vn 0.2876 0.8505 0.4404
vn 0.2803 0.8531 0.4400
vn 0.2517 0.8636 0.4367
vn 0.2509 0.8671 0.4303
vn 0.2238 0.8692 0.4408
vn 0.2230 0.8728 0.4340
vn 0.2493 0.8627 0.4399
vn 0.2219 0.8682 0.4439
vn 0.2424 0.8799 0.4086
vn 0.2474 0.8889 0.3854
vn 0.2155 0.8860 0.4104
vn 0.2343 0.8897 0.3919
vn -0.0062 0.8943 0.4474
vn -0.0064 0.9066 0.4219
vn -0.0064 0.9067 0.4216
vn -0.0063 0.9160 0.4012
vn -0.0065 0.9160 0.4010
vn -0.0063 0.8942 0.4476
vn 0.0000 0.9066 0.4220
vn 0.0000 0.9159 0.4013
vn -0.0005 0.9069 0.4212
vn -0.0000 0.8945 0.4471
vn -0.0008 0.9162 0.4006
vn 0.0096 0.9163 0.4002
vn -0.0059 0.8907 0.4544
vn 0.0004 0.8909 0.4541
vn -0.0052 0.8894 0.4570
vn 0.0012 0.8896 0.4567
vn -0.0061 0.8906 0.4547
vn 0.0000 0.8941 0.4477
vn -0.0057 0.8893 0.4572
vn 0.0000 0.8906 0.4548
vn 0.1106 0.8888 0.4447
vn 0.1183 0.9001 0.4191
vn 0.1213 0.8874 0.4448
vn 0.1281 0.8988 0.4192
vn 0.1316 0.8859 0.4448
vn 0.1079 0.9015 0.4191
vn 0.1155 0.9098 0.3987
vn 0.1250 0.9085 0.3988
vn 0.1109 0.8852 0.4518
vn 0.1216 0.8837 0.4519
vn 0.1101 0.8839 0.4545
vn 0.1319 0.8823 0.4519
vn 0.1208 0.8825 0.4545
vn 0.0985 0.8866 0.4518
vn 0.0983 0.8902 0.4448
vn 0.0979 0.8854 0.4545
vn 0.0824 0.8868 0.4546
vn 0.0959 0.9029 0.4191
vn 0.1053 0.9110 0.3986
vn 0.0935 0.9123 0.3986
vn 0.1454 0.8841 0.4441
vn 0.1608 0.8947 0.4167
vn 0.1659 0.8815 0.4421
vn 0.1413 0.8972 0.4185
vn 0.1560 0.9045 0.3969
vn 0.1375 0.9069 0.3983
vn 0.1859 0.8911 0.4140
vn 0.1922 0.8778 0.4387
vn 0.1798 0.9010 0.3948
vn 0.2079 0.8959 0.3924
vn 0.1665 0.8778 0.4491
vn 0.1929 0.8741 0.4456
vn 0.1653 0.8766 0.4520
vn 0.1915 0.8730 0.4486
vn 0.1458 0.8804 0.4512
vn 0.1448 0.8792 0.4539
vn 0.1310 0.8810 0.4545
vn 0.0392 0.9183 0.3940
vn 0.0545 0.9127 0.4048
vn 0.0517 0.9175 0.3942
vn 0.0688 0.9117 0.4050
vn 0.0653 0.9166 0.3945
vn 0.0410 0.9135 0.4047
vn 0.0575 0.9056 0.4201
vn 0.0725 0.9045 0.4202
vn 0.0376 0.9213 0.3869
vn 0.0492 0.9207 0.3872
vn 0.0623 0.9197 0.3876
vn 0.0279 0.9217 0.3868
vn 0.0283 0.9187 0.3939
vn 0.0206 0.9218 0.3870
vn 0.0197 0.9188 0.3941
vn 0.0287 0.9140 0.4047
vn 0.0428 0.9064 0.4201
vn 0.0185 0.9141 0.4050
vn 0.0291 0.9069 0.4203
vn 0.1881 0.8982 0.3972
vn 0.2088 0.8890 0.4074
vn 0.1935 0.8959 0.3998
vn 0.1983 0.8945 0.4007
vn 0.2020 0.8924 0.4035
vn 0.2268 0.8795 0.4184
vn 0.2282 0.8777 0.4213
vn 0.2126 0.8867 0.4106
vn 0.1813 0.9008 0.3945
vn 0.1755 0.9034 0.3911
vn 0.1852 0.8990 0.3968
vn 0.1752 0.9008 0.3974
vn 0.1774 0.9011 0.3955
vn 0.1660 0.9060 0.3892
vn 0.1613 0.9041 0.3956
vn 0.1514 0.9087 0.3890
vn 0.1901 0.8955 0.4024
vn 0.2184 0.8828 0.4158
vn 0.1723 0.8987 0.4032
vn 0.2049 0.8863 0.4152
vn 0.0066 0.9186 0.3951
vn 0.0005 0.9138 0.4062
vn 0.0039 0.9139 0.4058
vn -0.0012 0.9067 0.4217
vn 0.0014 0.9069 0.4214
vn 0.0023 0.9185 0.3955
vn 0.0000 0.9137 0.4063
vn 0.0000 0.9066 0.4219
vn 0.0103 0.9141 0.4053
vn 0.0126 0.9188 0.3945
vn 0.0080 0.9070 0.4210
vn 0.0173 0.9070 0.4206
vn 0.0090 0.9216 0.3879
vn 0.0147 0.9218 0.3874
vn 0.0039 0.9215 0.3883
vn 0.0000 0.9225 0.3860
vn 0.0000 0.9214 0.3886
vn 0.0872 0.9144 0.3953
vn 0.0999 0.9083 0.4062
vn 0.0951 0.9134 0.3959
vn 0.1074 0.9072 0.4067
vn 0.1018 0.9124 0.3965
vn 0.0915 0.9094 0.4057
vn 0.1053 0.9008 0.4211
vn 0.1136 0.8997 0.4215
vn 0.0835 0.9176 0.3885
vn 0.0908 0.9167 0.3892
vn 0.0967 0.9156 0.3902
vn 0.0743 0.9186 0.3880
vn 0.0776 0.9154 0.3948
vn 0.0815 0.9105 0.4053
vn 0.0963 0.9020 0.4207
vn 0.0858 0.9032 0.4204
vn 0.1109 0.9111 0.3969
vn 0.1327 0.9040 0.4063
vn 0.1246 0.9093 0.3970
vn 0.1175 0.9059 0.4069
vn 0.1412 0.8961 0.4207
vn 0.1247 0.8982 0.4216
vn 0.1515 0.9017 0.4050
vn 0.1423 0.9069 0.3965
vn 0.1619 0.8934 0.4189
vn 0.1849 0.8900 0.4166
vn 0.1339 0.9111 0.3898
vn 0.1176 0.9129 0.3908
vn 0.1050 0.9143 0.3911
vn 0.0450 0.8936 0.4466
vn 0.0635 0.8891 0.4532
vn 0.0621 0.8927 0.4463
vn 0.0811 0.8878 0.4530
vn 0.0790 0.8914 0.4461
vn 0.0454 0.8900 0.4536
vn 0.0442 0.8990 0.4357
vn 0.0602 0.8981 0.4356
vn 0.0761 0.8969 0.4355
vn 0.0291 0.8995 0.4360
vn 0.0287 0.8941 0.4469
vn 0.0161 0.8996 0.4363
vn 0.0147 0.8942 0.4473
vn 0.0281 0.8905 0.4540
vn 0.0134 0.8907 0.4545
vn 0.2496 0.8651 0.4351
vn 0.2725 0.8553 0.4406
vn 0.2602 0.8610 0.4370
vn 0.2752 0.8529 0.4436
vn 0.2624 0.8589 0.4399
vn 0.2611 0.8597 0.4390
vn 0.2837 0.8502 0.4433
vn 0.2351 0.8727 0.4278
vn 0.2447 0.8690 0.4301
vn 0.2465 0.8671 0.4329
vn 0.2199 0.8768 0.4276
vn 0.2328 0.8695 0.4355
vn 0.1975 0.8810 0.4298
vn 0.2083 0.8743 0.4384
vn 0.2430 0.8645 0.4399
vn 0.2167 0.8697 0.4435
vn -0.0027 0.8940 0.4481
vn -0.0050 0.8903 0.4554
vn -0.0042 0.8904 0.4552
vn -0.0040 0.8938 0.4483
vn 0.0000 0.8902 0.4555
vn 0.0000 0.8893 0.4573
vn 0.0024 0.8905 0.4548
vn 0.0040 0.8941 0.4477
vn -0.0008 0.8994 0.4371
vn 0.0059 0.8995 0.4368
vn -0.0028 0.8993 0.4374
vn 0.0000 0.8938 0.4484
vn 0.0000 0.8992 0.4375
vn 0.1050 0.8887 0.4462
vn 0.1186 0.8835 0.4530
vn 0.1151 0.8874 0.4464
vn 0.1286 0.8821 0.4531
vn 0.1246 0.8860 0.4466
vn 0.1081 0.8850 0.4529
vn 0.1010 0.8943 0.4358
vn 0.1106 0.8931 0.4361
vn 0.1196 0.8918 0.4364
vn 0.0900 0.8956 0.4356
vn 0.0934 0.8901 0.4461
vn 0.0962 0.8864 0.4528
vn 0.1375 0.8842 0.4463
vn 0.1621 0.8777 0.4508
vn 0.1566 0.8818 0.4448
vn 0.1421 0.8803 0.4526
vn 0.1874 0.8743 0.4478
vn 0.1807 0.8786 0.4421
vn 0.1496 0.8879 0.4350
vn 0.1721 0.8849 0.4328
vn 0.1317 0.8901 0.4362
vn -0.0354 0.9214 0.3869
vn -0.0462 0.9215 0.3854
vn -0.0357 0.9221 0.3851
vn -0.0473 0.9218 0.3848
vn -0.0364 0.9224 0.3845
vn -0.0456 0.9208 0.3872
vn -0.0586 0.9207 0.3859
vn -0.0600 0.9208 0.3852
vn -0.0275 0.9217 0.3868
vn -0.0275 0.9225 0.3850
vn -0.0222 0.9218 0.3870
vn -0.0276 0.9228 0.3844
vn -0.0219 0.9226 0.3851
vn -0.0276 0.9187 0.3940
vn -0.0354 0.9185 0.3938
vn -0.0276 0.9162 0.3997
vn -0.0355 0.9160 0.3994
vn -0.0224 0.9187 0.3943
vn -0.0225 0.9162 0.4001
vn -0.0456 0.9180 0.3939
vn -0.0579 0.9200 0.3876
vn -0.0457 0.9156 0.3993
vn -0.0578 0.9172 0.3942
vn -0.1625 0.9010 0.4022
vn -0.1606 0.9051 0.3936
vn -0.1576 0.9037 0.3979
vn -0.1655 0.9024 0.3977
vn -0.1663 0.9052 0.3910
vn -0.1655 0.8993 0.4047
vn -0.1689 0.9004 0.4010
vn -0.1715 0.9026 0.3948
vn -0.1523 0.9077 0.3909
vn -0.1494 0.9067 0.3944
vn -0.1393 0.9103 0.3898
vn -0.1368 0.9095 0.3926
vn -0.1576 0.9078 0.3887
vn -0.1440 0.9103 0.3880
vn -0.1573 0.8973 0.4125
vn -0.1488 0.9017 0.4058
vn -0.1566 0.8917 0.4246
vn -0.1362 0.9055 0.4020
vn -0.1487 0.8977 0.4147
vn -0.1624 0.8937 0.4182
vn -0.1640 0.8971 0.4103
vn -0.1620 0.8861 0.4342
vn -0.1649 0.8845 0.4363
vn -0.0120 0.9224 0.3860
vn -0.0065 0.9215 0.3883
vn -0.0126 0.9216 0.3879
vn -0.0061 0.9222 0.3865
vn -0.0109 0.9227 0.3854
vn -0.0053 0.9225 0.3858
vn -0.0067 0.9184 0.3955
vn -0.0129 0.9185 0.3951
vn -0.0068 0.9159 0.4012
vn -0.0130 0.9160 0.4009
vn -0.0179 0.9217 0.3874
vn -0.0182 0.9186 0.3947
vn -0.0183 0.9161 0.4006
vn -0.0174 0.9225 0.3855
vn -0.0163 0.9228 0.3849
vn -0.0214 0.9228 0.3845
vn -0.0781 0.9180 0.3887
vn -0.0855 0.9177 0.3879
vn -0.0790 0.9187 0.3870
vn -0.0876 0.9179 0.3870
vn -0.0807 0.9188 0.3863
vn -0.0893 0.9163 0.3905
vn -0.0843 0.9171 0.3895
vn -0.0925 0.9171 0.3879
vn -0.0695 0.9190 0.3881
vn -0.0703 0.9196 0.3864
vn -0.0717 0.9198 0.3857
vn -0.0694 0.9162 0.3946
vn -0.0780 0.9152 0.3953
vn -0.0695 0.9139 0.3999
vn -0.0781 0.9129 0.4006
vn -0.0580 0.9149 0.3995
vn -0.0891 0.9133 0.3974
vn -0.0843 0.9143 0.3962
vn -0.0893 0.9109 0.4028
vn -0.1070 0.9137 0.3920
vn -0.0973 0.9159 0.3895
vn -0.0958 0.9152 0.3914
vn -0.0903 0.9168 0.3889
vn -0.1088 0.9144 0.3898
vn -0.1003 0.9160 0.3885
vn -0.1066 0.9106 0.3994
vn -0.0955 0.9122 0.3985
vn -0.1066 0.9080 0.4053
vn -0.0956 0.9097 0.4041
vn -0.1209 0.9084 0.4003
vn -0.1213 0.9118 0.3922
vn -0.1208 0.9055 0.4067
vn -0.1361 0.9022 0.4093
vn -0.1235 0.9126 0.3898
vn -0.1123 0.9145 0.3887
vn -0.1276 0.9126 0.3884
vn -0.0448 0.8940 0.4458
vn -0.0623 0.9056 0.4195
vn -0.0433 0.9065 0.4199
vn -0.0604 0.9149 0.3990
vn -0.0417 0.9158 0.3993
vn -0.0641 0.8931 0.4453
vn -0.0805 0.9043 0.4192
vn -0.0783 0.9137 0.3987
vn -0.0263 0.8945 0.4462
vn -0.0251 0.9070 0.4204
vn -0.0110 0.8946 0.4467
vn -0.0241 0.9163 0.3998
vn -0.0102 0.9071 0.4208
vn -0.0268 0.8909 0.4533
vn -0.0452 0.8904 0.4528
vn -0.0274 0.8896 0.4559
vn -0.0454 0.8891 0.4554
vn -0.0115 0.8910 0.4537
vn -0.0123 0.8897 0.4563
vn -0.0644 0.8895 0.4524
vn -0.0826 0.8917 0.4450
vn -0.0642 0.8881 0.4550
vn -0.0829 0.8881 0.4520
vn -0.2705 0.8622 0.4283
vn -0.2747 0.8697 0.4100
vn -0.2605 0.8763 0.4051
vn -0.2570 0.8874 0.3825
vn -0.2474 0.8889 0.3854
vn -0.2838 0.8569 0.4304
vn -0.2877 0.8552 0.4310
vn -0.2734 0.8744 0.4006
vn -0.2509 0.8671 0.4303
vn -0.2424 0.8799 0.4085
vn -0.2230 0.8728 0.4340
vn -0.2343 0.8897 0.3919
vn -0.2155 0.8860 0.4104
vn -0.2517 0.8636 0.4367
vn -0.2712 0.8585 0.4352
vn -0.2493 0.8627 0.4399
vn -0.2683 0.8577 0.4386
vn -0.2238 0.8692 0.4408
vn -0.2219 0.8682 0.4439
vn -0.2836 0.8538 0.4365
vn -0.2888 0.8519 0.4368
vn -0.2803 0.8531 0.4400
vn -0.2876 0.8505 0.4404
vn 0.0062 0.8943 0.4474
vn 0.0064 0.9066 0.4219
vn 0.0063 0.8942 0.4476
vn 0.0064 0.9067 0.4216
vn 0.0063 0.9160 0.4012
vn 0.0059 0.8907 0.4544
vn 0.0061 0.8906 0.4547
vn 0.0052 0.8894 0.4570
vn 0.0057 0.8893 0.4572
vn -0.0004 0.8909 0.4541
vn -0.0012 0.8896 0.4567
vn 0.0005 0.9069 0.4212
vn 0.0008 0.9162 0.4006
vn 0.0065 0.9160 0.4010
vn -0.0096 0.9163 0.4002
vn -0.1106 0.8888 0.4447
vn -0.1183 0.9001 0.4191
vn -0.1079 0.9015 0.4191
vn -0.1155 0.9098 0.3987
vn -0.1053 0.9110 0.3986
vn -0.1213 0.8874 0.4448
vn -0.1281 0.8988 0.4192
vn -0.1250 0.9085 0.3988
vn -0.0983 0.8902 0.4448
vn -0.0959 0.9029 0.4191
vn -0.0935 0.9123 0.3986
vn -0.0985 0.8866 0.4518
vn -0.1109 0.8852 0.4518
vn -0.0979 0.8853 0.4545
vn -0.1101 0.8839 0.4545
vn -0.0824 0.8868 0.4546
vn -0.1216 0.8837 0.4519
vn -0.1316 0.8859 0.4448
vn -0.1208 0.8825 0.4545
vn -0.1319 0.8823 0.4519
vn -0.1608 0.8947 0.4167
vn -0.1454 0.8841 0.4441
vn -0.1659 0.8815 0.4421
vn -0.1413 0.8972 0.4185
vn -0.1560 0.9045 0.3969
vn -0.1375 0.9069 0.3983
vn -0.1458 0.8804 0.4512
vn -0.1665 0.8778 0.4491
vn -0.1448 0.8792 0.4539
vn -0.1653 0.8766 0.4520
vn -0.1310 0.8810 0.4545
vn -0.1922 0.8778 0.4387
vn -0.1929 0.8741 0.4456
vn -0.1915 0.8730 0.4486
vn -0.1859 0.8911 0.4140
vn -0.1798 0.9010 0.3948
vn -0.2079 0.8959 0.3924
vn -0.0392 0.9183 0.3940
vn -0.0545 0.9127 0.4048
vn -0.0410 0.9135 0.4047
vn -0.0575 0.9056 0.4201
vn -0.0428 0.9064 0.4201
vn -0.0517 0.9175 0.3942
vn -0.0688 0.9117 0.4050
vn -0.0725 0.9045 0.4202
vn -0.0283 0.9187 0.3939
vn -0.0287 0.9140 0.4047
vn -0.0197 0.9188 0.3941
vn -0.0291 0.9069 0.4203
vn -0.0185 0.9141 0.4050
vn -0.0279 0.9217 0.3868
vn -0.0376 0.9213 0.3869
vn -0.0206 0.9218 0.3870
vn -0.0492 0.9207 0.3872
vn -0.0653 0.9166 0.3945
vn -0.0623 0.9197 0.3876
vn -0.1881 0.8982 0.3972
vn -0.2088 0.8890 0.4074
vn -0.2020 0.8924 0.4035
vn -0.2268 0.8795 0.4184
vn -0.2184 0.8828 0.4158
vn -0.1983 0.8945 0.4007
vn -0.1935 0.8959 0.3998
vn -0.2282 0.8777 0.4213
vn -0.1774 0.9011 0.3955
vn -0.1901 0.8955 0.4024
vn -0.1613 0.9041 0.3956
vn -0.2049 0.8863 0.4152
vn -0.1723 0.8987 0.4032
vn -0.1755 0.9034 0.3911
vn -0.1660 0.9060 0.3892
vn -0.1514 0.9087 0.3890
vn -0.1813 0.9008 0.3945
vn -0.1852 0.8990 0.3968
vn -0.1752 0.9008 0.3974
vn -0.0066 0.9186 0.3951
vn -0.0005 0.9138 0.4062
vn -0.0023 0.9185 0.3955
vn -0.0039 0.9139 0.4058
vn 0.0012 0.9067 0.4217
vn -0.0039 0.9215 0.3883
vn -0.0090 0.9216 0.3879
vn -0.0126 0.9188 0.3945
vn -0.0147 0.9218 0.3874
vn -0.0103 0.9141 0.4053
vn -0.0080 0.9070 0.4210
vn -0.0014 0.9069 0.4214
vn -0.0173 0.9070 0.4206
vn -0.0872 0.9144 0.3953
vn -0.0999 0.9083 0.4062
vn -0.0915 0.9094 0.4057
vn -0.1053 0.9008 0.4211
vn -0.0963 0.9020 0.4207
vn -0.0951 0.9134 0.3959
vn -0.1074 0.9072 0.4067
vn -0.1136 0.8997 0.4215
vn -0.0776 0.9154 0.3948
vn -0.0815 0.9105 0.4053
vn -0.0858 0.9032 0.4204
vn -0.0743 0.9186 0.3880
vn -0.0835 0.9176 0.3885
vn -0.0908 0.9167 0.3892
vn -0.1018 0.9124 0.3965
vn -0.0967 0.9156 0.3902
vn -0.1327 0.9040 0.4063
vn -0.1109 0.9111 0.3969
vn -0.1246 0.9093 0.3970
vn -0.1175 0.9059 0.4069
vn -0.1412 0.8961 0.4207
vn -0.1247 0.8982 0.4216
vn -0.1050 0.9143 0.3911
vn -0.1176 0.9129 0.3908
vn -0.1339 0.9111 0.3898
vn -0.1423 0.9069 0.3965
vn -0.1515 0.9017 0.4050
vn -0.1619 0.8934 0.4189
vn -0.1849 0.8900 0.4166
vn -0.0450 0.8936 0.4466
vn -0.0635 0.8891 0.4532
vn -0.0454 0.8900 0.4536
vn -0.0621 0.8927 0.4463
vn -0.0811 0.8878 0.4530
vn -0.0287 0.8941 0.4469
vn -0.0281 0.8905 0.4540
vn -0.0147 0.8942 0.4473
vn -0.0134 0.8907 0.4545
vn -0.0291 0.8995 0.4360
vn -0.0442 0.8990 0.4357
vn -0.0161 0.8996 0.4363
vn -0.0602 0.8981 0.4356
vn -0.0790 0.8914 0.4461
vn -0.0761 0.8969 0.4355
vn -0.2496 0.8651 0.4351
vn -0.2725 0.8553 0.4406
vn -0.2611 0.8597 0.4390
vn -0.2602 0.8610 0.4370
vn -0.2752 0.8529 0.4436
vn -0.2837 0.8502 0.4433
vn -0.2328 0.8695 0.4355
vn -0.2430 0.8645 0.4399
vn -0.2083 0.8743 0.4384
vn -0.2167 0.8697 0.4435
vn -0.2199 0.8768 0.4276
vn -0.2351 0.8727 0.4278
vn -0.1975 0.8810 0.4298
vn -0.2447 0.8690 0.4301
vn -0.2624 0.8589 0.4399
vn -0.2465 0.8671 0.4329
vn 0.0027 0.8940 0.4481
vn 0.0050 0.8903 0.4554
vn 0.0041 0.8938 0.4483
vn 0.0042 0.8904 0.4552
vn 0.0008 0.8994 0.4371
vn 0.0028 0.8993 0.4374
vn -0.0040 0.8941 0.4477
vn -0.0059 0.8995 0.4368
vn -0.0024 0.8905 0.4548
vn -0.1050 0.8887 0.4462
vn -0.1186 0.8835 0.4530
vn -0.1081 0.8850 0.4529
vn -0.1151 0.8874 0.4464
vn -0.1286 0.8821 0.4531
vn -0.0934 0.8901 0.4461
vn -0.0962 0.8864 0.4528
vn -0.0900 0.8956 0.4356
vn -0.1010 0.8943 0.4358
vn -0.1106 0.8931 0.4361
vn -0.1246 0.8860 0.4466
vn -0.1196 0.8918 0.4364
vn -0.1621 0.8777 0.4508
vn -0.1375 0.8842 0.4463
vn -0.1566 0.8818 0.4448
vn -0.1421 0.8803 0.4526
vn -0.1317 0.8901 0.4362
vn -0.1496 0.8879 0.4350
vn -0.1807 0.8786 0.4421
vn -0.1721 0.8849 0.4328
vn -0.1874 0.8743 0.4478
vn -0.0845 0.9119 0.4015
vn -0.2126 0.8867 0.4106
s 1
f 1//1 6//2 2//3
f 2//3 412//4 413//5
f 5//6 462//7 6//2
f 6//2 660//8 412//4
f 2//3 3//9 1//1
f 7//10 377//11 3//9
f 413//5 7//10 2//3
f 414//12 376//13 7//10
f 1//1 8//14 4//15
f 4//15 393//16 392//17
f 3//9 378//18 8//14
f 8//14 652//19 393//16
f 4//15 5//6 1//1
f 9//20 461//21 5//6
f 392//17 9//20 4//15
f 391//22 460//23 9//20
f 14//24 11//25 10//26
f 15//27 419//28 11//25
f 464//29 15//27 14//24
f 465//30 418//31 15//27
f 10//26 16//32 12//33
f 12//33 385//34 386//35
f 11//25 420//36 16//32
f 16//32 650//37 385//34
f 12//33 13//38 10//26
f 17//39 398//40 13//38
f 386//35 17//39 12//33
f 387//41 399//42 17//39
f 10//26 18//43 14//24
f 14//24 463//44 464//29
f 13//38 397//45 18//43
f 18//43 659//46 463//44
f 23//47 20//48 19//49
f 24//50 467//51 20//48
f 422//52 24//50 23//47
f 421//53 468//54 24//50
f 19//49 25//55 21//56
f 21//56 391//22 392//17
f 20//48 466//57 25//55
f 25//55 658//58 391//22
f 21//56 22//59 19//49
f 26//60 380//61 22//59
f 392//17 26//60 21//56
f 393//16 381//62 26//60
f 19//49 27//63 23//47
f 23//47 423//64 422//52
f 22//59 379//65 27//63
f 27//63 675//66 423//64
f 28//67 33//68 29//69
f 33//68 425//70 29//69
f 32//71 471//72 33//68
f 33//68 662//73 424//74
f 29//69 30//75 28//67
f 34//76 383//77 30//75
f 29//69 426//78 34//76
f 34//76 649//79 382//80
f 28//67 35//81 31//82
f 31//82 414//12 413//5
f 30//75 384//83 35//81
f 35//81 651//84 414//12
f 31//82 32//71 28//67
f 36//85 470//86 32//71
f 413//5 36//85 31//82
f 412//4 469//87 36//85
f 37//88 42//89 38//90
f 38//90 474//91 473//92
f 41//93 424//74 42//89
f 42//89 662//73 474//91
f 38//90 39//94 37//88
f 43//95 398//40 39//94
f 473//92 43//95 38//90
f 472//96 397//45 43//95
f 37//88 44//97 40//98
f 40//98 390//99 389//100
f 39//94 399//42 44//97
f 44//97 648//101 390//99
f 40//98 41//93 37//88
f 45//102 425//70 41//93
f 389//100 45//102 40//98
f 388//103 426//78 45//102
f 46//104 51//105 47//106
f 47//106 396//107 395//108
f 50//109 373//110 51//105
f 51//105 646//111 396//107
f 47//106 48//112 46//104
f 52//113 428//114 48//112
f 395//108 52//113 47//106
f 394//115 429//116 52//113
f 46//104 53//117 49//118
f 49//118 409//119 410//120
f 48//112 427//121 53//117
f 53//117 653//122 409//119
f 49//118 50//109 46//104
f 54//123 374//124 50//109
f 410//120 54//123 49//118
f 411//125 375//126 54//123
f 55//127 60//128 56//129
f 56//129 402//130 401//131
f 59//132 361//133 60//128
f 60//128 643//134 402//130
f 56//129 57//135 55//127
f 61//136 431//137 57//135
f 401//131 61//136 56//129
f 400//138 432//139 61//136
f 55//127 62//140 58//141
f 58//141 415//142 416//143
f 57//135 430//144 62//140
f 62//140 655//145 415//142
f 58//141 59//132 55//127
f 63//146 362//147 59//132
f 416//143 63//146 58//141
f 417//148 363//149 63//146
f 64//150 69//151 65//152
f 65//152 370//153 371//154
f 68//155 405//156 69//151
f 69//151 669//157 370//153
f 64//150 70//158 66//159
f 66//159 411//125 410//120
f 65//152 372//160 70//158
f 70//158 647//161 411//125
f 66//159 67//162 64//150
f 71//163 434//164 67//162
f 410//120 71//163 66//159
f 409//119 433//165 71//163
f 67//162 68//155 64//150
f 72//166 404//167 68//155
f 434//164 72//166 67//162
f 435//168 403//169 72//166
f 73//170 78//171 74//172
f 74//172 408//173 407//174
f 77//175 367//176 78//171
f 78//171 644//177 408//173
f 74//172 75//178 73//170
f 79//179 437//180 75//178
f 407//174 79//179 74//172
f 406//181 438//182 79//179
f 73//170 80//183 76//184
f 76//184 394//115 395//108
f 75//178 436//185 80//183
f 80//183 654//186 394//115
f 76//184 77//175 73//170
f 81//187 368//188 77//175
f 395//108 81//187 76//184
f 396//107 369//189 81//187
f 86//190 83//191 82//192
f 87//193 365//194 83//191
f 407//174 87//193 86//190
f 408//173 364//195 87//193
f 82//192 88//196 84//197
f 84//197 417//148 416//143
f 83//191 366//198 88//196
f 88//196 645//199 417//148
f 84//197 85//200 82//192
f 89//201 440//202 85//200
f 416//143 89//201 84//197
f 415//142 439//203 89//201
f 82//192 90//204 86//190
f 86//190 406//181 407//174
f 85//200 441//205 90//204
f 90//204 657//206 406//181
f 91//207 96//208 92//209
f 92//209 481//210 482//211
f 95//212 495//213 96//208
f 96//208 665//214 481//210
f 92//209 93//215 91//207
f 97//216 461//21 93//215
f 482//211 97//216 92//209
f 483//217 462//7 97//216
f 91//207 98//218 94//219
f 94//219 477//220 476//221
f 93//215 460//23 98//218
f 98//218 658//58 477//220
f 94//219 95//212 91//207
f 99//222 494//223 95//212
f 476//221 99//222 94//219
f 475//224 493//225 99//222
f 100//226 105//227 101//228
f 105//227 485//229 101//228
f 104//230 498//231 105//227
f 105//227 666//232 484//233
f 100//226 106//234 102//235
f 102//235 465//30 464//29
f 101//228 486//236 106//234
f 106//234 661//237 465//30
f 102//235 103//238 100//226
f 107//239 479//240 103//238
f 464//29 107//239 102//235
f 463//44 480//241 107//239
f 103//238 104//230 100//226
f 108//242 497//243 104//230
f 479//240 108//242 103//238
f 478//244 496//245 108//242
f 109//246 114//247 110//248
f 110//248 501//249 500//250
f 113//251 487//252 114//247
f 114//247 696//253 501//249
f 109//246 115//254 111//255
f 111//255 475//224 476//221
f 110//248 499//256 115//254
f 115//254 663//257 475//224
f 111//255 112//258 109//246
f 116//259 467//51 112//258
f 476//221 116//259 111//255
f 477//220 466//57 116//259
f 109//246 117//260 113//251
f 117//260 488//64 113//251
f 112//258 468//54 117//260
f 117//260 690//261 489//262
f 118//263 123//264 119//265
f 119//265 490//266 491//267
f 122//268 504//269 123//264
f 123//264 667//270 490//266
f 119//265 120//271 118//263
f 124//272 470//86 120//271
f 491//267 124//272 119//265
f 492//273 471//72 124//272
f 118//263 125//274 121//275
f 121//275 483//217 482//211
f 120//271 469//87 125//274
f 125//274 660//8 483//217
f 121//275 122//268 118//263
f 126//276 503//277 122//268
f 482//211 126//276 121//275
f 481//210 502//278 126//276
f 131//279 128//280 127//281
f 132//282 506//283 128//280
f 491//267 132//282 131//279
f 490//266 507//284 132//282
f 127//281 133//285 129//286
f 129//286 478//244 479//240
f 128//280 505//287 133//285
f 133//285 664//288 478//244
f 127//281 134//289 130//290
f 130//290 472//96 473//92
f 129//286 480//241 134//289
f 134//289 659//46 472//96
f 127//281 135//291 131//279
f 131//279 492//273 491//267
f 473//92 135//291 130//290
f 474//91 492//273 135//291
f 136//292 141//293 137//294
f 137//294 450//295 449//296
f 140//297 429//116 141//293
f 141//293 654//186 450//295
f 137//294 138//298 136//292
f 142//299 494//223 138//298
f 449//296 142//299 137//294
f 448//300 495//213 142//299
f 136//292 143//301 139//302
f 139//302 442//303 443//304
f 138//298 493//225 143//301
f 143//301 663//257 442//303
f 139//302 140//297 136//292
f 144//305 428//114 140//297
f 443//304 144//305 139//302
f 444//306 427//121 144//305
f 145//307 150//308 146//309
f 146//309 453//310 452//311
f 149//312 432//139 150//308
f 150//308 656//313 453//310
f 146//309 147//314 145//307
f 151//315 497//243 147//314
f 452//311 151//315 146//309
f 451//316 498//231 151//315
f 145//307 152//317 148//318
f 148//318 445//319 446//320
f 147//314 496//245 152//317
f 152//317 664//288 445//319
f 148//318 149//312 145//307
f 153//321 431//137 149//312
f 446//320 153//321 148//318
f 447//322 430//144 153//321
f 154//323 159//324 155//325
f 155//325 435//168 434//164
f 158//326 456//327 159//324
f 159//324 684//328 435//168
f 154//323 160//329 156//330
f 156//330 444//306 443//304
f 155//325 433//165 160//329
f 160//329 653//122 444//306
f 156//330 157//331 154//323
f 161//332 500//250 157//331
f 443//304 161//332 156//330
f 442//303 499//256 161//332
f 157//331 158//326 154//323
f 162//333 455//334 158//326
f 500//250 162//333 157//331
f 501//249 454//335 162//333
f 163//336 168//337 164//338
f 164//338 459//339 458//340
f 167//341 438//182 168//337
f 168//337 657//206 459//339
f 164//338 165//342 163//336
f 169//343 503//277 165//342
f 458//340 169//343 164//338
f 457//344 504//269 169//343
f 163//336 170//345 166//346
f 166//346 448//300 449//296
f 165//342 502//278 170//345
f 170//345 665//214 448//300
f 166//346 167//341 163//336
f 171//347 437//180 167//341
f 449//296 171//347 166//346
f 450//295 436//185 171//347
f 176//348 173//349 172//350
f 177//351 440//202 173//349
f 458//340 177//351 176//348
f 459//339 441//205 177//351
f 172//350 178//352 174//353
f 174//353 447//322 446//320
f 173//349 439//203 178//352
f 178//352 655//145 447//322
f 174//353 175//354 172//350
f 179//355 506//283 175//354
f 446//320 179//355 174//353
f 445//319 505//287 179//355
f 172//350 180//356 176//348
f 176//348 457//344 458//340
f 175//354 507//284 180//356
f 180//356 667//270 457//344
f 181//357 186//358 182//359
f 182//359 600//360 599//361
f 185//362 556//363 186//358
f 186//358 688//364 600//360
f 182//359 183//365 181//357
f 187//366 539//367 183//365
f 599//361 187//366 182//359
f 598//368 538//369 187//366
f 181//357 188//370 184//371
f 184//371 525//372 524//373
f 183//365 540//374 188//370
f 188//370 679//375 525//372
f 184//371 185//362 181//357
f 189//376 557//377 185//362
f 524//373 189//376 184//371
f 523//378 558//379 189//376
f 194//380 191//381 190//382
f 195//383 602//384 191//381
f 563//385 195//383 194//380
f 562//386 603//387 195//383
f 190//382 196//388 192//389
f 192//389 544//390 545//391
f 191//381 601//392 196//388
f 196//388 687//393 544//390
f 192//389 193//394 190//382
f 197//395 533//396 193//394
f 545//391 197//395 192//389
f 546//397 534//398 197//395
f 190//382 198//399 194//380
f 194//380 564//400 563//385
f 193//394 532//401 198//399
f 198//399 677//402 564//400
f 203//403 200//404 199//405
f 204//406 422//52 200//404
f 605//407 204//406 203//403
f 606//408 421//53 204//406
f 199//405 205//409 201//410
f 201//410 526//411 527//412
f 200//404 423//64 205//409
f 205//409 675//66 526//411
f 201//410 202//413 199//405
f 206//414 539//367 202//413
f 527//412 206//414 201//410
f 528//415 540//374 206//414
f 199//405 207//416 203//403
f 203//403 604//417 605//407
f 202//413 538//369 207//416
f 207//416 686//418 604//417
f 208//419 213//420 209//421
f 209//421 609//422 608//423
f 566//424 213//420 212//425
f 213//420 691//426 609//422
f 209//421 210//427 208//419
f 214//428 557//377 210//427
f 608//423 214//428 209//421
f 607//429 556//363 214//428
f 208//419 215//430 211//431
f 211//431 531//432 530//433
f 210//427 558//379 215//430
f 215//430 678//434 531//432
f 211//431 212//425 208//419
f 212//425 567//435 566//424
f 530//433 216//436 211//431
f 216//436 676//437 567//435
f 217//438 222//439 218//440
f 218//440 565//441 566//424
f 221//442 612//443 222//439
f 222//439 691//426 565//441
f 218//440 219//444 217//438
f 223//445 536//446 219//444
f 566//424 223//445 218//440
f 567//435 535//447 223//445
f 217//438 224//448 220//449
f 220//449 546//397 545//391
f 219//444 537//450 224//448
f 224//448 674//451 546//397
f 220//449 221//442 217//438
f 225//452 611//453 221//442
f 545//391 225//452 220//449
f 544//390 610//454 225//452
f 226//455 231//456 227//457
f 227//457 520//458 521//459
f 230//460 543//461 231//456
f 231//456 672//462 520//458
f 227//457 228//463 226//455
f 232//464 554//465 228//463
f 521//459 232//464 227//457
f 522//466 555//467 232//464
f 226//455 233//468 229//469
f 229//469 568//470 569//471
f 228//463 553//472 233//468
f 233//468 680//473 568//470
f 229//469 230//460 226//455
f 234//474 542//475 230//460
f 569//471 234//474 229//469
f 570//476 541//477 234//474
f 235//478 240//479 236//480
f 236//480 508//481 509//482
f 239//483 549//484 240//479
f 240//479 668//485 508//481
f 236//480 237//486 235//478
f 241//487 560//488 237//486
f 509//482 241//487 236//480
f 510//489 561//490 241//487
f 235//478 242//491 238//492
f 238//492 571//493 572//494
f 237//486 559//495 242//491
f 242//491 682//496 571//493
f 238//492 239//483 235//478
f 243//497 548//498 239//483
f 572//494 243//497 238//492
f 573//499 547//500 243//497
f 244//501 249//502 245//503
f 245//503 405//156 404//167
f 248//504 517//505 249//502
f 249//502 669//157 405//156
f 245//503 246//506 244//501
f 250//507 575//508 246//506
f 404//167 250//507 245//503
f 403//169 576//509 250//507
f 246//506 247//159 244//501
f 251//510 554//465 247//159
f 575//508 251//510 246//506
f 574//511 553//472 251//510
f 244//501 252//512 248//504
f 248//504 519//513 518//514
f 247//159 555//467 252//512
f 252//512 673//515 519//513
f 253//516 258//517 254//518
f 254//518 514//519 515//520
f 257//521 552//522 258//517
f 258//517 670//523 514//519
f 254//518 255//524 253//516
f 259//525 542//475 255//524
f 515//520 259//525 254//518
f 516//526 543//461 259//525
f 253//516 260//527 256//528
f 256//528 577//529 578//530
f 255//524 541//477 260//527
f 260//527 681//531 577//529
f 256//528 257//521 253//516
f 261//532 551//533 257//521
f 578//530 261//532 256//528
f 579//534 550//535 261//532
f 266//536 263//537 262//538
f 267//539 551//533 263//537
f 512//540 267//539 266//536
f 511//541 552//522 267//539
f 262//538 268//542 264//543
f 264//543 582//544 581//545
f 263//537 550//535 268//542
f 268//542 685//546 582//544
f 264//543 265//547 262//538
f 269//548 560//488 265//547
f 581//545 269//548 264//543
f 580//549 559//495 269//548
f 262//538 270//550 266//536
f 266//536 513//551 512//540
f 265//547 561//490 270//550
f 270//550 671//552 513//551
f 271//553 276//554 272//555
f 272//555 630//556 629//557
f 275//558 619//559 276//554
f 276//554 694//560 630//556
f 272//555 273//561 271//553
f 277//562 614//563 273//561
f 629//557 277//562 272//555
f 628//564 613//565 277//562
f 271//553 278//566 274//567
f 274//567 598//368 599//361
f 273//561 615//568 278//566
f 278//566 686//418 598//368
f 274//567 275//558 271//553
f 279//569 620//570 275//558
f 599//361 279//569 274//567
f 600//360 621//571 279//569
f 280//572 285//573 281//574
f 281//574 633//575 632//576
f 623//577 285//573 284//578
f 285//573 695//579 633//575
f 281//574 282//580 280//572
f 286//581 617//582 282//580
f 632//576 286//581 281//574
f 631//583 616//584 286//581
f 282//580 283//585 280//572
f 287//586 602//384 283//585
f 617//582 287//586 282//580
f 618//587 601//392 287//586
f 280//572 288//588 284//578
f 284//578 624//589 623//577
f 283//585 603//387 288//588
f 288//588 689//590 624//589
f 289//591 294//592 290//593
f 290//593 487//252 488//64
f 293//594 636//595 294//592
f 294//592 696//253 487//252
f 289//591 295//596 291//597
f 291//597 606//408 605//407
f 488//64 295//596 290//593
f 295//596 690//261 606//408
f 291//597 292//598 289//591
f 296//599 614//563 292//598
f 605//407 296//599 291//597
f 604//417 615//568 296//599
f 289//591 297//600 293//594
f 293//594 634//601 635//602
f 292//598 613//565 297//600
f 297//600 692//603 634//601
f 298//604 303//605 299//606
f 299//606 639//607 638//608
f 302//609 625//610 303//605
f 303//605 697//611 639//607
f 299//606 300//612 298//604
f 304//613 620//570 300//612
f 638//608 304//613 299//606
f 637//614 619//559 304//613
f 298//604 305//615 301//616
f 301//616 607//429 608//423
f 300//612 621//571 305//615
f 305//615 688//364 607//429
f 301//616 302//609 298//604
f 306//617 626//618 302//609
f 608//423 306//617 301//616
f 609//422 627//619 306//617
f 311//620 308//621 307//622
f 312//623 626//618 308//621
f 641//624 312//623 311//620
f 642//625 625//610 312//623
f 307//622 313//626 309//627
f 313//626 611//453 309//627
f 308//621 627//619 313//626
f 627//619 612//443 313//626
f 307//622 314//628 310//629
f 310//629 618//587 617//582
f 309//627 610//454 314//628
f 314//628 687//393 618//587
f 307//622 315//630 311//620
f 311//620 640//631 641//624
f 310//629 616//584 315//630
f 315//630 693//632 640//631
f 316//633 321//634 317//635
f 317//635 570//476 569//471
f 320//636 591//637 321//634
f 321//634 681//531 570//476
f 317//635 318//638 316//633
f 322//639 584//640 318//638
f 569//471 322//639 317//635
f 568//470 585//641 322//639
f 316//633 323//642 319//643
f 319//643 628//564 629//557
f 318//638 583//644 323//642
f 323//642 692//603 628//564
f 319//643 320//636 316//633
f 324//645 590//646 320//636
f 629//557 324//645 319//643
f 630//556 589//647 324//645
f 325//648 330//649 326//650
f 326//650 573//499 572//494
f 329//651 594//652 330//649
f 330//649 683//653 573//499
f 326//650 327//654 325//648
f 331//655 587//656 327//654
f 572//494 331//655 326//650
f 571//493 588//657 331//655
f 325//648 332//658 328//659
f 328//659 631//583 632//576
f 327//654 586//660 332//658
f 332//658 693//632 631//583
f 328//659 329//651 325//648
f 333//661 593//662 329//651
f 632//576 333//661 328//659
f 633//575 592//663 333//661
f 334//664 339//665 335//666
f 335//666 456//327 455//334
f 338//667 576//509 339//665
f 339//665 684//328 456//327
f 335//666 336//668 334//664
f 340//669 635//602 336//668
f 455//334 340//669 335//666
f 454//335 636//595 340//669
f 336//668 337//670 334//664
f 341//671 584//640 337//670
f 635//602 341//671 336//668
f 634//601 583//644 341//671
f 334//664 342//672 338//667
f 338//667 574//511 575//508
f 337//670 585//641 342//672
f 342//672 680//473 574//511
f 343//673 348//674 344//675
f 344//675 579//534 578//530
f 347//676 597//677 348//674
f 348//674 685//546 579//534
f 344//675 345//678 343//673
f 349//679 590//646 345//678
f 578//530 349//679 344//675
f 577//529 591//637 349//679
f 343//673 350//680 346//681
f 346//681 637//614 638//608
f 345//678 589//647 350//680
f 350//680 694//560 637//614
f 346//681 347//676 343//673
f 351//682 596//683 347//676
f 638//608 351//682 346//681
f 639//607 595//684 351//682
f 356//685 353//686 352//687
f 357//688 596//683 353//686
f 581//545 357//688 356//685
f 582//544 597//677 357//688
f 352//687 358//689 354//690
f 354//690 642//625 641//624
f 353//686 595//684 358//689
f 358//689 697//611 642//625
f 354//690 355//691 352//687
f 359//692 587//656 355//691
f 641//624 359//692 354//690
f 640//631 586//660 359//692
f 352//687 360//693 356//685
f 356//685 580//549 581//545
f 355//691 588//657 360//693
f 360//693 682//496 580//549
f 1//1 5//6 6//2
f 2//3 6//2 412//4
f 5//6 461//21 462//7
f 6//2 462//7 660//8
f 2//3 7//10 3//9
f 7//10 376//13 377//11
f 413//5 414//12 7//10
f 414//12 651//84 376//13
f 1//1 3//9 8//14
f 4//15 8//14 393//16
f 3//9 377//11 378//18
f 8//14 378//18 652//19
f 4//15 9//20 5//6
f 9//20 460//23 461//21
f 392//17 391//22 9//20
f 391//22 658//58 460//23
f 14//24 15//27 11//25
f 15//27 418//31 419//28
f 464//29 465//30 15//27
f 465//30 661//237 418//31
f 10//26 11//25 16//32
f 12//33 16//32 385//34
f 11//25 419//28 420//36
f 16//32 420//36 650//37
f 12//33 17//39 13//38
f 17//39 399//42 398//40
f 386//35 387//41 17//39
f 387//41 648//101 399//42
f 10//26 13//38 18//43
f 14//24 18//43 463//44
f 13//38 398//40 397//45
f 18//43 397//45 659//46
f 23//47 24//50 20//48
f 24//50 468//54 467//51
f 422//52 421//53 24//50
f 421//53 690//261 468//54
f 19//49 20//48 25//55
f 21//56 25//55 391//22
f 20//48 467//51 466//57
f 25//55 466//57 658//58
f 21//56 26//60 22//59
f 26//60 381//62 380//61
f 392//17 393//16 26//60
f 393//16 652//19 381//62
f 19//49 22//59 27//63
f 23//47 27//63 423//64
f 22//59 380//61 379//65
f 27//63 379//65 675//66
f 28//67 32//71 33//68
f 33//68 424//74 425//70
f 32//71 470//86 471//72
f 33//68 471//72 662//73
f 29//69 34//76 30//75
f 34//76 382//80 383//77
f 29//69 425//70 426//78
f 34//76 426//78 649//79
f 28//67 30//75 35//81
f 31//82 35//81 414//12
f 30//75 383//77 384//83
f 35//81 384//83 651//84
f 31//82 36//85 32//71
f 36//85 469//87 470//86
f 413//5 412//4 36//85
f 412//4 660//8 469//87
f 37//88 41//93 42//89
f 38//90 42//89 474//91
f 41//93 425//70 424//74
f 42//89 424//74 662//73
f 38//90 43//95 39//94
f 43//95 397//45 398//40
f 473//92 472//96 43//95
f 472//96 659//46 397//45
f 37//88 39//94 44//97
f 40//98 44//97 390//99
f 39//94 398//40 399//42
f 44//97 399//42 648//101
f 40//98 45//102 41//93
f 45//102 426//78 425//70
f 389//100 388//103 45//102
f 388//103 649//79 426//78
f 46//104 50//109 51//105
f 47//106 51//105 396//107
f 50//109 374//124 373//110
f 51//105 373//110 646//111
f 47//106 52//113 48//112
f 52//113 429//116 428//114
f 395//108 394//115 52//113
f 394//115 654//186 429//116
f 46//104 48//112 53//117
f 49//118 53//117 409//119
f 48//112 428//114 427//121
f 53//117 427//121 653//122
f 49//118 54//123 50//109
f 54//123 375//126 374//124
f 410//120 411//125 54//123
f 411//125 647//161 375//126
f 55//127 59//132 60//128
f 56//129 60//128 402//130
f 59//132 362//147 361//133
f 60//128 361//133 643//134
f 56//129 61//136 57//135
f 61//136 432//139 431//137
f 401//131 400//138 61//136
f 400//138 656//313 432//139
f 55//127 57//135 62//140
f 58//141 62//140 415//142
f 57//135 431//137 430//144
f 62//140 430//144 655//145
f 58//141 63//146 59//132
f 63//146 363//149 362//147
f 416//143 417//148 63//146
f 417//148 645//199 363//149
f 64//150 68//155 69//151
f 65//152 69//151 370//153
f 68//155 404//167 405//156
f 69//151 405//156 669//157
f 64//150 65//152 70//158
f 66//159 70//158 411//125
f 65//152 371//154 372//160
f 70//158 372//160 647//161
f 66//159 71//163 67//162
f 71//163 433//165 434//164
f 410//120 409//119 71//163
f 409//119 653//122 433//165
f 67//162 72//166 68//155
f 72//166 403//169 404//167
f 434//164 435//168 72//166
f 435//168 684//328 403//169
f 73//170 77//175 78//171
f 74//172 78//171 408//173
f 77//175 368//188 367//176
f 78//171 367//176 644//177
f 74//172 79//179 75//178
f 79//179 438//182 437//180
f 407//174 406//181 79//179
f 406//181 657//206 438//182
f 73//170 75//178 80//183
f 76//184 80//183 394//115
f 75//178 437//180 436//185
f 80//183 436//185 654//186
f 76//184 81//187 77//175
f 81//187 369//189 368//188
f 395//108 396//107 81//187
f 396//107 646//111 369//189
f 86//190 87//193 83//191
f 87//193 364//195 365//194
f 407//174 408//173 87//193
f 408//173 644//177 364//195
f 82//192 83//191 88//196
f 84//197 88//196 417//148
f 83//191 365//194 366//198
f 88//196 366//198 645//199
f 84//197 89//201 85//200
f 89//201 439//203 440//202
f 416//143 415//142 89//201
f 415//142 655//145 439//203
f 82//192 85//200 90//204
f 86//190 90//204 406//181
f 85//200 440//202 441//205
f 90//204 441//205 657//206
f 91//207 95//212 96//208
f 92//209 96//208 481//210
f 95//212 494//223 495//213
f 96//208 495//213 665//214
f 92//209 97//216 93//215
f 97//216 462//7 461//21
f 482//211 483//217 97//216
f 483//217 660//8 462//7
f 91//207 93//215 98//218
f 94//219 98//218 477//220
f 93//215 461//21 460//23
f 98//218 460//23 658//58
f 94//219 99//222 95//212
f 99//222 493//225 494//223
f 476//221 475//224 99//222
f 475//224 663//257 493//225
f 100//226 104//230 105//227
f 105//227 484//233 485//229
f 104//230 497//243 498//231
f 105//227 498//231 666//232
f 100//226 101//228 106//234
f 102//235 106//234 465//30
f 101//228 485//229 486//236
f 106//234 486//236 661//237
f 102//235 107//239 103//238
f 107//239 480//241 479//240
f 464//29 463//44 107//239
f 463//44 659//46 480//241
f 103//238 108//242 104//230
f 108//242 496//245 497//243
f 479//240 478//244 108//242
f 478//244 664//288 496//245
f 109//246 113//251 114//247
f 110//248 114//247 501//249
f 113//251 488//64 487//252
f 114//247 487//252 696//253
f 109//246 110//248 115//254
f 111//255 115//254 475//224
f 110//248 500//250 499//256
f 115//254 499//256 663//257
f 111//255 116//259 112//258
f 116//259 466//57 467//51
f 476//221 477//220 116//259
f 477//220 658//58 466//57
f 109//246 112//258 117//260
f 117//260 489//262 488//64
f 112//258 467//51 468//54
f 117//260 468//54 690//261
f 118//263 122//268 123//264
f 119//265 123//264 490//266
f 122//268 503//277 504//269
f 123//264 504//269 667//270
f 119//265 124//272 120//271
f 124//272 471//72 470//86
f 491//267 492//273 124//272
f 492//273 662//73 471//72
f 118//263 120//271 125//274
f 121//275 125//274 483//217
f 120//271 470//86 469//87
f 125//274 469//87 660//8
f 121//275 126//276 122//268
f 126//276 502//278 503//277
f 482//211 481//210 126//276
f 481//210 665//214 502//278
f 131//279 132//282 128//280
f 132//282 507//284 506//283
f 491//267 490//266 132//282
f 490//266 667//270 507//284
f 127//281 128//280 133//285
f 129//286 133//285 478//244
f 128//280 506//283 505//287
f 133//285 505//287 664//288
f 127//281 129//286 134//289
f 130//290 134//289 472//96
f 129//286 479//240 480//241
f 134//289 480//241 659//46
f 127//281 130//290 135//291
f 131//279 135//291 492//273
f 473//92 474//91 135//291
f 474//91 662//73 492//273
f 136//292 140//297 141//293
f 137//294 141//293 450//295
f 140//297 428//114 429//116
f 141//293 429//116 654//186
f 137//294 142//299 138//298
f 142//299 495//213 494//223
f 449//296 448//300 142//299
f 448//300 665//214 495//213
f 136//292 138//298 143//301
f 139//302 143//301 442//303
f 138//298 494//223 493//225
f 143//301 493//225 663//257
f 139//302 144//305 140//297
f 144//305 427//121 428//114
f 443//304 444//306 144//305
f 444//306 653//122 427//121
f 145//307 149//312 150//308
f 146//309 150//308 453//310
f 149//312 431//137 432//139
f 150//308 432//139 656//313
f 146//309 151//315 147//314
f 151//315 498//231 497//243
f 452//311 451//316 151//315
f 451//316 666//232 498//231
f 145//307 147//314 152//317
f 148//318 152//317 445//319
f 147//314 497//243 496//245
f 152//317 496//245 664//288
f 148//318 153//321 149//312
f 153//321 430//144 431//137
f 446//320 447//322 153//321
f 447//322 655//145 430//144
f 154//323 158//326 159//324
f 155//325 159//324 435//168
f 158//326 455//334 456//327
f 159//324 456//327 684//328
f 154//323 155//325 160//329
f 156//330 160//329 444//306
f 155//325 434//164 433//165
f 160//329 433//165 653//122
f 156//330 161//332 157//331
f 161//332 499//256 500//250
f 443//304 442//303 161//332
f 442//303 663//257 499//256
f 157//331 162//333 158//326
f 162//333 454//335 455//334
f 500//250 501//249 162//333
f 501//249 696//253 454//335
f 163//336 167//341 168//337
f 164//338 168//337 459//339
f 167//341 437//180 438//182
f 168//337 438//182 657//206
f 164//338 169//343 165//342
f 169//343 504//269 503//277
f 458//340 457//344 169//343
f 457//344 667//270 504//269
f 163//336 165//342 170//345
f 166//346 170//345 448//300
f 165//342 503//277 502//278
f 170//345 502//278 665//214
f 166//346 171//347 167//341
f 171//347 436//185 437//180
f 449//296 450//295 171//347
f 450//295 654//186 436//185
f 176//348 177//351 173//349
f 177//351 441//205 440//202
f 458//340 459//339 177//351
f 459//339 657//206 441//205
f 172//350 173//349 178//352
f 174//353 178//352 447//322
f 173//349 440//202 439//203
f 178//352 439//203 655//145
f 174//353 179//355 175//354
f 179//355 505//287 506//283
f 446//320 445//319 179//355
f 445//319 664//288 505//287
f 172//350 175//354 180//356
f 176//348 180//356 457//344
f 175//354 506//283 507//284
f 180//356 507//284 667//270
f 181//357 185//362 186//358
f 182//359 186//358 600//360
f 185//362 557//377 556//363
f 186//358 556//363 688//364
f 182//359 187//366 183//365
f 187//366 538//369 539//367
f 599//361 598//368 187//366
f 598//368 686//418 538//369
f 181//357 183//365 188//370
f 184//371 188//370 525//372
f 183//365 539//367 540//374
f 188//370 540//374 679//375
f 184//371 189//376 185//362
f 189//376 558//379 557//377
f 524//373 523//378 189//376
f 523//378 678//434 558//379
f 194//380 195//383 191//381
f 195//383 603//387 602//384
f 563//385 562//386 195//383
f 562//386 689//590 603//387
f 190//382 191//381 196//388
f 192//389 196//388 544//390
f 191//381 602//384 601//392
f 196//388 601//392 687//393
f 192//389 197//395 193//394
f 197//395 534//398 533//396
f 545//391 546//397 197//395
f 546//397 674//451 534//398
f 190//382 193//394 198//399
f 194//380 198//399 564//400
f 193//394 533//396 532//401
f 198//399 532//401 677//402
f 203//403 204//406 200//404
f 204//406 421//53 422//52
f 605//407 606//408 204//406
f 606//408 690//261 421//53
f 199//405 200//404 205//409
f 201//410 205//409 526//411
f 200//404 422//52 423//64
f 205//409 423//64 675//66
f 201//410 206//414 202//413
f 206//414 540//374 539//367
f 527//412 528//415 206//414
f 528//415 679//375 540//374
f 199//405 202//413 207//416
f 203//403 207//416 604//417
f 202//413 539//367 538//369
f 207//416 538//369 686//418
f 208//419 212//425 213//420
f 209//421 213//420 609//422
f 566//424 565//441 213//420
f 213//420 565//441 691//426
f 209//421 214//428 210//427
f 214//428 556//363 557//377
f 608//423 607//429 214//428
f 607//429 688//364 556//363
f 208//419 210//427 215//430
f 211//431 215//430 531//432
f 210//427 557//377 558//379
f 215//430 558//379 678//434
f 211//431 216//436 212//425
f 212//425 216//436 567//435
f 530//433 529//694 216//436
f 216//436 529//694 676//437
f 217//438 221//442 222//439
f 218//440 222//439 565//441
f 221//442 611//453 612//443
f 222//439 612//443 691//426
f 218//440 223//445 219//444
f 223//445 535//447 536//446
f 566//424 567//435 223//445
f 567//435 676//437 535//447
f 217//438 219//444 224//448
f 220//449 224//448 546//397
f 219//444 536//446 537//450
f 224//448 537//450 674//451
f 220//449 225//452 221//442
f 225//452 610//454 611//453
f 545//391 544//390 225//452
f 544//390 687//393 610//454
f 226//455 230//460 231//456
f 227//457 231//456 520//458
f 230//460 542//475 543//461
f 231//456 543//461 672//462
f 227//457 232//464 228//463
f 232//464 555//467 554//465
f 521//459 522//466 232//464
f 522//466 673//515 555//467
f 226//455 228//463 233//468
f 229//469 233//468 568//470
f 228//463 554//465 553//472
f 233//468 553//472 680//473
f 229//469 234//474 230//460
f 234//474 541//477 542//475
f 569//471 570//476 234//474
f 570//476 681//531 541//477
f 235//478 239//483 240//479
f 236//480 240//479 508//481
f 239//483 548//498 549//484
f 240//479 549//484 668//485
f 236//480 241//487 237//486
f 241//487 561//490 560//488
f 509//482 510//489 241//487
f 510//489 671//552 561//490
f 235//478 237//486 242//491
f 238//492 242//491 571//493
f 237//486 560//488 559//495
f 242//491 559//495 682//496
f 238//492 243//497 239//483
f 243//497 547//500 548//498
f 572//494 573//499 243//497
f 573//499 683//653 547//500
f 244//501 248//504 249//502
f 245//503 249//502 405//156
f 248//504 518//514 517//505
f 249//502 517//505 669//157
f 245//503 250//507 246//506
f 250//507 576//509 575//508
f 404//167 403//169 250//507
f 403//169 684//328 576//509
f 246//506 251//510 247//159
f 251//510 553//472 554//465
f 575//508 574//511 251//510
f 574//511 680//473 553//472
f 244//501 247//159 252//512
f 248//504 252//512 519//513
f 247//159 554//465 555//467
f 252//512 555//467 673//515
f 253//516 257//521 258//517
f 254//518 258//517 514//519
f 257//521 551//533 552//522
f 258//517 552//522 670//523
f 254//518 259//525 255//524
f 259//525 543//461 542//475
f 515//520 516//526 259//525
f 516//526 672//462 543//461
f 253//516 255//524 260//527
f 256//528 260//527 577//529
f 255//524 542//475 541//477
f 260//527 541//477 681//531
f 256//528 261//532 257//521
f 261//532 550//535 551//533
f 578//530 579//534 261//532
f 579//534 685//546 550//535
f 266//536 267//539 263//537
f 267//539 552//522 551//533
f 512//540 511//541 267//539
f 511//541 670//523 552//522
f 262//538 263//537 268//542
f 264//543 268//542 582//544
f 263//537 551//533 550//535
f 268//542 550//535 685//546
f 264//543 269//548 265//547
f 269//548 559//495 560//488
f 581//545 580//549 269//548
f 580//549 682//496 559//495
f 262//538 265//547 270//550
f 266//536 270//550 513//551
f 265//547 560//488 561//490
f 270//550 561//490 671//552
f 271//553 275//558 276//554
f 272//555 276//554 630//556
f 275//558 620//570 619//559
f 276//554 619//559 694//560
f 272//555 277//562 273//561
f 277//562 613//565 614//563
f 629//557 628//564 277//562
f 628//564 692//603 613//565
f 271//553 273//561 278//566
f 274//567 278//566 598//368
f 273//561 614//563 615//568
f 278//566 615//568 686//418
f 274//567 279//569 275//558
f 279//569 621//571 620//570
f 599//361 600//360 279//569
f 600//360 688//364 621//571
f 280//572 284//578 285//573
f 281//574 285//573 633//575
f 623//577 622//695 285//573
f 285//573 622//695 695//579
f 281//574 286//581 282//580
f 286//581 616//584 617//582
f 632//576 631//583 286//581
f 631//583 693//632 616//584
f 282//580 287//586 283//585
f 287//586 601//392 602//384
f 617//582 618//587 287//586
f 618//587 687//393 601//392
f 280//572 283//585 288//588
f 284//578 288//588 624//589
f 283//585 602//384 603//387
f 288//588 603//387 689//590
f 289//591 293//594 294//592
f 290//593 294//592 487//252
f 293//594 635//602 636//595
f 294//592 636//595 696//253
f 289//591 290//593 295//596
f 291//597 295//596 606//408
f 488//64 489//262 295//596
f 295//596 489//262 690//261
f 291//597 296//599 292//598
f 296//599 615//568 614//563
f 605//407 604//417 296//599
f 604//417 686//418 615//568
f 289//591 292//598 297//600
f 293//594 297//600 634//601
f 292//598 614//563 613//565
f 297//600 613//565 692//603
f 298//604 302//609 303//605
f 299//606 303//605 639//607
f 302//609 626//618 625//610
f 303//605 625//610 697//611
f 299//606 304//613 300//612
f 304//613 619//559 620//570
f 638//608 637//614 304//613
f 637//614 694//560 619//559
f 298//604 300//612 305//615
f 301//616 305//615 607//429
f 300//612 620//570 621//571
f 305//615 621//571 688//364
f 301//616 306//617 302//609
f 306//617 627//619 626//618
f 608//423 609//422 306//617
f 609//422 691//426 627//619
f 311//620 312//623 308//621
f 312//623 625//610 626//618
f 641//624 642//625 312//623
f 642//625 697//611 625//610
f 307//622 308//621 313//626
f 313//626 612//443 611//453
f 308//621 626//618 627//619
f 627//619 691//426 612//443
f 307//622 309//627 314//628
f 310//629 314//628 618//587
f 309//627 611//453 610//454
f 314//628 610//454 687//393
f 307//622 310//629 315//630
f 311//620 315//630 640//631
f 310//629 617//582 616//584
f 315//630 616//584 693//632
f 316//633 320//636 321//634
f 317//635 321//634 570//476
f 320//636 590//646 591//637
f 321//634 591//637 681//531
f 317//635 322//639 318//638
f 322//639 585//641 584//640
f 569//471 568//470 322//639
f 568//470 680//473 585//641
f 316//633 318//638 323//642
f 319//643 323//642 628//564
f 318//638 584//640 583//644
f 323//642 583//644 692//603
f 319//643 324//645 320//636
f 324//645 589//647 590//646
f 629//557 630//556 324//645
f 630//556 694//560 589//647
f 325//648 329//651 330//649
f 326//650 330//649 573//499
f 329//651 593//662 594//652
f 330//649 594//652 683//653
f 326//650 331//655 327//654
f 331//655 588//657 587//656
f 572//494 571//493 331//655
f 571//493 682//496 588//657
f 325//648 327//654 332//658
f 328//659 332//658 631//583
f 327//654 587//656 586//660
f 332//658 586//660 693//632
f 328//659 333//661 329//651
f 333//661 592//663 593//662
f 632//576 633//575 333//661
f 633//575 695//579 592//663
f 334//664 338//667 339//665
f 335//666 339//665 456//327
f 338//667 575//508 576//509
f 339//665 576//509 684//328
f 335//666 340//669 336//668
f 340//669 636//595 635//602
f 455//334 454//335 340//669
f 454//335 696//253 636//595
f 336//668 341//671 337//670
f 341//671 583//644 584//640
f 635//602 634//601 341//671
f 634//601 692//603 583//644
f 334//664 337//670 342//672
f 338//667 342//672 574//511
f 337//670 584//640 585//641
f 342//672 585//641 680//473
f 343//673 347//676 348//674
f 344//675 348//674 579//534
f 347//676 596//683 597//677
f 348//674 597//677 685//546
f 344//675 349//679 345//678
f 349//679 591//637 590//646
f 578//530 577//529 349//679
f 577//529 681//531 591//637
f 343//673 345//678 350//680
f 346//681 350//680 637//614
f 345//678 590//646 589//647
f 350//680 589//647 694//560
f 346//681 351//682 347//676
f 351//682 595//684 596//683
f 638//608 639//607 351//682
f 639//607 697//611 595//684
f 356//685 357//688 353//686
f 357//688 597//677 596//683
f 581//545 582//544 357//688
f 582//544 685//546 597//677
f 352//687 353//686 358//689
f 354//690 358//689 642//625
f 353//686 596//683 595//684
f 358//689 595//684 697//611
f 354//690 359//692 355//691
f 359//692 586//660 587//656
f 641//624 640//631 359//692
f 640//631 693//632 586//660
f 352//687 355//691 360//693
f 356//685 360//693 580//549
f 355//691 587//656 588//657
f 360//693 588//657 682//496
