# Blender v2.79 (sub 0) OBJ File: 'm3.blend'
# www.blender.org
o Grid_Lights_2_Plane.057
v -16.919493 1.477231 -20.468409
v -18.899494 1.477231 -20.468409
v -16.919493 3.457232 -20.468409
v -18.899494 3.457232 -20.468409
v -12.959494 1.477231 -20.468409
v -14.939493 1.477231 -20.468409
v -12.959494 3.457232 -20.468409
v -14.939493 3.457232 -20.468409
v -8.999493 1.477231 -20.468409
v -10.979492 1.477231 -20.468409
v -8.999493 3.457232 -20.468409
v -10.979492 3.457232 -20.468409
v -5.039493 1.477231 -20.468409
v -7.019492 1.477231 -20.468409
v -5.039493 3.457232 -20.468409
v -7.019492 3.457232 -20.468409
v -1.079491 1.477231 -20.468409
v -3.059492 1.477231 -20.468409
v -1.079491 3.457232 -20.468409
v -3.059492 3.457232 -20.468409
v 2.880508 1.477231 -20.468409
v 0.900507 1.477231 -20.468409
v 2.880508 3.457232 -20.468409
v 0.900507 3.457232 -20.468409
v 6.840508 1.477231 -20.468409
v 4.860506 1.477231 -20.468409
v 6.840508 3.457232 -20.468409
v 4.860506 3.457232 -20.468409
v 10.800508 1.477231 -20.468409
v 8.820507 1.477231 -20.468409
v 10.800508 3.457232 -20.468409
v 8.820507 3.457232 -20.468409
v 14.760508 1.477231 -20.468409
v 12.780506 1.477231 -20.468409
v 14.760508 3.457232 -20.468409
v 12.780506 3.457232 -20.468409
v 18.720507 1.477231 -20.468409
v 16.740507 1.477231 -20.468409
v 18.720507 3.457232 -20.468409
v 16.740507 3.457232 -20.468409
v -16.919493 5.437232 -20.468409
v -18.899494 5.437232 -20.468409
v -16.919493 7.417233 -20.468409
v -18.899494 7.417233 -20.468409
v -12.959494 5.437232 -20.468409
v -14.939493 5.437232 -20.468409
v -12.959494 7.417233 -20.468409
v -14.939493 7.417233 -20.468409
v -8.999493 5.437232 -20.468409
v -10.979492 5.437232 -20.468409
v -8.999493 7.417233 -20.468409
v -10.979492 7.417233 -20.468409
v -5.039493 5.437232 -20.468409
v -7.019492 5.437232 -20.468409
v -5.039493 7.417233 -20.468409
v -7.019492 7.417233 -20.468409
v -1.079491 5.437232 -20.468409
v -3.059492 5.437232 -20.468409
v -1.079491 7.417233 -20.468409
v -3.059492 7.417233 -20.468409
v 2.880508 5.437232 -20.468409
v 0.900507 5.437232 -20.468409
v 2.880508 7.417233 -20.468409
v 0.900507 7.417233 -20.468409
v 6.840508 5.437232 -20.468409
v 4.860506 5.437232 -20.468409
v 6.840508 7.417233 -20.468409
v 4.860506 7.417233 -20.468409
v 10.800508 5.437232 -20.468409
v 8.820507 5.437232 -20.468409
v 10.800508 7.417233 -20.468409
v 8.820507 7.417233 -20.468409
v 14.760508 5.437232 -20.468409
v 12.780506 5.437232 -20.468409
v 14.760508 7.417233 -20.468409
v 12.780506 7.417233 -20.468409
v 18.720507 5.437232 -20.468409
v 16.740507 5.437232 -20.468409
v 18.720507 7.417233 -20.468409
v 16.740507 7.417233 -20.468409
v -16.919493 9.397234 -20.468409
v -18.899494 9.397234 -20.468409
v -16.919493 11.377234 -20.468409
v -18.899494 11.377234 -20.468409
v -12.959494 9.397234 -20.468409
v -14.939493 9.397234 -20.468409
v -12.959494 11.377234 -20.468409
v -14.939493 11.377234 -20.468409
v -8.999493 9.397234 -20.468409
v -10.979492 9.397234 -20.468409
v -8.999493 11.377234 -20.468409
v -10.979492 11.377234 -20.468409
v -5.039493 9.397234 -20.468409
v -7.019492 9.397234 -20.468409
v -5.039493 11.377234 -20.468409
v -7.019492 11.377234 -20.468409
v -1.079491 9.397234 -20.468409
v -3.059492 9.397234 -20.468409
v -1.079491 11.377234 -20.468409
v -3.059492 11.377234 -20.468409
v 2.880508 9.397234 -20.468409
v 0.900507 9.397234 -20.468409
v 2.880508 11.377234 -20.468409
v 0.900507 11.377234 -20.468409
v 6.840508 9.397234 -20.468409
v 4.860506 9.397234 -20.468409
v 6.840508 11.377234 -20.468409
v 4.860506 11.377234 -20.468409
v 10.800508 9.397234 -20.468409
v 8.820507 9.397234 -20.468409
v 10.800508 11.377234 -20.468409
v 8.820507 11.377234 -20.468409
v 14.760508 9.397234 -20.468409
v 12.780506 9.397234 -20.468409
v 14.760508 11.377234 -20.468409
v 12.780506 11.377234 -20.468409
v 18.720507 9.397234 -20.468409
v 16.740507 9.397234 -20.468409
v 18.720507 11.377234 -20.468409
v 16.740507 11.377234 -20.468409
v -16.919493 13.357235 -20.468409
v -18.899494 13.357235 -20.468409
v -16.919493 15.337234 -20.468409
v -18.899494 15.337234 -20.468409
v -12.959494 13.357235 -20.468409
v -14.939493 13.357235 -20.468409
v -12.959494 15.337234 -20.468409
v -14.939493 15.337234 -20.468409
v -8.999493 13.357235 -20.468409
v -10.979492 13.357235 -20.468409
v -8.999493 15.337234 -20.468409
v -10.979492 15.337234 -20.468409
v -5.039493 13.357235 -20.468409
v -7.019492 13.357235 -20.468409
v -5.039493 15.337234 -20.468409
v -7.019492 15.337234 -20.468409
v -1.079491 13.357235 -20.468409
v -3.059492 13.357235 -20.468409
v -1.079491 15.337234 -20.468409
v -3.059492 15.337234 -20.468409
v 2.880508 13.357235 -20.468409
v 0.900507 13.357235 -20.468409
v 2.880508 15.337234 -20.468409
v 0.900507 15.337234 -20.468409
v 6.840508 13.357235 -20.468409
v 4.860506 13.357235 -20.468409
v 6.840508 15.337234 -20.468409
v 4.860506 15.337234 -20.468409
v 10.800508 13.357235 -20.468409
v 8.820507 13.357235 -20.468409
v 10.800508 15.337234 -20.468409
v 8.820507 15.337234 -20.468409
v 14.760508 13.357235 -20.468409
v 12.780506 13.357235 -20.468409
v 14.760508 15.337234 -20.468409
v 12.780506 15.337234 -20.468409
v 18.720507 13.357235 -20.468409
v 16.740507 13.357235 -20.468409
v 18.720507 15.337234 -20.468409
v 16.740507 15.337234 -20.468409
v -16.919493 17.317236 -20.468410
v -18.899494 17.317236 -20.468410
v -16.919493 19.297237 -20.468410
v -18.899494 19.297237 -20.468410
v -12.959494 17.317236 -20.468410
v -14.939493 17.317236 -20.468410
v -12.959494 19.297237 -20.468410
v -14.939493 19.297237 -20.468410
v -8.999493 17.317236 -20.468410
v -10.979492 17.317236 -20.468410
v -8.999493 19.297237 -20.468410
v -10.979492 19.297237 -20.468410
v -5.039493 17.317236 -20.468410
v -7.019492 17.317236 -20.468410
v -5.039493 19.297237 -20.468410
v -7.019492 19.297237 -20.468410
v -1.079491 17.317236 -20.468410
v -3.059492 17.317236 -20.468410
v -1.079491 19.297237 -20.468410
v -3.059492 19.297237 -20.468410
v 2.880508 17.317236 -20.468410
v 0.900507 17.317236 -20.468410
v 2.880508 19.297237 -20.468410
v 0.900507 19.297237 -20.468410
v 6.840508 17.317236 -20.468410
v 4.860506 17.317236 -20.468410
v 6.840508 19.297237 -20.468410
v 4.860506 19.297237 -20.468410
v 10.800508 17.317236 -20.468410
v 8.820507 17.317236 -20.468410
v 10.800508 19.297237 -20.468410
v 8.820507 19.297237 -20.468410
v 14.760508 17.317236 -20.468410
v 12.780506 17.317236 -20.468410
v 14.760508 19.297237 -20.468410
v 12.780506 19.297237 -20.468410
v 18.720507 17.317236 -20.468410
v 16.740507 17.317236 -20.468410
v 18.720507 19.297237 -20.468410
v 16.740507 19.297237 -20.468410
v -16.919493 21.277237 -20.468410
v -18.899494 21.277237 -20.468410
v -16.919493 23.257238 -20.468410
v -18.899494 23.257238 -20.468410
v -12.959494 21.277237 -20.468410
v -14.939493 21.277237 -20.468410
v -12.959494 23.257238 -20.468410
v -14.939493 23.257238 -20.468410
v -8.999493 21.277237 -20.468410
v -10.979492 21.277237 -20.468410
v -8.999493 23.257238 -20.468410
v -10.979492 23.257238 -20.468410
v -5.039493 21.277237 -20.468410
v -7.019492 21.277237 -20.468410
v -5.039493 23.257238 -20.468410
v -7.019492 23.257238 -20.468410
v -1.079491 21.277237 -20.468410
v -3.059492 21.277237 -20.468410
v -1.079491 23.257238 -20.468410
v -3.059492 23.257238 -20.468410
v 2.880508 21.277237 -20.468410
v 0.900507 21.277237 -20.468410
v 2.880508 23.257238 -20.468410
v 0.900507 23.257238 -20.468410
v 6.840508 21.277237 -20.468410
v 4.860506 21.277237 -20.468410
v 6.840508 23.257238 -20.468410
v 4.860506 23.257238 -20.468410
v 10.800508 21.277237 -20.468410
v 8.820507 21.277237 -20.468410
v 10.800508 23.257238 -20.468410
v 8.820507 23.257238 -20.468410
v 14.760508 21.277237 -20.468410
v 12.780506 21.277237 -20.468410
v 14.760508 23.257238 -20.468410
v 12.780506 23.257238 -20.468410
v 18.720507 21.277237 -20.468410
v 16.740507 21.277237 -20.468410
v 18.720507 23.257238 -20.468410
v 16.740507 23.257238 -20.468410
v -16.919493 1.477234 20.468409
v -18.899494 1.477234 20.468409
v -16.919493 3.457235 20.468409
v -18.899494 3.457235 20.468409
v -12.959494 1.477234 20.468409
v -14.939493 1.477234 20.468409
v -12.959494 3.457235 20.468409
v -14.939493 3.457235 20.468409
v -8.999493 1.477234 20.468409
v -10.979492 1.477234 20.468409
v -8.999493 3.457235 20.468409
v -10.979492 3.457235 20.468409
v -5.039493 1.477234 20.468409
v -7.019492 1.477234 20.468409
v -5.039493 3.457235 20.468409
v -7.019492 3.457235 20.468409
v -1.079491 1.477234 20.468409
v -3.059492 1.477234 20.468409
v -1.079491 3.457235 20.468409
v -3.059492 3.457235 20.468409
v 2.880508 1.477234 20.468409
v 0.900507 1.477234 20.468409
v 2.880508 3.457235 20.468409
v 0.900507 3.457235 20.468409
v 6.840508 1.477234 20.468409
v 4.860506 1.477234 20.468409
v 6.840508 3.457235 20.468409
v 4.860506 3.457235 20.468409
v 10.800508 1.477234 20.468409
v 8.820507 1.477234 20.468409
v 10.800508 3.457235 20.468409
v 8.820507 3.457235 20.468409
v 14.760508 1.477234 20.468409
v 12.780506 1.477234 20.468409
v 14.760508 3.457235 20.468409
v 12.780506 3.457235 20.468409
v 18.720507 1.477234 20.468409
v 16.740507 1.477234 20.468409
v 18.720507 3.457235 20.468409
v 16.740507 3.457235 20.468409
v -16.919493 5.437235 20.468409
v -18.899494 5.437235 20.468409
v -16.919493 7.417235 20.468409
v -18.899494 7.417235 20.468409
v -12.959494 5.437235 20.468409
v -14.939493 5.437235 20.468409
v -12.959494 7.417235 20.468409
v -14.939493 7.417235 20.468409
v -8.999493 5.437235 20.468409
v -10.979492 5.437235 20.468409
v -8.999493 7.417235 20.468409
v -10.979492 7.417235 20.468409
v -5.039493 5.437235 20.468409
v -7.019492 5.437235 20.468409
v -5.039493 7.417235 20.468409
v -7.019492 7.417235 20.468409
v -1.079491 5.437235 20.468409
v -3.059492 5.437235 20.468409
v -1.079491 7.417235 20.468409
v -3.059492 7.417235 20.468409
v 2.880508 5.437235 20.468409
v 0.900507 5.437235 20.468409
v 2.880508 7.417235 20.468409
v 0.900507 7.417235 20.468409
v 6.840508 5.437235 20.468409
v 4.860506 5.437235 20.468409
v 6.840508 7.417235 20.468409
v 4.860506 7.417235 20.468409
v 10.800508 5.437235 20.468409
v 8.820507 5.437235 20.468409
v 10.800508 7.417235 20.468409
v 8.820507 7.417235 20.468409
v 14.760508 5.437235 20.468409
v 12.780506 5.437235 20.468409
v 14.760508 7.417235 20.468409
v 12.780506 7.417235 20.468409
v 18.720507 5.437235 20.468409
v 16.740507 5.437235 20.468409
v 18.720507 7.417235 20.468409
v 16.740507 7.417235 20.468409
v -16.919493 9.397236 20.468409
v -18.899494 9.397236 20.468409
v -16.919493 11.377237 20.468409
v -18.899494 11.377237 20.468409
v -12.959494 9.397236 20.468409
v -14.939493 9.397236 20.468409
v -12.959494 11.377237 20.468409
v -14.939493 11.377237 20.468409
v -8.999493 9.397236 20.468409
v -10.979492 9.397236 20.468409
v -8.999493 11.377237 20.468409
v -10.979492 11.377237 20.468409
v -5.039493 9.397236 20.468409
v -7.019492 9.397236 20.468409
v -5.039493 11.377237 20.468409
v -7.019492 11.377237 20.468409
v -1.079491 9.397236 20.468409
v -3.059492 9.397236 20.468409
v -1.079491 11.377237 20.468409
v -3.059492 11.377237 20.468409
v 2.880508 9.397236 20.468409
v 0.900507 9.397236 20.468409
v 2.880508 11.377237 20.468409
v 0.900507 11.377237 20.468409
v 6.840508 9.397236 20.468409
v 4.860506 9.397236 20.468409
v 6.840508 11.377237 20.468409
v 4.860506 11.377237 20.468409
v 10.800508 9.397236 20.468409
v 8.820507 9.397236 20.468409
v 10.800508 11.377237 20.468409
v 8.820507 11.377237 20.468409
v 14.760508 9.397236 20.468409
v 12.780506 9.397236 20.468409
v 14.760508 11.377237 20.468409
v 12.780506 11.377237 20.468409
v 18.720507 9.397236 20.468409
v 16.740507 9.397236 20.468409
v 18.720507 11.377237 20.468409
v 16.740507 11.377237 20.468409
v -16.919493 13.357239 20.468409
v -18.899494 13.357239 20.468409
v -16.919493 15.337238 20.468409
v -18.899494 15.337238 20.468409
v -12.959494 13.357239 20.468409
v -14.939493 13.357239 20.468409
v -12.959494 15.337238 20.468409
v -14.939493 15.337238 20.468409
v -8.999493 13.357239 20.468409
v -10.979492 13.357239 20.468409
v -8.999493 15.337238 20.468409
v -10.979492 15.337238 20.468409
v -5.039493 13.357239 20.468409
v -7.019492 13.357239 20.468409
v -5.039493 15.337238 20.468409
v -7.019492 15.337238 20.468409
v -1.079491 13.357239 20.468409
v -3.059492 13.357239 20.468409
v -1.079491 15.337238 20.468409
v -3.059492 15.337238 20.468409
v 2.880508 13.357239 20.468409
v 0.900507 13.357239 20.468409
v 2.880508 15.337238 20.468409
v 0.900507 15.337238 20.468409
v 6.840508 13.357239 20.468409
v 4.860506 13.357239 20.468409
v 6.840508 15.337238 20.468409
v 4.860506 15.337238 20.468409
v 10.800508 13.357239 20.468409
v 8.820507 13.357239 20.468409
v 10.800508 15.337238 20.468409
v 8.820507 15.337238 20.468409
v 14.760508 13.357239 20.468409
v 12.780506 13.357239 20.468409
v 14.760508 15.337238 20.468409
v 12.780506 15.337238 20.468409
v 18.720507 13.357239 20.468409
v 16.740507 13.357239 20.468409
v 18.720507 15.337238 20.468409
v 16.740507 15.337238 20.468409
v -16.919493 17.317240 20.468407
v -18.899494 17.317240 20.468407
v -16.919493 19.297241 20.468407
v -18.899494 19.297241 20.468407
v -12.959494 17.317240 20.468407
v -14.939493 17.317240 20.468407
v -12.959494 19.297241 20.468407
v -14.939493 19.297241 20.468407
v -8.999493 17.317240 20.468407
v -10.979492 17.317240 20.468407
v -8.999493 19.297241 20.468407
v -10.979492 19.297241 20.468407
v -5.039493 17.317240 20.468407
v -7.019492 17.317240 20.468407
v -5.039493 19.297241 20.468407
v -7.019492 19.297241 20.468407
v -1.079491 17.317240 20.468407
v -3.059492 17.317240 20.468407
v -1.079491 19.297241 20.468407
v -3.059492 19.297241 20.468407
v 2.880508 17.317240 20.468407
v 0.900507 17.317240 20.468407
v 2.880508 19.297241 20.468407
v 0.900507 19.297241 20.468407
v 6.840508 17.317240 20.468407
v 4.860506 17.317240 20.468407
v 6.840508 19.297241 20.468407
v 4.860506 19.297241 20.468407
v 10.800508 17.317240 20.468407
v 8.820507 17.317240 20.468407
v 10.800508 19.297241 20.468407
v 8.820507 19.297241 20.468407
v 14.760508 17.317240 20.468407
v 12.780506 17.317240 20.468407
v 14.760508 19.297241 20.468407
v 12.780506 19.297241 20.468407
v 18.720507 17.317240 20.468407
v 16.740507 17.317240 20.468407
v 18.720507 19.297241 20.468407
v 16.740507 19.297241 20.468407
v -16.919493 21.277241 20.468407
v -18.899494 21.277241 20.468407
v -16.919493 23.257242 20.468407
v -18.899494 23.257242 20.468407
v -12.959494 21.277241 20.468407
v -14.939493 21.277241 20.468407
v -12.959494 23.257242 20.468407
v -14.939493 23.257242 20.468407
v -8.999493 21.277241 20.468407
v -10.979492 21.277241 20.468407
v -8.999493 23.257242 20.468407
v -10.979492 23.257242 20.468407
v -5.039493 21.277241 20.468407
v -7.019492 21.277241 20.468407
v -5.039493 23.257242 20.468407
v -7.019492 23.257242 20.468407
v -1.079491 21.277241 20.468407
v -3.059492 21.277241 20.468407
v -1.079491 23.257242 20.468407
v -3.059492 23.257242 20.468407
v 2.880508 21.277241 20.468407
v 0.900507 21.277241 20.468407
v 2.880508 23.257242 20.468407
v 0.900507 23.257242 20.468407
v 6.840508 21.277241 20.468407
v 4.860506 21.277241 20.468407
v 6.840508 23.257242 20.468407
v 4.860506 23.257242 20.468407
v 10.800508 21.277241 20.468407
v 8.820507 21.277241 20.468407
v 10.800508 23.257242 20.468407
v 8.820507 23.257242 20.468407
v 14.760508 21.277241 20.468407
v 12.780506 21.277241 20.468407
v 14.760508 23.257242 20.468407
v 12.780506 23.257242 20.468407
v 18.720507 21.277241 20.468407
v 16.740507 21.277241 20.468407
v 18.720507 23.257242 20.468407
v 16.740507 23.257242 20.468407
vn 0.0000 0.0000 1.0000
vn 0.0000 0.0000 -1.0000
s off
f 1//1 4//1 2//1
f 5//1 8//1 6//1
f 9//1 12//1 10//1
f 13//1 16//1 14//1
f 17//1 20//1 18//1
f 21//1 24//1 22//1
f 25//1 28//1 26//1
f 29//1 32//1 30//1
f 33//1 36//1 34//1
f 37//1 40//1 38//1
f 41//1 44//1 42//1
f 45//1 48//1 46//1
f 49//1 52//1 50//1
f 53//1 56//1 54//1
f 57//1 60//1 58//1
f 61//1 64//1 62//1
f 65//1 68//1 66//1
f 69//1 72//1 70//1
f 73//1 76//1 74//1
f 77//1 80//1 78//1
f 81//1 84//1 82//1
f 85//1 88//1 86//1
f 89//1 92//1 90//1
f 93//1 96//1 94//1
f 97//1 100//1 98//1
f 101//1 104//1 102//1
f 105//1 108//1 106//1
f 109//1 112//1 110//1
f 113//1 116//1 114//1
f 117//1 120//1 118//1
f 121//1 124//1 122//1
f 125//1 128//1 126//1
f 129//1 132//1 130//1
f 133//1 136//1 134//1
f 137//1 140//1 138//1
f 141//1 144//1 142//1
f 145//1 148//1 146//1
f 149//1 152//1 150//1
f 153//1 156//1 154//1
f 157//1 160//1 158//1
f 161//1 164//1 162//1
f 165//1 168//1 166//1
f 169//1 172//1 170//1
f 173//1 176//1 174//1
f 177//1 180//1 178//1
f 181//1 184//1 182//1
f 185//1 188//1 186//1
f 189//1 192//1 190//1
f 193//1 196//1 194//1
f 197//1 200//1 198//1
f 201//1 204//1 202//1
f 205//1 208//1 206//1
f 209//1 212//1 210//1
f 213//1 216//1 214//1
f 217//1 220//1 218//1
f 221//1 224//1 222//1
f 225//1 228//1 226//1
f 229//1 232//1 230//1
f 233//1 236//1 234//1
f 237//1 240//1 238//1
f 244//2 241//2 242//2
f 248//2 245//2 246//2
f 252//2 249//2 250//2
f 256//2 253//2 254//2
f 260//2 257//2 258//2
f 264//2 261//2 262//2
f 268//2 265//2 266//2
f 272//2 269//2 270//2
f 276//2 273//2 274//2
f 280//2 277//2 278//2
f 284//2 281//2 282//2
f 288//2 285//2 286//2
f 292//2 289//2 290//2
f 296//2 293//2 294//2
f 300//2 297//2 298//2
f 304//2 301//2 302//2
f 308//2 305//2 306//2
f 312//2 309//2 310//2
f 316//2 313//2 314//2
f 320//2 317//2 318//2
f 324//2 321//2 322//2
f 328//2 325//2 326//2
f 332//2 329//2 330//2
f 336//2 333//2 334//2
f 340//2 337//2 338//2
f 344//2 341//2 342//2
f 348//2 345//2 346//2
f 352//2 349//2 350//2
f 356//2 353//2 354//2
f 360//2 357//2 358//2
f 364//2 361//2 362//2
f 368//2 365//2 366//2
f 372//2 369//2 370//2
f 376//2 373//2 374//2
f 380//2 377//2 378//2
f 384//2 381//2 382//2
f 388//2 385//2 386//2
f 392//2 389//2 390//2
f 396//2 393//2 394//2
f 400//2 397//2 398//2
f 404//2 401//2 402//2
f 408//2 405//2 406//2
f 412//2 409//2 410//2
f 416//2 413//2 414//2
f 420//2 417//2 418//2
f 424//2 421//2 422//2
f 428//2 425//2 426//2
f 432//2 429//2 430//2
f 436//2 433//2 434//2
f 440//2 437//2 438//2
f 444//2 441//2 442//2
f 448//2 445//2 446//2
f 452//2 449//2 450//2
f 456//2 453//2 454//2
f 460//2 457//2 458//2
f 464//2 461//2 462//2
f 468//2 465//2 466//2
f 472//2 469//2 470//2
f 476//2 473//2 474//2
f 480//2 477//2 478//2
f 1//1 3//1 4//1
f 5//1 7//1 8//1
f 9//1 11//1 12//1
f 13//1 15//1 16//1
f 17//1 19//1 20//1
f 21//1 23//1 24//1
f 25//1 27//1 28//1
f 29//1 31//1 32//1
f 33//1 35//1 36//1
f 37//1 39//1 40//1
f 41//1 43//1 44//1
f 45//1 47//1 48//1
f 49//1 51//1 52//1
f 53//1 55//1 56//1
f 57//1 59//1 60//1
f 61//1 63//1 64//1
f 65//1 67//1 68//1
f 69//1 71//1 72//1
f 73//1 75//1 76//1
f 77//1 79//1 80//1
f 81//1 83//1 84//1
f 85//1 87//1 88//1
f 89//1 91//1 92//1
f 93//1 95//1 96//1
f 97//1 99//1 100//1
f 101//1 103//1 104//1
f 105//1 107//1 108//1
f 109//1 111//1 112//1
f 113//1 115//1 116//1
f 117//1 119//1 120//1
f 121//1 123//1 124//1
f 125//1 127//1 128//1
f 129//1 131//1 132//1
f 133//1 135//1 136//1
f 137//1 139//1 140//1
f 141//1 143//1 144//1
f 145//1 147//1 148//1
f 149//1 151//1 152//1
f 153//1 155//1 156//1
f 157//1 159//1 160//1
f 161//1 163//1 164//1
f 165//1 167//1 168//1
f 169//1 171//1 172//1
f 173//1 175//1 176//1
f 177//1 179//1 180//1
f 181//1 183//1 184//1
f 185//1 187//1 188//1
f 189//1 191//1 192//1
f 193//1 195//1 196//1
f 197//1 199//1 200//1
f 201//1 203//1 204//1
f 205//1 207//1 208//1
f 209//1 211//1 212//1
f 213//1 215//1 216//1
f 217//1 219//1 220//1
f 221//1 223//1 224//1
f 225//1 227//1 228//1
f 229//1 231//1 232//1
f 233//1 235//1 236//1
f 237//1 239//1 240//1
f 244//2 243//2 241//2
f 248//2 247//2 245//2
f 252//2 251//2 249//2
f 256//2 255//2 253//2
f 260//2 259//2 257//2
f 264//2 263//2 261//2
f 268//2 267//2 265//2
f 272//2 271//2 269//2
f 276//2 275//2 273//2
f 280//2 279//2 277//2
f 284//2 283//2 281//2
f 288//2 287//2 285//2
f 292//2 291//2 289//2
f 296//2 295//2 293//2
f 300//2 299//2 297//2
f 304//2 303//2 301//2
f 308//2 307//2 305//2
f 312//2 311//2 309//2
f 316//2 315//2 313//2
f 320//2 319//2 317//2
f 324//2 323//2 321//2
f 328//2 327//2 325//2
f 332//2 331//2 329//2
f 336//2 335//2 333//2
f 340//2 339//2 337//2
f 344//2 343//2 341//2
f 348//2 347//2 345//2
f 352//2 351//2 349//2
f 356//2 355//2 353//2
f 360//2 359//2 357//2
f 364//2 363//2 361//2
f 368//2 367//2 365//2
f 372//2 371//2 369//2
f 376//2 375//2 373//2
f 380//2 379//2 377//2
f 384//2 383//2 381//2
f 388//2 387//2 385//2
f 392//2 391//2 389//2
f 396//2 395//2 393//2
f 400//2 399//2 397//2
f 404//2 403//2 401//2
f 408//2 407//2 405//2
f 412//2 411//2 409//2
f 416//2 415//2 413//2
f 420//2 419//2 417//2
f 424//2 423//2 421//2
f 428//2 427//2 425//2
f 432//2 431//2 429//2
f 436//2 435//2 433//2
f 440//2 439//2 437//2
f 444//2 443//2 441//2
f 448//2 447//2 445//2
f 452//2 451//2 449//2
f 456//2 455//2 453//2
f 460//2 459//2 457//2
f 464//2 463//2 461//2
f 468//2 467//2 465//2
f 472//2 471//2 469//2
f 476//2 475//2 473//2
f 480//2 479//2 477//2
