# Blender v2.79 (sub 0) OBJ File: 'm3.blend'
# www.blender.org
o LF_Suspension_Mesh.006
v 1.271290 -0.843038 2.917950
v 1.272461 -0.852348 2.916449
v 1.274338 -0.861176 2.914022
v 1.276869 -0.869438 2.910738
v 1.280004 -0.877047 2.906664
v 1.283689 -0.883919 2.901867
v 1.287874 -0.889968 2.896417
v 1.292507 -0.895108 2.890380
v 1.297535 -0.899255 2.883825
v 1.302907 -0.902323 2.876819
v 1.308571 -0.904226 2.869430
v 1.314476 -0.904879 2.861727
v 1.320349 -0.904226 2.853999
v 1.325983 -0.902323 2.846587
v 1.331324 -0.899255 2.839557
v 1.336321 -0.895108 2.832978
v 1.340922 -0.889968 2.826917
v 1.345075 -0.883919 2.821443
v 1.348730 -0.877047 2.816623
v 1.351833 -0.869438 2.812525
v 1.354333 -0.861176 2.809217
v 1.356179 -0.852348 2.806767
v 1.357318 -0.843038 2.805242
v 1.357699 -0.833332 2.804710
v 1.357303 -0.823626 2.805230
v 1.356148 -0.814316 2.806743
v 1.354287 -0.805487 2.809181
v 1.351771 -0.797225 2.812477
v 1.348652 -0.789616 2.816563
v 1.344982 -0.782744 2.821372
v 1.340812 -0.776696 2.826834
v 1.336196 -0.771555 2.832883
v 1.331183 -0.767408 2.839450
v 1.325826 -0.764341 2.846468
v 1.320178 -0.762438 2.853868
v 1.314289 -0.761784 2.861584
v 1.308400 -0.762438 2.869299
v 1.302751 -0.764341 2.876700
v 1.297394 -0.767408 2.883718
v 1.292382 -0.771555 2.890285
v 1.287765 -0.776696 2.896333
v 1.283595 -0.782744 2.901796
v 1.279925 -0.789616 2.906604
v 1.276807 -0.797225 2.910690
v 1.274291 -0.805487 2.913986
v 1.272429 -0.814316 2.916425
v 1.271275 -0.823626 2.917938
v 1.270878 -0.833332 2.918457
v 1.215693 -0.915392 2.967906
v 1.267307 -0.915392 2.923197
v 1.269415 -0.915392 2.920472
v 1.272258 -0.915392 2.916783
v 1.275778 -0.915392 2.912208
v 1.279917 -0.915392 2.906821
v 1.284617 -0.915392 2.900700
v 1.289820 -0.915392 2.893920
v 1.295467 -0.915392 2.886558
v 1.301500 -0.915392 2.878690
v 1.307862 -0.915392 2.870392
v 1.314493 -0.915392 2.861740
v 1.321090 -0.915392 2.853061
v 1.327416 -0.915392 2.844737
v 1.333414 -0.915392 2.836842
v 1.339026 -0.915392 2.829453
v 1.344194 -0.915392 2.822646
v 1.348859 -0.915392 2.816498
v 1.352963 -0.915392 2.811085
v 1.356448 -0.915392 2.806482
v 1.359256 -0.915392 2.802767
v 1.361329 -0.915392 2.800015
v 1.390842 -0.915392 2.738437
v 1.391638 -0.833332 2.737371
v 1.390831 -0.751272 2.738429
v 1.361294 -0.751272 2.799988
v 1.359204 -0.751272 2.802727
v 1.356378 -0.751272 2.806429
v 1.352875 -0.751272 2.811018
v 1.348754 -0.751272 2.816418
v 1.344071 -0.751272 2.822553
v 1.338886 -0.751272 2.829346
v 1.333256 -0.751272 2.836721
v 1.327241 -0.751272 2.844603
v 1.320897 -0.751272 2.852914
v 1.314283 -0.751272 2.861579
v 1.307669 -0.751272 2.870245
v 1.301325 -0.751272 2.878556
v 1.295309 -0.751272 2.886437
v 1.289680 -0.751272 2.893813
v 1.284494 -0.751272 2.900606
v 1.279812 -0.751272 2.906741
v 1.275690 -0.751272 2.912141
v 1.272187 -0.751272 2.916730
v 1.269362 -0.751272 2.920432
v 1.267272 -0.751272 2.923170
v 1.215682 -0.751272 2.967897
v 1.214875 -0.833332 2.968955
v 1.206466 -0.843038 2.868470
v 1.207636 -0.852348 2.866970
v 1.209513 -0.861176 2.864543
v 1.212045 -0.869438 2.861259
v 1.215179 -0.877047 2.857184
v 1.218865 -0.883919 2.852388
v 1.223050 -0.889968 2.846938
v 1.227682 -0.895108 2.840901
v 1.232710 -0.899255 2.834346
v 1.238083 -0.902323 2.827340
v 1.243747 -0.904226 2.819951
v 1.249652 -0.904879 2.812248
v 1.255525 -0.904226 2.804520
v 1.261158 -0.902323 2.797108
v 1.266499 -0.899255 2.790078
v 1.271496 -0.895108 2.783499
v 1.276097 -0.889968 2.777438
v 1.280251 -0.883919 2.771964
v 1.283906 -0.877047 2.767144
v 1.287009 -0.869438 2.763046
v 1.289509 -0.861176 2.759738
v 1.291355 -0.852348 2.757287
v 1.292494 -0.843038 2.755763
v 1.292875 -0.833332 2.755231
v 1.292478 -0.823626 2.755751
v 1.291323 -0.814316 2.757263
v 1.289462 -0.805487 2.759702
v 1.286946 -0.797225 2.762998
v 1.283827 -0.789616 2.767084
v 1.280157 -0.782744 2.771892
v 1.275988 -0.776696 2.777355
v 1.271371 -0.771555 2.783403
v 1.266359 -0.767408 2.789971
v 1.261002 -0.764341 2.796988
v 1.255353 -0.762438 2.804389
v 1.249464 -0.761784 2.812104
v 1.243575 -0.762438 2.819820
v 1.237926 -0.764341 2.827220
v 1.232570 -0.767408 2.834238
v 1.227557 -0.771555 2.840806
v 1.222940 -0.776696 2.846854
v 1.218771 -0.782744 2.852317
v 1.215101 -0.789616 2.857125
v 1.211982 -0.797225 2.861211
v 1.209466 -0.805487 2.864507
v 1.207605 -0.814316 2.866946
v 1.206450 -0.823626 2.868459
v 1.206054 -0.833332 2.868978
v 1.172926 -0.915392 2.935263
v 1.202482 -0.915392 2.873718
v 1.204590 -0.915392 2.870993
v 1.207433 -0.915392 2.867304
v 1.210954 -0.915392 2.862729
v 1.215093 -0.915392 2.857342
v 1.219793 -0.915392 2.851221
v 1.224996 -0.915392 2.844441
v 1.230643 -0.915392 2.837079
v 1.236676 -0.915392 2.829211
v 1.243037 -0.915392 2.820912
v 1.249669 -0.915392 2.812261
v 1.256265 -0.915392 2.803582
v 1.262592 -0.915392 2.795258
v 1.268590 -0.915392 2.787363
v 1.274202 -0.915392 2.779974
v 1.279370 -0.915392 2.773167
v 1.284034 -0.915392 2.767019
v 1.288139 -0.915392 2.761606
v 1.291624 -0.915392 2.757003
v 1.294432 -0.915392 2.753288
v 1.296505 -0.915392 2.750536
v 1.348075 -0.915392 2.705794
v 1.348871 -0.833332 2.704728
v 1.348064 -0.751272 2.705785
v 1.296470 -0.751272 2.750509
v 1.294379 -0.751272 2.753248
v 1.291554 -0.751272 2.756950
v 1.288051 -0.751272 2.761539
v 1.283929 -0.751272 2.766939
v 1.279247 -0.751272 2.773073
v 1.274062 -0.751272 2.779867
v 1.268432 -0.751272 2.787242
v 1.262416 -0.751272 2.795124
v 1.256072 -0.751272 2.803435
v 1.249458 -0.751272 2.812100
v 1.242845 -0.751272 2.820765
v 1.236501 -0.751272 2.829077
v 1.230485 -0.751272 2.836958
v 1.224855 -0.751272 2.844334
v 1.219670 -0.751272 2.851127
v 1.214988 -0.751272 2.857262
v 1.210866 -0.751272 2.862662
v 1.207363 -0.751272 2.867250
v 1.204538 -0.751272 2.870953
v 1.202447 -0.751272 2.873691
v 1.172915 -0.751272 2.935254
v 1.172107 -0.833332 2.936311
v 1.163981 -0.915392 3.035656
v 1.442555 -0.915392 2.670687
v 1.443827 -0.833332 2.668997
v 1.442543 -0.751272 2.670678
v 1.163969 -0.751272 3.035647
v 1.162686 -0.833332 3.037329
v 1.121214 -0.915392 3.003013
v 1.399788 -0.915392 2.638044
v 1.401060 -0.833332 2.636353
v 1.399776 -0.751272 2.638035
v 1.121202 -0.751272 3.003004
v 1.119918 -0.833332 3.004686
v 0.848700 -0.883171 2.687787
v 1.023849 -0.883171 2.458318
v 1.024645 -0.833332 2.457252
v 1.023838 -0.783492 2.458310
v 0.848688 -0.783492 2.687778
v 0.847881 -0.833332 2.688836
v 0.796987 -0.883171 2.755538
v 1.075561 -0.883171 2.390568
v 1.076833 -0.833332 2.388878
v 1.075550 -0.783492 2.390559
v 0.796976 -0.783492 2.755529
v 0.795692 -0.833332 2.757210
vt 0.000000 0.000000
vt 0.000000 0.000000
vt 0.000000 0.000000
vt 0.000000 0.000000
vt 0.000000 0.000000
vt 0.000000 0.000000
vt 0.000000 0.000000
vt 0.000000 0.000000
vt 0.000000 0.000000
vt 0.000000 0.000000
vt 0.000000 0.000000
vt 0.000000 0.000000
vt 0.000000 0.000000
vt 0.000000 0.000000
vt 0.000000 0.000000
vt 0.000000 0.000000
vt 0.000000 0.000000
vt 0.000000 0.000000
vt 0.000000 0.000000
vt 0.000000 0.000000
vt 0.000000 0.000000
vt 0.000000 0.000000
vt 0.000000 0.000000
vt 0.000000 0.000000
vt 0.000000 0.000000
vt 0.000000 0.000000
vt 0.000000 0.000000
vt 0.000000 0.000000
vt 0.000000 0.000000
vt 0.000000 0.000000
vt 0.000000 0.000000
vt 0.000000 0.000000
vt 0.000000 0.000000
vt 0.000000 0.000000
vt 0.000000 0.000000
vt 0.000000 0.000000
vt 0.000000 0.000000
vt 0.000000 0.000000
vt 0.000000 0.000000
vt 0.000000 0.000000
vt 0.000000 0.000000
vt 0.000000 0.000000
vt 0.000000 0.000000
vt 0.000000 0.000000
vt 0.000000 0.000000
vt 0.000000 0.000000
vt 0.000000 0.000000
vt 0.000000 0.000000
vt 0.000000 0.000000
vt 0.000000 0.000000
vt 0.000000 0.000000
vt 0.000000 0.000000
vt 0.000000 0.000000
vt 0.000000 0.000000
vt 0.000000 0.000000
vt 0.000000 0.000000
vt 0.000000 0.000000
vt 0.000000 0.000000
vt 0.000000 0.000000
vt 0.000000 0.000000
vt 0.000000 0.000000
vt 0.000000 0.000000
vt 0.000000 0.000000
vt 0.000000 0.000000
vt 0.000000 0.000000
vt 0.000000 0.000000
vt 0.000000 0.000000
vt 0.000000 0.000000
vt 0.000000 0.000000
vt 0.000000 0.000000
vt 0.000000 0.000000
vt 0.000000 0.000000
vt 0.000000 0.000000
vt 0.000000 0.000000
vt 0.000000 0.000000
vt 0.000000 0.000000
vt 0.000000 0.000000
vt 0.000000 0.000000
vt 0.000000 0.000000
vt 0.000000 0.000000
vt 0.000000 0.000000
vt 0.000000 0.000000
vt 0.000000 0.000000
vt 0.000000 0.000000
vt 0.000000 0.000000
vt 0.000000 0.000000
vt 0.000000 0.000000
vt 0.000000 0.000000
vt 0.000000 0.000000
vt 0.000000 0.000000
vt 0.000000 0.000000
vt 0.000000 0.000000
vt 0.000000 0.000000
vt 0.000000 0.000000
vt 0.000000 0.000000
vt 0.000000 0.000000
vt 0.000000 0.000000
vt 0.000000 0.000000
vt 0.000000 0.000000
vt 0.000000 0.000000
vt 0.000000 0.000000
vt 0.000000 0.000000
vt 0.000000 0.000000
vt 0.000000 0.000000
vt 0.000000 0.000000
vt 0.000000 0.000000
vt 0.000000 0.000000
vt 0.000000 0.000000
vt 0.000000 0.000000
vt 0.000000 0.000000
vt 0.000000 0.000000
vt 0.000000 0.000000
vt 0.000000 0.000000
vt 0.000000 0.000000
vt 0.000000 0.000000
vt 0.000000 0.000000
vt 0.000000 0.000000
vt 0.000000 0.000000
vt 0.000000 0.000000
vt 0.000000 0.000000
vt 0.000000 0.000000
vt 0.000000 0.000000
vt 0.000000 0.000000
vt 0.000000 0.000000
vt 0.000000 0.000000
vt 0.000000 0.000000
vt 0.000000 0.000000
vt 0.000000 0.000000
vt 0.000000 0.000000
vt 0.000000 0.000000
vt 0.000000 0.000000
vt 0.000000 0.000000
vt 0.000000 0.000000
vt 0.000000 0.000000
vt 0.000000 0.000000
vt 0.000000 0.000000
vt 0.000000 0.000000
vt 0.000000 0.000000
vt 0.000000 0.000000
vt 0.000000 0.000000
vt 0.000000 0.000000
vt 0.000000 0.000000
vt 0.000000 0.000000
vt 0.000000 0.000000
vt 0.000000 0.000000
vt 0.000000 0.000000
vt 0.000000 0.000000
vt 0.000000 0.000000
vt 0.000000 0.000000
vt 0.000000 0.000000
vt 0.000000 0.000000
vt 0.000000 0.000000
vt 0.000000 0.000000
vt 0.000000 0.000000
vt 0.000000 0.000000
vt 0.000000 0.000000
vt 0.000000 0.000000
vt 0.000000 0.000000
vt 0.000000 0.000000
vt 0.000000 0.000000
vt 0.000000 0.000000
vt 0.000000 0.000000
vt 0.000000 0.000000
vt 0.000000 0.000000
vt 0.000000 0.000000
vt 0.000000 0.000000
vt 0.000000 0.000000
vt 0.000000 0.000000
vt 0.000000 0.000000
vt 0.000000 0.000000
vt 0.000000 0.000000
vt 0.000000 0.000000
vt 0.000000 0.000000
vt 0.000000 0.000000
vt 0.000000 0.000000
vt 0.000000 0.000000
vt 0.000000 0.000000
vt 0.000000 0.000000
vt 0.000000 0.000000
vt 0.000000 0.000000
vt 0.000000 0.000000
vt 0.000000 0.000000
vt 0.000000 0.000000
vt 0.000000 0.000000
vt 0.000000 0.000000
vt 0.000000 0.000000
vt 0.000000 0.000000
vt 0.000000 0.000000
vt 0.000000 0.000000
vt 0.000000 0.000000
vt 0.000000 0.000000
vt 0.000000 0.000000
vt 0.000000 0.000000
vt 0.000000 0.000000
vt 0.000000 0.000000
vt 0.000000 0.000000
vt 0.000000 0.000000
vt 0.000000 0.000000
vt 0.000000 0.000000
vt 0.000000 0.000000
vt 0.000000 0.000000
vt 0.000000 0.000000
vt 0.000000 0.000000
vt 0.000000 0.000000
vt 0.000000 0.000000
vt 0.000000 0.000000
vt 0.000000 0.000000
vt 0.000000 0.000000
vt 0.000000 0.000000
vt 0.000000 0.000000
vt 0.000000 0.000000
vt 0.000000 0.000000
vt 0.000000 0.000000
vt 0.000000 0.000000
vt 0.000000 0.000000
vt 0.000000 0.000000
vn 0.7950 0.0005 0.6066
vn 0.7967 0.0006 0.6043
vn 0.7947 0.0001 0.6070
vn 0.7927 0.0005 0.6097
vn 0.7950 0.0006 0.6066
vn 0.8929 -0.0104 0.4500
vn 0.7937 0.0021 0.6083
vn 0.7948 0.0003 0.6069
vn 0.8929 0.0124 0.4500
vn 0.7959 0.0016 0.6054
vn 0.7950 0.0002 0.6066
vn 0.7965 0.0006 0.6047
vn 0.7949 0.0007 0.6067
vn 0.6696 0.0124 0.7426
vn 0.6894 -0.0300 0.7238
vn 0.7948 0.0001 0.6069
vn 0.8791 0.0317 0.4756
vn 0.7939 0.0016 0.6080
vn 0.7933 0.0006 0.6088
vn 0.7971 0.0005 0.6039
vn 0.7931 0.0006 0.6091
vn 0.7977 0.0006 0.6030
vn 0.7961 0.0021 0.6052
vn 0.7948 0.0005 0.6069
vn 0.7950 0.0001 0.6066
vn 0.7959 0.0019 0.6054
vn 0.6906 0.0318 0.7225
vn 0.7961 0.0008 0.6051
vn 0.7948 0.0002 0.6069
vn 0.7920 0.0006 0.6105
vn 0.8800 -0.0300 0.4741
vn 0.7938 0.0010 0.6082
vn -0.6696 0.0104 -0.7426
vn 0.7935 0.0007 0.6085
vn 0.7950 0.0003 0.6066
vn 0.7960 0.0010 0.6052
vn 0.7948 0.0006 0.6069
vn 0.7950 0.0001 0.6065
vn 0.7963 0.0007 0.6049
vn 0.7939 0.0019 0.6081
vn 0.7937 0.0008 0.6084
vn -0.7949 -0.0005 -0.6067
vn -0.7972 -0.0008 -0.6037
vn -0.7949 -0.0001 -0.6067
vn -0.7927 -0.0005 -0.6096
vn -0.7949 -0.0006 -0.6067
vn -0.6708 -0.0031 -0.7416
vn -0.7937 -0.0019 -0.6083
vn -0.7949 -0.0004 -0.6067
vn -0.6697 0.0124 -0.7425
vn -0.7959 -0.0016 -0.6054
vn -0.7950 -0.0002 -0.6066
vn -0.7969 -0.0009 -0.6042
vn -0.7949 -0.0007 -0.6068
vn -0.8924 0.0030 -0.4512
vn -0.8781 -0.0335 -0.4772
vn -0.7949 -0.0002 -0.6068
vn -0.6907 0.0317 -0.7224
vn -0.7936 -0.0014 -0.6085
vn -0.7933 -0.0006 -0.6088
vn -0.7978 -0.0008 -0.6030
vn -0.7949 -0.0002 -0.6067
vn -0.7931 -0.0006 -0.6091
vn -0.7988 -0.0010 -0.6016
vn -0.7960 -0.0021 -0.6053
vn -0.7948 -0.0005 -0.6069
vn -0.7950 -0.0001 -0.6066
vn -0.7960 -0.0019 -0.6054
vn -0.9013 -0.0275 -0.4324
vn -0.7965 -0.0012 -0.6047
vn -0.7949 -0.0003 -0.6067
vn -0.7920 -0.0006 -0.6105
vn -0.6551 0.0273 -0.7551
vn -0.7938 -0.0010 -0.6082
vn 0.8923 0.0031 0.4515
vn -0.7935 -0.0007 -0.6085
vn -0.7950 -0.0003 -0.6066
vn -0.7963 -0.0014 -0.6049
vn -0.7948 -0.0006 -0.6068
vn -0.7966 -0.0010 -0.6045
vn -0.7951 -0.0001 -0.6065
vn -0.7936 -0.0017 -0.6084
vn -0.7937 -0.0008 -0.6084
vn -0.0408 0.9977 0.0534
vn 0.0000 -1.0000 0.0000
vn -0.6054 -0.0672 0.7931
vn 0.0000 1.0000 0.0000
vn -0.1991 -0.9446 0.2609
vn 0.5731 0.3282 -0.7509
vn 0.3396 -0.8286 -0.4450
vn -0.6054 -0.0671 0.7931
vn -0.2722 0.8937 0.3566
vn -0.1215 -0.9797 0.1592
vn -0.5944 -0.2003 0.7788
vn -0.5028 0.5598 0.6587
vn 0.0407 -0.9977 -0.0534
vn -0.5731 0.3282 0.7509
vn 0.1215 0.9797 -0.1592
vn -0.1991 0.9446 0.2609
vn 0.5423 -0.4486 -0.7104
vn 0.0408 0.9977 -0.0534
vn 0.4554 0.6607 -0.5967
vn 0.5944 -0.2003 -0.7788
vn 0.5944 0.2003 -0.7788
vn 0.1991 -0.9446 -0.2609
vn -0.4554 -0.6607 0.5967
vn 0.5028 0.5598 -0.6587
vn 0.4554 -0.6607 -0.5967
vn -0.5423 -0.4486 0.7104
vn -0.0626 0.9969 -0.0478
vn -0.3396 0.8286 0.4450
vn 0.1215 -0.9797 -0.1592
vn -0.6054 0.0671 0.7931
vn 0.7949 -0.0000 0.6067
vn 0.4009 0.7506 -0.5252
vn 0.5731 -0.3282 -0.7509
vn 0.6054 -0.0672 -0.7931
vn 0.2722 0.8937 -0.3566
vn 0.3396 0.8286 -0.4450
vn -0.3396 -0.8286 0.4450
vn -0.4009 0.7506 0.5252
vn 0.2722 -0.8937 -0.3566
vn -0.4009 -0.7506 0.5252
vn 0.5423 0.4486 -0.7104
vn 0.5028 -0.5598 -0.6587
vn -0.5731 -0.3282 0.7509
vn -0.4554 0.6607 0.5967
vn -0.0407 -0.9977 0.0534
vn -0.5944 0.2003 0.7788
vn -0.5423 0.4486 0.7104
vn 0.4009 -0.7506 -0.5252
vn -0.5028 -0.5598 0.6587
vn 0.1991 0.9446 -0.2609
vn -0.1215 0.9797 0.1592
vn -0.2722 -0.8937 0.3566
vn 0.6065 0.0258 -0.7946
vn 0.6065 -0.0258 -0.7946
vn -0.6065 0.0258 0.7946
vn 0.7949 0.0002 0.6067
vn 0.0626 0.9969 0.0478
vn -0.6062 0.0424 0.7942
vn -0.7949 -0.0000 -0.6067
vn 0.7949 0.0003 0.6067
vn 0.6062 -0.0424 -0.7942
vn 0.6077 -0.0162 -0.7940
vn 0.6049 0.0258 -0.7959
vn 0.6062 0.0424 -0.7942
vn -0.6065 -0.0267 0.7946
vn -0.0626 -0.9969 -0.0478
vn -0.6077 -0.0162 0.7940
vn -0.6056 0.0162 0.7956
vn 0.7949 0.0005 0.6068
vn 0.7972 0.0008 0.6037
vn 0.7949 0.0001 0.6067
vn 0.7920 0.0008 0.6105
vn 0.7949 0.0005 0.6067
vn 0.8926 -0.0028 0.4509
vn 0.7937 0.0019 0.6083
vn 0.7949 0.0004 0.6067
vn 0.8924 0.0030 0.4511
vn 0.7963 0.0014 0.6050
vn 0.7949 0.0004 0.6068
vn 0.7969 0.0009 0.6041
vn 0.7949 0.0006 0.6067
vn 0.6705 0.0030 0.7419
vn 0.6545 0.0274 0.7556
vn 0.9013 -0.0272 0.4324
vn 0.7936 0.0014 0.6085
vn 0.7929 0.0009 0.6093
vn 0.7949 0.0003 0.6068
vn 0.7978 0.0008 0.6030
vn 0.7926 0.0008 0.6098
vn 0.7988 0.0010 0.6016
vn 0.7961 0.0019 0.6051
vn 0.7962 0.0017 0.6050
vn 0.6548 -0.0272 0.7553
vn 0.7965 0.0012 0.6047
vn 0.7910 0.0010 0.6118
vn 0.9014 0.0274 0.4320
vn 0.7935 0.0014 0.6086
vn -0.6704 0.0028 -0.7420
vn 0.7932 0.0010 0.6090
vn 0.7963 0.0014 0.6049
vn 0.7966 0.0010 0.6044
vn 0.7936 0.0017 0.6084
vn 0.7933 0.0012 0.6088
vn -0.7950 -0.0005 -0.6066
vn -0.7967 -0.0005 -0.6044
vn -0.7948 -0.0001 -0.6069
vn -0.7920 -0.0008 -0.6105
vn -0.7950 -0.0006 -0.6067
vn -0.6697 -0.0144 -0.7425
vn -0.7938 -0.0021 -0.6082
vn -0.7948 -0.0003 -0.6069
vn -0.6706 0.0030 -0.7418
vn -0.7965 -0.0006 -0.6047
vn -0.8929 0.0124 -0.4501
vn -0.9011 0.0273 -0.4327
vn -0.6548 -0.0275 -0.7553
vn -0.7939 -0.0016 -0.6081
vn -0.7930 -0.0009 -0.6093
vn -0.7971 -0.0006 -0.6038
vn -0.7925 -0.0008 -0.6098
vn -0.7949 -0.0007 -0.6067
vn -0.7978 -0.0006 -0.6030
vn -0.7961 -0.0019 -0.6051
vn -0.7962 -0.0017 -0.6051
vn -0.8790 0.0317 -0.4757
vn -0.7962 -0.0008 -0.6051
vn -0.7948 -0.0002 -0.6069
vn -0.7910 -0.0010 -0.6118
vn -0.7948 -0.0001 -0.6068
vn -0.6919 -0.0334 -0.7212
vn -0.7935 -0.0014 -0.6086
vn 0.8928 0.0144 0.4501
vn -0.7932 -0.0010 -0.6090
vn -0.7949 -0.0005 -0.6068
vn -0.7960 -0.0010 -0.6052
vn -0.7963 -0.0007 -0.6049
vn -0.7939 -0.0019 -0.6081
vn -0.7933 -0.0012 -0.6088
vn -0.6054 0.0672 0.7931
vn -0.6081 0.0258 0.7934
vn 0.6049 -0.0258 -0.7959
vn 0.6065 -0.0267 -0.7946
vn 0.6081 0.0258 -0.7934
vn -0.6056 -0.0162 0.7956
vn -0.6065 0.0267 0.7946
s off
f 33/1/1 82/2/1 34/3/1
f 19/4/2 68/5/2 20/6/2
f 45/7/3 94/8/3 46/9/3
f 51/10/4 4/11/4 3/12/4
f 34/3/5 83/13/5 35/14/5
f 23/15/6 72/16/6 24/17/6
f 11/18/7 60/19/7 12/20/7
f 39/21/8 88/22/8 40/23/8
f 72/16/9 25/24/9 24/17/9
f 62/25/10 15/26/10 14/27/10
f 79/28/11 32/29/11 31/30/11
f 18/31/12 67/32/12 19/4/12
f 84/33/13 37/34/13 36/35/13
f 47/36/14 96/37/14 48/38/14
f 49/39/15 2/40/15 1/41/15
f 43/42/16 92/43/16 44/44/16
f 73/45/17 26/46/17 25/24/17
f 9/47/18 58/48/18 10/49/18
f 53/50/19 6/51/19 5/52/19
f 78/53/11 31/30/11 30/54/11
f 20/6/20 69/55/20 21/56/20
f 44/44/16 93/57/16 45/7/16
f 52/58/21 5/52/21 4/11/21
f 35/14/13 84/33/13 36/35/13
f 21/56/22 70/59/22 22/60/22
f 60/19/23 13/61/23 12/20/23
f 86/62/24 39/21/24 38/63/24
f 74/64/25 27/65/25 26/46/25
f 61/66/26 14/27/26 13/61/26
f 46/9/27 95/67/27 47/36/27
f 16/68/28 65/69/28 17/70/28
f 41/71/29 90/72/29 42/73/29
f 50/74/30 3/12/30 2/40/30
f 42/73/29 91/75/29 43/42/29
f 22/60/31 71/76/31 23/15/31
f 56/77/32 9/47/32 8/78/32
f 1/41/33 96/37/33 48/38/33
f 77/79/11 30/54/11 29/80/11
f 54/81/34 7/82/34 6/51/34
f 80/83/35 33/1/35 32/29/35
f 15/26/36 64/84/36 16/68/36
f 85/85/37 38/63/37 37/34/37
f 76/86/38 29/80/38 28/87/38
f 17/70/39 66/88/39 18/31/39
f 40/23/29 89/89/29 41/71/29
f 75/90/25 28/87/25 27/65/25
f 10/49/40 59/91/40 11/18/40
f 55/92/41 8/78/41 7/82/41
f 129/93/42 178/94/42 177/95/42
f 115/96/43 164/97/43 163/98/43
f 141/99/44 190/100/44 189/101/44
f 100/102/45 147/103/45 99/104/45
f 130/105/46 179/106/46 178/94/46
f 119/107/47 168/108/47 167/109/47
f 107/110/48 156/111/48 155/112/48
f 135/113/49 184/114/49 183/115/49
f 121/116/50 168/108/50 120/117/50
f 111/118/51 158/119/51 110/120/51
f 128/121/52 175/122/52 127/123/52
f 114/124/53 163/98/53 162/125/53
f 133/126/54 180/127/54 132/128/54
f 143/129/55 192/130/55 191/131/55
f 98/132/56 145/133/56 97/134/56
f 139/135/57 188/136/57 187/137/57
f 122/138/58 169/139/58 121/116/58
f 105/140/59 154/141/59 153/142/59
f 102/143/60 149/144/60 101/145/60
f 127/123/52 174/146/52 126/147/52
f 116/148/61 165/149/61 164/97/61
f 140/150/62 189/101/62 188/136/62
f 101/145/63 148/151/63 100/102/63
f 131/152/46 180/127/46 179/106/46
f 117/153/64 166/154/64 165/149/64
f 109/155/65 156/111/65 108/156/65
f 135/113/66 182/157/66 134/158/66
f 123/159/67 170/160/67 122/138/67
f 110/120/68 157/161/68 109/155/68
f 142/162/69 191/131/69 190/100/69
f 112/163/70 161/164/70 160/165/70
f 137/166/71 186/167/71 185/168/71
f 99/104/72 146/169/72 98/132/72
f 138/170/62 187/137/62 186/167/62
f 118/171/73 167/109/73 166/154/73
f 105/140/74 152/172/74 104/173/74
f 97/134/75 192/130/75 145/133/75
f 126/147/52 173/174/52 125/175/52
f 103/176/76 150/177/76 102/143/76
f 129/93/77 176/178/77 128/121/77
f 111/118/78 160/165/78 159/179/78
f 134/158/79 181/180/79 133/126/79
f 125/175/67 172/181/67 124/182/67
f 113/183/80 162/125/80 161/164/80
f 136/184/49 185/168/49 184/114/49
f 124/182/81 171/185/81 123/159/81
f 106/186/82 155/112/82 154/141/82
f 104/173/83 151/187/83 103/176/83
f 13/61/84 108/156/84 12/20/84
f 50/74/85 147/103/85 51/10/85
f 48/38/86 97/134/86 1/41/86
f 88/22/87 185/168/87 89/89/87
f 34/3/88 129/93/88 33/1/88
f 96/37/62 193/188/62 198/189/62
f 2/40/89 99/104/89 98/132/89
f 64/84/85 159/179/85 160/165/85
f 41/71/90 136/184/90 40/23/90
f 82/2/87 179/106/87 83/13/87
f 25/24/91 120/117/91 24/17/91
f 74/64/87 169/139/87 170/160/87
f 16/68/92 111/118/92 15/26/92
f 68/5/85 163/98/85 164/97/85
f 35/14/93 130/105/93 34/3/93
f 84/33/87 181/180/87 85/85/87
f 26/46/94 121/116/94 25/24/94
f 70/59/85 165/149/85 166/154/85
f 58/48/85 155/112/85 59/91/85
f 20/6/95 115/96/95 19/4/95
f 63/190/85 158/119/85 159/179/85
f 37/34/96 132/128/96 36/35/96
f 92/43/87 189/101/87 93/57/87
f 22/60/97 117/153/97 21/56/97
f 10/49/98 107/110/98 106/186/98
f 59/91/85 156/111/85 60/19/85
f 15/26/99 110/120/99 14/27/99
f 53/50/85 150/177/85 54/81/85
f 45/7/100 140/150/100 44/44/100
f 94/8/87 191/131/87 95/67/87
f 11/18/101 108/156/101 107/110/101
f 49/39/85 146/169/85 50/74/85
f 5/52/102 102/143/102 101/145/102
f 86/62/87 183/115/87 87/191/87
f 47/36/103 142/162/103 46/9/103
f 77/79/87 174/146/87 78/53/87
f 1/41/104 98/132/104 97/134/104
f 52/58/85 149/144/85 53/50/85
f 39/21/105 134/158/105 38/63/105
f 90/72/87 187/137/87 91/75/87
f 30/54/106 125/175/106 29/80/106
f 75/90/87 172/181/87 76/86/87
f 4/11/107 101/145/107 100/102/107
f 65/69/85 160/165/85 161/164/85
f 42/73/108 139/135/108 138/170/108
f 85/85/87 182/157/87 86/62/87
f 28/87/109 123/159/109 27/65/109
f 191/131/110 215/192/110 203/193/110
f 17/70/111 112/163/111 16/68/111
f 54/81/85 151/187/85 55/92/85
f 38/63/112 133/126/112 37/34/112
f 93/57/87 190/100/87 94/8/87
f 24/17/113 119/107/113 23/15/113
f 72/16/114 196/194/114 73/45/114
f 56/77/85 153/142/85 57/195/85
f 6/51/115 103/176/115 102/143/115
f 55/92/85 152/172/85 56/77/85
f 46/9/116 141/99/116 45/7/116
f 79/28/87 176/178/87 80/83/87
f 48/38/117 143/129/117 47/36/117
f 8/78/118 105/140/118 104/173/118
f 66/88/85 161/164/85 162/125/85
f 7/82/119 104/173/119 103/176/119
f 87/191/87 184/114/87 88/22/87
f 32/29/120 127/123/120 31/30/120
f 78/53/87 175/122/87 79/28/87
f 18/31/121 113/183/121 17/70/121
f 51/10/85 148/151/85 52/58/85
f 40/23/122 135/113/122 39/21/122
f 91/75/87 188/136/87 92/43/87
f 31/30/123 126/147/123 30/54/123
f 74/64/87 171/185/87 75/90/87
f 3/12/124 100/102/124 99/104/124
f 67/32/85 162/125/85 163/98/85
f 43/42/125 140/150/125 139/135/125
f 83/13/87 180/127/87 84/33/87
f 27/65/126 122/138/126 26/46/126
f 71/76/85 166/154/85 167/109/85
f 19/4/127 114/124/127 18/31/127
f 69/55/85 164/97/85 165/149/85
f 36/35/128 131/152/128 35/14/128
f 89/89/87 186/167/87 90/72/87
f 23/15/129 118/171/129 22/60/129
f 76/86/87 173/174/87 77/79/87
f 57/195/85 154/141/85 58/48/85
f 21/56/130 116/148/130 20/6/130
f 62/25/85 157/161/85 158/119/85
f 42/73/131 137/166/131 41/71/131
f 80/83/87 177/95/87 81/196/87
f 28/87/132 125/175/132 124/182/132
f 9/47/133 106/186/133 105/140/133
f 61/66/85 156/111/85 157/161/85
f 14/27/134 109/155/134 13/61/134
f 96/37/114 197/197/114 198/189/114
f 33/1/135 128/121/135 32/29/135
f 81/196/87 178/94/87 82/2/87
f 196/194/136 201/198/136 202/199/136
f 195/200/137 200/201/137 201/198/137
f 198/189/138 203/193/138 204/202/138
f 198/189/136 199/203/136 204/202/136
f 72/16/139 194/204/139 195/200/139
f 191/131/87 197/197/87 95/67/87
f 167/109/85 194/204/85 71/76/85
f 145/133/140 211/205/140 199/203/140
f 145/133/87 193/188/87 49/39/87
f 73/45/87 202/199/87 169/139/87
f 204/202/141 215/192/141 216/206/141
f 202/199/110 208/207/110 169/139/110
f 210/208/142 215/192/142 209/209/142
f 207/210/142 214/211/142 213/212/142
f 210/208/143 211/205/143 205/213/143
f 207/210/71 212/214/71 206/215/71
f 201/198/144 212/214/144 213/212/144
f 192/130/145 209/209/145 191/131/145
f 201/198/146 214/211/146 202/199/146
f 204/202/147 211/205/147 216/206/147
f 168/108/148 208/207/148 207/210/148
f 167/109/149 212/214/149 200/201/149
f 192/130/150 205/213/150 145/133/150
f 168/108/151 206/215/151 167/109/151
f 33/1/152 81/196/152 82/2/152
f 19/4/153 67/32/153 68/5/153
f 45/7/154 93/57/154 94/8/154
f 51/10/155 52/58/155 4/11/155
f 34/3/156 82/2/156 83/13/156
f 23/15/157 71/76/157 72/16/157
f 11/18/158 59/91/158 60/19/158
f 39/21/159 87/191/159 88/22/159
f 72/16/160 73/45/160 25/24/160
f 62/25/161 63/190/161 15/26/161
f 79/28/162 80/83/162 32/29/162
f 18/31/163 66/88/163 67/32/163
f 84/33/164 85/85/164 37/34/164
f 47/36/165 95/67/165 96/37/165
f 49/39/166 50/74/166 2/40/166
f 43/42/139 91/75/139 92/43/139
f 73/45/167 74/64/167 26/46/167
f 9/47/168 57/195/168 58/48/168
f 53/50/169 54/81/169 6/51/169
f 78/53/170 79/28/170 31/30/170
f 20/6/171 68/5/171 69/55/171
f 44/44/139 92/43/139 93/57/139
f 52/58/172 53/50/172 5/52/172
f 35/14/164 83/13/164 84/33/164
f 21/56/173 69/55/173 70/59/173
f 60/19/174 61/66/174 13/61/174
f 86/62/156 87/191/156 39/21/156
f 74/64/154 75/90/154 27/65/154
f 61/66/175 62/25/175 14/27/175
f 46/9/176 94/8/176 95/67/176
f 16/68/177 64/84/177 65/69/177
f 41/71/170 89/89/170 90/72/170
f 50/74/178 51/10/178 3/12/178
f 42/73/139 90/72/139 91/75/139
f 22/60/179 70/59/179 71/76/179
f 56/77/180 57/195/180 9/47/180
f 1/41/181 49/39/181 96/37/181
f 77/79/139 78/53/139 30/54/139
f 54/81/182 55/92/182 7/82/182
f 80/83/156 81/196/156 33/1/156
f 15/26/183 63/190/183 64/84/183
f 85/85/164 86/62/164 38/63/164
f 76/86/139 77/79/139 29/80/139
f 17/70/184 65/69/184 66/88/184
f 40/23/162 88/22/162 89/89/162
f 75/90/154 76/86/154 28/87/154
f 10/49/185 58/48/185 59/91/185
f 55/92/186 56/77/186 8/78/186
f 129/93/187 130/105/187 178/94/187
f 115/96/188 116/148/188 164/97/188
f 141/99/189 142/162/189 190/100/189
f 100/102/190 148/151/190 147/103/190
f 130/105/191 131/152/191 179/106/191
f 119/107/192 120/117/192 168/108/192
f 107/110/193 108/156/193 156/111/193
f 135/113/194 136/184/194 184/114/194
f 121/116/195 169/139/195 168/108/195
f 111/118/78 159/179/78 158/119/78
f 128/121/71 176/178/71 175/122/71
f 114/124/196 115/96/196 163/98/196
f 133/126/46 181/180/46 180/127/46
f 143/129/197 144/216/197 192/130/197
f 98/132/198 146/169/198 145/133/198
f 139/135/189 140/150/189 188/136/189
f 122/138/199 170/160/199 169/139/199
f 105/140/200 106/186/200 154/141/200
f 102/143/201 150/177/201 149/144/201
f 127/123/71 175/122/71 174/146/71
f 116/148/202 117/153/202 165/149/202
f 140/150/189 141/99/189 189/101/189
f 101/145/203 149/144/203 148/151/203
f 131/152/204 132/128/204 180/127/204
f 117/153/205 118/171/205 166/154/205
f 109/155/206 157/161/206 156/111/206
f 135/113/42 183/115/42 182/157/42
f 123/159/44 171/185/44 170/160/44
f 110/120/207 158/119/207 157/161/207
f 142/162/208 143/129/208 191/131/208
f 112/163/209 113/183/209 161/164/209
f 137/166/210 138/170/210 186/167/210
f 99/104/211 147/103/211 146/169/211
f 138/170/212 139/135/212 187/137/212
f 118/171/213 119/107/213 167/109/213
f 105/140/214 153/142/214 152/172/214
f 97/134/215 144/216/215 192/130/215
f 126/147/57 174/146/57 173/174/57
f 103/176/216 151/187/216 150/177/216
f 129/93/217 177/95/217 176/178/217
f 111/118/218 112/163/218 160/165/218
f 134/158/46 182/157/46 181/180/46
f 125/175/62 173/174/62 172/181/62
f 113/183/219 114/124/219 162/125/219
f 136/184/194 137/166/194 185/168/194
f 124/182/62 172/181/62 171/185/62
f 106/186/220 107/110/220 155/112/220
f 104/173/221 152/172/221 151/187/221
f 13/61/84 109/155/84 108/156/84
f 50/74/85 146/169/85 147/103/85
f 48/38/86 144/216/86 97/134/86
f 88/22/87 184/114/87 185/168/87
f 34/3/88 130/105/88 129/93/88
f 96/37/62 49/39/62 193/188/62
f 2/40/89 3/12/89 99/104/89
f 64/84/85 63/190/85 159/179/85
f 41/71/90 137/166/90 136/184/90
f 82/2/87 178/94/87 179/106/87
f 25/24/86 121/116/86 120/117/86
f 74/64/87 73/45/87 169/139/87
f 16/68/92 112/163/92 111/118/92
f 68/5/85 67/32/85 163/98/85
f 35/14/93 131/152/93 130/105/93
f 84/33/87 180/127/87 181/180/87
f 26/46/94 122/138/94 121/116/94
f 70/59/85 69/55/85 165/149/85
f 58/48/85 154/141/85 155/112/85
f 20/6/95 116/148/95 115/96/95
f 63/190/85 62/25/85 158/119/85
f 37/34/96 133/126/96 132/128/96
f 92/43/87 188/136/87 189/101/87
f 22/60/97 118/171/97 117/153/97
f 10/49/98 11/18/98 107/110/98
f 59/91/85 155/112/85 156/111/85
f 15/26/99 111/118/99 110/120/99
f 53/50/85 149/144/85 150/177/85
f 45/7/100 141/99/100 140/150/100
f 94/8/87 190/100/87 191/131/87
f 11/18/101 12/20/101 108/156/101
f 49/39/85 145/133/85 146/169/85
f 5/52/102 6/51/102 102/143/102
f 86/62/87 182/157/87 183/115/87
f 47/36/103 143/129/103 142/162/103
f 77/79/87 173/174/87 174/146/87
f 1/41/104 2/40/104 98/132/104
f 52/58/85 148/151/85 149/144/85
f 39/21/105 135/113/105 134/158/105
f 90/72/87 186/167/87 187/137/87
f 30/54/106 126/147/106 125/175/106
f 75/90/87 171/185/87 172/181/87
f 4/11/107 5/52/107 101/145/107
f 65/69/85 64/84/85 160/165/85
f 42/73/108 43/42/108 139/135/108
f 85/85/87 181/180/87 182/157/87
f 28/87/109 124/182/109 123/159/109
f 191/131/110 209/209/110 215/192/110
f 17/70/111 113/183/111 112/163/111
f 54/81/85 150/177/85 151/187/85
f 38/63/112 134/158/112 133/126/112
f 93/57/87 189/101/87 190/100/87
f 24/17/222 120/117/222 119/107/222
f 72/16/114 195/200/114 196/194/114
f 56/77/85 152/172/85 153/142/85
f 6/51/115 7/82/115 103/176/115
f 55/92/85 151/187/85 152/172/85
f 46/9/116 142/162/116 141/99/116
f 79/28/87 175/122/87 176/178/87
f 48/38/117 144/216/117 143/129/117
f 8/78/118 9/47/118 105/140/118
f 66/88/85 65/69/85 161/164/85
f 7/82/119 8/78/119 104/173/119
f 87/191/87 183/115/87 184/114/87
f 32/29/120 128/121/120 127/123/120
f 78/53/87 174/146/87 175/122/87
f 18/31/121 114/124/121 113/183/121
f 51/10/85 147/103/85 148/151/85
f 40/23/122 136/184/122 135/113/122
f 91/75/87 187/137/87 188/136/87
f 31/30/123 127/123/123 126/147/123
f 74/64/87 170/160/87 171/185/87
f 3/12/124 4/11/124 100/102/124
f 67/32/85 66/88/85 162/125/85
f 43/42/125 44/44/125 140/150/125
f 83/13/87 179/106/87 180/127/87
f 27/65/126 123/159/126 122/138/126
f 71/76/85 70/59/85 166/154/85
f 19/4/127 115/96/127 114/124/127
f 69/55/85 68/5/85 164/97/85
f 36/35/128 132/128/128 131/152/128
f 89/89/87 185/168/87 186/167/87
f 23/15/129 119/107/129 118/171/129
f 76/86/87 172/181/87 173/174/87
f 57/195/85 153/142/85 154/141/85
f 21/56/130 117/153/130 116/148/130
f 62/25/85 61/66/85 157/161/85
f 42/73/131 138/170/131 137/166/131
f 80/83/87 176/178/87 177/95/87
f 28/87/132 29/80/132 125/175/132
f 9/47/133 10/49/133 106/186/133
f 61/66/85 60/19/85 156/111/85
f 14/27/134 110/120/134 109/155/134
f 96/37/114 95/67/114 197/197/114
f 33/1/135 129/93/135 128/121/135
f 81/196/87 177/95/87 178/94/87
f 196/194/136 195/200/136 201/198/136
f 195/200/137 194/204/137 200/201/137
f 198/189/138 197/197/138 203/193/138
f 198/189/136 193/188/136 199/203/136
f 72/16/139 71/76/139 194/204/139
f 191/131/87 203/193/87 197/197/87
f 167/109/85 200/201/85 194/204/85
f 145/133/140 205/213/140 211/205/140
f 145/133/87 199/203/87 193/188/87
f 73/45/87 196/194/87 202/199/87
f 204/202/223 203/193/223 215/192/223
f 202/199/110 214/211/110 208/207/110
f 210/208/142 216/206/142 215/192/142
f 207/210/142 208/207/142 214/211/142
f 210/208/143 216/206/143 211/205/143
f 207/210/71 213/212/71 212/214/71
f 201/198/224 200/201/224 212/214/224
f 192/130/225 210/208/225 209/209/225
f 201/198/147 213/212/147 214/211/147
f 204/202/226 199/203/226 211/205/226
f 168/108/227 169/139/227 208/207/227
f 167/109/149 206/215/149 212/214/149
f 192/130/148 210/208/148 205/213/148
f 168/108/228 207/210/228 206/215/228
