# Blender v2.79 (sub 0) OBJ File: 'm3.blend'
# www.blender.org
o RB_Axle_Mesh.011
v -1.639257 -0.853253 -2.450972
v -1.639297 -0.872360 -2.454878
v -1.639338 -0.890479 -2.461174
v -1.639378 -0.907435 -2.469685
v -1.639418 -0.923052 -2.480234
v -1.639459 -0.937155 -2.492649
v -1.639499 -0.949570 -2.506752
v -1.639539 -0.960119 -2.522369
v -1.639580 -0.968630 -2.539325
v -1.639620 -0.974926 -2.557444
v -1.639660 -0.978832 -2.576551
v -1.639701 -0.980173 -2.596472
v -1.639660 -0.978832 -2.616392
v -1.639620 -0.974926 -2.635499
v -1.639580 -0.968630 -2.653619
v -1.639539 -0.960119 -2.670574
v -1.639499 -0.949570 -2.686192
v -1.639459 -0.937155 -2.700295
v -1.639418 -0.923052 -2.712709
v -1.639378 -0.907435 -2.723259
v -1.639338 -0.890479 -2.731770
v -1.639297 -0.872360 -2.738065
v -1.639257 -0.853253 -2.741971
v -1.639217 -0.833332 -2.743312
v -1.639217 -0.813412 -2.741971
v -1.639217 -0.794304 -2.738065
v -1.639217 -0.776185 -2.731770
v -1.639217 -0.759229 -2.723259
v -1.639217 -0.743612 -2.712709
v -1.639217 -0.729509 -2.700295
v -1.639217 -0.717095 -2.686192
v -1.639217 -0.706545 -2.670574
v -1.639217 -0.698034 -2.653619
v -1.639217 -0.691739 -2.635499
v -1.639217 -0.687833 -2.616392
v -1.639217 -0.686492 -2.596472
v -1.639217 -0.687833 -2.576551
v -1.639217 -0.691739 -2.557444
v -1.639217 -0.698034 -2.539325
v -1.639217 -0.706545 -2.522369
v -1.639217 -0.717095 -2.506752
v -1.639217 -0.729509 -2.492649
v -1.639217 -0.743612 -2.480234
v -1.639217 -0.759229 -2.469685
v -1.639217 -0.776185 -2.461174
v -1.639217 -0.794304 -2.454878
v -1.639217 -0.813412 -2.450972
v -1.639217 -0.833332 -2.449631
v -1.639338 -0.833332 -2.596472
v -1.427129 -0.853253 -2.450972
v -1.427170 -0.872360 -2.454878
v -1.427210 -0.890479 -2.461174
v -1.427250 -0.907435 -2.469685
v -1.427291 -0.923052 -2.480234
v -1.427331 -0.937155 -2.492649
v -1.427371 -0.949570 -2.506752
v -1.427412 -0.960119 -2.522369
v -1.427452 -0.968630 -2.539325
v -1.427492 -0.974926 -2.557444
v -1.427533 -0.978832 -2.576551
v -1.427573 -0.980173 -2.596472
v -1.427533 -0.978832 -2.616392
v -1.427492 -0.974926 -2.635499
v -1.427452 -0.968630 -2.653619
v -1.427412 -0.960119 -2.670574
v -1.427371 -0.949570 -2.686192
v -1.427331 -0.937155 -2.700295
v -1.427291 -0.923052 -2.712709
v -1.427250 -0.907435 -2.723259
v -1.427210 -0.890479 -2.731770
v -1.427170 -0.872360 -2.738065
v -1.427129 -0.853253 -2.741971
v -1.427089 -0.833332 -2.743312
v -1.427089 -0.813412 -2.741971
v -1.427089 -0.794304 -2.738065
v -1.427089 -0.776185 -2.731770
v -1.427089 -0.759229 -2.723259
v -1.427089 -0.743612 -2.712709
v -1.427089 -0.729509 -2.700295
v -1.427089 -0.717095 -2.686192
v -1.427089 -0.706545 -2.670574
v -1.427089 -0.698034 -2.653619
v -1.427089 -0.691739 -2.635499
v -1.427089 -0.687833 -2.616392
v -1.427089 -0.686492 -2.596472
v -1.427089 -0.687833 -2.576551
v -1.427089 -0.691739 -2.557444
v -1.427089 -0.698034 -2.539325
v -1.427089 -0.706545 -2.522369
v -1.427089 -0.717095 -2.506752
v -1.427089 -0.729509 -2.492649
v -1.427089 -0.743612 -2.480234
v -1.427089 -0.759229 -2.469685
v -1.427089 -0.776185 -2.461174
v -1.427089 -0.794304 -2.454878
v -1.427089 -0.813412 -2.450972
v -1.427089 -0.833332 -2.449631
v -1.290335 -0.841731 -2.535124
v -1.290352 -0.849788 -2.536771
v -1.290369 -0.857427 -2.539426
v -1.290386 -0.864576 -2.543014
v -1.290403 -0.871161 -2.547462
v -1.290420 -0.877107 -2.552697
v -1.290437 -0.882341 -2.558643
v -1.290454 -0.886790 -2.565228
v -1.290471 -0.890378 -2.572377
v -1.290488 -0.893032 -2.580016
v -1.290505 -0.894679 -2.588073
v -1.290522 -0.895245 -2.596472
v -1.290505 -0.894679 -2.604871
v -1.290488 -0.893032 -2.612927
v -1.290471 -0.890378 -2.620567
v -1.290454 -0.886790 -2.627716
v -1.290437 -0.882341 -2.634300
v -1.290420 -0.877107 -2.640247
v -1.290403 -0.871161 -2.645481
v -1.290386 -0.864576 -2.649929
v -1.290369 -0.857427 -2.653517
v -1.290352 -0.849788 -2.656172
v -1.290335 -0.841731 -2.657819
v -1.290318 -0.833332 -2.658384
v -1.290318 -0.824933 -2.657819
v -1.290318 -0.816877 -2.656172
v -1.290318 -0.809237 -2.653517
v -1.290318 -0.802088 -2.649929
v -1.290318 -0.795503 -2.645481
v -1.290318 -0.789557 -2.640247
v -1.290318 -0.784323 -2.634300
v -1.290318 -0.779875 -2.627716
v -1.290318 -0.776286 -2.620567
v -1.290318 -0.773632 -2.612927
v -1.290318 -0.771985 -2.604871
v -1.290318 -0.771420 -2.596472
v -1.290318 -0.771985 -2.588073
v -1.290318 -0.773632 -2.580016
v -1.290318 -0.776286 -2.572377
v -1.290318 -0.779875 -2.565228
v -1.290318 -0.784323 -2.558643
v -1.290318 -0.789557 -2.552697
v -1.290318 -0.795503 -2.547462
v -1.290318 -0.802088 -2.543014
v -1.290318 -0.809237 -2.539426
v -1.290318 -0.816877 -2.536771
v -1.290318 -0.824933 -2.535124
v -1.290318 -0.833332 -2.534559
v -1.138625 -0.841731 -2.535124
v -1.138642 -0.849787 -2.536771
v -1.138659 -0.857427 -2.539426
v -1.138676 -0.864576 -2.543014
v -1.138693 -0.871161 -2.547462
v -1.138710 -0.877107 -2.552697
v -1.138727 -0.882341 -2.558643
v -1.138744 -0.886790 -2.565228
v -1.138761 -0.890378 -2.572377
v -1.138778 -0.893032 -2.580016
v -1.138795 -0.894679 -2.588073
v -1.138812 -0.895245 -2.596472
v -1.138795 -0.894679 -2.604871
v -1.138778 -0.893032 -2.612927
v -1.138761 -0.890378 -2.620567
v -1.138744 -0.886790 -2.627716
v -1.138727 -0.882341 -2.634300
v -1.138710 -0.877107 -2.640247
v -1.138693 -0.871161 -2.645481
v -1.138676 -0.864576 -2.649929
v -1.138659 -0.857427 -2.653517
v -1.138642 -0.849787 -2.656172
v -1.138625 -0.841731 -2.657819
v -1.138608 -0.833332 -2.658384
v -1.138608 -0.824933 -2.657819
v -1.138608 -0.816877 -2.656172
v -1.138608 -0.809237 -2.653517
v -1.138608 -0.802088 -2.649929
v -1.138608 -0.795503 -2.645481
v -1.138608 -0.789557 -2.640247
v -1.138608 -0.784323 -2.634300
v -1.138608 -0.779875 -2.627716
v -1.138608 -0.776286 -2.620567
v -1.138608 -0.773632 -2.612927
v -1.138608 -0.771985 -2.604871
v -1.138608 -0.771420 -2.596472
v -1.138608 -0.771985 -2.588073
v -1.138608 -0.773632 -2.580016
v -1.138608 -0.776286 -2.572377
v -1.138608 -0.779875 -2.565228
v -1.138608 -0.784323 -2.558643
v -1.138608 -0.789557 -2.552697
v -1.138608 -0.795503 -2.547462
v -1.138608 -0.802088 -2.543014
v -1.138608 -0.809237 -2.539426
v -1.138608 -0.816877 -2.536771
v -1.138608 -0.824933 -2.535124
v -1.138608 -0.833332 -2.534559
v -1.138659 -0.833332 -2.596472
vt 0.000000 0.000000
vt 0.000000 0.000000
vt 0.000000 0.000000
vt 0.000000 0.000000
vt 0.000000 0.000000
vt 0.000000 0.000000
vt 0.000000 0.000000
vt 0.000000 0.000000
vt 0.000000 0.000000
vt 0.000000 0.000000
vt 0.000000 0.000000
vt 0.000000 0.000000
vt 0.000000 0.000000
vt 0.000000 0.000000
vt 0.000000 0.000000
vt 0.000000 0.000000
vt 0.000000 0.000000
vt 0.000000 0.000000
vt 0.000000 0.000000
vt 0.000000 0.000000
vt 0.000000 0.000000
vt 0.000000 0.000000
vt 0.000000 0.000000
vt 0.000000 0.000000
vt 0.000000 0.000000
vt 0.000000 0.000000
vt 0.000000 0.000000
vt 0.000000 0.000000
vt 0.000000 0.000000
vt 0.000000 0.000000
vt 0.000000 0.000000
vt 0.000000 0.000000
vt 0.000000 0.000000
vt 0.000000 0.000000
vt 0.000000 0.000000
vt 0.000000 0.000000
vt 0.000000 0.000000
vt 0.000000 0.000000
vt 0.000000 0.000000
vt 0.000000 0.000000
vt 0.000000 0.000000
vt 0.000000 0.000000
vt 0.000000 0.000000
vt 0.000000 0.000000
vt 0.000000 0.000000
vt 0.000000 0.000000
vt 0.000000 0.000000
vt 0.000000 0.000000
vt 0.000000 0.000000
vt 0.000000 0.000000
vt 0.000000 0.000000
vt 0.000000 0.000000
vt 0.000000 0.000000
vt 0.000000 0.000000
vt 0.000000 0.000000
vt 0.000000 0.000000
vt 0.000000 0.000000
vt 0.000000 0.000000
vt 0.000000 0.000000
vt 0.000000 0.000000
vt 0.000000 0.000000
vt 0.000000 0.000000
vt 0.000000 0.000000
vt 0.000000 0.000000
vt 0.000000 0.000000
vt 0.000000 0.000000
vt 0.000000 0.000000
vt 0.000000 0.000000
vt 0.000000 0.000000
vt 0.000000 0.000000
vt 0.000000 0.000000
vt 0.000000 0.000000
vt 0.000000 0.000000
vt 0.000000 0.000000
vt 0.000000 0.000000
vt 0.000000 0.000000
vt 0.000000 0.000000
vt 0.000000 0.000000
vt 0.000000 0.000000
vt 0.000000 0.000000
vt 0.000000 0.000000
vt 0.000000 0.000000
vt 0.000000 0.000000
vt 0.000000 0.000000
vt 0.000000 0.000000
vt 0.000000 0.000000
vt 0.000000 0.000000
vt 0.000000 0.000000
vt 0.000000 0.000000
vt 0.000000 0.000000
vt 0.000000 0.000000
vt 0.000000 0.000000
vt 0.000000 0.000000
vt 0.000000 0.000000
vt 0.000000 0.000000
vt 0.000000 0.000000
vt 0.000000 0.000000
vt 0.000000 0.000000
vt 0.000000 0.000000
vt 0.000000 0.000000
vt 0.000000 0.000000
vt 0.000000 0.000000
vt 0.000000 0.000000
vt 0.000000 0.000000
vt 0.000000 0.000000
vt 0.000000 0.000000
vt 0.000000 0.000000
vt 0.000000 0.000000
vt 0.000000 0.000000
vt 0.000000 0.000000
vt 0.000000 0.000000
vt 0.000000 0.000000
vt 0.000000 0.000000
vt 0.000000 0.000000
vt 0.000000 0.000000
vt 0.000000 0.000000
vt 0.000000 0.000000
vt 0.000000 0.000000
vt 0.000000 0.000000
vt 0.000000 0.000000
vt 0.000000 0.000000
vt 0.000000 0.000000
vt 0.000000 0.000000
vt 0.000000 0.000000
vt 0.000000 0.000000
vt 0.000000 0.000000
vt 0.000000 0.000000
vt 0.000000 0.000000
vt 0.000000 0.000000
vt 0.000000 0.000000
vt 0.000000 0.000000
vt 0.000000 0.000000
vt 0.000000 0.000000
vt 0.000000 0.000000
vt 0.000000 0.000000
vt 0.000000 0.000000
vt 0.000000 0.000000
vt 0.000000 0.000000
vt 0.000000 0.000000
vt 0.000000 0.000000
vt 0.000000 0.000000
vt 0.000000 0.000000
vt 0.000000 0.000000
vt 0.000000 0.000000
vt 0.000000 0.000000
vt 0.000000 0.000000
vt 0.000000 0.000000
vt 0.000000 0.000000
vt 0.000000 0.000000
vt 0.000000 0.000000
vt 0.000000 0.000000
vt 0.000000 0.000000
vt 0.000000 0.000000
vt 0.000000 0.000000
vt 0.000000 0.000000
vt 0.000000 0.000000
vt 0.000000 0.000000
vt 0.000000 0.000000
vt 0.000000 0.000000
vt 0.000000 0.000000
vt 0.000000 0.000000
vt 0.000000 0.000000
vt 0.000000 0.000000
vt 0.000000 0.000000
vt 0.000000 0.000000
vt 0.000000 0.000000
vt 0.000000 0.000000
vt 0.000000 0.000000
vt 0.000000 0.000000
vt 0.000000 0.000000
vt 0.000000 0.000000
vt 0.000000 0.000000
vt 0.000000 0.000000
vt 0.000000 0.000000
vt 0.000000 0.000000
vt 0.000000 0.000000
vt 0.000000 0.000000
vt 0.000000 0.000000
vt 0.000000 0.000000
vt 0.000000 0.000000
vt 0.000000 0.000000
vt 0.000000 0.000000
vt 0.000000 0.000000
vt 0.000000 0.000000
vt 0.000000 0.000000
vt 0.000000 0.000000
vt 0.000000 0.000000
vt 0.000000 0.000000
vt 0.000000 0.000000
vt 0.000000 0.000000
vt 0.000000 0.000000
vt 0.000000 0.000000
vt 0.000000 0.000000
vt 0.000000 0.000000
vn 1.0000 -0.0022 0.0010
vn 1.0000 -0.0007 -0.0005
vn 1.0000 -0.0004 0.0007
vn 1.0000 -0.0024 -0.0016
vn 1.0000 -0.0022 -0.0011
vn 1.0000 -0.0008 0.0003
vn 1.0000 -0.0020 0.0009
vn 1.0000 -0.0003 -0.0008
vn 1.0000 -0.0020 -0.0008
vn 1.0000 -0.0008 0.0002
vn 1.0000 -0.0020 0.0008
vn 1.0000 -0.0025 -0.0019
vn 1.0000 -0.0007 -0.0004
vn 1.0000 -0.0001 0.0008
vn 1.0000 -0.0024 0.0014
vn 1.0000 -0.0007 0.0005
vn 1.0000 -0.0008 -0.0001
vn 1.0000 -0.0001 -0.0008
vn 1.0000 -0.0005 -0.0007
vn 1.0000 -0.0002 0.0008
vn 1.0000 -0.0024 -0.0014
vn 1.0000 -0.0021 -0.0009
vn 1.0000 -0.0006 0.0005
vn 1.0000 -0.0004 -0.0007
vn 1.0000 -0.0020 -0.0009
vn 1.0000 -0.0008 0.0001
vn 1.0000 -0.0019 0.0008
vn 1.0000 -0.0025 0.0019
vn 1.0000 -0.0008 -0.0003
vn 1.0000 -0.0003 0.0008
vn 1.0000 -0.0024 0.0016
vn 1.0000 -0.0002 -0.0008
vn 1.0000 -0.0022 0.0011
vn 1.0000 -0.0006 -0.0005
vn 1.0000 -0.0019 -0.0008
vn 1.0000 -0.0006 -0.0006
vn 1.0000 -0.0023 -0.0012
vn -1.0000 0.0020 0.0008
vn 1.0000 -0.0005 0.0006
vn 1.0000 -0.0022 -0.0010
vn 1.0000 -0.0007 0.0004
vn 1.0000 -0.0023 0.0012
vn 1.0000 -0.0008 -0.0002
vn 1.0000 -0.0005 0.0007
vn -0.5266 0.2801 0.8026
vn -0.5267 -0.8482 0.0571
vn -0.5265 0.4769 -0.7039
vn -0.5268 -0.3813 -0.7597
vn -0.5266 0.3824 0.7593
vn -0.5267 -0.6381 0.5616
vn -0.5264 0.5626 -0.6375
vn -0.5262 0.8036 -0.2781
vn -0.5267 -0.1702 0.8328
vn -0.5268 -0.4758 -0.7044
vn -0.5266 0.1713 -0.8326
vn -0.5267 -0.0571 -0.8482
vn -0.5267 -0.8482 -0.0571
vn -0.5264 0.5626 0.6375
vn -0.5268 -0.7044 0.4758
vn -0.5262 0.8036 0.2781
vn -0.5267 -0.0571 0.8482
vn -0.5268 -0.7597 -0.3813
vn -0.5259 0.8487 -0.0561
vn -0.5266 0.0582 0.8481
vn -0.5267 -0.8328 0.1702
vn -0.5266 0.3824 -0.7593
vn -0.5268 -0.2790 -0.8029
vn -0.5265 0.4769 0.7039
vn -0.5268 -0.8029 0.2790
vn -0.5263 0.7052 -0.4751
vn -0.5261 0.8334 -0.1693
vn -0.5268 -0.3813 0.7597
vn -0.5267 -0.7044 -0.4758
vn -0.5263 0.6390 0.5610
vn -0.5267 -0.4758 0.7044
vn -0.5267 -0.8328 -0.1702
vn -0.5262 0.7605 0.3805
vn -0.5268 -0.7597 0.3813
vn -0.5263 0.6390 -0.5610
vn -0.5267 -0.5616 0.6381
vn 0.5266 -0.0581 0.8481
vn -0.5262 0.7605 -0.3805
vn -0.5266 0.1713 0.8326
vn -0.5267 -0.5617 -0.6381
vn -0.5266 0.2800 -0.8026
vn -0.5267 -0.6381 -0.5616
vn -0.5263 0.7052 0.4751
vn -0.5267 -0.1703 -0.8328
vn -0.5261 0.8334 0.1693
vn -0.5268 -0.2790 0.8029
vn -0.5268 -0.8029 -0.2790
vn -0.5259 0.8487 0.0561
vn -0.0000 0.9977 -0.0672
vn 0.0000 -0.8937 -0.4486
vn 0.0000 -0.0672 0.9977
vn 0.0000 0.9446 0.3282
vn 0.0000 -0.8286 0.5598
vn 0.0000 0.6607 0.7506
vn 0.0000 -0.9977 -0.0672
vn 0.0000 -0.0672 -0.9977
vn 0.0000 0.2003 -0.9797
vn 0.0000 -0.5598 -0.8287
vn 0.0000 -0.2003 0.9797
vn -0.0000 0.9446 -0.3282
vn -0.0000 0.6607 -0.7506
vn 0.0000 -0.7506 0.6607
vn 0.0000 0.4486 0.8937
vn 0.0000 -0.4486 -0.8937
vn 0.0000 0.5598 -0.8287
vn 0.0000 -0.9977 0.0672
vn 0.0000 0.3282 0.9446
vn -0.0000 0.9977 0.0672
vn 0.0000 -0.9446 -0.3282
vn 0.0000 -0.3282 0.9446
vn 0.0000 0.9797 0.2003
vn -0.0000 -0.2003 -0.9797
vn -0.0000 0.8286 0.5598
vn 0.0000 -0.7506 -0.6607
vn 0.0000 0.3282 -0.9446
vn 0.0000 -0.6607 -0.7506
vn 0.0000 0.2003 0.9797
vn 0.0000 0.8937 -0.4486
vn -0.0000 -0.6607 0.7506
vn 0.0000 0.7506 -0.6607
vn 0.0000 -0.8937 0.4486
vn 0.0000 0.8937 0.4486
vn 0.0000 -0.9797 -0.2003
vn 0.0000 -0.5598 0.8286
vn 0.0000 0.7506 0.6607
vn 0.0000 -0.8286 -0.5598
vn 0.0000 -0.4486 0.8937
vn 0.0000 0.9797 -0.2003
vn -0.0000 0.8286 -0.5598
vn 0.0000 -0.9446 0.3282
vn 0.0000 0.5598 0.8286
vn 0.0000 -0.3282 -0.9446
vn 0.0000 0.4486 -0.8937
vn 0.0000 -0.9797 0.2003
vn 0.0000 0.0672 0.9977
vn -0.0000 0.5598 -0.8286
vn 0.0000 -0.5598 -0.8286
vn 0.0000 -0.0671 -0.9977
vn 0.0000 -0.9977 -0.0671
vn 0.0000 -0.0671 0.9977
vn 0.0000 0.0671 0.9977
vn 0.0000 0.5598 0.8287
vn 0.0000 -0.5598 0.8287
vn 0.0000 0.7506 -0.6608
vn -1.0000 0.0021 -0.0010
vn -1.0000 0.0007 0.0005
vn -1.0000 0.0004 -0.0007
vn -1.0000 0.0024 0.0016
vn -1.0000 0.0022 0.0011
vn -1.0000 0.0008 -0.0003
vn -1.0000 0.0020 -0.0008
vn -1.0000 0.0003 0.0008
vn -1.0000 0.0008 -0.0002
vn -1.0000 0.0025 0.0018
vn -1.0000 0.0007 0.0004
vn -1.0000 0.0001 -0.0008
vn -1.0000 0.0024 -0.0014
vn -1.0000 0.0007 -0.0005
vn -1.0000 0.0021 -0.0009
vn -1.0000 0.0008 0.0001
vn -1.0000 0.0001 0.0008
vn -1.0000 0.0019 0.0008
vn -1.0000 0.0005 0.0007
vn -1.0000 0.0002 -0.0008
vn -1.0000 0.0024 0.0014
vn -1.0000 0.0021 0.0009
vn -1.0000 0.0006 -0.0005
vn -1.0000 0.0004 0.0007
vn -1.0000 0.0008 -0.0001
vn -1.0000 0.0019 -0.0008
vn -1.0000 0.0025 -0.0018
vn -1.0000 0.0008 0.0003
vn -1.0000 0.0003 -0.0008
vn -1.0000 0.0024 -0.0016
vn -1.0000 0.0002 0.0008
vn -1.0000 0.0022 -0.0011
vn -1.0000 0.0006 0.0005
vn -1.0000 0.0005 0.0006
vn -1.0000 0.0023 0.0012
vn -1.0000 0.0005 -0.0006
vn -1.0000 0.0021 0.0010
vn -1.0000 0.0007 -0.0004
vn -1.0000 0.0023 -0.0012
vn -1.0000 0.0008 0.0002
vn -1.0000 0.0005 -0.0007
vn -0.5264 0.4769 -0.7039
vn -0.5268 -0.4758 -0.7043
vn -0.5267 -0.7044 0.4758
vn -0.5259 0.8487 -0.0560
vn -0.5266 0.0581 0.8481
vn -0.5268 -0.8328 0.1702
vn -0.5264 0.4768 0.7039
vn -0.5261 0.8334 -0.1692
vn -0.5263 0.6390 0.5609
vn -0.5268 -0.4758 0.7044
vn -0.5262 0.7605 -0.3804
vn -0.5267 0.1713 0.8326
vn -0.5267 -0.5616 -0.6381
vn -0.5266 0.2801 -0.8026
vn -0.5267 -0.6380 -0.5617
vn -0.5267 -0.1702 -0.8328
vn 0.0000 -0.9977 0.0671
vn 0.0000 0.8287 -0.5598
vn 0.0000 0.7507 0.6607
vn -0.0000 0.8287 0.5598
s off
f 17/1/1 18/2/1 49/3/1
f 40/4/2 41/5/2 49/3/2
f 27/6/3 28/7/3 49/3/3
f 10/8/4 11/9/4 49/3/4
f 7/10/5 8/11/5 49/3/5
f 33/12/6 34/13/6 49/3/6
f 19/14/7 20/15/7 49/3/7
f 45/16/8 46/17/8 49/3/8
f 3/18/9 4/19/9 49/3/9
f 34/13/10 35/20/10 49/3/10
f 23/21/11 24/22/11 49/3/11
f 11/9/12 12/23/12 49/3/12
f 39/24/13 40/4/13 49/3/13
f 24/22/14 25/25/14 49/3/14
f 14/26/15 15/27/15 49/3/15
f 31/28/16 32/29/16 49/3/16
f 18/2/7 19/14/7 49/3/7
f 36/30/17 37/31/17 49/3/17
f 47/32/18 48/33/18 49/3/18
f 1/34/9 2/35/9 49/3/9
f 43/36/19 44/37/19 49/3/19
f 25/25/20 26/38/20 49/3/20
f 9/39/21 10/8/21 49/3/21
f 5/40/22 6/41/22 49/3/22
f 30/42/23 31/28/23 49/3/23
f 20/15/11 21/43/11 49/3/11
f 44/37/24 45/16/24 49/3/24
f 4/19/25 5/40/25 49/3/25
f 35/20/26 36/30/26 49/3/26
f 21/43/27 22/44/27 49/3/27
f 12/23/28 13/45/28 49/3/28
f 38/46/29 39/24/29 49/3/29
f 26/38/30 27/6/30 49/3/30
f 13/45/31 14/26/31 49/3/31
f 46/17/32 47/32/32 49/3/32
f 16/47/33 17/1/33 49/3/33
f 41/5/34 42/48/34 49/3/34
f 2/35/35 3/18/35 49/3/35
f 42/48/36 43/36/36 49/3/36
f 22/44/11 23/21/11 49/3/11
f 8/11/37 9/39/37 49/3/37
f 1/34/38 48/33/38 49/3/38
f 29/49/39 30/42/39 49/3/39
f 6/41/40 7/10/40 49/3/40
f 32/29/41 33/12/41 49/3/41
f 15/27/42 16/47/42 49/3/42
f 37/31/43 38/46/43 49/3/43
f 28/7/44 29/49/44 49/3/44
f 118/50/45 71/51/45 70/52/45
f 132/53/46 85/54/46 84/55/46
f 53/56/47 102/57/47 54/58/47
f 93/59/48 142/60/48 94/61/48
f 117/62/49 70/52/49 69/63/49
f 79/64/50 128/65/50 80/66/50
f 54/58/51 103/67/51 55/68/51
f 58/69/52 107/70/52 59/71/52
f 74/72/53 123/73/53 75/74/53
f 92/75/54 141/76/54 93/59/54
f 50/77/55 99/78/55 51/79/55
f 144/80/56 97/81/56 96/82/56
f 85/54/57 134/83/57 86/84/57
f 115/85/58 68/86/58 67/87/58
f 80/66/59 129/88/59 81/89/59
f 111/90/60 64/91/60 63/92/60
f 73/93/61 122/94/61 74/72/61
f 136/95/62 89/96/62 88/97/62
f 60/98/63 109/99/63 61/100/63
f 120/101/64 73/93/64 72/102/64
f 131/103/65 84/55/65 83/104/65
f 52/105/66 101/106/66 53/56/66
f 94/61/67 143/107/67 95/108/67
f 116/109/68 69/63/68 68/86/68
f 82/110/69 131/103/69 83/104/69
f 56/111/70 105/112/70 57/113/70
f 59/71/71 108/114/71 60/98/71
f 124/115/72 77/116/72 76/117/72
f 137/118/73 90/119/73 89/96/73
f 114/120/74 67/87/74 66/121/74
f 125/122/75 78/123/75 77/116/75
f 86/84/76 135/124/76 87/125/76
f 112/126/77 65/127/77 64/91/77
f 81/89/78 130/128/78 82/110/78
f 55/68/79 104/129/79 56/111/79
f 126/130/80 79/64/80 78/123/80
f 98/131/81 97/81/81 50/77/81
f 57/113/82 106/132/82 58/69/82
f 119/133/83 72/102/83 71/51/83
f 91/134/84 140/135/84 92/75/84
f 51/79/85 100/136/85 52/105/85
f 138/137/86 91/134/86 90/119/86
f 113/138/87 66/121/87 65/127/87
f 143/107/88 96/82/88 95/108/88
f 110/139/89 63/92/89 62/140/89
f 123/73/90 76/117/90 75/74/90
f 135/124/91 88/97/91 87/125/91
f 109/99/92 62/140/92 61/100/92
f 11/9/93 61/100/93 12/23/93
f 88/97/94 40/4/94 39/24/94
f 73/93/95 25/25/95 24/22/95
f 63/92/96 15/27/96 14/26/96
f 80/66/97 32/29/97 31/28/97
f 67/87/98 19/14/98 18/2/98
f 85/54/99 37/31/99 36/30/99
f 47/32/100 97/81/100 48/33/100
f 1/34/101 51/79/101 2/35/101
f 92/75/102 44/37/102 43/36/102
f 74/72/103 26/38/103 25/25/103
f 9/39/104 59/71/104 10/8/104
f 5/40/105 55/68/105 6/41/105
f 79/64/106 31/28/106 30/42/106
f 69/63/107 21/43/107 20/15/107
f 93/59/108 45/16/108 44/37/108
f 4/19/109 54/58/109 5/40/109
f 84/55/110 36/30/110 35/20/110
f 70/52/111 22/44/111 21/43/111
f 61/100/112 13/45/112 12/23/112
f 87/125/113 39/24/113 38/46/113
f 75/74/114 27/6/114 26/38/114
f 62/140/115 14/26/115 13/45/115
f 95/108/116 47/32/116 46/17/116
f 65/127/117 17/1/117 16/47/117
f 90/119/118 42/48/118 41/5/118
f 2/35/119 52/105/119 3/18/119
f 91/134/120 43/36/120 42/48/120
f 71/51/121 23/21/121 22/44/121
f 8/11/122 58/69/122 9/39/122
f 50/77/95 48/33/95 1/34/95
f 78/123/123 30/42/123 29/49/123
f 6/41/124 56/111/124 7/10/124
f 81/89/125 33/12/125 32/29/125
f 64/91/126 16/47/126 15/27/126
f 86/84/127 38/46/127 37/31/127
f 77/116/128 29/49/128 28/7/128
f 66/121/129 18/2/129 17/1/129
f 89/96/130 41/5/130 40/4/130
f 76/117/131 28/7/131 27/6/131
f 10/8/132 60/98/132 11/9/132
f 7/10/133 57/113/133 8/11/133
f 82/110/134 34/13/134 33/12/134
f 68/86/135 20/15/135 19/14/135
f 94/61/136 46/17/136 45/16/136
f 3/18/137 53/56/137 4/19/137
f 83/104/138 35/20/138 34/13/138
f 72/102/139 24/22/139 23/21/139
f 171/141/114 124/115/114 123/73/114
f 183/142/113 136/95/113 135/124/113
f 157/143/112 110/139/112 109/99/112
f 166/144/111 119/133/111 118/50/111
f 180/145/110 133/146/110 132/53/110
f 101/106/140 150/147/140 102/57/140
f 189/148/108 142/60/108 141/76/108
f 165/149/107 118/50/107 117/62/107
f 175/150/106 128/65/106 127/151/106
f 102/57/105 151/152/105 103/67/105
f 106/132/104 155/153/104 107/70/104
f 170/154/103 123/73/103 122/94/103
f 188/155/141 141/76/141 140/135/141
f 98/131/101 147/156/101 99/78/101
f 192/157/142 145/158/142 144/80/142
f 181/159/143 134/83/143 133/146/143
f 163/160/98 116/109/98 115/85/98
f 176/161/97 129/88/97 128/65/97
f 159/162/96 112/126/96 111/90/96
f 169/163/144 122/94/144 121/164/144
f 184/165/94 137/118/94 136/95/94
f 108/114/93 157/143/93 109/99/93
f 168/166/145 121/164/145 120/101/145
f 179/167/138 132/53/138 131/103/138
f 100/136/137 149/168/137 101/106/137
f 190/169/136 143/107/136 142/60/136
f 164/170/146 117/62/146 116/109/146
f 178/171/134 131/103/134 130/128/134
f 104/129/133 153/172/133 105/112/133
f 107/70/132 156/173/132 108/114/132
f 172/174/131 125/122/131 124/115/131
f 185/175/130 138/137/130 137/118/130
f 162/176/129 115/85/129 114/120/129
f 173/177/147 126/130/147 125/122/147
f 182/178/127 135/124/127 134/83/127
f 160/179/126 113/138/126 112/126/126
f 177/180/125 130/128/125 129/88/125
f 103/67/148 152/181/148 104/129/148
f 174/182/123 127/151/123 126/130/123
f 146/183/144 145/158/144 98/131/144
f 105/112/122 154/184/122 106/132/122
f 167/185/121 120/101/121 119/133/121
f 139/186/120 188/155/120 140/135/120
f 99/78/119 148/187/119 100/136/119
f 186/188/118 139/186/118 138/137/118
f 161/189/117 114/120/117 113/138/117
f 191/190/116 144/80/116 143/107/116
f 158/191/115 111/90/115 110/139/115
f 162/176/149 194/192/149 163/160/149
f 185/175/150 194/192/150 186/188/150
f 172/174/151 194/192/151 173/177/151
f 155/153/152 194/192/152 156/173/152
f 152/181/153 194/192/153 153/172/153
f 178/171/154 194/192/154 179/167/154
f 164/170/155 194/192/155 165/149/155
f 190/169/156 194/192/156 191/190/156
f 148/187/38 194/192/38 149/168/38
f 179/167/157 194/192/157 180/145/157
f 168/166/155 194/192/155 169/163/155
f 156/173/158 194/192/158 157/143/158
f 184/165/159 194/192/159 185/175/159
f 169/163/160 194/192/160 170/154/160
f 159/162/161 194/192/161 160/179/161
f 176/161/162 194/192/162 177/180/162
f 163/160/163 194/192/163 164/170/163
f 181/159/164 194/192/164 182/178/164
f 192/157/165 194/192/165 193/193/165
f 146/183/166 194/192/166 147/156/166
f 188/155/167 194/192/167 189/148/167
f 170/154/168 194/192/168 171/141/168
f 154/184/169 194/192/169 155/153/169
f 150/147/170 194/192/170 151/152/170
f 175/150/171 194/192/171 176/161/171
f 165/149/155 194/192/155 166/144/155
f 189/148/172 194/192/172 190/169/172
f 149/168/38 194/192/38 150/147/38
f 180/145/173 194/192/173 181/159/173
f 166/144/174 194/192/174 167/185/174
f 157/143/175 194/192/175 158/191/175
f 183/142/176 194/192/176 184/165/176
f 171/141/177 194/192/177 172/174/177
f 158/191/178 194/192/178 159/162/178
f 191/190/179 194/192/179 192/157/179
f 161/189/180 194/192/180 162/176/180
f 186/188/181 194/192/181 187/194/181
f 147/156/166 194/192/166 148/187/166
f 187/194/182 194/192/182 188/155/182
f 167/185/174 194/192/174 168/166/174
f 153/172/183 194/192/183 154/184/183
f 146/183/9 194/192/9 193/193/9
f 174/182/184 194/192/184 175/150/184
f 151/152/185 194/192/185 152/181/185
f 177/180/186 194/192/186 178/171/186
f 160/179/187 194/192/187 161/189/187
f 182/178/188 194/192/188 183/142/188
f 173/177/189 194/192/189 174/182/189
f 118/50/45 119/133/45 71/51/45
f 132/53/46 133/146/46 85/54/46
f 53/56/190 101/106/190 102/57/190
f 93/59/48 141/76/48 142/60/48
f 117/62/49 118/50/49 70/52/49
f 79/64/50 127/151/50 128/65/50
f 54/58/51 102/57/51 103/67/51
f 58/69/52 106/132/52 107/70/52
f 74/72/53 122/94/53 123/73/53
f 92/75/191 140/135/191 141/76/191
f 50/77/55 98/131/55 99/78/55
f 144/80/56 145/158/56 97/81/56
f 85/54/57 133/146/57 134/83/57
f 115/85/58 116/109/58 68/86/58
f 80/66/192 128/65/192 129/88/192
f 111/90/60 112/126/60 64/91/60
f 73/93/61 121/164/61 122/94/61
f 136/95/62 137/118/62 89/96/62
f 60/98/193 108/114/193 109/99/193
f 120/101/194 121/164/194 73/93/194
f 131/103/195 132/53/195 84/55/195
f 52/105/66 100/136/66 101/106/66
f 94/61/67 142/60/67 143/107/67
f 116/109/196 117/62/196 69/63/196
f 82/110/69 130/128/69 131/103/69
f 56/111/70 104/129/70 105/112/70
f 59/71/197 107/70/197 108/114/197
f 124/115/72 125/122/72 77/116/72
f 137/118/73 138/137/73 90/119/73
f 114/120/198 115/85/198 67/87/198
f 125/122/199 126/130/199 78/123/199
f 86/84/76 134/83/76 135/124/76
f 112/126/77 113/138/77 65/127/77
f 81/89/78 129/88/78 130/128/78
f 55/68/79 103/67/79 104/129/79
f 126/130/80 127/151/80 79/64/80
f 98/131/81 145/158/81 97/81/81
f 57/113/200 105/112/200 106/132/200
f 119/133/201 120/101/201 72/102/201
f 91/134/202 139/186/202 140/135/202
f 51/79/203 99/78/203 100/136/203
f 138/137/204 139/186/204 91/134/204
f 113/138/87 114/120/87 66/121/87
f 143/107/205 144/80/205 96/82/205
f 110/139/89 111/90/89 63/92/89
f 123/73/90 124/115/90 76/117/90
f 135/124/91 136/95/91 88/97/91
f 109/99/92 110/139/92 62/140/92
f 11/9/93 60/98/93 61/100/93
f 88/97/94 89/96/94 40/4/94
f 73/93/95 74/72/95 25/25/95
f 63/92/96 64/91/96 15/27/96
f 80/66/97 81/89/97 32/29/97
f 67/87/98 68/86/98 19/14/98
f 85/54/99 86/84/99 37/31/99
f 47/32/100 96/82/100 97/81/100
f 1/34/101 50/77/101 51/79/101
f 92/75/102 93/59/102 44/37/102
f 74/72/103 75/74/103 26/38/103
f 9/39/104 58/69/104 59/71/104
f 5/40/105 54/58/105 55/68/105
f 79/64/106 80/66/106 31/28/106
f 69/63/107 70/52/107 21/43/107
f 93/59/108 94/61/108 45/16/108
f 4/19/140 53/56/140 54/58/140
f 84/55/110 85/54/110 36/30/110
f 70/52/111 71/51/111 22/44/111
f 61/100/112 62/140/112 13/45/112
f 87/125/113 88/97/113 39/24/113
f 75/74/114 76/117/114 27/6/114
f 62/140/115 63/92/115 14/26/115
f 95/108/116 96/82/116 47/32/116
f 65/127/117 66/121/117 17/1/117
f 90/119/118 91/134/118 42/48/118
f 2/35/119 51/79/119 52/105/119
f 91/134/120 92/75/120 43/36/120
f 71/51/121 72/102/121 23/21/121
f 8/11/122 57/113/122 58/69/122
f 50/77/95 97/81/95 48/33/95
f 78/123/123 79/64/123 30/42/123
f 6/41/124 55/68/124 56/111/124
f 81/89/125 82/110/125 33/12/125
f 64/91/126 65/127/126 16/47/126
f 86/84/127 87/125/127 38/46/127
f 77/116/128 78/123/128 29/49/128
f 66/121/129 67/87/129 18/2/129
f 89/96/130 90/119/130 41/5/130
f 76/117/131 77/116/131 28/7/131
f 10/8/132 59/71/132 60/98/132
f 7/10/133 56/111/133 57/113/133
f 82/110/134 83/104/134 34/13/134
f 68/86/135 69/63/135 20/15/135
f 94/61/136 95/108/136 46/17/136
f 3/18/137 52/105/137 53/56/137
f 83/104/138 84/55/138 35/20/138
f 72/102/139 73/93/139 24/22/139
f 171/141/114 172/174/114 124/115/114
f 183/142/113 184/165/113 136/95/113
f 157/143/112 158/191/112 110/139/112
f 166/144/111 167/185/111 119/133/111
f 180/145/206 181/159/206 133/146/206
f 101/106/140 149/168/140 150/147/140
f 189/148/108 190/169/108 142/60/108
f 165/149/107 166/144/107 118/50/107
f 175/150/106 176/161/106 128/65/106
f 102/57/105 150/147/105 151/152/105
f 106/132/104 154/184/104 155/153/104
f 170/154/103 171/141/103 123/73/103
f 188/155/141 189/148/141 141/76/141
f 98/131/101 146/183/101 147/156/101
f 192/157/142 193/193/142 145/158/142
f 181/159/99 182/178/99 134/83/99
f 163/160/98 164/170/98 116/109/98
f 176/161/97 177/180/97 129/88/97
f 159/162/96 160/179/96 112/126/96
f 169/163/144 170/154/144 122/94/144
f 184/165/94 185/175/94 137/118/94
f 108/114/93 156/173/93 157/143/93
f 168/166/145 169/163/145 121/164/145
f 179/167/138 180/145/138 132/53/138
f 100/136/137 148/187/137 149/168/137
f 190/169/136 191/190/136 143/107/136
f 164/170/146 165/149/146 117/62/146
f 178/171/134 179/167/134 131/103/134
f 104/129/207 152/181/207 153/172/207
f 107/70/132 155/153/132 156/173/132
f 172/174/131 173/177/131 125/122/131
f 185/175/130 186/188/130 138/137/130
f 162/176/208 163/160/208 115/85/208
f 173/177/147 174/182/147 126/130/147
f 182/178/127 183/142/127 135/124/127
f 160/179/126 161/189/126 113/138/126
f 177/180/125 178/171/125 130/128/125
f 103/67/124 151/152/124 152/181/124
f 174/182/123 175/150/123 127/151/123
f 146/183/144 193/193/144 145/158/144
f 105/112/122 153/172/122 154/184/122
f 167/185/121 168/166/121 120/101/121
f 139/186/120 187/194/120 188/155/120
f 99/78/119 147/156/119 148/187/119
f 186/188/118 187/194/118 139/186/118
f 161/189/209 162/176/209 114/120/209
f 191/190/116 192/157/116 144/80/116
f 158/191/115 159/162/115 111/90/115
