# Blender v2.79 (sub 0) OBJ File: 'm3.blend'
# www.blender.org
o Rim_Nuts_FR_Cylinder.004
v -1.573694 -0.726892 2.954497
v -1.604705 -0.726892 2.930827
v -1.579611 -0.743785 2.962250
v -1.610623 -0.743785 2.938580
v -1.591447 -0.743785 2.977756
v -1.622458 -0.743785 2.954085
v -1.597364 -0.726892 2.985509
v -1.628376 -0.726892 2.961838
v -1.591447 -0.709999 2.977756
v -1.622458 -0.709999 2.954085
v -1.579611 -0.709999 2.962250
v -1.610623 -0.709999 2.938580
v -1.608427 -0.726892 2.935703
v -1.612484 -0.738473 2.941018
v -1.620597 -0.738473 2.951647
v -1.624654 -0.726892 2.956962
v -1.620597 -0.715312 2.951647
v -1.612484 -0.715312 2.941018
v -1.591974 -0.726892 2.948261
v -1.596031 -0.738473 2.953576
v -1.604144 -0.738473 2.964206
v -1.608201 -0.726892 2.969521
v -1.604144 -0.715312 2.964206
v -1.596031 -0.715312 2.953576
v -1.600087 -0.726892 2.958891
v -1.539372 -0.822360 2.909531
v -1.570384 -0.822360 2.885861
v -1.551075 -0.825277 2.924863
v -1.582086 -0.825277 2.901192
v -1.558458 -0.810032 2.934537
v -1.589470 -0.810032 2.910866
v -1.554140 -0.791871 2.928879
v -1.585152 -0.791871 2.905208
v -1.542438 -0.788954 2.913548
v -1.573449 -0.788954 2.889877
v -1.535054 -0.804199 2.903874
v -1.566066 -0.804199 2.880203
v -1.572706 -0.817566 2.888903
v -1.580728 -0.819566 2.899413
v -1.585790 -0.809115 2.906045
v -1.582830 -0.796665 2.902166
v -1.574807 -0.794665 2.891656
v -1.569746 -0.805116 2.885025
v -1.556253 -0.817566 2.901462
v -1.564275 -0.819566 2.911972
v -1.569337 -0.809115 2.918603
v -1.566376 -0.796665 2.914725
v -1.558354 -0.794665 2.904215
v -1.553292 -0.805116 2.897583
v -1.561314 -0.807116 2.908093
v -1.563229 -0.926129 2.940786
v -1.594240 -0.926129 2.917116
v -1.571913 -0.912876 2.952163
v -1.602924 -0.912876 2.928493
v -1.569291 -0.893854 2.948728
v -1.600302 -0.893854 2.925058
v -1.557984 -0.888086 2.933916
v -1.588996 -0.888086 2.910245
v -1.549301 -0.901339 2.922539
v -1.580312 -0.901339 2.898868
v -1.551923 -0.920361 2.925974
v -1.582934 -0.920361 2.902304
v -1.593416 -0.920148 2.916036
v -1.599369 -0.911062 2.923835
v -1.597571 -0.898022 2.921480
v -1.589821 -0.894068 2.911326
v -1.583868 -0.903153 2.903526
v -1.585665 -0.916193 2.905881
v -1.576962 -0.920148 2.928594
v -1.582915 -0.911062 2.936393
v -1.581118 -0.898022 2.934038
v -1.573367 -0.894068 2.923884
v -1.567414 -0.903153 2.916085
v -1.569212 -0.916193 2.918440
v -1.575165 -0.907108 2.926239
v -1.627317 -0.960140 3.024751
v -1.658329 -0.960140 3.001080
v -1.626450 -0.940686 3.023615
v -1.657462 -0.940686 2.999945
v -1.615795 -0.932196 3.009655
v -1.646806 -0.932196 2.985984
v -1.606006 -0.943160 2.996830
v -1.637017 -0.943160 2.973160
v -1.606873 -0.962615 2.997966
v -1.637884 -0.962615 2.974296
v -1.617528 -0.971104 3.011926
v -1.648540 -0.971104 2.988256
v -1.654978 -0.957470 2.996690
v -1.654384 -0.944134 2.995912
v -1.647079 -0.938314 2.986341
v -1.640368 -0.945830 2.977550
v -1.640963 -0.959167 2.978328
v -1.648267 -0.964987 2.987899
v -1.638524 -0.957470 3.009249
v -1.637930 -0.944134 3.008470
v -1.630625 -0.938314 2.998900
v -1.623915 -0.945830 2.990108
v -1.624509 -0.959167 2.990887
v -1.631814 -0.964987 3.000457
v -1.631220 -0.951650 2.999679
v -1.683427 -0.898808 3.098263
v -1.714439 -0.898808 3.074592
v -1.673662 -0.887788 3.085469
v -1.704674 -0.887788 3.061798
v -1.662988 -0.896216 3.071485
v -1.694000 -0.896216 3.047815
v -1.662081 -0.915665 3.070296
v -1.693092 -0.915665 3.046625
v -1.671846 -0.926686 3.083090
v -1.702857 -0.926686 3.059419
v -1.682519 -0.918257 3.097073
v -1.713531 -0.918257 3.073403
v -1.711082 -0.901459 3.070195
v -1.704388 -0.893904 3.061424
v -1.697071 -0.899682 3.051838
v -1.696449 -0.913015 3.051023
v -1.703143 -0.920569 3.059793
v -1.710460 -0.914791 3.069380
v -1.694629 -0.901459 3.082753
v -1.687935 -0.893904 3.073983
v -1.680618 -0.899682 3.064397
v -1.679995 -0.913015 3.063581
v -1.686690 -0.920569 3.072352
v -1.694007 -0.914791 3.081938
v -1.687312 -0.907237 3.073167
v -1.689351 -0.788270 3.106024
v -1.720363 -0.788270 3.082354
v -1.678033 -0.793973 3.091196
v -1.709045 -0.793973 3.067525
v -1.675371 -0.812980 3.087708
v -1.706382 -0.812980 3.064037
v -1.684027 -0.826283 3.099048
v -1.715038 -0.826283 3.075377
v -1.695345 -0.820580 3.113876
v -1.726356 -0.820580 3.090206
v -1.698007 -0.801573 3.117364
v -1.729019 -0.801573 3.093694
v -1.719526 -0.794247 3.081257
v -1.711767 -0.798156 3.071091
v -1.709942 -0.811186 3.068700
v -1.715875 -0.820306 3.076474
v -1.723634 -0.816396 3.086640
v -1.725459 -0.803367 3.089031
v -1.703072 -0.794247 3.093815
v -1.695313 -0.798156 3.083650
v -1.693488 -0.811186 3.081259
v -1.699422 -0.820306 3.089033
v -1.707181 -0.816396 3.099198
v -1.709006 -0.803367 3.101589
v -1.701247 -0.807276 3.091424
v -1.640633 -0.711677 3.042196
v -1.671644 -0.711677 3.018525
v -1.636276 -0.729813 3.036488
v -1.667287 -0.729813 3.012817
v -1.643627 -0.745101 3.046119
v -1.674639 -0.745101 3.022449
v -1.655336 -0.742251 3.061459
v -1.686347 -0.742251 3.037788
v -1.659692 -0.724114 3.067167
v -1.690704 -0.724114 3.043496
v -1.652341 -0.708827 3.057535
v -1.683352 -0.708827 3.033865
v -1.673956 -0.716484 3.021554
v -1.670969 -0.728917 3.017641
v -1.676009 -0.739397 3.024244
v -1.684035 -0.737444 3.034760
v -1.687022 -0.725010 3.038672
v -1.681982 -0.714531 3.032070
v -1.657503 -0.716484 3.034113
v -1.654516 -0.728917 3.030200
v -1.659556 -0.739397 3.036802
v -1.667582 -0.737444 3.047318
v -1.670569 -0.725010 3.051231
v -1.665529 -0.714531 3.044628
v -1.662542 -0.726964 3.040715
v -1.573694 -0.726892 2.954497
v -1.604705 -0.726892 2.930827
v -1.579611 -0.743785 2.962250
v -1.610623 -0.743785 2.938580
v -1.591447 -0.743785 2.977756
v -1.622458 -0.743785 2.954085
v -1.597364 -0.726892 2.985509
v -1.628376 -0.726892 2.961838
v -1.591447 -0.709999 2.977756
v -1.622458 -0.709999 2.954085
v -1.579611 -0.709999 2.962250
v -1.610623 -0.709999 2.938580
v -1.608427 -0.726892 2.935703
v -1.612484 -0.738473 2.941018
v -1.620597 -0.738473 2.951647
v -1.624654 -0.726892 2.956962
v -1.620597 -0.715312 2.951647
v -1.612484 -0.715312 2.941018
v -1.591974 -0.726892 2.948261
v -1.596031 -0.738473 2.953576
v -1.604144 -0.738473 2.964206
v -1.608201 -0.726892 2.969521
v -1.604144 -0.715312 2.964206
v -1.596031 -0.715312 2.953576
v -1.600087 -0.726892 2.958891
v -1.539372 -0.822360 2.909531
v -1.570384 -0.822360 2.885861
v -1.551075 -0.825277 2.924863
v -1.582086 -0.825277 2.901192
v -1.558458 -0.810032 2.934537
v -1.589470 -0.810032 2.910866
v -1.554140 -0.791871 2.928879
v -1.585152 -0.791871 2.905208
v -1.542438 -0.788954 2.913548
v -1.573449 -0.788954 2.889877
v -1.535054 -0.804199 2.903874
v -1.566066 -0.804199 2.880203
v -1.572706 -0.817566 2.888903
v -1.580728 -0.819566 2.899413
v -1.585790 -0.809115 2.906045
v -1.582830 -0.796665 2.902166
v -1.574807 -0.794665 2.891656
v -1.569746 -0.805116 2.885025
v -1.556253 -0.817566 2.901462
v -1.564275 -0.819566 2.911972
v -1.569337 -0.809115 2.918603
v -1.566376 -0.796665 2.914725
v -1.558354 -0.794665 2.904215
v -1.553292 -0.805116 2.897583
v -1.561314 -0.807116 2.908093
v -1.563229 -0.926129 2.940786
v -1.594240 -0.926129 2.917116
v -1.571913 -0.912876 2.952163
v -1.602924 -0.912876 2.928493
v -1.569291 -0.893854 2.948728
v -1.600302 -0.893854 2.925058
v -1.557984 -0.888086 2.933916
v -1.588996 -0.888086 2.910245
v -1.549301 -0.901339 2.922539
v -1.580312 -0.901339 2.898868
v -1.551923 -0.920361 2.925974
v -1.582934 -0.920361 2.902304
v -1.593416 -0.920148 2.916036
v -1.599369 -0.911062 2.923835
v -1.597571 -0.898022 2.921480
v -1.589821 -0.894068 2.911326
v -1.583868 -0.903153 2.903526
v -1.585665 -0.916193 2.905881
v -1.576962 -0.920148 2.928594
v -1.582915 -0.911062 2.936393
v -1.581118 -0.898022 2.934038
v -1.573367 -0.894068 2.923884
v -1.567414 -0.903153 2.916085
v -1.569212 -0.916193 2.918440
v -1.575165 -0.907108 2.926239
v -1.627317 -0.960140 3.024751
v -1.658329 -0.960140 3.001080
v -1.626450 -0.940686 3.023615
v -1.657462 -0.940686 2.999945
v -1.615795 -0.932196 3.009655
v -1.646806 -0.932196 2.985984
v -1.606006 -0.943160 2.996830
v -1.637017 -0.943160 2.973160
v -1.606873 -0.962615 2.997966
v -1.637884 -0.962615 2.974296
v -1.617528 -0.971104 3.011926
v -1.648540 -0.971104 2.988256
v -1.654978 -0.957470 2.996690
v -1.654384 -0.944134 2.995912
v -1.647079 -0.938314 2.986341
v -1.640368 -0.945830 2.977550
v -1.640963 -0.959167 2.978328
v -1.648267 -0.964987 2.987899
v -1.638524 -0.957470 3.009249
v -1.637930 -0.944134 3.008470
v -1.630625 -0.938314 2.998900
v -1.623915 -0.945830 2.990108
v -1.624509 -0.959167 2.990887
v -1.631814 -0.964987 3.000457
v -1.631220 -0.951650 2.999679
v -1.683427 -0.898808 3.098263
v -1.714439 -0.898808 3.074592
v -1.673662 -0.887788 3.085469
v -1.704674 -0.887788 3.061798
v -1.662988 -0.896216 3.071485
v -1.694000 -0.896216 3.047815
v -1.662081 -0.915665 3.070296
v -1.693092 -0.915665 3.046625
v -1.671846 -0.926686 3.083090
v -1.702857 -0.926686 3.059419
v -1.682519 -0.918257 3.097073
v -1.713531 -0.918257 3.073403
v -1.711082 -0.901459 3.070195
v -1.704388 -0.893904 3.061424
v -1.697071 -0.899682 3.051838
v -1.696449 -0.913015 3.051023
v -1.703143 -0.920569 3.059793
v -1.710460 -0.914791 3.069380
v -1.694629 -0.901459 3.082753
v -1.687935 -0.893904 3.073983
v -1.680618 -0.899682 3.064397
v -1.679995 -0.913015 3.063581
v -1.686690 -0.920569 3.072352
v -1.694007 -0.914791 3.081938
v -1.687312 -0.907237 3.073167
v -1.689351 -0.788270 3.106024
v -1.720363 -0.788270 3.082354
v -1.678033 -0.793973 3.091196
v -1.709045 -0.793973 3.067525
v -1.675371 -0.812980 3.087708
v -1.706382 -0.812980 3.064037
v -1.684027 -0.826283 3.099048
v -1.715038 -0.826283 3.075377
v -1.695345 -0.820580 3.113876
v -1.726356 -0.820580 3.090206
v -1.698007 -0.801573 3.117364
v -1.729019 -0.801573 3.093694
v -1.719526 -0.794247 3.081257
v -1.711767 -0.798156 3.071091
v -1.709942 -0.811186 3.068700
v -1.715875 -0.820306 3.076474
v -1.723634 -0.816396 3.086640
v -1.725459 -0.803367 3.089031
v -1.703072 -0.794247 3.093815
v -1.695313 -0.798156 3.083650
v -1.693488 -0.811186 3.081259
v -1.699422 -0.820306 3.089033
v -1.707181 -0.816396 3.099198
v -1.709006 -0.803367 3.101589
v -1.701247 -0.807276 3.091424
v -1.640633 -0.711677 3.042196
v -1.671644 -0.711677 3.018525
v -1.636276 -0.729813 3.036488
v -1.667287 -0.729813 3.012817
v -1.643627 -0.745101 3.046119
v -1.674639 -0.745101 3.022449
v -1.655336 -0.742251 3.061459
v -1.686347 -0.742251 3.037788
v -1.659692 -0.724114 3.067167
v -1.690704 -0.724114 3.043496
v -1.652341 -0.708827 3.057535
v -1.683352 -0.708827 3.033865
v -1.673956 -0.716484 3.021554
v -1.670969 -0.728917 3.017641
v -1.676009 -0.739397 3.024244
v -1.684035 -0.737444 3.034760
v -1.687022 -0.725010 3.038672
v -1.681982 -0.714531 3.032070
v -1.657503 -0.716484 3.034113
v -1.654516 -0.728917 3.030200
v -1.659556 -0.739397 3.036802
v -1.667582 -0.737444 3.047318
v -1.670569 -0.725010 3.051231
v -1.665529 -0.714531 3.044628
v -1.662542 -0.726964 3.040715
vn 0.5254 -0.5000 -0.6884
vn 0.0000 -1.0000 -0.0000
vn -0.5254 -0.5000 0.6884
vn -0.5254 0.5000 0.6884
vn -0.7949 -0.0000 -0.6067
vn 0.5254 0.5000 -0.6884
vn 0.0000 1.0000 -0.0000
vn 0.7949 0.0000 0.6067
vn 0.0907 -0.9888 -0.1189
vn -0.4742 -0.6239 0.6212
vn -0.5649 0.3649 0.7401
vn -0.0907 0.9888 0.1189
vn -0.7949 0.0000 -0.6068
vn 0.5649 -0.3649 -0.7401
vn 0.4742 0.6239 -0.6212
vn -0.4122 -0.7337 0.5401
vn -0.5917 0.2215 0.7752
vn -0.1794 0.9553 0.2351
vn 0.4122 0.7337 -0.5401
vn 0.1794 -0.9553 -0.2351
vn 0.5916 -0.2216 -0.7752
vn 0.5917 -0.2216 -0.7751
vn -0.5917 0.2216 0.7751
vn -0.6051 0.0732 0.7928
vn -0.2641 0.9003 0.3460
vn 0.3410 0.8271 -0.4468
vn 0.6051 -0.0732 -0.7928
vn -0.3410 -0.8271 0.4468
vn 0.2641 -0.9003 -0.3460
vn 0.7949 -0.0000 0.6068
vn 0.3411 0.8271 -0.4468
vn -0.3428 0.8251 0.4491
vn 0.2622 0.9018 -0.3435
vn 0.6049 0.0767 -0.7926
vn 0.3428 -0.8251 -0.4491
vn -0.7949 -0.0001 -0.6068
vn -0.6049 -0.0767 0.7926
vn -0.2622 -0.9018 0.3435
vn 0.6050 0.0767 -0.7926
vn 0.1774 0.9563 -0.2324
vn 0.5912 0.2249 -0.7745
vn 0.4138 -0.7314 -0.5421
vn -0.1774 -0.9563 0.2324
vn -0.4138 0.7314 0.5421
vn -0.5912 -0.2250 0.7745
vn -0.5912 -0.2249 0.7745
vn 0.5912 0.2249 -0.7746
vn 0.5641 0.3681 -0.7391
vn 0.4755 -0.6211 -0.6230
vn -0.0886 -0.9893 0.1161
vn -0.5641 -0.3681 0.7391
vn 0.0886 0.9893 -0.1161
vn -0.4755 0.6212 0.6230
vn -0.7949 -0.0001 -0.6067
vn -0.4755 0.6211 0.6230
vn 0.4755 -0.6212 -0.6230
vn 0.5255 -0.5000 -0.6884
vn -0.5255 0.5000 0.6884
vn 0.5255 0.5000 -0.6884
vn 0.5917 -0.2215 -0.7752
vn -0.7949 0.0001 -0.6067
vn 0.5917 -0.2216 -0.7752
vn -0.5916 0.2216 0.7752
vn 0.6051 -0.0733 -0.7928
vn -0.7950 -0.0001 -0.6067
vn -0.6050 -0.0767 0.7926
vn -0.2621 -0.9018 0.3435
vn 0.4138 -0.7313 -0.5421
vn -0.4138 0.7313 0.5421
vn 0.4755 -0.6212 -0.6229
s off
f 2//1 1//1 3//1
f 4//2 3//2 5//2
f 5//3 7//3 8//3
f 8//4 7//4 9//4
f 4//5 6//5 15//5
f 12//6 11//6 1//6
f 10//7 9//7 11//7
f 3//8 11//8 7//8
f 6//5 8//5 16//5
f 2//5 4//5 14//5
f 10//5 17//5 16//5
f 10//5 12//5 18//5
f 12//5 2//5 13//5
f 14//7 15//7 21//7
f 17//2 18//2 24//2
f 13//4 14//4 20//4
f 17//1 23//1 22//1
f 16//6 22//6 21//6
f 18//3 13//3 19//3
f 22//5 25//5 21//5
f 19//5 25//5 24//5
f 21//5 25//5 20//5
f 24//5 25//5 23//5
f 20//5 25//5 19//5
f 23//5 25//5 22//5
f 27//9 26//9 28//9
f 29//10 28//10 30//10
f 30//11 32//11 33//11
f 33//12 32//12 34//12
f 31//13 40//13 39//13
f 37//14 36//14 26//14
f 35//15 34//15 36//15
f 28//8 36//8 32//8
f 31//5 33//5 41//5
f 27//5 29//5 39//5
f 35//5 42//5 41//5
f 37//5 43//5 42//5
f 27//5 38//5 43//5
f 39//15 40//15 46//15
f 42//10 43//10 49//10
f 38//12 39//12 45//12
f 42//9 48//9 47//9
f 41//14 47//14 46//14
f 43//11 38//11 44//11
f 47//5 50//5 46//5
f 44//5 50//5 49//5
f 46//5 50//5 45//5
f 49//5 50//5 48//5
f 45//5 50//5 44//5
f 48//13 50//13 47//13
f 52//16 51//16 53//16
f 54//17 53//17 55//17
f 55//18 57//18 58//18
f 57//19 59//19 60//19
f 54//5 56//5 65//5
f 62//20 61//20 51//20
f 60//21 59//21 61//21
f 57//8 61//8 59//8
f 56//5 58//5 66//5
f 54//5 64//5 63//5
f 60//13 67//13 66//13
f 62//5 68//5 67//5
f 52//5 63//5 68//5
f 64//22 65//22 71//22
f 67//23 68//23 74//23
f 63//19 64//19 70//19
f 67//16 73//16 72//16
f 66//20 72//20 71//20
f 68//18 63//18 69//18
f 72//5 75//5 71//5
f 69//5 75//5 74//5
f 71//5 75//5 70//5
f 74//5 75//5 73//5
f 70//13 75//13 69//13
f 73//5 75//5 72//5
f 77//24 76//24 78//24
f 78//25 80//25 81//25
f 80//26 82//26 83//26
f 82//27 84//27 85//27
f 79//5 81//5 90//5
f 87//28 86//28 76//28
f 85//29 84//29 86//29
f 82//30 86//30 84//30
f 81//5 83//5 91//5
f 77//5 79//5 89//5
f 85//13 92//13 91//13
f 85//5 87//5 93//5
f 87//13 77//13 88//13
f 90//29 96//29 95//29
f 92//25 93//25 99//25
f 88//27 89//27 95//27
f 91//24 92//24 98//24
f 91//28 97//28 96//28
f 93//31 88//31 94//31
f 97//5 100//5 96//5
f 94//5 100//5 99//5
f 96//5 100//5 95//5
f 99//13 100//13 98//13
f 95//5 100//5 94//5
f 98//5 100//5 97//5
f 101//32 103//32 104//32
f 104//33 103//33 105//33
f 105//34 107//34 108//34
f 108//35 107//35 109//35
f 104//36 106//36 115//36
f 112//37 111//37 101//37
f 110//38 109//38 111//38
f 107//8 111//8 109//8
f 106//5 108//5 116//5
f 102//5 104//5 114//5
f 108//5 110//5 117//5
f 110//5 112//5 118//5
f 112//5 102//5 113//5
f 114//38 115//38 121//38
f 117//33 118//33 124//33
f 113//35 114//35 120//35
f 117//32 123//32 122//32
f 116//37 122//37 121//37
f 118//39 113//39 119//39
f 122//5 125//5 121//5
f 119//13 125//13 124//13
f 121//5 125//5 120//5
f 124//5 125//5 123//5
f 120//5 125//5 119//5
f 123//5 125//5 122//5
f 126//40 128//40 129//40
f 129//41 128//41 130//41
f 131//42 130//42 132//42
f 133//43 132//43 134//43
f 129//5 131//5 140//5
f 137//44 136//44 126//44
f 135//45 134//45 136//45
f 134//8 128//8 136//8
f 133//5 141//5 140//5
f 127//5 129//5 139//5
f 135//5 142//5 141//5
f 137//13 143//13 142//13
f 137//5 127//5 138//5
f 139//46 140//46 146//46
f 142//47 143//47 149//47
f 139//43 145//43 144//43
f 141//40 142//40 148//40
f 140//44 141//44 147//44
f 138//42 144//42 149//42
f 147//5 150//5 146//5
f 144//5 150//5 149//5
f 146//5 150//5 145//5
f 149//5 150//5 148//5
f 145//5 150//5 144//5
f 148//5 150//5 147//5
f 152//48 151//48 153//48
f 154//49 153//49 155//49
f 156//50 155//50 157//50
f 157//51 159//51 160//51
f 156//13 165//13 164//13
f 161//52 151//52 152//52
f 159//53 161//53 162//53
f 159//8 153//8 161//8
f 156//5 158//5 166//5
f 154//5 164//5 163//5
f 158//13 160//13 167//13
f 162//5 168//5 167//5
f 152//54 163//54 168//54
f 165//55 171//55 170//55
f 168//56 174//56 173//56
f 163//51 164//51 170//51
f 167//48 173//48 172//48
f 165//52 166//52 172//52
f 168//50 163//50 169//50
f 172//5 175//5 171//5
f 169//5 175//5 174//5
f 171//13 175//13 170//13
f 174//5 175//5 173//5
f 170//5 175//5 169//5
f 173//13 175//13 172//13
f 177//1 176//1 178//1
f 179//2 178//2 180//2
f 180//3 182//3 183//3
f 183//4 182//4 184//4
f 179//5 181//5 190//5
f 187//6 186//6 176//6
f 185//7 184//7 186//7
f 178//8 186//8 182//8
f 181//5 183//5 191//5
f 177//5 179//5 189//5
f 185//5 192//5 191//5
f 185//5 187//5 193//5
f 187//5 177//5 188//5
f 189//7 190//7 196//7
f 192//2 193//2 199//2
f 188//4 189//4 195//4
f 192//1 198//1 197//1
f 191//6 197//6 196//6
f 193//3 188//3 194//3
f 197//5 200//5 196//5
f 194//5 200//5 199//5
f 196//5 200//5 195//5
f 199//5 200//5 198//5
f 195//5 200//5 194//5
f 198//5 200//5 197//5
f 202//9 201//9 203//9
f 204//10 203//10 205//10
f 205//11 207//11 208//11
f 208//12 207//12 209//12
f 206//13 215//13 214//13
f 212//14 211//14 201//14
f 210//15 209//15 211//15
f 203//8 211//8 207//8
f 206//5 208//5 216//5
f 202//5 204//5 214//5
f 210//5 217//5 216//5
f 212//5 218//5 217//5
f 202//5 213//5 218//5
f 214//15 215//15 221//15
f 217//10 218//10 224//10
f 213//12 214//12 220//12
f 217//9 223//9 222//9
f 216//14 222//14 221//14
f 218//11 213//11 219//11
f 222//5 225//5 221//5
f 219//5 225//5 224//5
f 221//5 225//5 220//5
f 224//5 225//5 223//5
f 220//5 225//5 219//5
f 223//13 225//13 222//13
f 227//16 226//16 228//16
f 229//17 228//17 230//17
f 230//18 232//18 233//18
f 232//19 234//19 235//19
f 229//5 231//5 240//5
f 237//20 236//20 226//20
f 235//21 234//21 236//21
f 232//8 236//8 234//8
f 231//5 233//5 241//5
f 229//5 239//5 238//5
f 235//13 242//13 241//13
f 237//5 243//5 242//5
f 227//5 238//5 243//5
f 239//22 240//22 246//22
f 242//23 243//23 249//23
f 238//19 239//19 245//19
f 242//16 248//16 247//16
f 241//20 247//20 246//20
f 243//18 238//18 244//18
f 247//5 250//5 246//5
f 244//5 250//5 249//5
f 246//5 250//5 245//5
f 249//5 250//5 248//5
f 245//13 250//13 244//13
f 248//5 250//5 247//5
f 252//24 251//24 253//24
f 253//25 255//25 256//25
f 255//26 257//26 258//26
f 257//27 259//27 260//27
f 254//5 256//5 265//5
f 262//28 261//28 251//28
f 260//29 259//29 261//29
f 257//30 261//30 259//30
f 256//5 258//5 266//5
f 252//5 254//5 264//5
f 260//13 267//13 266//13
f 260//5 262//5 268//5
f 262//13 252//13 263//13
f 265//29 271//29 270//29
f 267//25 268//25 274//25
f 263//27 264//27 270//27
f 266//24 267//24 273//24
f 266//28 272//28 271//28
f 268//31 263//31 269//31
f 272//5 275//5 271//5
f 269//5 275//5 274//5
f 271//5 275//5 270//5
f 274//13 275//13 273//13
f 270//5 275//5 269//5
f 273//5 275//5 272//5
f 276//32 278//32 279//32
f 279//33 278//33 280//33
f 280//34 282//34 283//34
f 283//35 282//35 284//35
f 279//36 281//36 290//36
f 287//37 286//37 276//37
f 285//38 284//38 286//38
f 282//8 286//8 284//8
f 281//5 283//5 291//5
f 277//5 279//5 289//5
f 283//5 285//5 292//5
f 285//5 287//5 293//5
f 287//5 277//5 288//5
f 289//38 290//38 296//38
f 292//33 293//33 299//33
f 288//35 289//35 295//35
f 292//32 298//32 297//32
f 291//37 297//37 296//37
f 293//39 288//39 294//39
f 297//5 300//5 296//5
f 294//13 300//13 299//13
f 296//5 300//5 295//5
f 299//5 300//5 298//5
f 295//5 300//5 294//5
f 298//5 300//5 297//5
f 301//40 303//40 304//40
f 304//41 303//41 305//41
f 306//42 305//42 307//42
f 308//43 307//43 309//43
f 304//5 306//5 315//5
f 312//44 311//44 301//44
f 310//45 309//45 311//45
f 309//8 303//8 311//8
f 308//5 316//5 315//5
f 302//5 304//5 314//5
f 310//5 317//5 316//5
f 312//13 318//13 317//13
f 312//5 302//5 313//5
f 314//46 315//46 321//46
f 317//47 318//47 324//47
f 314//43 320//43 319//43
f 316//40 317//40 323//40
f 315//44 316//44 322//44
f 313//42 319//42 324//42
f 322//5 325//5 321//5
f 319//5 325//5 324//5
f 321//5 325//5 320//5
f 324//5 325//5 323//5
f 320//5 325//5 319//5
f 323//5 325//5 322//5
f 327//48 326//48 328//48
f 329//49 328//49 330//49
f 331//50 330//50 332//50
f 332//51 334//51 335//51
f 331//13 340//13 339//13
f 336//52 326//52 327//52
f 334//53 336//53 337//53
f 334//8 328//8 336//8
f 331//5 333//5 341//5
f 329//5 339//5 338//5
f 333//13 335//13 342//13
f 337//5 343//5 342//5
f 327//54 338//54 343//54
f 340//55 346//55 345//55
f 343//56 349//56 348//56
f 338//51 339//51 345//51
f 342//48 348//48 347//48
f 340//52 341//52 347//52
f 343//50 338//50 344//50
f 347//5 350//5 346//5
f 344//5 350//5 349//5
f 346//13 350//13 345//13
f 349//5 350//5 348//5
f 345//5 350//5 344//5
f 348//13 350//13 347//13
f 2//57 3//57 4//57
f 4//2 5//2 6//2
f 5//3 8//3 6//3
f 8//58 9//58 10//58
f 4//54 15//54 14//54
f 12//59 1//59 2//59
f 10//7 11//7 12//7
f 11//8 3//8 1//8
f 3//8 7//8 5//8
f 7//8 11//8 9//8
f 6//5 16//5 15//5
f 2//5 14//5 13//5
f 10//5 16//5 8//5
f 10//5 18//5 17//5
f 12//5 13//5 18//5
f 14//7 21//7 20//7
f 17//2 24//2 23//2
f 13//4 20//4 19//4
f 17//1 22//1 16//1
f 16//6 21//6 15//6
f 18//3 19//3 24//3
f 27//9 28//9 29//9
f 29//10 30//10 31//10
f 30//11 33//11 31//11
f 33//12 34//12 35//12
f 31//5 39//5 29//5
f 37//14 26//14 27//14
f 35//15 36//15 37//15
f 36//8 28//8 26//8
f 28//8 32//8 30//8
f 32//8 36//8 34//8
f 31//5 41//5 40//5
f 27//13 39//13 38//13
f 35//5 41//5 33//5
f 37//13 42//13 35//13
f 27//5 43//5 37//5
f 39//15 46//15 45//15
f 42//10 49//10 48//10
f 38//12 45//12 44//12
f 42//9 47//9 41//9
f 41//14 46//14 40//14
f 43//11 44//11 49//11
f 52//16 53//16 54//16
f 54//17 55//17 56//17
f 55//18 58//18 56//18
f 57//19 60//19 58//19
f 54//13 65//13 64//13
f 62//20 51//20 52//20
f 60//60 61//60 62//60
f 61//8 53//8 51//8
f 53//8 61//8 55//8
f 55//8 61//8 57//8
f 56//61 66//61 65//61
f 54//13 63//13 52//13
f 60//5 66//5 58//5
f 62//5 67//5 60//5
f 52//5 68//5 62//5
f 64//62 71//62 70//62
f 67//63 74//63 73//63
f 63//19 70//19 69//19
f 67//16 72//16 66//16
f 66//20 71//20 65//20
f 68//18 69//18 74//18
f 77//24 78//24 79//24
f 78//25 81//25 79//25
f 80//26 83//26 81//26
f 82//64 85//64 83//64
f 79//54 90//54 89//54
f 87//28 76//28 77//28
f 85//29 86//29 87//29
f 86//8 78//8 76//8
f 78//8 86//8 80//8
f 80//8 86//8 82//8
f 81//54 91//54 90//54
f 77//5 89//5 88//5
f 85//5 91//5 83//5
f 85//13 93//13 92//13
f 87//65 88//65 93//65
f 90//29 95//29 89//29
f 92//25 99//25 98//25
f 88//64 95//64 94//64
f 91//24 98//24 97//24
f 91//28 96//28 90//28
f 93//26 94//26 99//26
f 101//32 104//32 102//32
f 104//33 105//33 106//33
f 105//39 108//39 106//39
f 108//35 109//35 110//35
f 104//5 115//5 114//5
f 112//66 101//66 102//66
f 110//38 111//38 112//38
f 111//8 103//8 101//8
f 103//8 111//8 105//8
f 105//8 111//8 107//8
f 106//5 116//5 115//5
f 102//5 114//5 113//5
f 108//5 117//5 116//5
f 110//5 118//5 117//5
f 112//5 113//5 118//5
f 114//67 121//67 120//67
f 117//33 124//33 123//33
f 113//35 120//35 119//35
f 117//32 122//32 116//32
f 116//66 121//66 115//66
f 118//34 119//34 124//34
f 126//40 129//40 127//40
f 129//41 130//41 131//41
f 131//68 132//68 133//68
f 133//43 134//43 135//43
f 129//13 140//13 139//13
f 137//44 126//44 127//44
f 135//46 136//46 137//46
f 136//8 128//8 126//8
f 128//30 132//30 130//30
f 132//8 128//8 134//8
f 133//5 140//5 131//5
f 127//61 139//61 138//61
f 135//5 141//5 133//5
f 137//5 142//5 135//5
f 137//5 138//5 143//5
f 139//45 146//45 145//45
f 142//41 149//41 148//41
f 139//43 144//43 138//43
f 141//40 148//40 147//40
f 140//69 147//69 146//69
f 138//42 149//42 143//42
f 152//48 153//48 154//48
f 154//49 155//49 156//49
f 156//50 157//50 158//50
f 157//51 160//51 158//51
f 156//5 164//5 154//5
f 161//52 152//52 162//52
f 159//55 162//55 160//55
f 161//8 153//8 151//8
f 153//8 157//8 155//8
f 157//8 153//8 159//8
f 156//13 166//13 165//13
f 154//5 163//5 152//5
f 158//5 167//5 166//5
f 162//5 167//5 160//5
f 152//5 168//5 162//5
f 165//53 170//53 164//53
f 168//70 173//70 167//70
f 163//51 170//51 169//51
f 167//48 172//48 166//48
f 165//52 172//52 171//52
f 168//50 169//50 174//50
f 177//57 178//57 179//57
f 179//2 180//2 181//2
f 180//3 183//3 181//3
f 183//58 184//58 185//58
f 179//54 190//54 189//54
f 187//59 176//59 177//59
f 185//7 186//7 187//7
f 186//8 178//8 176//8
f 178//8 182//8 180//8
f 182//8 186//8 184//8
f 181//5 191//5 190//5
f 177//5 189//5 188//5
f 185//5 191//5 183//5
f 185//5 193//5 192//5
f 187//5 188//5 193//5
f 189//7 196//7 195//7
f 192//2 199//2 198//2
f 188//4 195//4 194//4
f 192//1 197//1 191//1
f 191//6 196//6 190//6
f 193//3 194//3 199//3
f 202//9 203//9 204//9
f 204//10 205//10 206//10
f 205//11 208//11 206//11
f 208//12 209//12 210//12
f 206//5 214//5 204//5
f 212//14 201//14 202//14
f 210//15 211//15 212//15
f 211//8 203//8 201//8
f 203//8 207//8 205//8
f 207//8 211//8 209//8
f 206//5 216//5 215//5
f 202//13 214//13 213//13
f 210//5 216//5 208//5
f 212//13 217//13 210//13
f 202//5 218//5 212//5
f 214//15 221//15 220//15
f 217//10 224//10 223//10
f 213//12 220//12 219//12
f 217//9 222//9 216//9
f 216//14 221//14 215//14
f 218//11 219//11 224//11
f 227//16 228//16 229//16
f 229//17 230//17 231//17
f 230//18 233//18 231//18
f 232//19 235//19 233//19
f 229//13 240//13 239//13
f 237//20 226//20 227//20
f 235//60 236//60 237//60
f 236//8 228//8 226//8
f 228//8 236//8 230//8
f 230//8 236//8 232//8
f 231//61 241//61 240//61
f 229//13 238//13 227//13
f 235//5 241//5 233//5
f 237//5 242//5 235//5
f 227//5 243//5 237//5
f 239//62 246//62 245//62
f 242//63 249//63 248//63
f 238//19 245//19 244//19
f 242//16 247//16 241//16
f 241//20 246//20 240//20
f 243//18 244//18 249//18
f 252//24 253//24 254//24
f 253//25 256//25 254//25
f 255//26 258//26 256//26
f 257//64 260//64 258//64
f 254//54 265//54 264//54
f 262//28 251//28 252//28
f 260//29 261//29 262//29
f 261//8 253//8 251//8
f 253//8 261//8 255//8
f 255//8 261//8 257//8
f 256//54 266//54 265//54
f 252//5 264//5 263//5
f 260//5 266//5 258//5
f 260//13 268//13 267//13
f 262//65 263//65 268//65
f 265//29 270//29 264//29
f 267//25 274//25 273//25
f 263//64 270//64 269//64
f 266//24 273//24 272//24
f 266//28 271//28 265//28
f 268//26 269//26 274//26
f 276//32 279//32 277//32
f 279//33 280//33 281//33
f 280//39 283//39 281//39
f 283//35 284//35 285//35
f 279//5 290//5 289//5
f 287//66 276//66 277//66
f 285//38 286//38 287//38
f 286//8 278//8 276//8
f 278//8 286//8 280//8
f 280//8 286//8 282//8
f 281//5 291//5 290//5
f 277//5 289//5 288//5
f 283//5 292//5 291//5
f 285//5 293//5 292//5
f 287//5 288//5 293//5
f 289//67 296//67 295//67
f 292//33 299//33 298//33
f 288//35 295//35 294//35
f 292//32 297//32 291//32
f 291//66 296//66 290//66
f 293//34 294//34 299//34
f 301//40 304//40 302//40
f 304//41 305//41 306//41
f 306//68 307//68 308//68
f 308//43 309//43 310//43
f 304//13 315//13 314//13
f 312//44 301//44 302//44
f 310//46 311//46 312//46
f 311//8 303//8 301//8
f 303//30 307//30 305//30
f 307//8 303//8 309//8
f 308//5 315//5 306//5
f 302//61 314//61 313//61
f 310//5 316//5 308//5
f 312//5 317//5 310//5
f 312//5 313//5 318//5
f 314//45 321//45 320//45
f 317//41 324//41 323//41
f 314//43 319//43 313//43
f 316//40 323//40 322//40
f 315//69 322//69 321//69
f 313//42 324//42 318//42
f 327//48 328//48 329//48
f 329//49 330//49 331//49
f 331//50 332//50 333//50
f 332//51 335//51 333//51
f 331//5 339//5 329//5
f 336//52 327//52 337//52
f 334//55 337//55 335//55
f 336//8 328//8 326//8
f 328//8 332//8 330//8
f 332//8 328//8 334//8
f 331//13 341//13 340//13
f 329//5 338//5 327//5
f 333//5 342//5 341//5
f 337//5 342//5 335//5
f 327//5 343//5 337//5
f 340//53 345//53 339//53
f 343//70 348//70 342//70
f 338//51 345//51 344//51
f 342//48 347//48 341//48
f 340//52 347//52 346//52
f 343//50 344//50 349//50
