# Blender v2.79 (sub 0) OBJ File: 'm3.blend'
# www.blender.org
o Studio_2_Floor_Plane.056
v -9.912075 -1.498330 22.115347
v -9.912075 -1.468330 22.085346
v -9.882074 -1.498330 22.085346
v -21.852077 -1.498330 22.115347
v -21.882078 -1.498330 22.085346
v -21.852077 -1.468330 22.085346
v -9.912075 -1.498330 10.115343
v -9.882074 -1.498330 10.145344
v -9.912075 -1.468330 10.145344
v -21.852077 -1.498330 10.115343
v -21.852077 -1.468330 10.145344
v -21.882078 -1.498330 10.145344
v -9.912075 -1.730480 22.115347
v -9.882074 -1.730480 22.085346
v -9.912075 -1.760480 22.085346
v -21.852077 -1.730480 22.115347
v -21.852077 -1.760480 22.085346
v -21.882078 -1.730480 22.085346
v -9.912075 -1.730480 10.115343
v -9.912075 -1.760480 10.145344
v -9.882074 -1.730480 10.145344
v -21.852077 -1.730480 10.115343
v -21.882078 -1.730480 10.145344
v -21.852077 -1.760480 10.145344
v 2.111929 -1.498330 22.115347
v 2.111929 -1.468330 22.085346
v 2.141928 -1.498330 22.085346
v -9.828075 -1.498330 22.115347
v -9.858075 -1.498330 22.085346
v -9.828075 -1.468330 22.085346
v 2.111929 -1.498330 10.115343
v 2.141928 -1.498330 10.145344
v 2.111929 -1.468330 10.145344
v -9.828075 -1.498330 10.115343
v -9.828075 -1.468330 10.145344
v -9.858075 -1.498330 10.145344
v 2.111929 -1.730480 22.115347
v 2.141928 -1.730480 22.085346
v 2.111929 -1.760480 22.085346
v -9.828075 -1.730480 22.115347
v -9.828075 -1.760480 22.085346
v -9.858075 -1.730480 22.085346
v 2.111929 -1.730480 10.115343
v 2.111929 -1.760480 10.145344
v 2.141928 -1.730480 10.145344
v -9.828075 -1.730480 10.115343
v -9.858075 -1.730480 10.145344
v -9.828075 -1.760480 10.145344
v 14.135929 -1.498330 22.115347
v 14.135929 -1.468330 22.085346
v 14.165930 -1.498330 22.085346
v 2.195929 -1.498330 22.115347
v 2.165928 -1.498330 22.085346
v 2.195929 -1.468330 22.085346
v 14.135929 -1.498330 10.115343
v 14.165930 -1.498330 10.145344
v 14.135929 -1.468330 10.145344
v 2.195929 -1.498330 10.115343
v 2.195929 -1.468330 10.145344
v 2.165928 -1.498330 10.145344
v 14.135929 -1.730480 22.115347
v 14.165930 -1.730480 22.085346
v 14.135929 -1.760480 22.085346
v 2.195929 -1.730480 22.115347
v 2.195929 -1.760480 22.085346
v 2.165928 -1.730480 22.085346
v 14.135929 -1.730480 10.115343
v 14.135929 -1.760480 10.145344
v 14.165930 -1.730480 10.145344
v 2.195929 -1.730480 10.115343
v 2.165928 -1.730480 10.145344
v 2.195929 -1.760480 10.145344
v 26.159935 -1.498330 22.115347
v 26.159935 -1.468330 22.085346
v 26.189934 -1.498330 22.085346
v 14.219933 -1.498330 22.115347
v 14.189932 -1.498330 22.085346
v 14.219933 -1.468330 22.085346
v 26.159935 -1.498330 10.115343
v 26.189934 -1.498330 10.145344
v 26.159935 -1.468330 10.145344
v 14.219933 -1.498330 10.115343
v 14.219933 -1.468330 10.145344
v 14.189932 -1.498330 10.145344
v 26.159935 -1.730480 22.115347
v 26.189934 -1.730480 22.085346
v 26.159935 -1.760480 22.085346
v 14.219933 -1.730480 22.115347
v 14.219933 -1.760480 22.085346
v 14.189932 -1.730480 22.085346
v 26.159935 -1.730480 10.115343
v 26.159935 -1.760480 10.145344
v 26.189934 -1.730480 10.145344
v 14.219933 -1.730480 10.115343
v 14.189932 -1.730480 10.145344
v 14.219933 -1.760480 10.145344
v 38.183933 -1.498330 22.115347
v 38.183933 -1.468330 22.085346
v 38.213936 -1.498330 22.085346
v 26.243935 -1.498330 22.115347
v 26.213932 -1.498330 22.085346
v 26.243935 -1.468330 22.085346
v 38.183933 -1.498330 10.115343
v 38.213936 -1.498330 10.145344
v 38.183933 -1.468330 10.145344
v 26.243935 -1.498330 10.115343
v 26.243935 -1.468330 10.145344
v 26.213932 -1.498330 10.145344
v 38.183933 -1.730480 22.115347
v 38.213936 -1.730480 22.085346
v 38.183933 -1.760480 22.085346
v 26.243935 -1.730480 22.115347
v 26.243935 -1.760480 22.085346
v 26.213932 -1.730480 22.085346
v 38.183933 -1.730480 10.115343
v 38.183933 -1.760480 10.145344
v 38.213936 -1.730480 10.145344
v 26.243935 -1.730480 10.115343
v 26.213932 -1.730480 10.145344
v 26.243935 -1.760480 10.145344
v 50.207935 -1.498330 22.115347
v 50.207935 -1.468330 22.085346
v 50.237934 -1.498330 22.085346
v 38.267933 -1.498330 22.115347
v 38.237934 -1.498330 22.085346
v 38.267933 -1.468330 22.085346
v 50.207935 -1.498330 10.115343
v 50.237934 -1.498330 10.145344
v 50.207935 -1.468330 10.145344
v 38.267933 -1.498330 10.115343
v 38.267933 -1.468330 10.145344
v 38.237934 -1.498330 10.145344
v 50.207935 -1.730480 22.115347
v 50.237934 -1.730480 22.085346
v 50.207935 -1.760480 22.085346
v 38.267933 -1.730480 22.115347
v 38.267933 -1.760480 22.085346
v 38.237934 -1.730480 22.085346
v 50.207935 -1.730480 10.115343
v 50.207935 -1.760480 10.145344
v 50.237934 -1.730480 10.145344
v 38.267933 -1.730480 10.115343
v 38.237934 -1.730480 10.145344
v 38.267933 -1.760480 10.145344
v -9.912075 -1.498330 10.091344
v -9.912075 -1.468330 10.061344
v -9.882074 -1.498330 10.061344
v -21.852077 -1.498330 10.091344
v -21.882078 -1.498330 10.061344
v -21.852077 -1.468330 10.061344
v -9.912075 -1.498330 -1.908659
v -9.882074 -1.498330 -1.878660
v -9.912075 -1.468330 -1.878660
v -21.852077 -1.498330 -1.908659
v -21.852077 -1.468330 -1.878660
v -21.882078 -1.498330 -1.878660
v -9.912075 -1.730480 10.091344
v -9.882074 -1.730480 10.061344
v -9.912075 -1.760480 10.061344
v -21.852077 -1.730480 10.091344
v -21.852077 -1.760480 10.061344
v -21.882078 -1.730480 10.061344
v -9.912075 -1.730480 -1.908659
v -9.912075 -1.760480 -1.878660
v -9.882074 -1.730480 -1.878660
v -21.852077 -1.730480 -1.908659
v -21.882078 -1.730480 -1.878660
v -21.852077 -1.760480 -1.878660
v 2.111929 -1.498330 10.091344
v 2.111929 -1.468330 10.061344
v 2.141928 -1.498330 10.061344
v -9.828075 -1.498330 10.091344
v -9.858075 -1.498330 10.061344
v -9.828075 -1.468330 10.061344
v 2.111929 -1.498330 -1.908659
v 2.141928 -1.498330 -1.878660
v 2.111929 -1.468330 -1.878660
v -9.828075 -1.498330 -1.908659
v -9.828075 -1.468330 -1.878660
v -9.858075 -1.498330 -1.878660
v 2.111929 -1.730480 10.091344
v 2.141928 -1.730480 10.061344
v 2.111929 -1.760480 10.061344
v -9.828075 -1.730480 10.091344
v -9.828075 -1.760480 10.061344
v -9.858075 -1.730480 10.061344
v 2.111929 -1.730480 -1.908659
v 2.111929 -1.760480 -1.878660
v 2.141928 -1.730480 -1.878660
v -9.828075 -1.730480 -1.908659
v -9.858075 -1.730480 -1.878660
v -9.828075 -1.760480 -1.878660
v 14.135929 -1.498330 10.091344
v 14.135929 -1.468330 10.061344
v 14.165930 -1.498330 10.061344
v 2.195929 -1.498330 10.091344
v 2.165928 -1.498330 10.061344
v 2.195929 -1.468330 10.061344
v 14.135929 -1.498330 -1.908659
v 14.165930 -1.498330 -1.878660
v 14.135929 -1.468330 -1.878660
v 2.195929 -1.498330 -1.908659
v 2.195929 -1.468330 -1.878660
v 2.165928 -1.498330 -1.878660
v 14.135929 -1.730480 10.091344
v 14.165930 -1.730480 10.061344
v 14.135929 -1.760480 10.061344
v 2.195929 -1.730480 10.091344
v 2.195929 -1.760480 10.061344
v 2.165928 -1.730480 10.061344
v 14.135929 -1.730480 -1.908659
v 14.135929 -1.760480 -1.878660
v 14.165930 -1.730480 -1.878660
v 2.195929 -1.730480 -1.908659
v 2.165928 -1.730480 -1.878660
v 2.195929 -1.760480 -1.878660
v 26.159935 -1.498330 10.091344
v 26.159935 -1.468330 10.061344
v 26.189934 -1.498330 10.061344
v 14.219933 -1.498330 10.091344
v 14.189932 -1.498330 10.061344
v 14.219933 -1.468330 10.061344
v 26.159935 -1.498330 -1.908659
v 26.189934 -1.498330 -1.878660
v 26.159935 -1.468330 -1.878660
v 14.219933 -1.498330 -1.908659
v 14.219933 -1.468330 -1.878660
v 14.189932 -1.498330 -1.878660
v 26.159935 -1.730480 10.091344
v 26.189934 -1.730480 10.061344
v 26.159935 -1.760480 10.061344
v 14.219933 -1.730480 10.091344
v 14.219933 -1.760480 10.061344
v 14.189932 -1.730480 10.061344
v 26.159935 -1.730480 -1.908659
v 26.159935 -1.760480 -1.878660
v 26.189934 -1.730480 -1.878660
v 14.219933 -1.730480 -1.908659
v 14.189932 -1.730480 -1.878660
v 14.219933 -1.760480 -1.878660
v 38.183933 -1.498330 10.091344
v 38.183933 -1.468330 10.061344
v 38.213936 -1.498330 10.061344
v 26.243935 -1.498330 10.091344
v 26.213932 -1.498330 10.061344
v 26.243935 -1.468330 10.061344
v 38.183933 -1.498330 -1.908659
v 38.213936 -1.498330 -1.878660
v 38.183933 -1.468330 -1.878660
v 26.243935 -1.498330 -1.908659
v 26.243935 -1.468330 -1.878660
v 26.213932 -1.498330 -1.878660
v 38.183933 -1.730480 10.091344
v 38.213936 -1.730480 10.061344
v 38.183933 -1.760480 10.061344
v 26.243935 -1.730480 10.091344
v 26.243935 -1.760480 10.061344
v 26.213932 -1.730480 10.061344
v 38.183933 -1.730480 -1.908659
v 38.183933 -1.760480 -1.878660
v 38.213936 -1.730480 -1.878660
v 26.243935 -1.730480 -1.908659
v 26.213932 -1.730480 -1.878660
v 26.243935 -1.760480 -1.878660
v 50.207935 -1.498330 10.091344
v 50.207935 -1.468330 10.061344
v 50.237934 -1.498330 10.061344
v 38.267933 -1.498330 10.091344
v 38.237934 -1.498330 10.061344
v 38.267933 -1.468330 10.061344
v 50.207935 -1.498330 -1.908659
v 50.237934 -1.498330 -1.878660
v 50.207935 -1.468330 -1.878660
v 38.267933 -1.498330 -1.908659
v 38.267933 -1.468330 -1.878660
v 38.237934 -1.498330 -1.878660
v 50.207935 -1.730480 10.091344
v 50.237934 -1.730480 10.061344
v 50.207935 -1.760480 10.061344
v 38.267933 -1.730480 10.091344
v 38.267933 -1.760480 10.061344
v 38.237934 -1.730480 10.061344
v 50.207935 -1.730480 -1.908659
v 50.207935 -1.760480 -1.878660
v 50.237934 -1.730480 -1.878660
v 38.267933 -1.730480 -1.908659
v 38.237934 -1.730480 -1.878660
v 38.267933 -1.760480 -1.878660
v -9.912075 -1.498330 -1.932659
v -9.912075 -1.468330 -1.962660
v -9.882074 -1.498330 -1.962660
v -21.852077 -1.498330 -1.932659
v -21.882078 -1.498330 -1.962660
v -21.852077 -1.468330 -1.962660
v -9.912075 -1.498330 -13.932661
v -9.882074 -1.498330 -13.902660
v -9.912075 -1.468330 -13.902660
v -21.852077 -1.498330 -13.932661
v -21.852077 -1.468330 -13.902660
v -21.882078 -1.498330 -13.902660
v -9.912075 -1.730480 -1.932659
v -9.882074 -1.730480 -1.962660
v -9.912075 -1.760480 -1.962660
v -21.852077 -1.730480 -1.932659
v -21.852077 -1.760480 -1.962660
v -21.882078 -1.730480 -1.962660
v -9.912075 -1.730480 -13.932661
v -9.912075 -1.760480 -13.902660
v -9.882074 -1.730480 -13.902660
v -21.852077 -1.730480 -13.932661
v -21.882078 -1.730480 -13.902660
v -21.852077 -1.760480 -13.902660
v 2.111929 -1.498330 -1.932659
v 2.111929 -1.468330 -1.962660
v 2.141928 -1.498330 -1.962660
v -9.828075 -1.498330 -1.932659
v -9.858075 -1.498330 -1.962660
v -9.828075 -1.468330 -1.962660
v 2.111929 -1.498330 -13.932661
v 2.141928 -1.498330 -13.902660
v 2.111929 -1.468330 -13.902660
v -9.828075 -1.498330 -13.932661
v -9.828075 -1.468330 -13.902660
v -9.858075 -1.498330 -13.902660
v 2.111929 -1.730480 -1.932659
v 2.141928 -1.730480 -1.962660
v 2.111929 -1.760480 -1.962660
v -9.828075 -1.730480 -1.932659
v -9.828075 -1.760480 -1.962660
v -9.858075 -1.730480 -1.962660
v 2.111929 -1.730480 -13.932661
v 2.111929 -1.760480 -13.902660
v 2.141928 -1.730480 -13.902660
v -9.828075 -1.730480 -13.932661
v -9.858075 -1.730480 -13.902660
v -9.828075 -1.760480 -13.902660
v 14.135929 -1.498330 -1.932659
v 14.135929 -1.468330 -1.962660
v 14.165930 -1.498330 -1.962660
v 2.195929 -1.498330 -1.932659
v 2.165928 -1.498330 -1.962660
v 2.195929 -1.468330 -1.962660
v 14.135929 -1.498330 -13.932661
v 14.165930 -1.498330 -13.902660
v 14.135929 -1.468330 -13.902660
v 2.195929 -1.498330 -13.932661
v 2.195929 -1.468330 -13.902660
v 2.165928 -1.498330 -13.902660
v 14.135929 -1.730480 -1.932659
v 14.165930 -1.730480 -1.962660
v 14.135929 -1.760480 -1.962660
v 2.195929 -1.730480 -1.932659
v 2.195929 -1.760480 -1.962660
v 2.165928 -1.730480 -1.962660
v 14.135929 -1.730480 -13.932661
v 14.135929 -1.760480 -13.902660
v 14.165930 -1.730480 -13.902660
v 2.195929 -1.730480 -13.932661
v 2.165928 -1.730480 -13.902660
v 2.195929 -1.760480 -13.902660
v 26.159935 -1.498330 -1.932659
v 26.159935 -1.468330 -1.962660
v 26.189934 -1.498330 -1.962660
v 14.219933 -1.498330 -1.932659
v 14.189932 -1.498330 -1.962660
v 14.219933 -1.468330 -1.962660
v 26.159935 -1.498330 -13.932661
v 26.189934 -1.498330 -13.902660
v 26.159935 -1.468330 -13.902660
v 14.219933 -1.498330 -13.932661
v 14.219933 -1.468330 -13.902660
v 14.189932 -1.498330 -13.902660
v 26.159935 -1.730480 -1.932659
v 26.189934 -1.730480 -1.962660
v 26.159935 -1.760480 -1.962660
v 14.219933 -1.730480 -1.932659
v 14.219933 -1.760480 -1.962660
v 14.189932 -1.730480 -1.962660
v 26.159935 -1.730480 -13.932661
v 26.159935 -1.760480 -13.902660
v 26.189934 -1.730480 -13.902660
v 14.219933 -1.730480 -13.932661
v 14.189932 -1.730480 -13.902660
v 14.219933 -1.760480 -13.902660
v 38.183933 -1.498330 -1.932659
v 38.183933 -1.468330 -1.962660
v 38.213936 -1.498330 -1.962660
v 26.243935 -1.498330 -1.932659
v 26.213932 -1.498330 -1.962660
v 26.243935 -1.468330 -1.962660
v 38.183933 -1.498330 -13.932661
v 38.213936 -1.498330 -13.902660
v 38.183933 -1.468330 -13.902660
v 26.243935 -1.498330 -13.932661
v 26.243935 -1.468330 -13.902660
v 26.213932 -1.498330 -13.902660
v 38.183933 -1.730480 -1.932659
v 38.213936 -1.730480 -1.962660
v 38.183933 -1.760480 -1.962660
v 26.243935 -1.730480 -1.932659
v 26.243935 -1.760480 -1.962660
v 26.213932 -1.730480 -1.962660
v 38.183933 -1.730480 -13.932661
v 38.183933 -1.760480 -13.902660
v 38.213936 -1.730480 -13.902660
v 26.243935 -1.730480 -13.932661
v 26.213932 -1.730480 -13.902660
v 26.243935 -1.760480 -13.902660
v 50.207935 -1.498330 -1.932659
v 50.207935 -1.468330 -1.962660
v 50.237934 -1.498330 -1.962660
v 38.267933 -1.498330 -1.932659
v 38.237934 -1.498330 -1.962660
v 38.267933 -1.468330 -1.962660
v 50.207935 -1.498330 -13.932661
v 50.237934 -1.498330 -13.902660
v 50.207935 -1.468330 -13.902660
v 38.267933 -1.498330 -13.932661
v 38.267933 -1.468330 -13.902660
v 38.237934 -1.498330 -13.902660
v 50.207935 -1.730480 -1.932659
v 50.237934 -1.730480 -1.962660
v 50.207935 -1.760480 -1.962660
v 38.267933 -1.730480 -1.932659
v 38.267933 -1.760480 -1.962660
v 38.237934 -1.730480 -1.962660
v 50.207935 -1.730480 -13.932661
v 50.207935 -1.760480 -13.902660
v 50.237934 -1.730480 -13.902660
v 38.267933 -1.730480 -13.932661
v 38.237934 -1.730480 -13.902660
v 38.267933 -1.760480 -13.902660
v -9.912075 -1.498330 -13.956663
v -9.912075 -1.468330 -13.986664
v -9.882074 -1.498330 -13.986664
v -21.852077 -1.498330 -13.956663
v -21.882078 -1.498330 -13.986664
v -21.852077 -1.468330 -13.986664
v -9.912075 -1.498330 -25.956665
v -9.882074 -1.498330 -25.926666
v -9.912075 -1.468330 -25.926666
v -21.852077 -1.498330 -25.956665
v -21.852077 -1.468330 -25.926666
v -21.882078 -1.498330 -25.926666
v -9.912075 -1.730480 -13.956663
v -9.882074 -1.730480 -13.986664
v -9.912075 -1.760480 -13.986664
v -21.852077 -1.730480 -13.956663
v -21.852077 -1.760480 -13.986664
v -21.882078 -1.730480 -13.986664
v -9.912075 -1.730480 -25.956665
v -9.912075 -1.760480 -25.926666
v -9.882074 -1.730480 -25.926666
v -21.852077 -1.730480 -25.956665
v -21.882078 -1.730480 -25.926666
v -21.852077 -1.760480 -25.926666
v 2.111929 -1.498330 -13.956663
v 2.111929 -1.468330 -13.986664
v 2.141928 -1.498330 -13.986664
v -9.828075 -1.498330 -13.956663
v -9.858075 -1.498330 -13.986664
v -9.828075 -1.468330 -13.986664
v 2.111929 -1.498330 -25.956665
v 2.141928 -1.498330 -25.926666
v 2.111929 -1.468330 -25.926666
v -9.828075 -1.498330 -25.956665
v -9.828075 -1.468330 -25.926666
v -9.858075 -1.498330 -25.926666
v 2.111929 -1.730480 -13.956663
v 2.141928 -1.730480 -13.986664
v 2.111929 -1.760480 -13.986664
v -9.828075 -1.730480 -13.956663
v -9.828075 -1.760480 -13.986664
v -9.858075 -1.730480 -13.986664
v 2.111929 -1.730480 -25.956665
v 2.111929 -1.760480 -25.926666
v 2.141928 -1.730480 -25.926666
v -9.828075 -1.730480 -25.956665
v -9.858075 -1.730480 -25.926666
v -9.828075 -1.760480 -25.926666
v 14.135929 -1.498330 -13.956663
v 14.135929 -1.468330 -13.986664
v 14.165930 -1.498330 -13.986664
v 2.195929 -1.498330 -13.956663
v 2.165928 -1.498330 -13.986664
v 2.195929 -1.468330 -13.986664
v 14.135929 -1.498330 -25.956665
v 14.165930 -1.498330 -25.926666
v 14.135929 -1.468330 -25.926666
v 2.195929 -1.498330 -25.956665
v 2.195929 -1.468330 -25.926666
v 2.165928 -1.498330 -25.926666
v 14.135929 -1.730480 -13.956663
v 14.165930 -1.730480 -13.986664
v 14.135929 -1.760480 -13.986664
v 2.195929 -1.730480 -13.956663
v 2.195929 -1.760480 -13.986664
v 2.165928 -1.730480 -13.986664
v 14.135929 -1.730480 -25.956665
v 14.135929 -1.760480 -25.926666
v 14.165930 -1.730480 -25.926666
v 2.195929 -1.730480 -25.956665
v 2.165928 -1.730480 -25.926666
v 2.195929 -1.760480 -25.926666
v 26.159935 -1.498330 -13.956663
v 26.159935 -1.468330 -13.986664
v 26.189934 -1.498330 -13.986664
v 14.219933 -1.498330 -13.956663
v 14.189932 -1.498330 -13.986664
v 14.219933 -1.468330 -13.986664
v 26.159935 -1.498330 -25.956665
v 26.189934 -1.498330 -25.926666
v 26.159935 -1.468330 -25.926666
v 14.219933 -1.498330 -25.956665
v 14.219933 -1.468330 -25.926666
v 14.189932 -1.498330 -25.926666
v 26.159935 -1.730480 -13.956663
v 26.189934 -1.730480 -13.986664
v 26.159935 -1.760480 -13.986664
v 14.219933 -1.730480 -13.956663
v 14.219933 -1.760480 -13.986664
v 14.189932 -1.730480 -13.986664
v 26.159935 -1.730480 -25.956665
v 26.159935 -1.760480 -25.926666
v 26.189934 -1.730480 -25.926666
v 14.219933 -1.730480 -25.956665
v 14.189932 -1.730480 -25.926666
v 14.219933 -1.760480 -25.926666
v 38.183933 -1.498330 -13.956663
v 38.183933 -1.468330 -13.986664
v 38.213936 -1.498330 -13.986664
v 26.243935 -1.498330 -13.956663
v 26.213932 -1.498330 -13.986664
v 26.243935 -1.468330 -13.986664
v 38.183933 -1.498330 -25.956665
v 38.213936 -1.498330 -25.926666
v 38.183933 -1.468330 -25.926666
v 26.243935 -1.498330 -25.956665
v 26.243935 -1.468330 -25.926666
v 26.213932 -1.498330 -25.926666
v 38.183933 -1.730480 -13.956663
v 38.213936 -1.730480 -13.986664
v 38.183933 -1.760480 -13.986664
v 26.243935 -1.730480 -13.956663
v 26.243935 -1.760480 -13.986664
v 26.213932 -1.730480 -13.986664
v 38.183933 -1.730480 -25.956665
v 38.183933 -1.760480 -25.926666
v 38.213936 -1.730480 -25.926666
v 26.243935 -1.730480 -25.956665
v 26.213932 -1.730480 -25.926666
v 26.243935 -1.760480 -25.926666
v 50.207935 -1.498330 -13.956663
v 50.207935 -1.468330 -13.986664
v 50.237934 -1.498330 -13.986664
v 38.267933 -1.498330 -13.956663
v 38.237934 -1.498330 -13.986664
v 38.267933 -1.468330 -13.986664
v 50.207935 -1.498330 -25.956665
v 50.237934 -1.498330 -25.926666
v 50.207935 -1.468330 -25.926666
v 38.267933 -1.498330 -25.956665
v 38.267933 -1.468330 -25.926666
v 38.237934 -1.498330 -25.926666
v 50.207935 -1.730480 -13.956663
v 50.237934 -1.730480 -13.986664
v 50.207935 -1.760480 -13.986664
v 38.267933 -1.730480 -13.956663
v 38.267933 -1.760480 -13.986664
v 38.237934 -1.730480 -13.986664
v 50.207935 -1.730480 -25.956665
v 50.207935 -1.760480 -25.926666
v 50.237934 -1.730480 -25.926666
v 38.267933 -1.730480 -25.956665
v 38.237934 -1.730480 -25.926666
v 38.267933 -1.760480 -25.926666
v -9.912075 -1.498330 -25.980663
v -9.912075 -1.468330 -26.010666
v -9.882074 -1.498330 -26.010666
v -21.852077 -1.498330 -25.980663
v -21.882078 -1.498330 -26.010666
v -21.852077 -1.468330 -26.010666
v -9.912075 -1.498330 -37.980667
v -9.882074 -1.498330 -37.950665
v -9.912075 -1.468330 -37.950665
v -21.852077 -1.498330 -37.980667
v -21.852077 -1.468330 -37.950665
v -21.882078 -1.498330 -37.950665
v -9.912075 -1.730480 -25.980663
v -9.882074 -1.730480 -26.010666
v -9.912075 -1.760480 -26.010666
v -21.852077 -1.730480 -25.980663
v -21.852077 -1.760480 -26.010666
v -21.882078 -1.730480 -26.010666
v -9.912075 -1.730480 -37.980667
v -9.912075 -1.760480 -37.950665
v -9.882074 -1.730480 -37.950665
v -21.852077 -1.730480 -37.980667
v -21.882078 -1.730480 -37.950665
v -21.852077 -1.760480 -37.950665
v 2.111929 -1.498330 -25.980663
v 2.111929 -1.468330 -26.010666
v 2.141928 -1.498330 -26.010666
v -9.828075 -1.498330 -25.980663
v -9.858075 -1.498330 -26.010666
v -9.828075 -1.468330 -26.010666
v 2.111929 -1.498330 -37.980667
v 2.141928 -1.498330 -37.950665
v 2.111929 -1.468330 -37.950665
v -9.828075 -1.498330 -37.980667
v -9.828075 -1.468330 -37.950665
v -9.858075 -1.498330 -37.950665
v 2.111929 -1.730480 -25.980663
v 2.141928 -1.730480 -26.010666
v 2.111929 -1.760480 -26.010666
v -9.828075 -1.730480 -25.980663
v -9.828075 -1.760480 -26.010666
v -9.858075 -1.730480 -26.010666
v 2.111929 -1.730480 -37.980667
v 2.111929 -1.760480 -37.950665
v 2.141928 -1.730480 -37.950665
v -9.828075 -1.730480 -37.980667
v -9.858075 -1.730480 -37.950665
v -9.828075 -1.760480 -37.950665
v 14.135929 -1.498330 -25.980663
v 14.135929 -1.468330 -26.010666
v 14.165930 -1.498330 -26.010666
v 2.195929 -1.498330 -25.980663
v 2.165928 -1.498330 -26.010666
v 2.195929 -1.468330 -26.010666
v 14.135929 -1.498330 -37.980667
v 14.165930 -1.498330 -37.950665
v 14.135929 -1.468330 -37.950665
v 2.195929 -1.498330 -37.980667
v 2.195929 -1.468330 -37.950665
v 2.165928 -1.498330 -37.950665
v 14.135929 -1.730480 -25.980663
v 14.165930 -1.730480 -26.010666
v 14.135929 -1.760480 -26.010666
v 2.195929 -1.730480 -25.980663
v 2.195929 -1.760480 -26.010666
v 2.165928 -1.730480 -26.010666
v 14.135929 -1.730480 -37.980667
v 14.135929 -1.760480 -37.950665
v 14.165930 -1.730480 -37.950665
v 2.195929 -1.730480 -37.980667
v 2.165928 -1.730480 -37.950665
v 2.195929 -1.760480 -37.950665
v 26.159935 -1.498330 -25.980663
v 26.159935 -1.468330 -26.010666
v 26.189934 -1.498330 -26.010666
v 14.219933 -1.498330 -25.980663
v 14.189932 -1.498330 -26.010666
v 14.219933 -1.468330 -26.010666
v 26.159935 -1.498330 -37.980667
v 26.189934 -1.498330 -37.950665
v 26.159935 -1.468330 -37.950665
v 14.219933 -1.498330 -37.980667
v 14.219933 -1.468330 -37.950665
v 14.189932 -1.498330 -37.950665
v 26.159935 -1.730480 -25.980663
v 26.189934 -1.730480 -26.010666
v 26.159935 -1.760480 -26.010666
v 14.219933 -1.730480 -25.980663
v 14.219933 -1.760480 -26.010666
v 14.189932 -1.730480 -26.010666
v 26.159935 -1.730480 -37.980667
v 26.159935 -1.760480 -37.950665
v 26.189934 -1.730480 -37.950665
v 14.219933 -1.730480 -37.980667
v 14.189932 -1.730480 -37.950665
v 14.219933 -1.760480 -37.950665
v 38.183933 -1.498330 -25.980663
v 38.183933 -1.468330 -26.010666
v 38.213936 -1.498330 -26.010666
v 26.243935 -1.498330 -25.980663
v 26.213932 -1.498330 -26.010666
v 26.243935 -1.468330 -26.010666
v 38.183933 -1.498330 -37.980667
v 38.213936 -1.498330 -37.950665
v 38.183933 -1.468330 -37.950665
v 26.243935 -1.498330 -37.980667
v 26.243935 -1.468330 -37.950665
v 26.213932 -1.498330 -37.950665
v 38.183933 -1.730480 -25.980663
v 38.213936 -1.730480 -26.010666
v 38.183933 -1.760480 -26.010666
v 26.243935 -1.730480 -25.980663
v 26.243935 -1.760480 -26.010666
v 26.213932 -1.730480 -26.010666
v 38.183933 -1.730480 -37.980667
v 38.183933 -1.760480 -37.950665
v 38.213936 -1.730480 -37.950665
v 26.243935 -1.730480 -37.980667
v 26.213932 -1.730480 -37.950665
v 26.243935 -1.760480 -37.950665
v 50.207935 -1.498330 -25.980663
v 50.207935 -1.468330 -26.010666
v 50.237934 -1.498330 -26.010666
v 38.267933 -1.498330 -25.980663
v 38.237934 -1.498330 -26.010666
v 38.267933 -1.468330 -26.010666
v 50.207935 -1.498330 -37.980667
v 50.237934 -1.498330 -37.950665
v 50.207935 -1.468330 -37.950665
v 38.267933 -1.498330 -37.980667
v 38.267933 -1.468330 -37.950665
v 38.237934 -1.498330 -37.950665
v 50.207935 -1.730480 -25.980663
v 50.237934 -1.730480 -26.010666
v 50.207935 -1.760480 -26.010666
v 38.267933 -1.730480 -25.980663
v 38.267933 -1.760480 -26.010666
v 38.237934 -1.730480 -26.010666
v 50.207935 -1.730480 -37.980667
v 50.207935 -1.760480 -37.950665
v 50.237934 -1.730480 -37.950665
v 38.267933 -1.730480 -37.980667
v 38.237934 -1.730480 -37.950665
v 38.267933 -1.760480 -37.950665
v -9.912075 -1.498330 -38.004665
v -9.912075 -1.468330 -38.034664
v -9.882074 -1.498330 -38.034664
v -21.852077 -1.498330 -38.004665
v -21.882078 -1.498330 -38.034664
v -21.852077 -1.468330 -38.034664
v -9.912075 -1.498330 -50.004665
v -9.882074 -1.498330 -49.974667
v -9.912075 -1.468330 -49.974667
v -21.852077 -1.498330 -50.004665
v -21.852077 -1.468330 -49.974667
v -21.882078 -1.498330 -49.974667
v -9.912075 -1.730480 -38.004665
v -9.882074 -1.730480 -38.034664
v -9.912075 -1.760480 -38.034664
v -21.852077 -1.730480 -38.004665
v -21.852077 -1.760480 -38.034664
v -21.882078 -1.730480 -38.034664
v -9.912075 -1.730480 -50.004665
v -9.912075 -1.760480 -49.974667
v -9.882074 -1.730480 -49.974667
v -21.852077 -1.730480 -50.004665
v -21.882078 -1.730480 -49.974667
v -21.852077 -1.760480 -49.974667
v 2.111929 -1.498330 -38.004665
v 2.111929 -1.468330 -38.034664
v 2.141928 -1.498330 -38.034664
v -9.828075 -1.498330 -38.004665
v -9.858075 -1.498330 -38.034664
v -9.828075 -1.468330 -38.034664
v 2.111929 -1.498330 -50.004665
v 2.141928 -1.498330 -49.974667
v 2.111929 -1.468330 -49.974667
v -9.828075 -1.498330 -50.004665
v -9.828075 -1.468330 -49.974667
v -9.858075 -1.498330 -49.974667
v 2.111929 -1.730480 -38.004665
v 2.141928 -1.730480 -38.034664
v 2.111929 -1.760480 -38.034664
v -9.828075 -1.730480 -38.004665
v -9.828075 -1.760480 -38.034664
v -9.858075 -1.730480 -38.034664
v 2.111929 -1.730480 -50.004665
v 2.111929 -1.760480 -49.974667
v 2.141928 -1.730480 -49.974667
v -9.828075 -1.730480 -50.004665
v -9.858075 -1.730480 -49.974667
v -9.828075 -1.760480 -49.974667
v 14.135929 -1.498330 -38.004665
v 14.135929 -1.468330 -38.034664
v 14.165930 -1.498330 -38.034664
v 2.195929 -1.498330 -38.004665
v 2.165928 -1.498330 -38.034664
v 2.195929 -1.468330 -38.034664
v 14.135929 -1.498330 -50.004665
v 14.165930 -1.498330 -49.974667
v 14.135929 -1.468330 -49.974667
v 2.195929 -1.498330 -50.004665
v 2.195929 -1.468330 -49.974667
v 2.165928 -1.498330 -49.974667
v 14.135929 -1.730480 -38.004665
v 14.165930 -1.730480 -38.034664
v 14.135929 -1.760480 -38.034664
v 2.195929 -1.730480 -38.004665
v 2.195929 -1.760480 -38.034664
v 2.165928 -1.730480 -38.034664
v 14.135929 -1.730480 -50.004665
v 14.135929 -1.760480 -49.974667
v 14.165930 -1.730480 -49.974667
v 2.195929 -1.730480 -50.004665
v 2.165928 -1.730480 -49.974667
v 2.195929 -1.760480 -49.974667
v 26.159935 -1.498330 -38.004665
v 26.159935 -1.468330 -38.034664
v 26.189934 -1.498330 -38.034664
v 14.219933 -1.498330 -38.004665
v 14.189932 -1.498330 -38.034664
v 14.219933 -1.468330 -38.034664
v 26.159935 -1.498330 -50.004665
v 26.189934 -1.498330 -49.974667
v 26.159935 -1.468330 -49.974667
v 14.219933 -1.498330 -50.004665
v 14.219933 -1.468330 -49.974667
v 14.189932 -1.498330 -49.974667
v 26.159935 -1.730480 -38.004665
v 26.189934 -1.730480 -38.034664
v 26.159935 -1.760480 -38.034664
v 14.219933 -1.730480 -38.004665
v 14.219933 -1.760480 -38.034664
v 14.189932 -1.730480 -38.034664
v 26.159935 -1.730480 -50.004665
v 26.159935 -1.760480 -49.974667
v 26.189934 -1.730480 -49.974667
v 14.219933 -1.730480 -50.004665
v 14.189932 -1.730480 -49.974667
v 14.219933 -1.760480 -49.974667
v 38.183933 -1.498330 -38.004665
v 38.183933 -1.468330 -38.034664
v 38.213936 -1.498330 -38.034664
v 26.243935 -1.498330 -38.004665
v 26.213932 -1.498330 -38.034664
v 26.243935 -1.468330 -38.034664
v 38.183933 -1.498330 -50.004665
v 38.213936 -1.498330 -49.974667
v 38.183933 -1.468330 -49.974667
v 26.243935 -1.498330 -50.004665
v 26.243935 -1.468330 -49.974667
v 26.213932 -1.498330 -49.974667
v 38.183933 -1.730480 -38.004665
v 38.213936 -1.730480 -38.034664
v 38.183933 -1.760480 -38.034664
v 26.243935 -1.730480 -38.004665
v 26.243935 -1.760480 -38.034664
v 26.213932 -1.730480 -38.034664
v 38.183933 -1.730480 -50.004665
v 38.183933 -1.760480 -49.974667
v 38.213936 -1.730480 -49.974667
v 26.243935 -1.730480 -50.004665
v 26.213932 -1.730480 -49.974667
v 26.243935 -1.760480 -49.974667
v 50.207935 -1.498330 -38.004665
v 50.207935 -1.468330 -38.034664
v 50.237934 -1.498330 -38.034664
v 38.267933 -1.498330 -38.004665
v 38.237934 -1.498330 -38.034664
v 38.267933 -1.468330 -38.034664
v 50.207935 -1.498330 -50.004665
v 50.237934 -1.498330 -49.974667
v 50.207935 -1.468330 -49.974667
v 38.267933 -1.498330 -50.004665
v 38.267933 -1.468330 -49.974667
v 38.237934 -1.498330 -49.974667
v 50.207935 -1.730480 -38.004665
v 50.237934 -1.730480 -38.034664
v 50.207935 -1.760480 -38.034664
v 38.267933 -1.730480 -38.004665
v 38.267933 -1.760480 -38.034664
v 38.237934 -1.730480 -38.034664
v 50.207935 -1.730480 -50.004665
v 50.207935 -1.760480 -49.974667
v 50.237934 -1.730480 -49.974667
v 38.267933 -1.730480 -50.004665
v 38.237934 -1.730480 -49.974667
v 38.267933 -1.760480 -49.974667
vn -1.0000 0.0000 0.0000
vn 0.0000 -1.0000 0.0000
vn 0.0000 1.0000 0.0000
vn 1.0000 0.0000 0.0000
vn 0.0000 0.0000 1.0000
vn -0.5774 -0.5774 -0.5773
vn 0.5774 -0.5774 -0.5773
vn -0.5774 -0.5774 0.5773
vn 0.5774 -0.5774 0.5773
vn -0.5774 0.5774 -0.5773
vn 0.5774 0.5774 -0.5773
vn -0.5774 0.5774 0.5773
vn 0.5774 0.5774 0.5773
vn 0.0000 -0.7071 -0.7071
vn 0.0000 -0.7071 0.7071
vn -0.7071 -0.7071 0.0000
vn 0.7071 -0.7071 0.0000
vn 0.0000 0.7071 -0.7071
vn 0.0000 0.7071 0.7071
vn -0.7071 0.7071 0.0000
vn 0.7071 0.7071 0.0000
vn -0.7071 0.0000 -0.7072
vn 0.7071 0.0000 -0.7072
vn 0.7071 0.0000 0.7071
vn -0.7071 0.0000 0.7071
vn 0.0000 0.0000 -1.0000
vn -0.5774 -0.5773 -0.5773
vn 0.5774 -0.5773 -0.5773
vn -0.5774 -0.5773 0.5773
vn 0.5774 -0.5773 0.5773
vn -0.5774 0.5773 -0.5773
vn 0.5774 0.5773 -0.5773
vn -0.5774 0.5773 0.5773
vn 0.5774 0.5773 0.5773
vn -0.7071 0.0000 -0.7071
vn 0.7071 0.0000 -0.7071
vn 0.5773 -0.5774 -0.5773
vn 0.5773 -0.5774 0.5773
vn 0.5773 0.5774 -0.5773
vn 0.5773 0.5774 0.5773
vn -0.7072 -0.7071 0.0000
vn -0.5773 -0.5774 -0.5773
vn 0.5773 -0.5773 -0.5774
vn -0.5773 -0.5774 0.5773
vn 0.5773 -0.5773 0.5774
vn -0.5773 0.5774 -0.5773
vn 0.5773 0.5773 -0.5774
vn -0.5773 0.5774 0.5773
vn 0.5773 0.5773 0.5774
vn -0.7070 -0.7072 0.0000
vn -0.7072 0.7071 0.0000
vn -0.7070 0.0000 -0.7072
vn 0.7070 0.0000 -0.7072
vn 0.7072 0.7071 0.0000
vn -0.5773 -0.5774 -0.5774
vn 0.5774 -0.5773 -0.5774
vn -0.5773 -0.5773 0.5774
vn -0.5773 0.5774 -0.5774
vn 0.5774 0.5773 -0.5774
vn -0.5773 0.5773 0.5774
vn 0.7072 -0.7071 0.0000
vn -0.5774 -0.5773 -0.5774
vn -0.5774 -0.5773 0.5774
vn 0.5774 -0.5773 0.5774
vn -0.5774 0.5773 -0.5774
vn -0.5774 0.5773 0.5774
vn 0.5774 0.5773 0.5774
vn -0.5773 -0.5773 -0.5774
vn 0.5773 -0.5774 -0.5774
vn -0.5773 0.5773 -0.5774
vn 0.5773 0.5774 -0.5774
vn -0.5773 -0.5775 -0.5773
vn -0.5773 -0.5775 0.5773
vn 0.5773 -0.5774 0.5774
vn -0.5773 0.5775 -0.5773
vn -0.5773 0.5775 0.5773
vn 0.5773 0.5774 0.5774
vn 0.7071 0.0000 0.7072
vn 0.7070 0.7072 0.0000
vn -0.5773 -0.5774 0.5774
vn -0.5773 0.5774 0.5774
vn -0.7071 0.0000 0.7072
vn -0.5772 -0.5775 0.5773
vn -0.5772 0.5775 0.5773
vn 0.7070 0.0000 0.7072
vn -0.7070 0.0000 0.7072
vn 0.5775 -0.5773 0.5773
vn 0.5775 0.5773 0.5773
vn 0.7072 0.0000 0.7071
vn -0.7072 0.0000 0.7071
vn -0.5775 -0.5773 0.5773
vn -0.5775 0.5773 0.5773
vn 0.7072 0.0000 0.7070
vn -0.7072 0.0000 0.7070
vn -0.7070 0.7072 0.0000
vn -0.5772 -0.5775 0.5774
vn 0.5772 -0.5774 0.5774
vn -0.5772 0.5775 0.5774
vn 0.5772 0.5774 0.5774
vn -0.7072 0.0000 -0.7071
vn 0.7072 0.0000 -0.7071
vn -0.7072 0.0000 -0.7070
vn 0.7072 0.0000 -0.7070
vn 0.7070 -0.7072 0.0000
s off
f 8//1 14//1 3//1
f 11//2 2//2 6//2
f 15//3 24//3 17//3
f 5//4 23//4 12//4
f 10//5 19//5 7//5
f 1//6 2//6 3//6
f 4//7 5//7 6//7
f 7//8 8//8 9//8
f 10//9 11//9 12//9
f 13//10 14//10 15//10
f 16//11 17//11 18//11
f 19//12 20//12 21//12
f 22//13 23//13 24//13
f 4//14 2//14 1//14
f 11//15 7//15 9//15
f 9//16 3//16 2//16
f 6//17 12//17 11//17
f 17//18 13//18 15//18
f 22//19 20//19 19//19
f 21//20 15//20 14//20
f 18//21 24//21 23//21
f 14//22 1//22 3//22
f 5//23 16//23 18//23
f 23//24 10//24 12//24
f 8//25 19//25 21//25
f 1//26 16//26 4//26
f 32//1 38//1 27//1
f 35//2 26//2 30//2
f 39//3 48//3 41//3
f 29//4 47//4 36//4
f 34//5 43//5 31//5
f 25//27 26//27 27//27
f 28//28 29//28 30//28
f 31//29 32//29 33//29
f 34//30 35//30 36//30
f 37//31 38//31 39//31
f 40//32 41//32 42//32
f 43//33 44//33 45//33
f 46//34 47//34 48//34
f 28//14 26//14 25//14
f 35//15 31//15 33//15
f 33//16 27//16 26//16
f 30//17 36//17 35//17
f 41//18 37//18 39//18
f 46//19 44//19 43//19
f 45//20 39//20 38//20
f 42//21 48//21 47//21
f 38//35 25//35 27//35
f 29//36 40//36 42//36
f 47//24 34//24 36//24
f 32//25 43//25 45//25
f 25//26 40//26 28//26
f 56//1 62//1 51//1
f 59//2 50//2 54//2
f 63//3 72//3 65//3
f 53//4 71//4 60//4
f 58//5 67//5 55//5
f 49//6 50//6 51//6
f 52//37 53//37 54//37
f 55//8 56//8 57//8
f 58//38 59//38 60//38
f 61//10 62//10 63//10
f 64//39 65//39 66//39
f 67//12 68//12 69//12
f 70//40 71//40 72//40
f 52//14 50//14 49//14
f 59//15 55//15 57//15
f 57//16 51//16 50//16
f 54//17 60//17 59//17
f 65//18 61//18 63//18
f 70//19 68//19 67//19
f 69//20 63//20 62//20
f 66//21 72//21 71//21
f 62//22 49//22 51//22
f 53//23 64//23 66//23
f 71//24 58//24 60//24
f 56//25 67//25 69//25
f 49//26 64//26 52//26
f 80//1 86//1 75//1
f 83//2 74//2 78//2
f 87//3 96//3 89//3
f 77//4 95//4 84//4
f 82//5 91//5 79//5
f 73//27 74//27 75//27
f 76//7 77//7 78//7
f 79//29 80//29 81//29
f 82//9 83//9 84//9
f 85//31 86//31 87//31
f 88//11 89//11 90//11
f 91//33 92//33 93//33
f 94//13 95//13 96//13
f 76//14 74//14 73//14
f 83//15 79//15 81//15
f 81//41 75//41 74//41
f 78//17 84//17 83//17
f 89//18 85//18 87//18
f 94//19 92//19 91//19
f 93//20 87//20 86//20
f 90//21 96//21 95//21
f 86//35 73//35 75//35
f 77//23 88//23 90//23
f 95//24 82//24 84//24
f 80//25 91//25 93//25
f 73//26 88//26 76//26
f 104//1 110//1 99//1
f 107//2 98//2 102//2
f 111//3 120//3 113//3
f 101//4 119//4 108//4
f 106//5 115//5 103//5
f 97//42 98//42 99//42
f 100//43 101//43 102//43
f 103//44 104//44 105//44
f 106//45 107//45 108//45
f 109//46 110//46 111//46
f 112//47 113//47 114//47
f 115//48 116//48 117//48
f 118//49 119//49 120//49
f 100//14 98//14 97//14
f 107//15 103//15 105//15
f 105//50 99//50 98//50
f 102//17 108//17 107//17
f 113//18 109//18 111//18
f 118//19 116//19 115//19
f 117//51 111//51 110//51
f 114//21 120//21 119//21
f 110//52 97//52 99//52
f 101//53 112//53 114//53
f 119//24 106//24 108//24
f 104//25 115//25 117//25
f 97//26 112//26 100//26
f 128//1 134//1 123//1
f 131//2 122//2 126//2
f 135//3 144//3 137//3
f 125//4 143//4 132//4
f 130//5 139//5 127//5
f 121//6 122//6 123//6
f 124//7 125//7 126//7
f 127//8 128//8 129//8
f 130//9 131//9 132//9
f 133//10 134//10 135//10
f 136//11 137//11 138//11
f 139//12 140//12 141//12
f 142//13 143//13 144//13
f 124//14 122//14 121//14
f 131//15 127//15 129//15
f 129//50 123//50 122//50
f 126//17 132//17 131//17
f 137//18 133//18 135//18
f 142//19 140//19 139//19
f 141//51 135//51 134//51
f 138//54 144//54 143//54
f 134//35 121//35 123//35
f 125//36 136//36 138//36
f 143//24 130//24 132//24
f 128//25 139//25 141//25
f 121//26 136//26 124//26
f 152//1 158//1 147//1
f 155//2 146//2 150//2
f 159//3 168//3 161//3
f 149//4 167//4 156//4
f 154//5 163//5 151//5
f 145//55 146//55 147//55
f 148//56 149//56 150//56
f 151//57 152//57 153//57
f 154//45 155//45 156//45
f 157//58 158//58 159//58
f 160//59 161//59 162//59
f 163//60 164//60 165//60
f 166//49 167//49 168//49
f 148//14 146//14 145//14
f 155//15 151//15 153//15
f 153//16 147//16 146//16
f 150//61 156//61 155//61
f 161//18 157//18 159//18
f 166//19 164//19 163//19
f 165//20 159//20 158//20
f 162//21 168//21 167//21
f 158//35 145//35 147//35
f 149//36 160//36 162//36
f 167//24 154//24 156//24
f 152//25 163//25 165//25
f 145//26 160//26 148//26
f 176//1 182//1 171//1
f 179//2 170//2 174//2
f 183//3 192//3 185//3
f 173//4 191//4 180//4
f 178//5 187//5 175//5
f 169//62 170//62 171//62
f 172//56 173//56 174//56
f 175//63 176//63 177//63
f 178//64 179//64 180//64
f 181//65 182//65 183//65
f 184//59 185//59 186//59
f 187//66 188//66 189//66
f 190//67 191//67 192//67
f 172//14 170//14 169//14
f 179//15 175//15 177//15
f 177//16 171//16 170//16
f 174//17 180//17 179//17
f 185//18 181//18 183//18
f 190//19 188//19 187//19
f 189//20 183//20 182//20
f 186//21 192//21 191//21
f 182//35 169//35 171//35
f 173//36 184//36 186//36
f 191//24 178//24 180//24
f 176//25 187//25 189//25
f 169//26 184//26 172//26
f 200//1 206//1 195//1
f 203//2 194//2 198//2
f 207//3 216//3 209//3
f 197//4 215//4 204//4
f 202//5 211//5 199//5
f 193//68 194//68 195//68
f 196//69 197//69 198//69
f 199//57 200//57 201//57
f 202//45 203//45 204//45
f 205//70 206//70 207//70
f 208//71 209//71 210//71
f 211//60 212//60 213//60
f 214//49 215//49 216//49
f 196//14 194//14 193//14
f 203//15 199//15 201//15
f 201//16 195//16 194//16
f 198//17 204//17 203//17
f 209//18 205//18 207//18
f 214//19 212//19 211//19
f 213//20 207//20 206//20
f 210//21 216//21 215//21
f 206//35 193//35 195//35
f 197//36 208//36 210//36
f 215//24 202//24 204//24
f 200//25 211//25 213//25
f 193//26 208//26 196//26
f 224//1 230//1 219//1
f 227//2 218//2 222//2
f 231//3 240//3 233//3
f 221//4 239//4 228//4
f 226//5 235//5 223//5
f 217//42 218//42 219//42
f 220//43 221//43 222//43
f 223//63 224//63 225//63
f 226//45 227//45 228//45
f 229//46 230//46 231//46
f 232//47 233//47 234//47
f 235//66 236//66 237//66
f 238//49 239//49 240//49
f 220//14 218//14 217//14
f 227//15 223//15 225//15
f 225//16 219//16 218//16
f 222//17 228//17 227//17
f 233//18 229//18 231//18
f 238//19 236//19 235//19
f 237//51 231//51 230//51
f 234//21 240//21 239//21
f 230//35 217//35 219//35
f 221//36 232//36 234//36
f 239//24 226//24 228//24
f 224//25 235//25 237//25
f 217//26 232//26 220//26
f 248//1 254//1 243//1
f 251//2 242//2 246//2
f 255//3 264//3 257//3
f 245//4 263//4 252//4
f 250//5 259//5 247//5
f 241//72 242//72 243//72
f 244//69 245//69 246//69
f 247//73 248//73 249//73
f 250//74 251//74 252//74
f 253//75 254//75 255//75
f 256//71 257//71 258//71
f 259//76 260//76 261//76
f 262//77 263//77 264//77
f 244//14 242//14 241//14
f 251//15 247//15 249//15
f 249//50 243//50 242//50
f 246//17 252//17 251//17
f 257//18 253//18 255//18
f 262//19 260//19 259//19
f 261//20 255//20 254//20
f 258//21 264//21 263//21
f 254//22 241//22 243//22
f 245//23 256//23 258//23
f 263//78 250//78 252//78
f 248//25 259//25 261//25
f 241//26 256//26 244//26
f 272//1 278//1 267//1
f 275//2 266//2 270//2
f 279//3 288//3 281//3
f 269//4 287//4 276//4
f 274//5 283//5 271//5
f 265//42 266//42 267//42
f 268//37 269//37 270//37
f 271//63 272//63 273//63
f 274//38 275//38 276//38
f 277//46 278//46 279//46
f 280//39 281//39 282//39
f 283//66 284//66 285//66
f 286//40 287//40 288//40
f 268//14 266//14 265//14
f 275//15 271//15 273//15
f 273//41 267//41 266//41
f 270//61 276//61 275//61
f 281//18 277//18 279//18
f 286//19 284//19 283//19
f 285//51 279//51 278//51
f 282//21 288//21 287//21
f 278//35 265//35 267//35
f 269//36 280//36 282//36
f 287//24 274//24 276//24
f 272//25 283//25 285//25
f 265//26 280//26 268//26
f 296//1 302//1 291//1
f 299//2 290//2 294//2
f 303//3 312//3 305//3
f 293//4 311//4 300//4
f 298//5 307//5 295//5
f 289//42 290//42 291//42
f 292//37 293//37 294//37
f 295//8 296//8 297//8
f 298//9 299//9 300//9
f 301//46 302//46 303//46
f 304//39 305//39 306//39
f 307//12 308//12 309//12
f 310//13 311//13 312//13
f 292//14 290//14 289//14
f 299//15 295//15 297//15
f 297//16 291//16 290//16
f 294//61 300//61 299//61
f 305//18 301//18 303//18
f 310//19 308//19 307//19
f 309//20 303//20 302//20
f 306//79 312//79 311//79
f 302//35 289//35 291//35
f 293//36 304//36 306//36
f 311//24 298//24 300//24
f 296//25 307//25 309//25
f 289//26 304//26 292//26
f 320//1 326//1 315//1
f 323//2 314//2 318//2
f 327//3 336//3 329//3
f 317//4 335//4 324//4
f 322//5 331//5 319//5
f 313//27 314//27 315//27
f 316//28 317//28 318//28
f 319//29 320//29 321//29
f 322//30 323//30 324//30
f 325//31 326//31 327//31
f 328//32 329//32 330//32
f 331//33 332//33 333//33
f 334//34 335//34 336//34
f 316//14 314//14 313//14
f 323//15 319//15 321//15
f 321//16 315//16 314//16
f 318//17 324//17 323//17
f 329//18 325//18 327//18
f 334//19 332//19 331//19
f 333//20 327//20 326//20
f 330//21 336//21 335//21
f 326//35 313//35 315//35
f 317//36 328//36 330//36
f 335//24 322//24 324//24
f 320//25 331//25 333//25
f 313//26 328//26 316//26
f 344//1 350//1 339//1
f 347//2 338//2 342//2
f 351//3 360//3 353//3
f 341//4 359//4 348//4
f 346//5 355//5 343//5
f 337//42 338//42 339//42
f 340//37 341//37 342//37
f 343//8 344//8 345//8
f 346//38 347//38 348//38
f 349//46 350//46 351//46
f 352//39 353//39 354//39
f 355//12 356//12 357//12
f 358//40 359//40 360//40
f 340//14 338//14 337//14
f 347//15 343//15 345//15
f 345//16 339//16 338//16
f 342//17 348//17 347//17
f 353//18 349//18 351//18
f 358//19 356//19 355//19
f 357//20 351//20 350//20
f 354//21 360//21 359//21
f 350//35 337//35 339//35
f 341//36 352//36 354//36
f 359//24 346//24 348//24
f 344//25 355//25 357//25
f 337//26 352//26 340//26
f 368//1 374//1 363//1
f 371//2 362//2 366//2
f 375//3 384//3 377//3
f 365//4 383//4 372//4
f 370//5 379//5 367//5
f 361//27 362//27 363//27
f 364//37 365//37 366//37
f 367//29 368//29 369//29
f 370//9 371//9 372//9
f 373//31 374//31 375//31
f 376//39 377//39 378//39
f 379//33 380//33 381//33
f 382//13 383//13 384//13
f 364//14 362//14 361//14
f 371//15 367//15 369//15
f 369//41 363//41 362//41
f 366//17 372//17 371//17
f 377//18 373//18 375//18
f 382//19 380//19 379//19
f 381//20 375//20 374//20
f 378//21 384//21 383//21
f 374//35 361//35 363//35
f 365//36 376//36 378//36
f 383//24 370//24 372//24
f 368//25 379//25 381//25
f 361//26 376//26 364//26
f 392//1 398//1 387//1
f 395//2 386//2 390//2
f 399//3 408//3 401//3
f 389//4 407//4 396//4
f 394//5 403//5 391//5
f 385//42 386//42 387//42
f 388//43 389//43 390//43
f 391//44 392//44 393//44
f 394//45 395//45 396//45
f 397//46 398//46 399//46
f 400//47 401//47 402//47
f 403//48 404//48 405//48
f 406//49 407//49 408//49
f 388//14 386//14 385//14
f 395//15 391//15 393//15
f 393//50 387//50 386//50
f 390//17 396//17 395//17
f 401//18 397//18 399//18
f 406//19 404//19 403//19
f 405//51 399//51 398//51
f 402//79 408//79 407//79
f 398//35 385//35 387//35
f 389//36 400//36 402//36
f 407//24 394//24 396//24
f 392//25 403//25 405//25
f 385//26 400//26 388//26
f 416//1 422//1 411//1
f 419//2 410//2 414//2
f 423//3 432//3 425//3
f 413//4 431//4 420//4
f 418//5 427//5 415//5
f 409//6 410//6 411//6
f 412//7 413//7 414//7
f 415//8 416//8 417//8
f 418//9 419//9 420//9
f 421//10 422//10 423//10
f 424//11 425//11 426//11
f 427//12 428//12 429//12
f 430//13 431//13 432//13
f 412//14 410//14 409//14
f 419//15 415//15 417//15
f 417//41 411//41 410//41
f 414//61 420//61 419//61
f 425//18 421//18 423//18
f 430//19 428//19 427//19
f 429//51 423//51 422//51
f 426//21 432//21 431//21
f 422//35 409//35 411//35
f 413//36 424//36 426//36
f 431//24 418//24 420//24
f 416//25 427//25 429//25
f 409//26 424//26 412//26
f 440//1 446//1 435//1
f 443//2 434//2 438//2
f 447//3 456//3 449//3
f 437//4 455//4 444//4
f 442//5 451//5 439//5
f 433//55 434//55 435//55
f 436//69 437//69 438//69
f 439//80 440//80 441//80
f 442//45 443//45 444//45
f 445//58 446//58 447//58
f 448//71 449//71 450//71
f 451//81 452//81 453//81
f 454//49 455//49 456//49
f 436//14 434//14 433//14
f 443//15 439//15 441//15
f 441//16 435//16 434//16
f 438//17 444//17 443//17
f 449//18 445//18 447//18
f 454//19 452//19 451//19
f 453//20 447//20 446//20
f 450//21 456//21 455//21
f 446//35 433//35 435//35
f 437//36 448//36 450//36
f 455//78 442//78 444//78
f 440//82 451//82 453//82
f 433//26 448//26 436//26
f 464//1 470//1 459//1
f 467//2 458//2 462//2
f 471//3 480//3 473//3
f 461//4 479//4 468//4
f 466//5 475//5 463//5
f 457//42 458//42 459//42
f 460//43 461//43 462//43
f 463//57 464//57 465//57
f 466//45 467//45 468//45
f 469//46 470//46 471//46
f 472//47 473//47 474//47
f 475//60 476//60 477//60
f 478//49 479//49 480//49
f 460//14 458//14 457//14
f 467//15 463//15 465//15
f 465//16 459//16 458//16
f 462//17 468//17 467//17
f 473//18 469//18 471//18
f 478//19 476//19 475//19
f 477//20 471//20 470//20
f 474//21 480//21 479//21
f 470//35 457//35 459//35
f 461//36 472//36 474//36
f 479//24 466//24 468//24
f 464//25 475//25 477//25
f 457//26 472//26 460//26
f 488//1 494//1 483//1
f 491//2 482//2 486//2
f 495//3 504//3 497//3
f 485//4 503//4 492//4
f 490//5 499//5 487//5
f 481//55 482//55 483//55
f 484//69 485//69 486//69
f 487//80 488//80 489//80
f 490//74 491//74 492//74
f 493//58 494//58 495//58
f 496//71 497//71 498//71
f 499//81 500//81 501//81
f 502//77 503//77 504//77
f 484//14 482//14 481//14
f 491//15 487//15 489//15
f 489//16 483//16 482//16
f 486//17 492//17 491//17
f 497//18 493//18 495//18
f 502//19 500//19 499//19
f 501//20 495//20 494//20
f 498//21 504//21 503//21
f 494//35 481//35 483//35
f 485//36 496//36 498//36
f 503//78 490//78 492//78
f 488//82 499//82 501//82
f 481//26 496//26 484//26
f 512//1 518//1 507//1
f 515//2 506//2 510//2
f 519//3 528//3 521//3
f 509//4 527//4 516//4
f 514//5 523//5 511//5
f 505//62 506//62 507//62
f 508//69 509//69 510//69
f 511//57 512//57 513//57
f 514//74 515//74 516//74
f 517//65 518//65 519//65
f 520//71 521//71 522//71
f 523//60 524//60 525//60
f 526//77 527//77 528//77
f 508//14 506//14 505//14
f 515//15 511//15 513//15
f 513//41 507//41 506//41
f 510//17 516//17 515//17
f 521//18 517//18 519//18
f 526//19 524//19 523//19
f 525//20 519//20 518//20
f 522//21 528//21 527//21
f 518//35 505//35 507//35
f 509//36 520//36 522//36
f 527//78 514//78 516//78
f 512//25 523//25 525//25
f 505//26 520//26 508//26
f 536//1 542//1 531//1
f 539//2 530//2 534//2
f 543//3 552//3 545//3
f 533//4 551//4 540//4
f 538//5 547//5 535//5
f 529//72 530//72 531//72
f 532//69 533//69 534//69
f 535//83 536//83 537//83
f 538//74 539//74 540//74
f 541//75 542//75 543//75
f 544//71 545//71 546//71
f 547//84 548//84 549//84
f 550//77 551//77 552//77
f 532//14 530//14 529//14
f 539//15 535//15 537//15
f 537//50 531//50 530//50
f 534//17 540//17 539//17
f 545//18 541//18 543//18
f 550//19 548//19 547//19
f 549//51 543//51 542//51
f 546//21 552//21 551//21
f 542//35 529//35 531//35
f 533//36 544//36 546//36
f 551//85 538//85 540//85
f 536//86 547//86 549//86
f 529//26 544//26 532//26
f 560//1 566//1 555//1
f 563//2 554//2 558//2
f 567//3 576//3 569//3
f 557//4 575//4 564//4
f 562//5 571//5 559//5
f 553//42 554//42 555//42
f 556//37 557//37 558//37
f 559//63 560//63 561//63
f 562//38 563//38 564//38
f 565//46 566//46 567//46
f 568//39 569//39 570//39
f 571//66 572//66 573//66
f 574//40 575//40 576//40
f 556//14 554//14 553//14
f 563//15 559//15 561//15
f 561//50 555//50 554//50
f 558//17 564//17 563//17
f 569//18 565//18 567//18
f 574//19 572//19 571//19
f 573//51 567//51 566//51
f 570//54 576//54 575//54
f 566//35 553//35 555//35
f 557//36 568//36 570//36
f 575//24 562//24 564//24
f 560//25 571//25 573//25
f 553//26 568//26 556//26
f 584//1 590//1 579//1
f 587//2 578//2 582//2
f 591//3 600//3 593//3
f 581//4 599//4 588//4
f 586//5 595//5 583//5
f 577//42 578//42 579//42
f 580//7 581//7 582//7
f 583//29 584//29 585//29
f 586//87 587//87 588//87
f 589//46 590//46 591//46
f 592//11 593//11 594//11
f 595//33 596//33 597//33
f 598//88 599//88 600//88
f 580//14 578//14 577//14
f 587//15 583//15 585//15
f 585//16 579//16 578//16
f 582//61 588//61 587//61
f 593//18 589//18 591//18
f 598//19 596//19 595//19
f 597//20 591//20 590//20
f 594//21 600//21 599//21
f 590//35 577//35 579//35
f 581//36 592//36 594//36
f 599//89 586//89 588//89
f 584//90 595//90 597//90
f 577//26 592//26 580//26
f 608//1 614//1 603//1
f 611//2 602//2 606//2
f 615//3 624//3 617//3
f 605//4 623//4 612//4
f 610//5 619//5 607//5
f 601//6 602//6 603//6
f 604//7 605//7 606//7
f 607//91 608//91 609//91
f 610//87 611//87 612//87
f 613//10 614//10 615//10
f 616//11 617//11 618//11
f 619//92 620//92 621//92
f 622//88 623//88 624//88
f 604//14 602//14 601//14
f 611//15 607//15 609//15
f 609//16 603//16 602//16
f 606//17 612//17 611//17
f 617//18 613//18 615//18
f 622//19 620//19 619//19
f 621//20 615//20 614//20
f 618//21 624//21 623//21
f 614//35 601//35 603//35
f 605//36 616//36 618//36
f 623//93 610//93 612//93
f 608//94 619//94 621//94
f 601//26 616//26 604//26
f 632//1 638//1 627//1
f 635//2 626//2 630//2
f 639//3 648//3 641//3
f 629//4 647//4 636//4
f 634//5 643//5 631//5
f 625//42 626//42 627//42
f 628//37 629//37 630//37
f 631//29 632//29 633//29
f 634//30 635//30 636//30
f 637//46 638//46 639//46
f 640//39 641//39 642//39
f 643//33 644//33 645//33
f 646//34 647//34 648//34
f 628//14 626//14 625//14
f 635//15 631//15 633//15
f 633//16 627//16 626//16
f 630//17 636//17 635//17
f 641//18 637//18 639//18
f 646//19 644//19 643//19
f 645//20 639//20 638//20
f 642//21 648//21 647//21
f 638//35 625//35 627//35
f 629//36 640//36 642//36
f 647//89 634//89 636//89
f 632//90 643//90 645//90
f 625//26 640//26 628//26
f 656//1 662//1 651//1
f 659//2 650//2 654//2
f 663//3 672//3 665//3
f 653//4 671//4 660//4
f 658//5 667//5 655//5
f 649//6 650//6 651//6
f 652//37 653//37 654//37
f 655//91 656//91 657//91
f 658//9 659//9 660//9
f 661//10 662//10 663//10
f 664//39 665//39 666//39
f 667//92 668//92 669//92
f 670//13 671//13 672//13
f 652//14 650//14 649//14
f 659//15 655//15 657//15
f 657//16 651//16 650//16
f 654//17 660//17 659//17
f 665//18 661//18 663//18
f 670//19 668//19 667//19
f 669//51 663//51 662//51
f 666//21 672//21 671//21
f 662//35 649//35 651//35
f 653//36 664//36 666//36
f 671//89 658//89 660//89
f 656//94 667//94 669//94
f 649//26 664//26 652//26
f 680//1 686//1 675//1
f 683//2 674//2 678//2
f 687//3 696//3 689//3
f 677//4 695//4 684//4
f 682//5 691//5 679//5
f 673//42 674//42 675//42
f 676//37 677//37 678//37
f 679//8 680//8 681//8
f 682//30 683//30 684//30
f 685//46 686//46 687//46
f 688//39 689//39 690//39
f 691//12 692//12 693//12
f 694//34 695//34 696//34
f 676//14 674//14 673//14
f 683//15 679//15 681//15
f 681//50 675//50 674//50
f 678//17 684//17 683//17
f 689//18 685//18 687//18
f 694//19 692//19 691//19
f 693//20 687//20 686//20
f 690//21 696//21 695//21
f 686//35 673//35 675//35
f 677//36 688//36 690//36
f 695//24 682//24 684//24
f 680//25 691//25 693//25
f 673//26 688//26 676//26
f 704//1 710//1 699//1
f 707//2 698//2 702//2
f 711//3 720//3 713//3
f 701//4 719//4 708//4
f 706//5 715//5 703//5
f 697//6 698//6 699//6
f 700//7 701//7 702//7
f 703//91 704//91 705//91
f 706//87 707//87 708//87
f 709//10 710//10 711//10
f 712//11 713//11 714//11
f 715//92 716//92 717//92
f 718//88 719//88 720//88
f 700//14 698//14 697//14
f 707//15 703//15 705//15
f 705//41 699//41 698//41
f 702//17 708//17 707//17
f 713//18 709//18 711//18
f 718//19 716//19 715//19
f 717//95 711//95 710//95
f 714//54 720//54 719//54
f 710//35 697//35 699//35
f 701//36 712//36 714//36
f 719//93 706//93 708//93
f 704//94 715//94 717//94
f 697//26 712//26 700//26
f 728//1 734//1 723//1
f 731//2 722//2 726//2
f 735//3 744//3 737//3
f 725//4 743//4 732//4
f 730//5 739//5 727//5
f 721//62 722//62 723//62
f 724//56 725//56 726//56
f 727//80 728//80 729//80
f 730//74 731//74 732//74
f 733//65 734//65 735//65
f 736//59 737//59 738//59
f 739//81 740//81 741//81
f 742//77 743//77 744//77
f 724//14 722//14 721//14
f 731//15 727//15 729//15
f 729//16 723//16 722//16
f 726//17 732//17 731//17
f 737//18 733//18 735//18
f 742//19 740//19 739//19
f 741//20 735//20 734//20
f 738//21 744//21 743//21
f 734//22 721//22 723//22
f 725//23 736//23 738//23
f 743//78 730//78 732//78
f 728//82 739//82 741//82
f 721//26 736//26 724//26
f 752//1 758//1 747//1
f 755//2 746//2 750//2
f 759//3 768//3 761//3
f 749//4 767//4 756//4
f 754//5 763//5 751//5
f 745//27 746//27 747//27
f 748//56 749//56 750//56
f 751//80 752//80 753//80
f 754//74 755//74 756//74
f 757//31 758//31 759//31
f 760//59 761//59 762//59
f 763//81 764//81 765//81
f 766//77 767//77 768//77
f 748//14 746//14 745//14
f 755//15 751//15 753//15
f 753//16 747//16 746//16
f 750//17 756//17 755//17
f 761//18 757//18 759//18
f 766//19 764//19 763//19
f 765//20 759//20 758//20
f 762//21 768//21 767//21
f 758//35 745//35 747//35
f 749//36 760//36 762//36
f 767//24 754//24 756//24
f 752//25 763//25 765//25
f 745//26 760//26 748//26
f 776//1 782//1 771//1
f 779//2 770//2 774//2
f 783//3 792//3 785//3
f 773//4 791//4 780//4
f 778//5 787//5 775//5
f 769//62 770//62 771//62
f 772//56 773//56 774//56
f 775//80 776//80 777//80
f 778//74 779//74 780//74
f 781//65 782//65 783//65
f 784//59 785//59 786//59
f 787//81 788//81 789//81
f 790//77 791//77 792//77
f 772//14 770//14 769//14
f 779//15 775//15 777//15
f 777//16 771//16 770//16
f 774//17 780//17 779//17
f 785//18 781//18 783//18
f 790//19 788//19 787//19
f 789//20 783//20 782//20
f 786//21 792//21 791//21
f 782//22 769//22 771//22
f 773//23 784//23 786//23
f 791//78 778//78 780//78
f 776//82 787//82 789//82
f 769//26 784//26 772//26
f 800//1 806//1 795//1
f 803//2 794//2 798//2
f 807//3 816//3 809//3
f 797//4 815//4 804//4
f 802//5 811//5 799//5
f 793//27 794//27 795//27
f 796//56 797//56 798//56
f 799//80 800//80 801//80
f 802//74 803//74 804//74
f 805//31 806//31 807//31
f 808//59 809//59 810//59
f 811//81 812//81 813//81
f 814//77 815//77 816//77
f 796//14 794//14 793//14
f 803//15 799//15 801//15
f 801//41 795//41 794//41
f 798//17 804//17 803//17
f 809//18 805//18 807//18
f 814//19 812//19 811//19
f 813//20 807//20 806//20
f 810//21 816//21 815//21
f 806//35 793//35 795//35
f 797//23 808//23 810//23
f 815//78 802//78 804//78
f 800//25 811//25 813//25
f 793//26 808//26 796//26
f 824//1 830//1 819//1
f 827//2 818//2 822//2
f 831//3 840//3 833//3
f 821//4 839//4 828//4
f 826//5 835//5 823//5
f 817//42 818//42 819//42
f 820//43 821//43 822//43
f 823//96 824//96 825//96
f 826//97 827//97 828//97
f 829//46 830//46 831//46
f 832//47 833//47 834//47
f 835//98 836//98 837//98
f 838//99 839//99 840//99
f 820//14 818//14 817//14
f 827//15 823//15 825//15
f 825//50 819//50 818//50
f 822//17 828//17 827//17
f 833//18 829//18 831//18
f 838//19 836//19 835//19
f 837//51 831//51 830//51
f 834//21 840//21 839//21
f 830//52 817//52 819//52
f 821//53 832//53 834//53
f 839//85 826//85 828//85
f 824//86 835//86 837//86
f 817//26 832//26 820//26
f 848//1 854//1 843//1
f 851//2 842//2 846//2
f 855//3 864//3 857//3
f 845//4 863//4 852//4
f 850//5 859//5 847//5
f 841//62 842//62 843//62
f 844//7 845//7 846//7
f 847//57 848//57 849//57
f 850//74 851//74 852//74
f 853//65 854//65 855//65
f 856//11 857//11 858//11
f 859//60 860//60 861//60
f 862//77 863//77 864//77
f 844//14 842//14 841//14
f 851//15 847//15 849//15
f 849//50 843//50 842//50
f 846//17 852//17 851//17
f 857//18 853//18 855//18
f 862//19 860//19 859//19
f 861//51 855//51 854//51
f 858//54 864//54 863//54
f 854//35 841//35 843//35
f 845//36 856//36 858//36
f 863//24 850//24 852//24
f 848//25 859//25 861//25
f 841//26 856//26 844//26
f 8//1 21//1 14//1
f 11//2 9//2 2//2
f 15//3 20//3 24//3
f 5//4 18//4 23//4
f 10//5 22//5 19//5
f 4//14 6//14 2//14
f 11//15 10//15 7//15
f 9//16 8//16 3//16
f 6//17 5//17 12//17
f 17//18 16//18 13//18
f 22//19 24//19 20//19
f 21//20 20//20 15//20
f 18//21 17//21 24//21
f 14//100 13//100 1//100
f 5//101 4//101 16//101
f 23//24 22//24 10//24
f 8//25 7//25 19//25
f 1//26 13//26 16//26
f 32//1 45//1 38//1
f 35//2 33//2 26//2
f 39//3 44//3 48//3
f 29//4 42//4 47//4
f 34//5 46//5 43//5
f 28//14 30//14 26//14
f 35//15 34//15 31//15
f 33//16 32//16 27//16
f 30//17 29//17 36//17
f 41//18 40//18 37//18
f 46//19 48//19 44//19
f 45//20 44//20 39//20
f 42//21 41//21 48//21
f 38//102 37//102 25//102
f 29//103 28//103 40//103
f 47//24 46//24 34//24
f 32//25 31//25 43//25
f 25//26 37//26 40//26
f 56//1 69//1 62//1
f 59//2 57//2 50//2
f 63//3 68//3 72//3
f 53//4 66//4 71//4
f 58//5 70//5 67//5
f 52//14 54//14 50//14
f 59//15 58//15 55//15
f 57//16 56//16 51//16
f 54//17 53//17 60//17
f 65//18 64//18 61//18
f 70//19 72//19 68//19
f 69//20 68//20 63//20
f 66//21 65//21 72//21
f 62//100 61//100 49//100
f 53//101 52//101 64//101
f 71//24 70//24 58//24
f 56//25 55//25 67//25
f 49//26 61//26 64//26
f 80//1 93//1 86//1
f 83//2 81//2 74//2
f 87//3 92//3 96//3
f 77//4 90//4 95//4
f 82//5 94//5 91//5
f 76//14 78//14 74//14
f 83//15 82//15 79//15
f 81//16 80//16 75//16
f 78//17 77//17 84//17
f 89//18 88//18 85//18
f 94//19 96//19 92//19
f 93//51 92//51 87//51
f 90//21 89//21 96//21
f 86//102 85//102 73//102
f 77//101 76//101 88//101
f 95//24 94//24 82//24
f 80//25 79//25 91//25
f 73//26 85//26 88//26
f 104//1 117//1 110//1
f 107//2 105//2 98//2
f 111//3 116//3 120//3
f 101//4 114//4 119//4
f 106//5 118//5 115//5
f 100//14 102//14 98//14
f 107//15 106//15 103//15
f 105//41 104//41 99//41
f 102//17 101//17 108//17
f 113//18 112//18 109//18
f 118//19 120//19 116//19
f 117//95 116//95 111//95
f 114//21 113//21 120//21
f 110//35 109//35 97//35
f 101//36 100//36 112//36
f 119//24 118//24 106//24
f 104//25 103//25 115//25
f 97//26 109//26 112//26
f 128//1 141//1 134//1
f 131//2 129//2 122//2
f 135//3 140//3 144//3
f 125//4 138//4 143//4
f 130//5 142//5 139//5
f 124//14 126//14 122//14
f 131//15 130//15 127//15
f 129//41 128//41 123//41
f 126//61 125//61 132//61
f 137//18 136//18 133//18
f 142//19 144//19 140//19
f 141//95 140//95 135//95
f 138//21 137//21 144//21
f 134//102 133//102 121//102
f 125//103 124//103 136//103
f 143//24 142//24 130//24
f 128//25 127//25 139//25
f 121//26 133//26 136//26
f 152//1 165//1 158//1
f 155//2 153//2 146//2
f 159//3 164//3 168//3
f 149//4 162//4 167//4
f 154//5 166//5 163//5
f 148//14 150//14 146//14
f 155//15 154//15 151//15
f 153//16 152//16 147//16
f 150//17 149//17 156//17
f 161//18 160//18 157//18
f 166//19 168//19 164//19
f 165//20 164//20 159//20
f 162//54 161//54 168//54
f 158//35 157//35 145//35
f 149//36 148//36 160//36
f 167//24 166//24 154//24
f 152//25 151//25 163//25
f 145//26 157//26 160//26
f 176//1 189//1 182//1
f 179//2 177//2 170//2
f 183//3 188//3 192//3
f 173//4 186//4 191//4
f 178//5 190//5 187//5
f 172//14 174//14 170//14
f 179//15 178//15 175//15
f 177//16 176//16 171//16
f 174//17 173//17 180//17
f 185//18 184//18 181//18
f 190//19 192//19 188//19
f 189//20 188//20 183//20
f 186//21 185//21 192//21
f 182//35 181//35 169//35
f 173//36 172//36 184//36
f 191//24 190//24 178//24
f 176//25 175//25 187//25
f 169//26 181//26 184//26
f 200//1 213//1 206//1
f 203//2 201//2 194//2
f 207//3 212//3 216//3
f 197//4 210//4 215//4
f 202//5 214//5 211//5
f 196//14 198//14 194//14
f 203//15 202//15 199//15
f 201//16 200//16 195//16
f 198//17 197//17 204//17
f 209//18 208//18 205//18
f 214//19 216//19 212//19
f 213//20 212//20 207//20
f 210//21 209//21 216//21
f 206//35 205//35 193//35
f 197//36 196//36 208//36
f 215//24 214//24 202//24
f 200//25 199//25 211//25
f 193//26 205//26 208//26
f 224//1 237//1 230//1
f 227//2 225//2 218//2
f 231//3 236//3 240//3
f 221//4 234//4 239//4
f 226//5 238//5 235//5
f 220//14 222//14 218//14
f 227//15 226//15 223//15
f 225//41 224//41 219//41
f 222//17 221//17 228//17
f 233//18 232//18 229//18
f 238//19 240//19 236//19
f 237//20 236//20 231//20
f 234//21 233//21 240//21
f 230//35 229//35 217//35
f 221//36 220//36 232//36
f 239//24 238//24 226//24
f 224//25 223//25 235//25
f 217//26 229//26 232//26
f 248//1 261//1 254//1
f 251//2 249//2 242//2
f 255//3 260//3 264//3
f 245//4 258//4 263//4
f 250//5 262//5 259//5
f 244//14 246//14 242//14
f 251//15 250//15 247//15
f 249//16 248//16 243//16
f 246//17 245//17 252//17
f 257//18 256//18 253//18
f 262//19 264//19 260//19
f 261//95 260//95 255//95
f 258//21 257//21 264//21
f 254//35 253//35 241//35
f 245//36 244//36 256//36
f 263//78 262//78 250//78
f 248//82 247//82 259//82
f 241//26 253//26 256//26
f 272//1 285//1 278//1
f 275//2 273//2 266//2
f 279//3 284//3 288//3
f 269//4 282//4 287//4
f 274//5 286//5 283//5
f 268//14 270//14 266//14
f 275//15 274//15 271//15
f 273//41 272//41 267//41
f 270//17 269//17 276//17
f 281//18 280//18 277//18
f 286//19 288//19 284//19
f 285//51 284//51 279//51
f 282//54 281//54 288//54
f 278//35 277//35 265//35
f 269//36 268//36 280//36
f 287//24 286//24 274//24
f 272//25 271//25 283//25
f 265//26 277//26 280//26
f 296//1 309//1 302//1
f 299//2 297//2 290//2
f 303//3 308//3 312//3
f 293//4 306//4 311//4
f 298//5 310//5 307//5
f 292//14 294//14 290//14
f 299//15 298//15 295//15
f 297//16 296//16 291//16
f 294//104 293//104 300//104
f 305//18 304//18 301//18
f 310//19 312//19 308//19
f 309//20 308//20 303//20
f 306//54 305//54 312//54
f 302//35 301//35 289//35
f 293//36 292//36 304//36
f 311//24 310//24 298//24
f 296//25 295//25 307//25
f 289//26 301//26 304//26
f 320//1 333//1 326//1
f 323//2 321//2 314//2
f 327//3 332//3 336//3
f 317//4 330//4 335//4
f 322//5 334//5 331//5
f 316//14 318//14 314//14
f 323//15 322//15 319//15
f 321//16 320//16 315//16
f 318//17 317//17 324//17
f 329//18 328//18 325//18
f 334//19 336//19 332//19
f 333//20 332//20 327//20
f 330//21 329//21 336//21
f 326//35 325//35 313//35
f 317//36 316//36 328//36
f 335//24 334//24 322//24
f 320//25 319//25 331//25
f 313//26 325//26 328//26
f 344//1 357//1 350//1
f 347//2 345//2 338//2
f 351//3 356//3 360//3
f 341//4 354//4 359//4
f 346//5 358//5 355//5
f 340//14 342//14 338//14
f 347//15 346//15 343//15
f 345//16 344//16 339//16
f 342//17 341//17 348//17
f 353//18 352//18 349//18
f 358//19 360//19 356//19
f 357//20 356//20 351//20
f 354//21 353//21 360//21
f 350//35 349//35 337//35
f 341//36 340//36 352//36
f 359//24 358//24 346//24
f 344//25 343//25 355//25
f 337//26 349//26 352//26
f 368//1 381//1 374//1
f 371//2 369//2 362//2
f 375//3 380//3 384//3
f 365//4 378//4 383//4
f 370//5 382//5 379//5
f 364//14 366//14 362//14
f 371//15 370//15 367//15
f 369//16 368//16 363//16
f 366//17 365//17 372//17
f 377//18 376//18 373//18
f 382//19 384//19 380//19
f 381//51 380//51 375//51
f 378//21 377//21 384//21
f 374//35 373//35 361//35
f 365//36 364//36 376//36
f 383//24 382//24 370//24
f 368//25 367//25 379//25
f 361//26 373//26 376//26
f 392//1 405//1 398//1
f 395//2 393//2 386//2
f 399//3 404//3 408//3
f 389//4 402//4 407//4
f 394//5 406//5 403//5
f 388//14 390//14 386//14
f 395//15 394//15 391//15
f 393//41 392//41 387//41
f 390//104 389//104 396//104
f 401//18 400//18 397//18
f 406//19 408//19 404//19
f 405//95 404//95 399//95
f 402//21 401//21 408//21
f 398//35 397//35 385//35
f 389//36 388//36 400//36
f 407//24 406//24 394//24
f 392//25 391//25 403//25
f 385//26 397//26 400//26
f 416//1 429//1 422//1
f 419//2 417//2 410//2
f 423//3 428//3 432//3
f 413//4 426//4 431//4
f 418//5 430//5 427//5
f 412//14 414//14 410//14
f 419//15 418//15 415//15
f 417//41 416//41 411//41
f 414//17 413//17 420//17
f 425//18 424//18 421//18
f 430//19 432//19 428//19
f 429//51 428//51 423//51
f 426//54 425//54 432//54
f 422//35 421//35 409//35
f 413//36 412//36 424//36
f 431//24 430//24 418//24
f 416//25 415//25 427//25
f 409//26 421//26 424//26
f 440//1 453//1 446//1
f 443//2 441//2 434//2
f 447//3 452//3 456//3
f 437//4 450//4 455//4
f 442//5 454//5 451//5
f 436//14 438//14 434//14
f 443//15 442//15 439//15
f 441//16 440//16 435//16
f 438//17 437//17 444//17
f 449//18 448//18 445//18
f 454//19 456//19 452//19
f 453//20 452//20 447//20
f 450//21 449//21 456//21
f 446//35 445//35 433//35
f 437//36 436//36 448//36
f 455//24 454//24 442//24
f 440//25 439//25 451//25
f 433//26 445//26 448//26
f 464//1 477//1 470//1
f 467//2 465//2 458//2
f 471//3 476//3 480//3
f 461//4 474//4 479//4
f 466//5 478//5 475//5
f 460//14 462//14 458//14
f 467//15 466//15 463//15
f 465//16 464//16 459//16
f 462//17 461//17 468//17
f 473//18 472//18 469//18
f 478//19 480//19 476//19
f 477//20 476//20 471//20
f 474//21 473//21 480//21
f 470//35 469//35 457//35
f 461//36 460//36 472//36
f 479//24 478//24 466//24
f 464//25 463//25 475//25
f 457//26 469//26 472//26
f 488//1 501//1 494//1
f 491//2 489//2 482//2
f 495//3 500//3 504//3
f 485//4 498//4 503//4
f 490//5 502//5 499//5
f 484//14 486//14 482//14
f 491//15 490//15 487//15
f 489//16 488//16 483//16
f 486//17 485//17 492//17
f 497//18 496//18 493//18
f 502//19 504//19 500//19
f 501//20 500//20 495//20
f 498//21 497//21 504//21
f 494//35 493//35 481//35
f 485//36 484//36 496//36
f 503//24 502//24 490//24
f 488//25 487//25 499//25
f 481//26 493//26 496//26
f 512//1 525//1 518//1
f 515//2 513//2 506//2
f 519//3 524//3 528//3
f 509//4 522//4 527//4
f 514//5 526//5 523//5
f 508//14 510//14 506//14
f 515//15 514//15 511//15
f 513//16 512//16 507//16
f 510//17 509//17 516//17
f 521//18 520//18 517//18
f 526//19 528//19 524//19
f 525//51 524//51 519//51
f 522//21 521//21 528//21
f 518//35 517//35 505//35
f 509//36 508//36 520//36
f 527//24 526//24 514//24
f 512//25 511//25 523//25
f 505//26 517//26 520//26
f 536//1 549//1 542//1
f 539//2 537//2 530//2
f 543//3 548//3 552//3
f 533//4 546//4 551//4
f 538//5 550//5 547//5
f 532//14 534//14 530//14
f 539//15 538//15 535//15
f 537//41 536//41 531//41
f 534//17 533//17 540//17
f 545//18 544//18 541//18
f 550//19 552//19 548//19
f 549//95 548//95 543//95
f 546//21 545//21 552//21
f 542//35 541//35 529//35
f 533//36 532//36 544//36
f 551//24 550//24 538//24
f 536//25 535//25 547//25
f 529//26 541//26 544//26
f 560//1 573//1 566//1
f 563//2 561//2 554//2
f 567//3 572//3 576//3
f 557//4 570//4 575//4
f 562//5 574//5 571//5
f 556//14 558//14 554//14
f 563//15 562//15 559//15
f 561//41 560//41 555//41
f 558//61 557//61 564//61
f 569//18 568//18 565//18
f 574//19 576//19 572//19
f 573//95 572//95 567//95
f 570//21 569//21 576//21
f 566//35 565//35 553//35
f 557//36 556//36 568//36
f 575//24 574//24 562//24
f 560//25 559//25 571//25
f 553//26 565//26 568//26
f 584//1 597//1 590//1
f 587//2 585//2 578//2
f 591//3 596//3 600//3
f 581//4 594//4 599//4
f 586//5 598//5 595//5
f 580//14 582//14 578//14
f 587//15 586//15 583//15
f 585//16 584//16 579//16
f 582//17 581//17 588//17
f 593//18 592//18 589//18
f 598//19 600//19 596//19
f 597//20 596//20 591//20
f 594//54 593//54 600//54
f 590//100 589//100 577//100
f 581//101 580//101 592//101
f 599//78 598//78 586//78
f 584//82 583//82 595//82
f 577//26 589//26 592//26
f 608//1 621//1 614//1
f 611//2 609//2 602//2
f 615//3 620//3 624//3
f 605//4 618//4 623//4
f 610//5 622//5 619//5
f 604//14 606//14 602//14
f 611//15 610//15 607//15
f 609//16 608//16 603//16
f 606//17 605//17 612//17
f 617//18 616//18 613//18
f 622//19 624//19 620//19
f 621//20 620//20 615//20
f 618//21 617//21 624//21
f 614//102 613//102 601//102
f 605//103 604//103 616//103
f 623//24 622//24 610//24
f 608//25 607//25 619//25
f 601//26 613//26 616//26
f 632//1 645//1 638//1
f 635//2 633//2 626//2
f 639//3 644//3 648//3
f 629//4 642//4 647//4
f 634//5 646//5 643//5
f 628//14 630//14 626//14
f 635//15 634//15 631//15
f 633//16 632//16 627//16
f 630//17 629//17 636//17
f 641//18 640//18 637//18
f 646//19 648//19 644//19
f 645//20 644//20 639//20
f 642//21 641//21 648//21
f 638//100 637//100 625//100
f 629//101 628//101 640//101
f 647//78 646//78 634//78
f 632//82 631//82 643//82
f 625//26 637//26 640//26
f 656//1 669//1 662//1
f 659//2 657//2 650//2
f 663//3 668//3 672//3
f 653//4 666//4 671//4
f 658//5 670//5 667//5
f 652//14 654//14 650//14
f 659//15 658//15 655//15
f 657//41 656//41 651//41
f 654//17 653//17 660//17
f 665//18 664//18 661//18
f 670//19 672//19 668//19
f 669//20 668//20 663//20
f 666//21 665//21 672//21
f 662//102 661//102 649//102
f 653//101 652//101 664//101
f 671//78 670//78 658//78
f 656//25 655//25 667//25
f 649//26 661//26 664//26
f 680//1 693//1 686//1
f 683//2 681//2 674//2
f 687//3 692//3 696//3
f 677//4 690//4 695//4
f 682//5 694//5 691//5
f 676//14 678//14 674//14
f 683//15 682//15 679//15
f 681//16 680//16 675//16
f 678//17 677//17 684//17
f 689//18 688//18 685//18
f 694//19 696//19 692//19
f 693//95 692//95 687//95
f 690//21 689//21 696//21
f 686//35 685//35 673//35
f 677//36 676//36 688//36
f 695//85 694//85 682//85
f 680//86 679//86 691//86
f 673//26 685//26 688//26
f 704//1 717//1 710//1
f 707//2 705//2 698//2
f 711//3 716//3 720//3
f 701//4 714//4 719//4
f 706//5 718//5 715//5
f 700//14 702//14 698//14
f 707//15 706//15 703//15
f 705//50 704//50 699//50
f 702//61 701//61 708//61
f 713//18 712//18 709//18
f 718//19 720//19 716//19
f 717//51 716//51 711//51
f 714//21 713//21 720//21
f 710//102 709//102 697//102
f 701//103 700//103 712//103
f 719//24 718//24 706//24
f 704//25 703//25 715//25
f 697//26 709//26 712//26
f 728//1 741//1 734//1
f 731//2 729//2 722//2
f 735//3 740//3 744//3
f 725//4 738//4 743//4
f 730//5 742//5 739//5
f 724//14 726//14 722//14
f 731//15 730//15 727//15
f 729//16 728//16 723//16
f 726//17 725//17 732//17
f 737//18 736//18 733//18
f 742//19 744//19 740//19
f 741//20 740//20 735//20
f 738//21 737//21 744//21
f 734//22 733//22 721//22
f 725//23 724//23 736//23
f 743//78 742//78 730//78
f 728//82 727//82 739//82
f 721//26 733//26 736//26
f 752//1 765//1 758//1
f 755//2 753//2 746//2
f 759//3 764//3 768//3
f 749//4 762//4 767//4
f 754//5 766//5 763//5
f 748//14 750//14 746//14
f 755//15 754//15 751//15
f 753//16 752//16 747//16
f 750//17 749//17 756//17
f 761//18 760//18 757//18
f 766//19 768//19 764//19
f 765//20 764//20 759//20
f 762//21 761//21 768//21
f 758//35 757//35 745//35
f 749//36 748//36 760//36
f 767//24 766//24 754//24
f 752//25 751//25 763//25
f 745//26 757//26 760//26
f 776//1 789//1 782//1
f 779//2 777//2 770//2
f 783//3 788//3 792//3
f 773//4 786//4 791//4
f 778//5 790//5 787//5
f 772//14 774//14 770//14
f 779//15 778//15 775//15
f 777//16 776//16 771//16
f 774//17 773//17 780//17
f 785//18 784//18 781//18
f 790//19 792//19 788//19
f 789//20 788//20 783//20
f 786//21 785//21 792//21
f 782//22 781//22 769//22
f 773//23 772//23 784//23
f 791//78 790//78 778//78
f 776//82 775//82 787//82
f 769//26 781//26 784//26
f 800//1 813//1 806//1
f 803//2 801//2 794//2
f 807//3 812//3 816//3
f 797//4 810//4 815//4
f 802//5 814//5 811//5
f 796//14 798//14 794//14
f 803//15 802//15 799//15
f 801//16 800//16 795//16
f 798//17 797//17 804//17
f 809//18 808//18 805//18
f 814//19 816//19 812//19
f 813//51 812//51 807//51
f 810//21 809//21 816//21
f 806//35 805//35 793//35
f 797//23 796//23 808//23
f 815//78 814//78 802//78
f 800//25 799//25 811//25
f 793//26 805//26 808//26
f 824//1 837//1 830//1
f 827//2 825//2 818//2
f 831//3 836//3 840//3
f 821//4 834//4 839//4
f 826//5 838//5 835//5
f 820//14 822//14 818//14
f 827//15 826//15 823//15
f 825//41 824//41 819//41
f 822//17 821//17 828//17
f 833//18 832//18 829//18
f 838//19 840//19 836//19
f 837//95 836//95 831//95
f 834//21 833//21 840//21
f 830//52 829//52 817//52
f 821//53 820//53 832//53
f 839//85 838//85 826//85
f 824//86 823//86 835//86
f 817//26 829//26 832//26
f 848//1 861//1 854//1
f 851//2 849//2 842//2
f 855//3 860//3 864//3
f 845//4 858//4 863//4
f 850//5 862//5 859//5
f 844//14 846//14 842//14
f 851//15 850//15 847//15
f 849//41 848//41 843//41
f 846//61 845//61 852//61
f 857//18 856//18 853//18
f 862//19 864//19 860//19
f 861//95 860//95 855//95
f 858//21 857//21 864//21
f 854//35 853//35 841//35
f 845//36 844//36 856//36
f 863//24 862//24 850//24
f 848//25 847//25 859//25
f 841//26 853//26 856//26
