# Blender v2.78 (sub 0) OBJ File: 'material setup.blend'
# www.blender.org
o fill_light_Plane.003
v -0.588122 0.212061 0.620574
v -0.716679 0.212061 0.467365
v -0.483321 0.587939 0.532635
v -0.611878 0.587939 0.379426
vn 0.7198 -0.3420 -0.6040
s off
f 3//1 2//1 4//1
f 3//1 1//1 2//1
