# Blender v2.78 (sub 0) OBJ File: 'material setup.blend'
# www.blender.org
o key_light_diffuse_Plane.009
v 0.782843 0.205950 0.500000
v 0.500000 0.205950 0.782843
v 0.500000 0.898771 0.217157
v 0.217157 0.898771 0.500000
vn -0.6124 -0.5000 -0.6124
s off
f 3//1 2//1 4//1
f 3//1 1//1 2//1
