# Blender v2.78 (sub 0) OBJ File: 'material setup.blend'
# www.blender.org
o Sphere
v 0.024938 0.407043 0.093812
v 0.017877 0.401629 0.077420
v 0.011370 0.392836 0.062312
v 0.005666 0.381004 0.049071
v 0.000986 0.366586 0.038203
v -0.002493 0.350137 0.030128
v -0.004635 0.332289 0.025156
v -0.005358 0.313727 0.023477
v -0.004635 0.295165 0.025156
v -0.002493 0.277317 0.030128
v 0.000986 0.260868 0.038203
v 0.005666 0.246450 0.049071
v 0.011370 0.234617 0.062312
v 0.017877 0.225825 0.077420
v 0.024938 0.220411 0.093812
v 0.028405 0.407043 0.092707
v 0.024678 0.401629 0.075252
v 0.021243 0.392836 0.059165
v 0.018232 0.381004 0.045066
v 0.015761 0.366586 0.033494
v 0.013925 0.350137 0.024896
v 0.012795 0.332289 0.019601
v 0.012413 0.313727 0.017813
v 0.012795 0.295165 0.019601
v 0.013925 0.277317 0.024896
v 0.015761 0.260868 0.033494
v 0.018232 0.246450 0.045066
v 0.021243 0.234617 0.059165
v 0.024678 0.225825 0.075252
v 0.028405 0.220411 0.092707
v 0.032021 0.407043 0.092300
v 0.031771 0.401629 0.074453
v 0.031540 0.392836 0.058005
v 0.031338 0.381004 0.043589
v 0.031172 0.366586 0.031758
v 0.031049 0.350137 0.022966
v 0.030973 0.332289 0.017553
v 0.030947 0.313727 0.015725
v 0.030973 0.295165 0.017553
v 0.031049 0.277317 0.022966
v 0.031172 0.260868 0.031758
v 0.031338 0.246450 0.043589
v 0.031540 0.234617 0.058005
v 0.031771 0.225825 0.074453
v 0.032021 0.220411 0.092300
v 0.035647 0.407043 0.092605
v 0.038883 0.401629 0.075053
v 0.041866 0.392836 0.058876
v 0.044480 0.381004 0.044698
v 0.046625 0.366586 0.033061
v 0.048220 0.350137 0.024415
v 0.049201 0.332289 0.019090
v 0.049533 0.313727 0.017292
v 0.049201 0.295165 0.019090
v 0.048220 0.277317 0.024415
v 0.046625 0.260868 0.033061
v 0.044480 0.246450 0.044698
v 0.041866 0.234617 0.058876
v 0.038883 0.225825 0.075053
v 0.035647 0.220411 0.092605
v 0.039143 0.407043 0.093613
v 0.045742 0.401629 0.077029
v 0.051823 0.392836 0.061745
v 0.057153 0.381004 0.048349
v 0.061527 0.366586 0.037355
v 0.064778 0.350137 0.029185
v 0.066779 0.332289 0.024154
v 0.067455 0.313727 0.022456
v 0.066779 0.295165 0.024154
v 0.064778 0.277317 0.029185
v 0.061527 0.260868 0.037355
v 0.057153 0.246450 0.048349
v 0.051823 0.234617 0.061745
v 0.045742 0.225825 0.077029
v 0.039143 0.220411 0.093613
v 0.042376 0.407043 0.095283
v 0.052083 0.401629 0.080305
v 0.061029 0.392836 0.066501
v 0.068870 0.381004 0.054402
v 0.075306 0.366586 0.044473
v 0.080087 0.350137 0.037094
v 0.083032 0.332289 0.032551
v 0.084026 0.313727 0.031017
v 0.083032 0.295165 0.032551
v 0.080087 0.277317 0.037094
v 0.075306 0.260868 0.044473
v 0.068870 0.246450 0.054402
v 0.061029 0.234617 0.066501
v 0.052083 0.225825 0.080305
v 0.042376 0.220411 0.095283
v 0.045221 0.407043 0.097552
v 0.057664 0.401629 0.084755
v 0.069131 0.392836 0.072962
v 0.079182 0.381004 0.062625
v 0.087430 0.366586 0.054142
v 0.093560 0.350137 0.047838
v 0.097334 0.332289 0.043956
v 0.098608 0.313727 0.042646
v 0.097334 0.295165 0.043956
v 0.093560 0.277317 0.047838
v 0.087430 0.260868 0.054142
v 0.079182 0.246450 0.062625
v 0.069131 0.234617 0.072962
v 0.057664 0.225825 0.084755
v 0.045221 0.220411 0.097552
v 0.047569 0.407043 0.100332
v 0.062269 0.401629 0.090209
v 0.075816 0.392836 0.080879
v 0.087691 0.381004 0.072702
v 0.097436 0.366586 0.065991
v 0.104677 0.350137 0.061004
v 0.109136 0.332289 0.057933
v 0.110642 0.313727 0.056896
v 0.109136 0.295165 0.057933
v 0.104677 0.277317 0.061004
v 0.097436 0.260868 0.065991
v 0.087691 0.246450 0.072702
v 0.075816 0.234617 0.080879
v 0.062269 0.225825 0.090209
v 0.047569 0.220411 0.100332
v 0.049329 0.407043 0.103516
v 0.065721 0.401629 0.096456
v 0.080828 0.392836 0.089948
v 0.094070 0.381004 0.084245
v 0.104937 0.366586 0.079564
v 0.113012 0.350137 0.076086
v 0.117985 0.332289 0.073944
v 0.119664 0.313727 0.073221
v 0.117985 0.295165 0.073944
v 0.113012 0.277317 0.076086
v 0.104937 0.260868 0.079564
v 0.094070 0.246450 0.084245
v 0.080828 0.234617 0.089948
v 0.065721 0.225825 0.096456
v 0.049329 0.220411 0.103516
v 0.050434 0.407043 0.106983
v 0.067889 0.401629 0.103256
v 0.083975 0.392836 0.099821
v 0.098075 0.381004 0.096811
v 0.109647 0.366586 0.094340
v 0.118245 0.350137 0.092504
v 0.123540 0.332289 0.091373
v 0.125328 0.313727 0.090991
v 0.123540 0.295165 0.091373
v 0.118245 0.277317 0.092504
v 0.109647 0.260868 0.094340
v 0.098075 0.246450 0.096811
v 0.083975 0.234617 0.099821
v 0.067889 0.225825 0.103256
v 0.050434 0.220411 0.106983
v 0.050841 0.407043 0.110599
v 0.068688 0.401629 0.110349
v 0.085135 0.392836 0.110118
v 0.099552 0.381004 0.109916
v 0.111383 0.366586 0.109750
v 0.120174 0.350137 0.109627
v 0.125588 0.332289 0.109551
v 0.127416 0.313727 0.109526
v 0.125588 0.295165 0.109551
v 0.120174 0.277317 0.109627
v 0.111383 0.260868 0.109750
v 0.099552 0.246450 0.109916
v 0.085135 0.234617 0.110118
v 0.068688 0.225825 0.110349
v 0.050841 0.220411 0.110599
v 0.050535 0.407043 0.114225
v 0.068088 0.401629 0.117461
v 0.084264 0.392836 0.120444
v 0.098443 0.381004 0.123058
v 0.110079 0.366586 0.125204
v 0.118726 0.350137 0.126798
v 0.124050 0.332289 0.127780
v 0.125848 0.313727 0.128111
v 0.124050 0.295165 0.127780
v 0.118726 0.277317 0.126798
v 0.110079 0.260868 0.125204
v 0.098443 0.246450 0.123058
v 0.084264 0.234617 0.120444
v 0.068088 0.225825 0.117461
v 0.050535 0.220411 0.114225
v 0.049528 0.407043 0.117722
v 0.066112 0.401629 0.124320
v 0.081396 0.392836 0.130401
v 0.094792 0.381004 0.135731
v 0.105786 0.366586 0.140106
v 0.113955 0.350137 0.143356
v 0.118986 0.332289 0.145358
v 0.120685 0.313727 0.146034
v 0.118986 0.295165 0.145358
v 0.113955 0.277317 0.143356
v 0.105786 0.260868 0.140106
v 0.094792 0.246450 0.135731
v 0.081396 0.234617 0.130401
v 0.066112 0.225825 0.124320
v 0.049528 0.220411 0.117722
v 0.047858 0.407043 0.120954
v 0.062836 0.401629 0.130661
v 0.076639 0.392836 0.139607
v 0.088739 0.381004 0.147449
v 0.098668 0.366586 0.153884
v 0.106046 0.350137 0.158666
v 0.110590 0.332289 0.161610
v 0.112124 0.313727 0.162604
v 0.110590 0.295165 0.161610
v 0.106046 0.277317 0.158666
v 0.098668 0.260868 0.153884
v 0.088739 0.246450 0.147449
v 0.076639 0.234617 0.139607
v 0.062836 0.225825 0.130661
v 0.047858 0.220411 0.120954
v 0.045589 0.407043 0.123799
v 0.058385 0.401629 0.136242
v 0.070179 0.392836 0.147709
v 0.080516 0.381004 0.157760
v 0.088999 0.366586 0.166009
v 0.095302 0.350137 0.172138
v 0.099184 0.332289 0.175912
v 0.100495 0.313727 0.177187
v 0.099184 0.295165 0.175912
v 0.095302 0.277317 0.172138
v 0.088999 0.260868 0.166009
v 0.080516 0.246450 0.157760
v 0.070179 0.234617 0.147709
v 0.058385 0.225825 0.136242
v 0.045589 0.220411 0.123799
v 0.042809 0.407043 0.126147
v 0.052932 0.401629 0.140847
v 0.062262 0.392836 0.154394
v 0.070439 0.381004 0.166269
v 0.077150 0.366586 0.176014
v 0.082137 0.350137 0.183255
v 0.085207 0.332289 0.187714
v 0.086244 0.313727 0.189220
v 0.085207 0.295165 0.187714
v 0.082137 0.277317 0.183255
v 0.077150 0.260868 0.176014
v 0.070439 0.246450 0.166269
v 0.062262 0.234617 0.154394
v 0.052932 0.225825 0.140847
v 0.042809 0.220411 0.126147
v 0.039624 0.407043 0.127907
v 0.046685 0.401629 0.144299
v 0.053192 0.392836 0.159407
v 0.058896 0.381004 0.172648
v 0.063577 0.366586 0.183515
v 0.067055 0.350137 0.191591
v 0.069197 0.332289 0.196563
v 0.069920 0.313727 0.198242
v 0.069197 0.295165 0.196563
v 0.067055 0.277317 0.191591
v 0.063577 0.260868 0.183515
v 0.058896 0.246450 0.172648
v 0.053192 0.234617 0.159407
v 0.046685 0.225825 0.144299
v 0.039624 0.220411 0.127907
v 0.036157 0.407043 0.129012
v 0.039884 0.401629 0.146467
v 0.043319 0.392836 0.162553
v 0.046330 0.381004 0.176653
v 0.048801 0.366586 0.188225
v 0.050637 0.350137 0.196823
v 0.051768 0.332289 0.202118
v 0.052149 0.313727 0.203906
v 0.051768 0.295165 0.202118
v 0.050637 0.277317 0.196823
v 0.048801 0.260868 0.188225
v 0.046330 0.246450 0.176653
v 0.043319 0.234617 0.162553
v 0.039884 0.225825 0.146467
v 0.036157 0.220411 0.129012
v 0.032541 0.407043 0.129419
v 0.032792 0.401629 0.147266
v 0.033022 0.392836 0.163714
v 0.033224 0.381004 0.178130
v 0.033390 0.366586 0.189961
v 0.033514 0.350137 0.198753
v 0.033589 0.332289 0.204166
v 0.033615 0.313727 0.205994
v 0.033589 0.295165 0.204166
v 0.033514 0.277317 0.198753
v 0.033390 0.260868 0.189961
v 0.033224 0.246450 0.178130
v 0.033022 0.234617 0.163714
v 0.032792 0.225825 0.147266
v 0.032541 0.220411 0.129419
v 0.028916 0.407043 0.129114
v 0.025679 0.401629 0.146666
v 0.022697 0.392836 0.162843
v 0.020082 0.381004 0.177021
v 0.017937 0.366586 0.188658
v 0.016343 0.350137 0.197304
v 0.015361 0.332289 0.202629
v 0.015030 0.313727 0.204427
v 0.015361 0.295165 0.202629
v 0.016343 0.277317 0.197304
v 0.017937 0.260868 0.188658
v 0.020082 0.246450 0.177021
v 0.022697 0.234617 0.162843
v 0.025679 0.225825 0.146666
v 0.028916 0.220411 0.129113
v 0.025419 0.407043 0.128106
v 0.018821 0.401629 0.144690
v 0.012739 0.392836 0.159974
v 0.007409 0.381004 0.173370
v 0.003035 0.366586 0.184364
v -0.000216 0.350137 0.192534
v -0.002217 0.332289 0.197564
v -0.002893 0.313727 0.199263
v -0.002217 0.295165 0.197564
v -0.000215 0.277317 0.192534
v 0.003035 0.260868 0.184364
v 0.007409 0.246450 0.173370
v 0.012739 0.234617 0.159974
v 0.018821 0.225825 0.144690
v 0.025419 0.220411 0.128106
v 0.022186 0.407043 0.126436
v 0.012479 0.401629 0.141414
v 0.003533 0.392836 0.155218
v -0.004308 0.381004 0.167317
v -0.010743 0.366586 0.177246
v -0.015525 0.350137 0.184625
v -0.018470 0.332289 0.189168
v -0.019464 0.313727 0.190702
v -0.018470 0.295165 0.189168
v -0.015525 0.277317 0.184625
v -0.010743 0.260868 0.177246
v -0.004308 0.246450 0.167317
v 0.003533 0.234617 0.155218
v 0.012479 0.225825 0.141414
v 0.022186 0.220411 0.126436
v 0.032281 0.218583 0.110859
v 0.019341 0.407043 0.124167
v 0.006899 0.401629 0.136964
v -0.004568 0.392836 0.148757
v -0.014619 0.381004 0.159094
v -0.022868 0.366586 0.167577
v -0.028997 0.350137 0.173881
v -0.032772 0.332289 0.177762
v -0.034046 0.313727 0.179073
v -0.032772 0.295165 0.177762
v -0.028997 0.277317 0.173881
v -0.022868 0.260868 0.167577
v -0.014619 0.246450 0.159094
v -0.004568 0.234617 0.148757
v 0.006899 0.225825 0.136964
v 0.019341 0.220411 0.124167
v 0.016994 0.407043 0.121387
v 0.002294 0.401629 0.131510
v -0.011254 0.392836 0.140840
v -0.023128 0.381004 0.149017
v -0.032873 0.366586 0.155728
v -0.040115 0.350137 0.160715
v -0.044574 0.332289 0.163786
v -0.046079 0.313727 0.164823
v -0.044574 0.295165 0.163786
v -0.040115 0.277317 0.160715
v -0.032873 0.260868 0.155728
v -0.023128 0.246450 0.149017
v -0.011254 0.234617 0.140840
v 0.002294 0.225825 0.131510
v 0.016994 0.220411 0.121387
v 0.015234 0.407043 0.118202
v -0.001159 0.401629 0.125263
v -0.016266 0.392836 0.131770
v -0.029508 0.381004 0.137474
v -0.040375 0.366586 0.142155
v -0.048450 0.350137 0.145633
v -0.053422 0.332289 0.147775
v -0.055101 0.313727 0.148498
v -0.053422 0.295165 0.147775
v -0.048450 0.277317 0.145633
v -0.040375 0.260868 0.142155
v -0.029508 0.246450 0.137474
v -0.016266 0.234617 0.131770
v -0.001159 0.225825 0.125263
v 0.015234 0.220411 0.118202
v 0.014129 0.407043 0.114736
v -0.003326 0.401629 0.118463
v -0.019413 0.392836 0.121898
v -0.033513 0.381004 0.124908
v -0.045084 0.366586 0.127379
v -0.053683 0.350137 0.129215
v -0.058978 0.332289 0.130346
v -0.060765 0.313727 0.130728
v -0.058978 0.295165 0.130346
v -0.053683 0.277317 0.129215
v -0.045084 0.260868 0.127379
v -0.033513 0.246450 0.124908
v -0.019413 0.234617 0.121898
v -0.003326 0.225825 0.118463
v 0.014129 0.220411 0.114736
v 0.013721 0.407043 0.111120
v -0.004125 0.401629 0.111370
v -0.020573 0.392836 0.111601
v -0.034989 0.381004 0.111803
v -0.046821 0.366586 0.111969
v -0.055612 0.350137 0.112092
v -0.061026 0.332289 0.112168
v -0.062854 0.313727 0.112193
v -0.061026 0.295165 0.112168
v -0.055612 0.277317 0.112092
v -0.046821 0.260868 0.111969
v -0.034989 0.246450 0.111803
v -0.020573 0.234617 0.111601
v -0.004125 0.225825 0.111370
v 0.013721 0.220411 0.111120
v 0.014027 0.407043 0.107494
v -0.003525 0.401629 0.104258
v -0.019702 0.392836 0.101275
v -0.033881 0.381004 0.098661
v -0.045517 0.366586 0.096515
v -0.054164 0.350137 0.094921
v -0.059488 0.332289 0.093939
v -0.061286 0.313727 0.093608
v -0.059488 0.295165 0.093939
v -0.054164 0.277317 0.094921
v -0.045517 0.260868 0.096515
v -0.033881 0.246450 0.098661
v -0.019702 0.234617 0.101275
v -0.003525 0.225825 0.104258
v 0.014027 0.220411 0.107494
v 0.015034 0.407043 0.103997
v -0.001549 0.401629 0.097399
v -0.016833 0.392836 0.091318
v -0.030230 0.381004 0.085988
v -0.041224 0.366586 0.081613
v -0.049393 0.350137 0.078363
v -0.054424 0.332289 0.076361
v -0.056122 0.313727 0.075685
v -0.054424 0.295165 0.076361
v -0.049393 0.277317 0.078363
v -0.041224 0.260868 0.081613
v -0.030230 0.246450 0.085988
v -0.016833 0.234617 0.091318
v -0.001549 0.225825 0.097399
v 0.015034 0.220411 0.103997
v 0.016705 0.407043 0.100764
v 0.001727 0.401629 0.091058
v -0.012077 0.392836 0.082111
v -0.024176 0.381004 0.074270
v -0.034106 0.366586 0.067835
v -0.041484 0.350137 0.063053
v -0.046027 0.332289 0.060109
v -0.047562 0.313727 0.059114
v -0.046027 0.295165 0.060109
v -0.041484 0.277317 0.063053
v -0.034106 0.260868 0.067835
v -0.024176 0.246450 0.074270
v -0.012077 0.234617 0.082111
v 0.001727 0.225825 0.091058
v 0.016705 0.220411 0.100765
v 0.032281 0.408871 0.110859
v 0.018973 0.407043 0.097920
v 0.006177 0.401629 0.085477
v -0.005616 0.392836 0.074010
v -0.015953 0.381004 0.063959
v -0.024436 0.366586 0.055710
v -0.030740 0.350137 0.049581
v -0.034622 0.332289 0.045807
v -0.035932 0.313727 0.044532
v -0.034622 0.295165 0.045807
v -0.030740 0.277317 0.049581
v -0.024436 0.260868 0.055710
v -0.015953 0.246450 0.063959
v -0.005616 0.234617 0.074010
v 0.006177 0.225825 0.085477
v 0.018973 0.220411 0.097920
v 0.021753 0.407043 0.095572
v 0.011630 0.401629 0.080872
v 0.002301 0.392836 0.067325
v -0.005877 0.381004 0.055450
v -0.012588 0.366586 0.045705
v -0.017574 0.350137 0.038464
v -0.020645 0.332289 0.034005
v -0.021682 0.313727 0.032499
v -0.020645 0.295165 0.034005
v -0.017574 0.277317 0.038464
v -0.012588 0.260868 0.045705
v -0.005877 0.246450 0.055450
v 0.002301 0.234617 0.067325
v 0.011630 0.225825 0.080872
v 0.021753 0.220411 0.095572
vn -0.1740 -0.5528 -0.8150
vn -0.3658 -0.3805 -0.8493
vn -0.1931 -0.3805 -0.9044
vn -0.1740 0.5528 -0.8150
vn -0.3658 0.3805 -0.8493
vn -0.3297 0.5528 -0.7653
vn -0.1483 -0.7040 -0.6945
vn -0.3297 -0.5528 -0.7653
vn -0.2048 0.1939 -0.9594
vn -0.1931 0.3805 -0.9044
vn -0.0420 0.9796 -0.1965
vn -0.1534 0.9217 -0.3562
vn -0.0795 0.9796 -0.1845
vn -0.2214 -0.8286 -0.5141
vn -0.2809 -0.7040 -0.6522
vn -0.3956 0.0000 -0.9184
vn -0.3881 0.1939 -0.9010
vn -0.1169 0.8286 -0.5474
vn -0.0810 0.9217 -0.3793
vn -0.1169 -0.8286 -0.5474
vn -0.1534 -0.9217 -0.3562
vn -0.2048 -0.1939 -0.9594
vn -0.2088 0.0000 -0.9779
vn -0.1483 0.7040 -0.6945
vn -0.2214 0.8286 -0.5141
vn -0.0420 -0.9796 -0.1965
vn -0.0810 -0.9217 -0.3793
vn -0.3881 -0.1939 -0.9010
vn -0.2809 0.7040 -0.6522
vn -0.0129 -0.3805 -0.9246
vn -0.0129 0.3805 -0.9246
vn -0.0117 0.5528 -0.8332
vn -0.0117 -0.5528 -0.8332
vn -0.0137 0.1939 -0.9809
vn -0.0028 0.9796 -0.2009
vn -0.0099 -0.7040 -0.7100
vn -0.0140 0.0000 -0.9999
vn -0.0054 0.9217 -0.3878
vn -0.0078 -0.8286 -0.5597
vn -0.0099 0.7040 -0.7100
vn -0.0078 0.8286 -0.5597
vn -0.0054 -0.9217 -0.3878
vn -0.0137 -0.1939 -0.9809
vn 0.0364 -0.9796 -0.1976
vn 0.0703 -0.9217 -0.3815
vn 0.1677 -0.3805 -0.9094
vn 0.1779 -0.1939 -0.9648
vn 0.1288 0.7040 -0.6984
vn 0.1511 -0.5528 -0.8195
vn 0.1511 0.5528 -0.8195
vn 0.1677 0.3805 -0.9094
vn 0.0703 0.9217 -0.3815
vn 0.0364 0.9796 -0.1976
vn 0.1288 -0.7040 -0.6984
vn 0.1779 0.1939 -0.9648
vn 0.1015 0.8286 -0.5505
vn 0.1015 -0.8286 -0.5505
vn 0.1813 0.0000 -0.9834
vn 0.2069 0.8286 -0.5201
vn 0.1434 0.9217 -0.3604
vn 0.1434 -0.9217 -0.3604
vn 0.2069 -0.8286 -0.5201
vn 0.3627 -0.1939 -0.9115
vn 0.3697 0.0000 -0.9291
vn 0.2625 0.7040 -0.6598
vn 0.3419 -0.3805 -0.8592
vn 0.3081 0.5528 -0.7743
vn 0.3081 -0.5528 -0.7743
vn 0.3419 0.3805 -0.8592
vn 0.3627 0.1939 -0.9115
vn 0.0743 0.9796 -0.1867
vn 0.2625 -0.7040 -0.6598
vn 0.5335 0.1939 -0.8232
vn 0.5029 0.3805 -0.7760
vn 0.1093 0.9796 -0.1686
vn 0.3044 -0.8286 -0.4697
vn 0.3862 -0.7040 -0.5959
vn 0.5438 0.0000 -0.8392
vn 0.2109 0.9217 -0.3255
vn 0.5335 -0.1939 -0.8232
vn 0.3862 0.7040 -0.5959
vn 0.3044 0.8286 -0.4697
vn 0.1093 -0.9796 -0.1686
vn 0.2109 -0.9217 -0.3255
vn 0.5029 -0.3805 -0.7760
vn 0.4532 0.5528 -0.6993
vn 0.4532 -0.5528 -0.6993
vn 0.6447 -0.3805 -0.6630
vn 0.5809 0.5528 -0.5975
vn 0.5809 -0.5528 -0.5975
vn 0.6447 0.3805 -0.6630
vn 0.1401 0.9796 -0.1441
vn 0.3902 -0.8286 -0.4013
vn 0.4950 -0.7040 -0.5091
vn 0.6971 0.0000 -0.7169
vn 0.6839 0.1939 -0.7033
vn 0.2704 0.9217 -0.2781
vn 0.2704 -0.9217 -0.2781
vn 0.6839 -0.1939 -0.7033
vn 0.4950 0.7040 -0.5091
vn 0.3902 0.8286 -0.4013
vn 0.1401 -0.9796 -0.1441
vn 0.3194 -0.9217 -0.2200
vn 0.7616 -0.3805 -0.5245
vn 0.8079 -0.1939 -0.5564
vn 0.6863 0.5528 -0.4726
vn 0.5849 0.7040 -0.4028
vn 0.7616 0.3805 -0.5245
vn 0.5849 -0.7040 -0.4028
vn 0.6863 -0.5528 -0.4726
vn 0.3194 0.9217 -0.2200
vn 0.1655 0.9796 -0.1140
vn 0.4610 -0.8286 -0.3175
vn 0.8236 0.0000 -0.5672
vn 0.8079 0.1939 -0.5564
vn 0.4610 0.8286 -0.3175
vn 0.3562 -0.9217 -0.1534
vn 0.5141 -0.8286 -0.2214
vn 0.9184 0.0000 -0.3956
vn 0.6522 0.7040 -0.2809
vn 0.5141 0.8286 -0.2214
vn 0.1655 -0.9796 -0.1140
vn 0.8493 -0.3805 -0.3658
vn 0.9010 -0.1939 -0.3881
vn 0.7653 0.5528 -0.3297
vn 0.8493 0.3805 -0.3658
vn 0.7653 -0.5528 -0.3297
vn 0.3562 0.9217 -0.1534
vn 0.1845 0.9796 -0.0795
vn 0.6522 -0.7040 -0.2809
vn 0.9010 0.1939 -0.3881
vn 0.1965 0.9796 -0.0420
vn 0.5474 -0.8286 -0.1169
vn 0.6945 -0.7040 -0.1483
vn 0.9779 0.0000 -0.2088
vn 0.9594 0.1939 -0.2048
vn 0.5474 0.8286 -0.1169
vn 0.3793 0.9217 -0.0810
vn 0.3793 -0.9217 -0.0810
vn 0.9594 -0.1939 -0.2048
vn 0.6945 0.7040 -0.1483
vn 0.1965 -0.9796 -0.0420
vn 0.9044 -0.3805 -0.1931
vn 0.8150 0.5528 -0.1740
vn 0.8150 -0.5528 -0.1740
vn 0.9044 0.3805 -0.1931
vn 0.8332 0.5528 -0.0117
vn 0.8332 -0.5528 -0.0117
vn 0.9246 0.3805 -0.0129
vn 0.2009 0.9796 -0.0028
vn 0.7100 -0.7040 -0.0099
vn 0.9999 0.0000 -0.0140
vn 0.9809 0.1939 -0.0137
vn 0.5597 0.8286 -0.0078
vn 0.3878 0.9217 -0.0054
vn 0.5597 -0.8286 -0.0078
vn 0.9809 -0.1939 -0.0137
vn 0.7100 0.7040 -0.0099
vn 0.3878 -0.9217 -0.0054
vn 0.9246 -0.3805 -0.0129
vn 0.9094 -0.3805 0.1677
vn 0.9648 -0.1939 0.1779
vn 0.8195 0.5528 0.1511
vn 0.6984 0.7040 0.1288
vn 0.9094 0.3805 0.1677
vn 0.6984 -0.7040 0.1288
vn 0.8195 -0.5528 0.1511
vn 0.9648 0.1939 0.1779
vn 0.1976 0.9796 0.0364
vn 0.3815 0.9217 0.0703
vn 0.3815 -0.9217 0.0703
vn 0.5505 -0.8286 0.1015
vn 0.9834 0.0000 0.1813
vn 0.5505 0.8286 0.1015
vn 0.1976 -0.9796 0.0364
vn 0.3604 -0.9217 0.1434
vn 0.5201 -0.8286 0.2069
vn 0.9291 0.0000 0.3697
vn 0.6598 0.7040 0.2625
vn 0.5201 0.8286 0.2069
vn 0.1867 -0.9796 0.0743
vn 0.8592 -0.3805 0.3419
vn 0.9115 -0.1939 0.3627
vn 0.7743 0.5528 0.3081
vn 0.8592 0.3805 0.3419
vn 0.6598 -0.7040 0.2625
vn 0.7743 -0.5528 0.3081
vn 0.9115 0.1939 0.3627
vn 0.3604 0.9217 0.1434
vn 0.1867 0.9796 0.0743
vn 0.1686 0.9796 0.1093
vn 0.5959 -0.7040 0.3862
vn 0.8392 0.0000 0.5438
vn 0.8232 0.1939 0.5335
vn 0.4697 0.8286 0.3044
vn 0.3255 0.9217 0.2109
vn 0.3255 -0.9217 0.2109
vn 0.4697 -0.8286 0.3044
vn 0.1686 -0.9796 0.1093
vn 0.7760 -0.3805 0.5029
vn 0.8232 -0.1939 0.5335
vn 0.5959 0.7040 0.3862
vn 0.7760 0.3805 0.5029
vn 0.6993 0.5528 0.4532
vn 0.6993 -0.5528 0.4532
vn 0.6630 0.3805 0.6447
vn 0.5975 0.5528 0.5809
vn 0.5975 -0.5528 0.5809
vn 0.2781 0.9217 0.2704
vn 0.1441 0.9796 0.1401
vn 0.5091 -0.7040 0.4950
vn 0.7033 0.1939 0.6839
vn 0.4013 0.8286 0.3902
vn 0.4013 -0.8286 0.3902
vn 0.7169 0.0000 0.6971
vn 0.5091 0.7040 0.4950
vn 0.1441 -0.9796 0.1401
vn 0.2781 -0.9217 0.2704
vn 0.6630 -0.3805 0.6447
vn 0.7033 -0.1939 0.6839
vn 0.5245 -0.3805 0.7616
vn 0.5564 -0.1939 0.8079
vn 0.4726 0.5528 0.6863
vn 0.4028 0.7040 0.5849
vn 0.5245 0.3805 0.7616
vn 0.4028 -0.7040 0.5849
vn 0.4726 -0.5528 0.6863
vn 0.1140 0.9796 0.1655
vn 0.5672 0.0000 0.8236
vn 0.5564 0.1939 0.8079
vn 0.3175 0.8286 0.4610
vn 0.2200 0.9217 0.3194
vn 0.2200 -0.9217 0.3194
vn 0.3175 -0.8286 0.4610
vn 0.2214 -0.8286 0.5141
vn 0.3881 -0.1939 0.9010
vn 0.3956 0.0000 0.9184
vn 0.2809 0.7040 0.6522
vn 0.2214 0.8286 0.5141
vn 0.1534 -0.9217 0.3562
vn 0.1140 -0.9796 0.1655
vn 0.3658 -0.3805 0.8493
vn 0.3658 0.3805 0.8493
vn 0.3297 0.5528 0.7653
vn 0.2809 -0.7040 0.6522
vn 0.3297 -0.5528 0.7653
vn 0.1534 0.9217 0.3562
vn 0.0795 0.9796 0.1846
vn 0.3881 0.1939 0.9010
vn 0.1169 -0.8286 0.5474
vn 0.1483 -0.7040 0.6945
vn 0.2048 0.1939 0.9594
vn 0.0810 0.9217 0.3793
vn 0.0810 -0.9217 0.3793
vn 0.2088 0.0000 0.9779
vn 0.1483 0.7040 0.6945
vn 0.1169 0.8286 0.5474
vn 0.0420 -0.9796 0.1965
vn 0.1931 -0.3805 0.9044
vn 0.2048 -0.1939 0.9594
vn 0.1740 0.5528 0.8150
vn 0.1740 -0.5528 0.8150
vn 0.1931 0.3805 0.9044
vn 0.0420 0.9796 0.1965
vn 0.0099 -0.7040 0.7100
vn 0.0117 -0.5528 0.8332
vn 0.0129 0.3805 0.9246
vn 0.0028 0.9796 0.2009
vn 0.0137 0.1939 0.9809
vn 0.0078 0.8286 0.5597
vn 0.0054 0.9217 0.3878
vn 0.0078 -0.8286 0.5597
vn 0.0140 0.0000 0.9999
vn 0.0099 0.7040 0.7100
vn 0.0054 -0.9217 0.3878
vn 0.0137 -0.1939 0.9809
vn 0.0117 0.5528 0.8332
vn 0.0129 -0.3805 0.9246
vn -0.1511 0.5528 0.8195
vn -0.1288 0.7040 0.6984
vn -0.1677 -0.3805 0.9094
vn -0.1677 0.3805 0.9094
vn -0.1511 -0.5528 0.8195
vn -0.0703 0.9217 0.3815
vn -0.0364 0.9796 0.1976
vn -0.1015 -0.8286 0.5505
vn -0.1288 -0.7040 0.6984
vn -0.1813 0.0000 0.9834
vn -0.1779 0.1939 0.9648
vn -0.1015 0.8286 0.5505
vn -0.0703 -0.9217 0.3815
vn 0.0028 -0.9796 0.2009
vn -0.1779 -0.1939 0.9648
vn -0.3627 -0.1939 0.9115
vn -0.3697 0.0000 0.9291
vn -0.2069 0.8286 0.5201
vn -0.1434 -0.9217 0.3604
vn -0.0364 -0.9796 0.1976
vn -0.3419 -0.3805 0.8592
vn -0.3081 0.5528 0.7743
vn -0.2625 0.7040 0.6598
vn -0.3419 0.3805 0.8592
vn -0.3081 -0.5528 0.7743
vn -0.3627 0.1939 0.9115
vn -0.1434 0.9217 0.3604
vn -0.0743 0.9796 0.1867
vn -0.2069 -0.8286 0.5201
vn -0.2625 -0.7040 0.6598
vn -0.3044 -0.8286 0.4697
vn -0.3862 -0.7040 0.5959
vn -0.5335 0.1939 0.8232
vn -0.2109 0.9217 0.3255
vn -0.5438 0.0000 0.8392
vn -0.3862 0.7040 0.5959
vn -0.3044 0.8286 0.4697
vn -0.1093 -0.9796 0.1686
vn -0.2109 -0.9217 0.3255
vn -0.5029 -0.3805 0.7760
vn -0.5335 -0.1939 0.8232
vn -0.5029 0.3805 0.7760
vn -0.4532 0.5528 0.6993
vn -0.4532 -0.5528 0.6993
vn -0.1093 0.9796 0.1686
vn -0.4950 -0.7040 0.5091
vn -0.5809 -0.5528 0.5975
vn -0.6839 0.1939 0.7033
vn -0.6447 0.3805 0.6630
vn -0.1401 0.9796 0.1441
vn -0.6971 0.0000 0.7169
vn -0.2704 0.9217 0.2781
vn -0.3902 -0.8286 0.4013
vn -0.6839 -0.1939 0.7033
vn -0.4950 0.7040 0.5091
vn -0.3902 0.8286 0.4013
vn -0.2704 -0.9217 0.2781
vn -0.6447 -0.3805 0.6630
vn -0.5809 0.5528 0.5975
vn -0.6863 0.5528 0.4726
vn -0.5849 0.7040 0.4028
vn -0.7616 -0.3805 0.5245
vn -0.7616 0.3805 0.5245
vn -0.6863 -0.5528 0.4726
vn -0.8079 0.1939 0.5564
vn -0.1655 0.9796 0.1140
vn -0.4610 -0.8286 0.3175
vn -0.5849 -0.7040 0.4028
vn -0.3194 0.9217 0.2200
vn -0.8079 -0.1939 0.5564
vn -0.8236 0.0000 0.5672
vn -0.4610 0.8286 0.3175
vn -0.1655 -0.9796 0.1140
vn -0.3194 -0.9217 0.2200
vn -0.9010 -0.1939 0.3881
vn -0.9184 0.0000 0.3956
vn -0.6522 0.7040 0.2809
vn -0.5141 0.8286 0.2214
vn -0.1845 -0.9796 0.0795
vn -0.3562 -0.9217 0.1534
vn -0.8493 -0.3805 0.3658
vn -0.7653 0.5528 0.3297
vn -0.8493 0.3805 0.3658
vn -0.7653 -0.5528 0.3297
vn -0.9010 0.1939 0.3881
vn -0.3562 0.9217 0.1534
vn -0.1845 0.9796 0.0795
vn -0.6522 -0.7040 0.2809
vn -0.5141 -0.8286 0.2214
vn -0.6945 -0.7040 0.1483
vn -0.9594 0.1939 0.2048
vn -0.5474 0.8286 0.1169
vn -0.3793 0.9217 0.0810
vn -0.3793 -0.9217 0.0810
vn -0.5474 -0.8286 0.1169
vn -0.9779 0.0000 0.2088
vn -0.9044 -0.3805 0.1931
vn -0.9594 -0.1939 0.2048
vn -0.8150 0.5528 0.1740
vn -0.6945 0.7040 0.1483
vn -0.9044 0.3805 0.1931
vn -0.8150 -0.5528 0.1740
vn -0.1965 0.9796 0.0420
vn -0.7100 -0.7040 0.0099
vn -0.8332 -0.5528 0.0117
vn -0.9809 0.1939 0.0137
vn -0.9246 0.3805 0.0129
vn -0.2009 0.9796 0.0028
vn -0.9999 0.0000 0.0140
vn -0.5597 0.8286 0.0078
vn -0.3878 0.9217 0.0054
vn -0.3878 -0.9217 0.0054
vn -0.5597 -0.8286 0.0078
vn -0.7100 0.7040 0.0099
vn -0.1965 -0.9796 0.0420
vn -0.9246 -0.3805 0.0129
vn -0.9809 -0.1939 0.0137
vn -0.8332 0.5528 0.0117
vn -0.9094 -0.3805 -0.1677
vn -0.9094 0.3805 -0.1677
vn -0.8195 0.5528 -0.1511
vn -0.8195 -0.5528 -0.1511
vn -0.9648 0.1939 -0.1779
vn -0.1976 0.9796 -0.0364
vn -0.5505 -0.8286 -0.1015
vn -0.6984 -0.7040 -0.1288
vn -0.5505 0.8286 -0.1015
vn -0.3815 0.9217 -0.0703
vn -0.3815 -0.9217 -0.0703
vn -0.9648 -0.1939 -0.1779
vn -0.9834 0.0000 -0.1813
vn -0.6984 0.7040 -0.1288
vn -0.1976 -0.9796 -0.0364
vn -0.6598 0.7040 -0.2625
vn -0.5201 0.8286 -0.2069
vn -0.1867 -0.9796 -0.0743
vn -0.3604 -0.9217 -0.1434
vn -0.8592 -0.3805 -0.3419
vn -0.9115 -0.1939 -0.3627
vn -0.7743 0.5528 -0.3081
vn -0.6598 -0.7040 -0.2625
vn -0.7743 -0.5528 -0.3081
vn -0.9115 0.1939 -0.3627
vn -0.8592 0.3805 -0.3419
vn -0.1867 0.9796 -0.0743
vn -0.9291 0.0000 -0.3697
vn -0.3604 0.9217 -0.1434
vn -0.5201 -0.8286 -0.2069
vn -0.8232 0.1939 -0.5335
vn -0.4697 0.8286 -0.3044
vn -0.3255 0.9217 -0.2109
vn -0.3255 -0.9217 -0.2109
vn -0.4697 -0.8286 -0.3044
vn -0.8392 0.0000 -0.5438
vn -0.5959 0.7040 -0.3862
vn -0.7760 -0.3805 -0.5029
vn -0.8232 -0.1939 -0.5335
vn -0.6993 0.5528 -0.4532
vn -0.6993 -0.5528 -0.4532
vn -0.7760 0.3805 -0.5029
vn -0.1686 0.9796 -0.1093
vn -0.5959 -0.7040 -0.3862
vn -0.5975 -0.5528 -0.5809
vn -0.7033 0.1939 -0.6839
vn -0.6630 0.3805 -0.6447
vn -0.1441 0.9796 -0.1401
vn -0.5091 -0.7040 -0.4950
vn -0.7169 0.0000 -0.6971
vn -0.4013 0.8286 -0.3902
vn -0.2781 0.9217 -0.2704
vn -0.2781 -0.9217 -0.2704
vn -0.4013 -0.8286 -0.3902
vn -0.5091 0.7040 -0.4950
vn -0.1686 -0.9796 -0.1093
vn -0.6630 -0.3805 -0.6447
vn -0.7033 -0.1939 -0.6839
vn -0.5975 0.5528 -0.5809
vn -0.5245 -0.3805 -0.7616
vn -0.4726 0.5528 -0.6863
vn -0.4028 -0.7040 -0.5849
vn -0.4726 -0.5528 -0.6863
vn -0.5245 0.3805 -0.7616
vn -0.2200 0.9217 -0.3194
vn -0.1140 0.9796 -0.1655
vn -0.5564 0.1939 -0.8079
vn -0.2200 -0.9217 -0.3194
vn -0.3175 -0.8286 -0.4610
vn -0.5672 0.0000 -0.8236
vn -0.3175 0.8286 -0.4610
vn -0.1441 -0.9796 -0.1401
vn -0.5564 -0.1939 -0.8079
vn -0.4028 0.7040 -0.5849
vn 0.0000 1.0000 0.0000
vn 0.0000 -1.0000 0.0000
vn -0.0795 -0.9796 -0.1845
vn -0.0028 -0.9796 -0.2009
vn 0.0743 -0.9796 -0.1867
vn 0.1845 -0.9796 -0.0795
vn 0.2009 -0.9796 -0.0028
vn 0.0795 -0.9796 0.1845
vn -0.0743 -0.9796 0.1867
vn -0.1401 -0.9796 0.1441
vn -0.2009 -0.9796 0.0028
vn -0.1140 -0.9796 -0.1655
s 1
f 26//1 10//2 25//3
f 20//4 6//5 5//6
f 27//7 11//8 26//1
f 22//9 6//5 21//10
f 16//11 2//12 1//13
f 27//7 13//14 12//15
f 22//9 8//16 7//17
f 18//18 2//12 17//19
f 28//20 14//21 13//14
f 24//22 8//16 23//23
f 19//24 3//25 18//18
f 30//26 14//21 29//27
f 24//22 10//2 9//28
f 20//4 4//29 19//24
f 40//30 26//1 25//3
f 36//31 20//4 35//32
f 41//33 27//7 26//1
f 37//34 21//10 36//31
f 31//35 17//19 16//11
f 42//36 28//20 27//7
f 38//37 22//9 37//34
f 32//38 18//18 17//19
f 43//39 29//27 28//20
f 38//37 24//22 23//23
f 34//40 18//18 33//41
f 44//42 30//26 29//27
f 40//30 24//22 39//43
f 35//32 19//24 34//40
f 60//44 44//42 59//45
f 55//46 39//43 54//47
f 49//48 35//32 34//40
f 56//49 40//30 55//46
f 50//50 36//31 35//32
f 56//49 42//36 41//33
f 51//51 37//34 36//31
f 47//52 31//35 46//53
f 57//54 43//39 42//36
f 52//55 38//37 37//34
f 48//56 32//38 47//52
f 59//45 43//39 58//57
f 54//47 38//37 53//58
f 48//56 34//40 33//41
f 63//59 47//52 62//60
f 74//61 58//57 73//62
f 69//63 53//58 68//64
f 64//65 48//56 63//59
f 74//61 60//44 59//45
f 70//66 54//47 69//63
f 65//67 49//48 64//65
f 71//68 55//46 70//66
f 66//69 50//50 65//67
f 71//68 57//54 56//49
f 67//70 51//51 66//69
f 61//71 47//52 46//53
f 72//72 58//57 57//54
f 67//70 53//58 52//55
f 82//73 66//69 81//74
f 76//75 62//60 61//71
f 88//76 72//72 87//77
f 83//78 67//70 82//73
f 77//79 63//59 62//60
f 88//76 74//61 73//62
f 84//80 68//64 83//78
f 79//81 63//59 78//82
f 90//83 74//61 89//84
f 85//85 69//63 84//80
f 80//86 64//65 79//81
f 85//85 71//68 70//66
f 81//74 65//67 80//86
f 86//87 72//72 71//68
f 100//88 86//87 85//85
f 95//89 81//74 80//86
f 101//90 87//77 86//87
f 96//91 82//73 81//74
f 91//92 77//79 76//75
f 103//93 87//77 102//94
f 98//95 82//73 97//96
f 92//97 78//82 77//79
f 104//98 88//76 103//93
f 99//99 83//78 98//95
f 94//100 78//82 93//101
f 105//102 89//84 104//98
f 100//88 84//80 99//99
f 94//100 80//86 79//81
f 119//103 105//102 104//98
f 115//104 99//99 114//105
f 110//106 94//100 109//107
f 115//104 101//90 100//88
f 111//108 95//89 110//106
f 117//109 101//90 116//110
f 111//108 97//96 96//91
f 107//111 91//92 106//112
f 118//113 102//94 117//109
f 113//114 97//96 112//115
f 107//111 93//101 92//97
f 118//113 104//98 103//93
f 113//114 99//99 98//95
f 108//116 94//100 93//101
f 134//117 118//113 133//118
f 128//119 114//105 113//114
f 124//120 108//116 123//121
f 134//117 120//122 119//103
f 130//123 114//105 129//124
f 125//125 109//107 124//120
f 130//123 116//110 115//104
f 126//126 110//106 125//125
f 131//127 117//109 116//110
f 126//126 112//115 111//108
f 122//128 106//112 121//129
f 132//130 118//113 117//109
f 127//131 113//114 112//115
f 123//121 107//111 122//128
f 136//132 122//128 121//129
f 148//133 132//130 147//134
f 143//135 127//131 142//136
f 138//137 122//128 137//138
f 149//139 133//118 148//133
f 144//140 128//119 143//135
f 139//141 123//121 138//137
f 150//142 134//117 149//139
f 145//143 129//124 144//140
f 139//141 125//125 124//120
f 145//143 131//127 130//123
f 140//144 126//126 125//125
f 147//134 131//127 146//145
f 142//136 126//126 141//146
f 155//147 141//146 140//144
f 161//148 147//134 146//145
f 156//149 142//136 141//146
f 151//150 137//138 136//132
f 162//151 148//133 147//134
f 158//152 142//136 157//153
f 153//154 137//138 152//155
f 163//156 149//139 148//133
f 159//157 143//135 158//152
f 154//158 138//137 153//154
f 164//159 150//142 149//139
f 160//160 144//140 159//157
f 155//147 139//141 154//158
f 161//148 145//143 160//160
f 175//161 159//157 174//162
f 170//163 154//158 169//164
f 175//161 161//148 160//160
f 171//165 155//147 170//163
f 177//166 161//148 176//167
f 172//168 156//149 171//165
f 166//169 152//155 151//150
f 177//166 163//156 162//151
f 172//168 158//152 157//153
f 167//170 153//154 152//155
f 179//171 163//156 178//172
f 173//173 159//157 158//152
f 169//164 153//154 168//174
f 180//175 164//159 179//171
f 194//176 178//172 193//177
f 188//178 174//162 173//173
f 184//179 168//174 183//180
f 195//181 179//171 194//176
f 190//182 174//162 189//183
f 185//184 169//164 184//179
f 190//182 176//167 175//161
f 186//185 170//163 185//184
f 192//186 176//167 191//187
f 187//188 171//165 186//185
f 182//189 166//169 181//190
f 192//186 178//172 177//166
f 188//178 172//168 187//188
f 183//180 167//170 182//189
f 196//191 182//189 181//190
f 207//192 193//177 192//186
f 203//193 187//188 202//194
f 198//195 182//189 197//196
f 209//197 193//177 208//198
f 203//193 189//183 188//178
f 198//195 184//179 183//180
f 210//199 194//176 209//197
f 205//200 189//183 204//201
f 199//202 185//184 184//179
f 205//200 191//187 190//182
f 201//203 185//184 200//204
f 206//205 192//186 191//187
f 202//194 186//185 201//203
f 216//206 200//204 215//207
f 221//208 207//192 206//205
f 216//206 202//194 201//203
f 212//209 196//191 211//210
f 222//211 208//198 207//192
f 217//212 203//193 202//194
f 213//213 197//196 212//209
f 223//214 209//197 208//198
f 218//215 204//201 203//193
f 214//216 198//195 213//213
f 225//217 209//197 224//218
f 220//219 204//201 219//220
f 215//207 199//202 214//216
f 220//219 206//205 205//200
f 235//221 219//220 234//222
f 230//223 214//216 229//224
f 235//221 221//208 220//219
f 231//225 215//207 230//223
f 237//226 221//208 236//227
f 231//225 217//212 216//206
f 226//228 212//209 211//210
f 237//226 223//214 222//211
f 233//229 217//212 232//230
f 228//231 212//209 227//232
f 239//233 223//214 238//234
f 233//229 219//220 218//215
f 229//224 213//213 228//231
f 239//233 225//217 224//218
f 253//235 239//233 238//234
f 249//236 233//229 248//237
f 244//238 228//231 243//239
f 254//240 240//241 239//233
f 250//242 234//222 249//236
f 244//238 230//223 229//224
f 250//242 236//227 235//221
f 246//243 230//223 245//244
f 252//245 236//227 251//246
f 246//243 232//230 231//225
f 242//247 226//228 241//248
f 253//235 237//226 252//245
f 248//237 232//230 247//249
f 243//239 227//232 242//247
f 268//250 252//245 267//251
f 262//252 248//237 247//249
f 257//253 243//239 242//247
f 269//254 253//235 268//250
f 263//255 249//236 248//237
f 259//256 243//239 258//257
f 270//258 254//240 269//254
f 265//259 249//236 264//260
f 260//261 244//238 259//256
f 266//262 250//242 265//259
f 261//263 245//244 260//261
f 266//262 252//245 251//246
f 261//263 247//249 246//243
f 256//264 242//247 241//248
f 282//265 266//262 281//266
f 276//267 262//252 261//263
f 271//268 257//253 256//264
f 282//265 268//250 267//251
f 277//269 263//255 262//252
f 273//270 257//253 272//271
f 283//272 269//254 268//250
f 278//273 264//260 263//255
f 274//274 258//257 273//270
f 284//275 270//258 269//254
f 279//276 265//259 264//260
f 275//277 259//256 274//274
f 280//278 266//262 265//259
f 275//277 261//263 260//261
f 290//279 274//274 289//280
f 295//281 281//266 280//278
f 291//282 275//277 290//279
f 296//283 282//265 281//266
f 291//282 277//269 276//267
f 287//284 271//268 286//285
f 298//286 282//265 297//287
f 293//288 277//269 292//289
f 288//290 272//271 287//284
f 299//291 283//272 298//286
f 293//288 279//276 278//273
f 289//280 273//270 288//290
f 299//291 285//292 284//275
f 295//281 279//276 294//293
f 309//294 293//288 308//295
f 303//296 289//280 288//290
f 314//297 300//298 299//291
f 310//299 294//293 309//294
f 305//300 289//280 304//301
f 310//299 296//283 295//281
f 306//302 290//279 305//300
f 311//303 297//287 296//283
f 307//304 291//282 306//302
f 302//305 286//285 301//306
f 313//307 297//287 312//308
f 308//295 292//289 307//304
f 302//305 288//290 287//284
f 313//307 299//291 298//286
f 328//309 312//308 327//310
f 322//311 308//295 307//304
f 317//312 303//296 302//305
f 328//309 314//297 313//307
f 323//313 309//294 308//295
f 319//314 303//296 318//315
f 330//316 314//297 329//317
f 325//318 309//294 324//319
f 319//314 305//300 304//301
f 325//318 311//303 310//299
f 321//320 305//300 320//321
f 327//310 311//303 326//322
f 322//311 306//302 321//320
f 316//323 302//305 301//306
f 343//324 326//322 342//325
f 338//326 321//320 337//327
f 332//328 317//312 316//323
f 343//324 328//309 327//310
f 339//329 322//311 338//326
f 333//330 318//315 317//312
f 344//331 329//317 328//309
f 340//332 323//313 339//329
f 335//333 318//315 334//334
f 345//335 330//316 329//317
f 341//336 324//319 340//332
f 335//333 320//321 319//314
f 341//336 326//322 325//318
f 337//327 320//321 336//337
f 351//338 335//333 350//339
f 356//340 342//325 341//336
f 352//341 336//337 351//338
f 357//342 343//324 342//325
f 353//343 337//327 352//341
f 347//344 333//330 332//328
f 359//345 343//324 358//346
f 353//343 339//329 338//326
f 348//347 334//334 333//330
f 359//345 345//335 344//331
f 355//348 339//329 354//349
f 350//339 334//334 349//350
f 361//351 345//335 360//352
f 356//340 340//332 355//348
f 370//353 354//349 369//354
f 365//355 349//350 364//356
f 376//357 360//352 375//358
f 371//359 355//348 370//353
f 366//360 350//339 365//355
f 371//359 357//342 356//340
f 367//361 351//338 366//360
f 372//362 358//346 357//342
f 368//363 352//341 367//361
f 363//364 347//344 362//365
f 373//366 359//345 358//346
f 368//363 354//349 353//343
f 364//356 348//347 363//364
f 375//358 359//345 374//367
f 388//368 374//367 373//366
f 383//369 369//354 368//363
f 379//370 363//364 378//371
f 390//372 374//367 389//373
f 384//374 370//353 369//354
f 379//370 365//355 364//356
f 390//372 376//357 375//358
f 386//375 370//353 385//376
f 381//377 365//355 380//378
f 386//375 372//362 371//359
f 382//379 366//360 381//377
f 388//368 372//362 387//380
f 383//369 367//361 382//379
f 378//371 362//365 377//381
f 403//382 387//380 402//383
f 398//384 382//379 397//385
f 392//386 378//371 377//381
f 403//382 389//373 388//368
f 399//387 383//369 398//384
f 394//388 378//371 393//389
f 405//390 389//373 404//391
f 399//387 385//376 384//374
f 395//392 379//370 394//388
f 405//390 391//393 390//372
f 401//394 385//376 400//395
f 395//392 381//377 380//378
f 401//394 387//380 386//375
f 397//385 381//377 396//396
f 416//397 402//383 401//394
f 412//398 396//396 411//399
f 417//400 403//382 402//383
f 413//401 397//385 412//398
f 407//402 393//389 392//386
f 419//403 403//382 418//404
f 413//401 399//387 398//384
f 409//405 393//389 408//406
f 420//407 404//391 419//403
f 415//408 399//387 414//409
f 410//410 394//388 409//405
f 421//411 405//390 420//407
f 416//397 400//395 415//408
f 410//410 396//396 395//392
f 425//412 409//405 424//413
f 436//414 420//407 435//415
f 431//416 415//408 430//417
f 426//418 410//410 425//412
f 431//416 417//400 416//397
f 426//418 412//398 411//399
f 433//419 417//400 432//420
f 428//421 412//398 427//422
f 422//423 408//406 407//402
f 433//419 419//403 418//404
f 429//424 413//401 428//421
f 424//413 408//406 423//425
f 434//426 420//407 419//403
f 429//424 415//408 414//409
f 443//427 429//424 428//421
f 439//428 423//425 438//429
f 450//430 434//426 449//431
f 444//432 430//417 429//424
f 440//433 424//413 439//428
f 450//430 436//414 435//415
f 446//434 430//417 445//435
f 441//436 425//412 440//433
f 446//434 432//420 431//416
f 441//436 427//422 426//418
f 447//437 433//419 432//420
f 443//427 427//422 442//438
f 438//429 422//423 437//439
f 448//440 434//426 433//419
f 463//441 448//440 447//437
f 459//442 442//438 458//443
f 453//444 438//429 437//439
f 464//445 449//431 448//440
f 460//446 443//427 459//442
f 455//447 438//429 454//448
f 466//449 449//431 465//450
f 460//446 445//435 444//432
f 456//451 439//428 455//447
f 466//449 451//452 450//430
f 462//453 445//435 461//454
f 456//451 441//436 440//433
f 462//453 447//437 446//434
f 457//455 442//438 441//436
f 477//456 463//441 462//453
f 472//457 458//443 457//455
f 479//458 463//441 478//459
f 473//460 459//442 458//443
f 469//461 453//444 468//462
f 479//458 465//450 464//445
f 474//463 460//446 459//442
f 469//461 455//447 454//448
f 481//464 465//450 480//465
f 475//466 461//454 460//446
f 470//467 456//451 455//447
f 481//464 467//468 466//449
f 477//456 461//454 476//469
f 472//457 456//451 471//470
f 452//471 16//11 1//13
f 30//26 331//472 15//473
f 452//471 31//35 16//11
f 45//474 331//472 30//26
f 60//44 331//472 45//474
f 452//471 46//53 31//35
f 75//475 331//472 60//44
f 452//471 61//71 46//53
f 90//83 331//472 75//475
f 452//471 76//75 61//71
f 452//471 91//92 76//75
f 105//102 331//472 90//83
f 120//122 331//472 105//102
f 452//471 106//112 91//92
f 135//476 331//472 120//122
f 452//471 121//129 106//112
f 150//142 331//472 135//476
f 452//471 136//132 121//129
f 452//471 151//150 136//132
f 165//477 331//472 150//142
f 180//175 331//472 165//477
f 452//471 166//169 151//150
f 195//181 331//472 180//175
f 452//471 181//190 166//169
f 210//199 331//472 195//181
f 452//471 196//191 181//190
f 452//471 211//210 196//191
f 225//217 331//472 210//199
f 240//241 331//472 225//217
f 452//471 226//228 211//210
f 255//478 331//472 240//241
f 452//471 241//248 226//228
f 270//258 331//472 255//478
f 452//471 256//264 241//248
f 452//471 271//268 256//264
f 285//292 331//472 270//258
f 300//298 331//472 285//292
f 452//471 286//285 271//268
f 315//479 331//472 300//298
f 452//471 301//306 286//285
f 330//316 331//472 315//479
f 452//471 316//323 301//306
f 452//471 332//328 316//323
f 346//480 331//472 330//316
f 361//351 331//472 346//480
f 452//471 347//344 332//328
f 376//357 331//472 361//351
f 452//471 362//365 347//344
f 391//393 331//472 376//357
f 452//471 377//381 362//365
f 406//481 331//472 391//393
f 452//471 392//386 377//381
f 421//411 331//472 406//481
f 452//471 407//402 392//386
f 436//414 331//472 421//411
f 452//471 422//423 407//402
f 451//452 331//472 436//414
f 452//471 437//439 422//423
f 467//468 331//472 451//452
f 452//471 453//444 437//439
f 482//482 331//472 467//468
f 452//471 468//462 453//444
f 3//25 471//470 470//467
f 15//473 481//464 14//21
f 10//2 476//469 9//28
f 4//29 472//457 471//470
f 15//473 331//472 482//482
f 11//8 477//456 10//2
f 5//6 473//460 472//457
f 452//471 1//13 468//462
f 12//15 478//459 11//8
f 6//5 474//463 473//460
f 1//13 469//461 468//462
f 13//14 479//458 12//15
f 7//17 475//466 474//463
f 2//12 470//467 469//461
f 14//21 480//465 13//14
f 9//28 475//466 8//16
f 26//1 11//8 10//2
f 20//4 21//10 6//5
f 27//7 12//15 11//8
f 22//9 7//17 6//5
f 16//11 17//19 2//12
f 27//7 28//20 13//14
f 22//9 23//23 8//16
f 18//18 3//25 2//12
f 28//20 29//27 14//21
f 24//22 9//28 8//16
f 19//24 4//29 3//25
f 30//26 15//473 14//21
f 24//22 25//3 10//2
f 20//4 5//6 4//29
f 40//30 41//33 26//1
f 36//31 21//10 20//4
f 41//33 42//36 27//7
f 37//34 22//9 21//10
f 31//35 32//38 17//19
f 42//36 43//39 28//20
f 38//37 23//23 22//9
f 32//38 33//41 18//18
f 43//39 44//42 29//27
f 38//37 39//43 24//22
f 34//40 19//24 18//18
f 44//42 45//474 30//26
f 40//30 25//3 24//22
f 35//32 20//4 19//24
f 60//44 45//474 44//42
f 55//46 40//30 39//43
f 49//48 50//50 35//32
f 56//49 41//33 40//30
f 50//50 51//51 36//31
f 56//49 57//54 42//36
f 51//51 52//55 37//34
f 47//52 32//38 31//35
f 57//54 58//57 43//39
f 52//55 53//58 38//37
f 48//56 33//41 32//38
f 59//45 44//42 43//39
f 54//47 39//43 38//37
f 48//56 49//48 34//40
f 63//59 48//56 47//52
f 74//61 59//45 58//57
f 69//63 54//47 53//58
f 64//65 49//48 48//56
f 74//61 75//475 60//44
f 70//66 55//46 54//47
f 65//67 50//50 49//48
f 71//68 56//49 55//46
f 66//69 51//51 50//50
f 71//68 72//72 57//54
f 67//70 52//55 51//51
f 61//71 62//60 47//52
f 72//72 73//62 58//57
f 67//70 68//64 53//58
f 82//73 67//70 66//69
f 76//75 77//79 62//60
f 88//76 73//62 72//72
f 83//78 68//64 67//70
f 77//79 78//82 63//59
f 88//76 89//84 74//61
f 84//80 69//63 68//64
f 79//81 64//65 63//59
f 90//83 75//475 74//61
f 85//85 70//66 69//63
f 80//86 65//67 64//65
f 85//85 86//87 71//68
f 81//74 66//69 65//67
f 86//87 87//77 72//72
f 100//88 101//90 86//87
f 95//89 96//91 81//74
f 101//90 102//94 87//77
f 96//91 97//96 82//73
f 91//92 92//97 77//79
f 103//93 88//76 87//77
f 98//95 83//78 82//73
f 92//97 93//101 78//82
f 104//98 89//84 88//76
f 99//99 84//80 83//78
f 94//100 79//81 78//82
f 105//102 90//83 89//84
f 100//88 85//85 84//80
f 94//100 95//89 80//86
f 119//103 120//122 105//102
f 115//104 100//88 99//99
f 110//106 95//89 94//100
f 115//104 116//110 101//90
f 111//108 96//91 95//89
f 117//109 102//94 101//90
f 111//108 112//115 97//96
f 107//111 92//97 91//92
f 118//113 103//93 102//94
f 113//114 98//95 97//96
f 107//111 108//116 93//101
f 118//113 119//103 104//98
f 113//114 114//105 99//99
f 108//116 109//107 94//100
f 134//117 119//103 118//113
f 128//119 129//124 114//105
f 124//120 109//107 108//116
f 134//117 135//476 120//122
f 130//123 115//104 114//105
f 125//125 110//106 109//107
f 130//123 131//127 116//110
f 126//126 111//108 110//106
f 131//127 132//130 117//109
f 126//126 127//131 112//115
f 122//128 107//111 106//112
f 132//130 133//118 118//113
f 127//131 128//119 113//114
f 123//121 108//116 107//111
f 136//132 137//138 122//128
f 148//133 133//118 132//130
f 143//135 128//119 127//131
f 138//137 123//121 122//128
f 149//139 134//117 133//118
f 144//140 129//124 128//119
f 139//141 124//120 123//121
f 150//142 135//476 134//117
f 145//143 130//123 129//124
f 139//141 140//144 125//125
f 145//143 146//145 131//127
f 140//144 141//146 126//126
f 147//134 132//130 131//127
f 142//136 127//131 126//126
f 155//147 156//149 141//146
f 161//148 162//151 147//134
f 156//149 157//153 142//136
f 151//150 152//155 137//138
f 162//151 163//156 148//133
f 158//152 143//135 142//136
f 153//154 138//137 137//138
f 163//156 164//159 149//139
f 159//157 144//140 143//135
f 154//158 139//141 138//137
f 164//159 165//477 150//142
f 160//160 145//143 144//140
f 155//147 140//144 139//141
f 161//148 146//145 145//143
f 175//161 160//160 159//157
f 170//163 155//147 154//158
f 175//161 176//167 161//148
f 171//165 156//149 155//147
f 177//166 162//151 161//148
f 172//168 157//153 156//149
f 166//169 167//170 152//155
f 177//166 178//172 163//156
f 172//168 173//173 158//152
f 167//170 168//174 153//154
f 179//171 164//159 163//156
f 173//173 174//162 159//157
f 169//164 154//158 153//154
f 180//175 165//477 164//159
f 194//176 179//171 178//172
f 188//178 189//183 174//162
f 184//179 169//164 168//174
f 195//181 180//175 179//171
f 190//182 175//161 174//162
f 185//184 170//163 169//164
f 190//182 191//187 176//167
f 186//185 171//165 170//163
f 192//186 177//166 176//167
f 187//188 172//168 171//165
f 182//189 167//170 166//169
f 192//186 193//177 178//172
f 188//178 173//173 172//168
f 183//180 168//174 167//170
f 196//191 197//196 182//189
f 207//192 208//198 193//177
f 203//193 188//178 187//188
f 198//195 183//180 182//189
f 209//197 194//176 193//177
f 203//193 204//201 189//183
f 198//195 199//202 184//179
f 210//199 195//181 194//176
f 205//200 190//182 189//183
f 199//202 200//204 185//184
f 205//200 206//205 191//187
f 201//203 186//185 185//184
f 206//205 207//192 192//186
f 202//194 187//188 186//185
f 216//206 201//203 200//204
f 221//208 222//211 207//192
f 216//206 217//212 202//194
f 212//209 197//196 196//191
f 222//211 223//214 208//198
f 217//212 218//215 203//193
f 213//213 198//195 197//196
f 223//214 224//218 209//197
f 218//215 219//220 204//201
f 214//216 199//202 198//195
f 225//217 210//199 209//197
f 220//219 205//200 204//201
f 215//207 200//204 199//202
f 220//219 221//208 206//205
f 235//221 220//219 219//220
f 230//223 215//207 214//216
f 235//221 236//227 221//208
f 231//225 216//206 215//207
f 237//226 222//211 221//208
f 231//225 232//230 217//212
f 226//228 227//232 212//209
f 237//226 238//234 223//214
f 233//229 218//215 217//212
f 228//231 213//213 212//209
f 239//233 224//218 223//214
f 233//229 234//222 219//220
f 229//224 214//216 213//213
f 239//233 240//241 225//217
f 253//235 254//240 239//233
f 249//236 234//222 233//229
f 244//238 229//224 228//231
f 254//240 255//478 240//241
f 250//242 235//221 234//222
f 244//238 245//244 230//223
f 250//242 251//246 236//227
f 246//243 231//225 230//223
f 252//245 237//226 236//227
f 246//243 247//249 232//230
f 242//247 227//232 226//228
f 253//235 238//234 237//226
f 248//237 233//229 232//230
f 243//239 228//231 227//232
f 268//250 253//235 252//245
f 262//252 263//255 248//237
f 257//253 258//257 243//239
f 269//254 254//240 253//235
f 263//255 264//260 249//236
f 259//256 244//238 243//239
f 270//258 255//478 254//240
f 265//259 250//242 249//236
f 260//261 245//244 244//238
f 266//262 251//246 250//242
f 261//263 246//243 245//244
f 266//262 267//251 252//245
f 261//263 262//252 247//249
f 256//264 257//253 242//247
f 282//265 267//251 266//262
f 276//267 277//269 262//252
f 271//268 272//271 257//253
f 282//265 283//272 268//250
f 277//269 278//273 263//255
f 273//270 258//257 257//253
f 283//272 284//275 269//254
f 278//273 279//276 264//260
f 274//274 259//256 258//257
f 284//275 285//292 270//258
f 279//276 280//278 265//259
f 275//277 260//261 259//256
f 280//278 281//266 266//262
f 275//277 276//267 261//263
f 290//279 275//277 274//274
f 295//281 296//283 281//266
f 291//282 276//267 275//277
f 296//283 297//287 282//265
f 291//282 292//289 277//269
f 287//284 272//271 271//268
f 298//286 283//272 282//265
f 293//288 278//273 277//269
f 288//290 273//270 272//271
f 299//291 284//275 283//272
f 293//288 294//293 279//276
f 289//280 274//274 273//270
f 299//291 300//298 285//292
f 295//281 280//278 279//276
f 309//294 294//293 293//288
f 303//296 304//301 289//280
f 314//297 315//479 300//298
f 310//299 295//281 294//293
f 305//300 290//279 289//280
f 310//299 311//303 296//283
f 306//302 291//282 290//279
f 311//303 312//308 297//287
f 307//304 292//289 291//282
f 302//305 287//284 286//285
f 313//307 298//286 297//287
f 308//295 293//288 292//289
f 302//305 303//296 288//290
f 313//307 314//297 299//291
f 328//309 313//307 312//308
f 322//311 323//313 308//295
f 317//312 318//315 303//296
f 328//309 329//317 314//297
f 323//313 324//319 309//294
f 319//314 304//301 303//296
f 330//316 315//479 314//297
f 325//318 310//299 309//294
f 319//314 320//321 305//300
f 325//318 326//322 311//303
f 321//320 306//302 305//300
f 327//310 312//308 311//303
f 322//311 307//304 306//302
f 316//323 317//312 302//305
f 343//324 327//310 326//322
f 338//326 322//311 321//320
f 332//328 333//330 317//312
f 343//324 344//331 328//309
f 339//329 323//313 322//311
f 333//330 334//334 318//315
f 344//331 345//335 329//317
f 340//332 324//319 323//313
f 335//333 319//314 318//315
f 345//335 346//480 330//316
f 341//336 325//318 324//319
f 335//333 336//337 320//321
f 341//336 342//325 326//322
f 337//327 321//320 320//321
f 351//338 336//337 335//333
f 356//340 357//342 342//325
f 352//341 337//327 336//337
f 357//342 358//346 343//324
f 353//343 338//326 337//327
f 347//344 348//347 333//330
f 359//345 344//331 343//324
f 353//343 354//349 339//329
f 348//347 349//350 334//334
f 359//345 360//352 345//335
f 355//348 340//332 339//329
f 350//339 335//333 334//334
f 361//351 346//480 345//335
f 356//340 341//336 340//332
f 370//353 355//348 354//349
f 365//355 350//339 349//350
f 376//357 361//351 360//352
f 371//359 356//340 355//348
f 366//360 351//338 350//339
f 371//359 372//362 357//342
f 367//361 352//341 351//338
f 372//362 373//366 358//346
f 368//363 353//343 352//341
f 363//364 348//347 347//344
f 373//366 374//367 359//345
f 368//363 369//354 354//349
f 364//356 349//350 348//347
f 375//358 360//352 359//345
f 388//368 389//373 374//367
f 383//369 384//374 369//354
f 379//370 364//356 363//364
f 390//372 375//358 374//367
f 384//374 385//376 370//353
f 379//370 380//378 365//355
f 390//372 391//393 376//357
f 386//375 371//359 370//353
f 381//377 366//360 365//355
f 386//375 387//380 372//362
f 382//379 367//361 366//360
f 388//368 373//366 372//362
f 383//369 368//363 367//361
f 378//371 363//364 362//365
f 403//382 388//368 387//380
f 398//384 383//369 382//379
f 392//386 393//389 378//371
f 403//382 404//391 389//373
f 399//387 384//374 383//369
f 394//388 379//370 378//371
f 405//390 390//372 389//373
f 399//387 400//395 385//376
f 395//392 380//378 379//370
f 405//390 406//481 391//393
f 401//394 386//375 385//376
f 395//392 396//396 381//377
f 401//394 402//383 387//380
f 397//385 382//379 381//377
f 416//397 417//400 402//383
f 412//398 397//385 396//396
f 417//400 418//404 403//382
f 413//401 398//384 397//385
f 407//402 408//406 393//389
f 419//403 404//391 403//382
f 413//401 414//409 399//387
f 409//405 394//388 393//389
f 420//407 405//390 404//391
f 415//408 400//395 399//387
f 410//410 395//392 394//388
f 421//411 406//481 405//390
f 416//397 401//394 400//395
f 410//410 411//399 396//396
f 425//412 410//410 409//405
f 436//414 421//411 420//407
f 431//416 416//397 415//408
f 426//418 411//399 410//410
f 431//416 432//420 417//400
f 426//418 427//422 412//398
f 433//419 418//404 417//400
f 428//421 413//401 412//398
f 422//423 423//425 408//406
f 433//419 434//426 419//403
f 429//424 414//409 413//401
f 424//413 409//405 408//406
f 434//426 435//415 420//407
f 429//424 430//417 415//408
f 443//427 444//432 429//424
f 439//428 424//413 423//425
f 450//430 435//415 434//426
f 444//432 445//435 430//417
f 440//433 425//412 424//413
f 450//430 451//452 436//414
f 446//434 431//416 430//417
f 441//436 426//418 425//412
f 446//434 447//437 432//420
f 441//436 442//438 427//422
f 447//437 448//440 433//419
f 443//427 428//421 427//422
f 438//429 423//425 422//423
f 448//440 449//431 434//426
f 463//441 464//445 448//440
f 459//442 443//427 442//438
f 453//444 454//448 438//429
f 464//445 465//450 449//431
f 460//446 444//432 443//427
f 455//447 439//428 438//429
f 466//449 450//430 449//431
f 460//446 461//454 445//435
f 456//451 440//433 439//428
f 466//449 467//468 451//452
f 462//453 446//434 445//435
f 456//451 457//455 441//436
f 462//453 463//441 447//437
f 457//455 458//443 442//438
f 477//456 478//459 463//441
f 472//457 473//460 458//443
f 479//458 464//445 463//441
f 473//460 474//463 459//442
f 469//461 454//448 453//444
f 479//458 480//465 465//450
f 474//463 475//466 460//446
f 469//461 470//467 455//447
f 481//464 466//449 465//450
f 475//466 476//469 461//454
f 470//467 471//470 456//451
f 481//464 482//482 467//468
f 477//456 462//453 461//454
f 472//457 457//455 456//451
f 3//25 4//29 471//470
f 15//473 482//482 481//464
f 10//2 477//456 476//469
f 4//29 5//6 472//457
f 11//8 478//459 477//456
f 5//6 6//5 473//460
f 12//15 479//458 478//459
f 6//5 7//17 474//463
f 1//13 2//12 469//461
f 13//14 480//465 479//458
f 7//17 8//16 475//466
f 2//12 3//25 470//467
f 14//21 481//464 480//465
f 9//28 476//469 475//466
