# Blender v2.78 (sub 0) OBJ File: 'prism_dir.blend'
# www.blender.org
o Cube_Cube.001
v -0.531652 0.000000 -1.210813
v 0.857225 0.000000 -2.141737
v 0.857225 2.000000 -2.141737
v -0.531652 2.000000 -1.210813
v 0.756038 0.000000 -0.144299
v 0.756038 2.000000 -0.144299
vn -0.5568 0.0000 -0.8307
vn 0.9987 0.0000 0.0506
vn -0.6379 0.0000 0.7701
vn 0.0000 -1.0000 0.0000
vn 0.0000 1.0000 0.0000
s off
f 4//1 2//1 1//1
f 3//2 5//2 2//2
f 6//3 1//3 5//3
f 2//4 5//4 1//4
f 6//5 3//5 4//5
f 4//1 3//1 2//1
f 3//2 6//2 5//2
f 6//3 4//3 1//3
