# Blender v2.78 (sub 0) OBJ File: 'prism_dir.blend'
# www.blender.org
o Plane.001
v -9.725121 0.000000 10.719140
v 10.274879 0.000000 10.719140
v -9.725121 0.000000 -9.280860
v 10.274879 0.000000 -9.280860
vn 0.0000 1.0000 0.0000
s off
f 2//1 3//1 1//1
f 2//1 4//1 3//1
