# Blender v2.79 (sub 0) OBJ File: 'fiat500.blend'
# www.blender.org
o Plane.030_Plane.033
v -20.099672 6.800946 -19.836269
v -20.099672 -1.199054 -19.836271
v 19.900328 6.800946 -19.836267
v 19.900328 -1.199054 -19.836269
vn 0.0000 -0.0000 1.0000
s off
f 2//1 3//1 1//1
f 2//1 4//1 3//1
