# Blender v2.79 (sub 0) OBJ File: 'fiat500.blend'
# www.blender.org
o Plane.020_Plane.015
v 0.643337 0.797818 -0.809469
v 0.638665 0.798088 -0.809753
v 0.642689 0.802989 -0.807062
v 0.645535 0.797638 -0.809032
v 0.644889 0.784959 -0.814508
v 0.640129 0.785198 -0.814797
v 0.638070 0.803300 -0.807322
v 0.644813 0.802710 -0.806704
v 0.647145 0.784821 -0.814047
v 0.688720 0.435948 -0.939252
v 0.681657 0.435645 -0.939425
v 0.681150 0.492926 -0.920280
v 0.692055 0.436068 -0.938846
v 0.695412 0.386278 -0.955462
v 0.688000 0.385901 -0.955619
v 0.674484 0.492710 -0.920472
v 0.684303 0.493005 -0.919865
v 0.698908 0.386434 -0.955064
v 0.658517 0.671889 -0.856895
v 0.653039 0.671950 -0.857147
v 0.652455 0.721903 -0.838296
v 0.661114 0.671836 -0.856452
v 0.665580 0.614555 -0.877828
v 0.659729 0.614525 -0.878060
v 0.647296 0.722042 -0.838564
v 0.654901 0.721812 -0.837845
v 0.668352 0.614544 -0.877393
v 0.705739 0.309758 -0.979996
v 0.697803 0.309249 -0.980129
v 0.703967 0.323118 -0.975817
v 0.709436 0.310016 -0.979604
v 0.706451 0.303965 -0.981479
v 0.698521 0.303401 -0.981616
v 0.696109 0.322646 -0.975953
v 0.707668 0.323320 -0.975429
v 0.710028 0.304370 -0.981073
v 0.602580 0.800011 -0.811029
v 0.587494 0.800815 -0.811563
v 0.602240 0.805286 -0.808612
v 0.617668 0.799207 -0.810496
v 0.603414 0.786963 -0.816040
v 0.588066 0.787701 -0.816559
v 0.587262 0.806117 -0.809150
v 0.617222 0.804456 -0.808072
v 0.618766 0.786225 -0.815520
v 0.627026 0.433250 -0.939772
v 0.604179 0.432249 -0.939918
v 0.622962 0.490974 -0.920965
v 0.649878 0.434250 -0.939627
v 0.630617 0.382935 -0.955839
v 0.606616 0.381697 -0.955931
v 0.601417 0.490248 -0.921171
v 0.644510 0.491699 -0.920759
v 0.654623 0.384174 -0.955747
v 0.610774 0.672339 -0.858099
v 0.593105 0.672502 -0.858497
v 0.607501 0.723039 -0.839645
v 0.628446 0.672176 -0.857701
v 0.614583 0.614225 -0.878865
v 0.595708 0.614099 -0.879202
v 0.590865 0.723455 -0.840097
v 0.624140 0.722622 -0.839193
v 0.633461 0.614350 -0.878529
v 0.636166 0.305407 -0.980153
v 0.610380 0.303803 -0.980162
v 0.635207 0.318958 -0.976011
v 0.661956 0.307012 -0.980143
v 0.636573 0.299491 -0.981624
v 0.610658 0.297858 -0.981628
v 0.609729 0.317418 -0.976035
v 0.660689 0.320498 -0.975987
v 0.662494 0.301124 -0.981621
v 0.561863 0.802159 -0.812349
v 0.559685 0.802211 -0.812066
v 0.561836 0.807470 -0.809971
v 0.566518 0.801932 -0.812304
v 0.561980 0.788946 -0.817314
v 0.559740 0.789024 -0.817005
v 0.559744 0.807419 -0.809763
v 0.566434 0.807271 -0.809900
v 0.566724 0.788728 -0.817282
v 0.565392 0.430535 -0.940036
v 0.562080 0.430356 -0.939672
v 0.564828 0.489003 -0.921394
v 0.572430 0.430856 -0.940119
v 0.565884 0.379576 -0.955959
v 0.562413 0.379362 -0.955587
v 0.561698 0.488866 -0.921039
v 0.571473 0.489239 -0.921458
v 0.573271 0.379972 -0.956059
v 0.563077 0.672769 -0.859046
v 0.560498 0.672764 -0.858719
v 0.562591 0.724153 -0.840736
v 0.568537 0.672729 -0.859051
v 0.563635 0.613875 -0.879646
v 0.560883 0.613827 -0.879310
v 0.560163 0.724185 -0.840418
v 0.567733 0.724035 -0.840725
v 0.569466 0.613924 -0.879670
v 0.566656 0.301075 -0.980049
v 0.562978 0.300861 -0.979661
v 0.566511 0.314782 -0.975948
v 0.574568 0.301567 -0.980176
v 0.566752 0.295136 -0.981499
v 0.563174 0.295081 -0.981095
v 0.562836 0.314523 -0.975567
v 0.574343 0.315272 -0.976069
v 0.574665 0.295583 -0.981633
v 0.636782 0.295943 -0.978934
v 0.662768 0.297592 -0.978933
v 0.636793 0.295623 -0.977064
v 0.610801 0.294294 -0.978934
v 0.636749 0.296586 -0.980439
v 0.662724 0.298233 -0.980438
v 0.662782 0.297274 -0.977064
v 0.610808 0.293973 -0.977064
v 0.610778 0.294940 -0.980439
v 0.561791 0.809416 -0.805426
v 0.559636 0.809182 -0.805614
v 0.561783 0.809386 -0.803466
v 0.566398 0.809274 -0.805223
v 0.561818 0.809188 -0.807202
v 0.559732 0.808972 -0.807262
v 0.559605 0.809147 -0.803696
v 0.566396 0.809247 -0.803248
v 0.566404 0.809041 -0.807041
v 0.559787 0.429964 -0.935967
v 0.560017 0.378944 -0.951877
v 0.559666 0.429811 -0.934044
v 0.559524 0.488503 -0.917340
v 0.560149 0.430109 -0.937632
v 0.560395 0.379093 -0.953543
v 0.559890 0.378789 -0.949953
v 0.559409 0.488351 -0.915417
v 0.559867 0.488644 -0.919004
v 0.560502 0.300365 -0.976059
v 0.560923 0.294470 -0.977844
v 0.560371 0.300193 -0.974153
v 0.560308 0.314072 -0.971849
v 0.560893 0.300568 -0.977674
v 0.561283 0.294814 -0.979300
v 0.560804 0.294250 -0.975991
v 0.560175 0.313915 -0.969925
v 0.560707 0.314226 -0.973517
v 0.662945 0.671533 -0.852691
v 0.656626 0.721483 -0.834078
v 0.663041 0.671384 -0.850764
v 0.670304 0.614271 -0.873638
v 0.662656 0.671664 -0.854365
v 0.656353 0.721618 -0.835753
v 0.656716 0.721332 -0.832151
v 0.670406 0.614124 -0.871712
v 0.669995 0.614397 -0.875311
v 0.642454 0.804873 -0.802503
v 0.637817 0.805248 -0.802633
v 0.642448 0.804839 -0.800542
v 0.644668 0.804405 -0.802536
v 0.642471 0.804657 -0.804283
v 0.637857 0.805024 -0.804454
v 0.637803 0.805218 -0.800658
v 0.644687 0.804364 -0.800615
v 0.644612 0.804214 -0.804193
v 0.558697 0.672494 -0.855040
v 0.558962 0.613528 -0.875625
v 0.558602 0.672347 -0.853118
v 0.558465 0.723941 -0.836744
v 0.558981 0.672620 -0.856701
v 0.559265 0.613658 -0.877287
v 0.558861 0.613379 -0.873702
v 0.558376 0.723795 -0.834822
v 0.558733 0.724063 -0.838404
v 0.711959 0.309857 -0.976001
v 0.710236 0.323201 -0.971707
v 0.712094 0.309703 -0.974094
v 0.712340 0.304074 -0.977822
v 0.711554 0.310005 -0.977615
v 0.709831 0.323303 -0.973374
v 0.710372 0.323062 -0.969782
v 0.712470 0.303872 -0.975969
v 0.711949 0.304363 -0.979277
v 0.706864 0.300571 -0.978867
v 0.710534 0.301306 -0.978670
v 0.706897 0.300260 -0.977009
v 0.698887 0.299892 -0.978933
v 0.706765 0.301188 -0.980338
v 0.710318 0.301863 -0.980043
v 0.710606 0.301015 -0.976845
v 0.698906 0.299575 -0.977064
v 0.698829 0.300530 -0.980437
v 0.558192 0.802047 -0.808486
v 0.558174 0.788813 -0.813338
v 0.558113 0.801916 -0.806572
v 0.558402 0.807379 -0.806438
v 0.558429 0.802125 -0.810123
v 0.558421 0.788930 -0.814997
v 0.558091 0.788669 -0.811417
v 0.558330 0.807286 -0.804547
v 0.558617 0.807343 -0.808007
v 0.602096 0.807262 -0.803928
v 0.587163 0.808104 -0.804470
v 0.602088 0.807233 -0.801954
v 0.617032 0.806420 -0.803387
v 0.602119 0.807033 -0.805748
v 0.587178 0.807873 -0.806289
v 0.587158 0.808075 -0.802495
v 0.617022 0.806390 -0.801412
v 0.617062 0.806193 -0.805207
v 0.694385 0.435890 -0.935111
v 0.686512 0.492797 -0.916123
v 0.694507 0.435747 -0.933186
v 0.701343 0.386282 -0.951334
v 0.694017 0.436001 -0.936781
v 0.686163 0.492913 -0.917794
v 0.686629 0.492653 -0.914198
v 0.701471 0.386141 -0.949410
v 0.700958 0.386389 -0.953004
v 0.647047 0.797314 -0.805345
v 0.646159 0.802516 -0.803282
v 0.647126 0.797174 -0.803425
v 0.648737 0.784458 -0.810273
v 0.646811 0.797418 -0.806998
v 0.645958 0.802508 -0.804867
v 0.646226 0.802414 -0.801385
v 0.648820 0.784306 -0.808346
v 0.648485 0.784598 -0.811949
v 0.566744 0.291651 -0.978869
v 0.574716 0.291996 -0.978934
v 0.566732 0.291334 -0.977010
v 0.563035 0.291913 -0.978676
v 0.566778 0.292287 -0.980343
v 0.574708 0.292646 -0.980440
v 0.574719 0.291675 -0.977064
v 0.562984 0.291611 -0.976849
v 0.563190 0.292505 -0.980050
v 0.643337 0.797818 0.809469
v 0.644889 0.784959 0.814508
v 0.645535 0.797638 0.809032
v 0.642689 0.802989 0.807062
v 0.638665 0.798088 0.809753
v 0.640129 0.785198 0.814797
v 0.647145 0.784821 0.814046
v 0.644813 0.802710 0.806704
v 0.638070 0.803300 0.807322
v 0.688720 0.435948 0.939252
v 0.695412 0.386278 0.955462
v 0.692055 0.436068 0.938846
v 0.681150 0.492926 0.920280
v 0.681657 0.435645 0.939425
v 0.688000 0.385901 0.955619
v 0.698908 0.386434 0.955064
v 0.684303 0.493005 0.919865
v 0.674484 0.492710 0.920472
v 0.658517 0.671889 0.856895
v 0.665580 0.614555 0.877828
v 0.661114 0.671836 0.856452
v 0.652455 0.721903 0.838296
v 0.653039 0.671950 0.857147
v 0.659729 0.614525 0.878060
v 0.668352 0.614544 0.877393
v 0.654901 0.721812 0.837845
v 0.647296 0.722042 0.838564
v 0.705739 0.309758 0.979996
v 0.706451 0.303965 0.981479
v 0.709436 0.310016 0.979604
v 0.703967 0.323118 0.975817
v 0.697803 0.309249 0.980129
v 0.698521 0.303401 0.981616
v 0.710028 0.304370 0.981073
v 0.707668 0.323320 0.975429
v 0.696109 0.322646 0.975953
v 0.602580 0.800011 0.811029
v 0.603414 0.786963 0.816040
v 0.617668 0.799207 0.810496
v 0.602241 0.805286 0.808612
v 0.587494 0.800815 0.811563
v 0.588066 0.787701 0.816559
v 0.618766 0.786225 0.815520
v 0.617222 0.804456 0.808072
v 0.587262 0.806117 0.809150
v 0.627026 0.433250 0.939773
v 0.630617 0.382935 0.955839
v 0.649878 0.434250 0.939627
v 0.622962 0.490974 0.920965
v 0.604179 0.432249 0.939918
v 0.606616 0.381697 0.955931
v 0.654623 0.384174 0.955747
v 0.644510 0.491699 0.920759
v 0.601417 0.490248 0.921171
v 0.610774 0.672339 0.858099
v 0.614583 0.614225 0.878865
v 0.628446 0.672177 0.857701
v 0.607501 0.723039 0.839645
v 0.593105 0.672503 0.858498
v 0.595708 0.614099 0.879202
v 0.633461 0.614350 0.878529
v 0.624140 0.722622 0.839193
v 0.590865 0.723455 0.840097
v 0.636166 0.305407 0.980153
v 0.636573 0.299491 0.981624
v 0.661956 0.307012 0.980143
v 0.635207 0.318958 0.976011
v 0.610380 0.303803 0.980163
v 0.610658 0.297858 0.981628
v 0.662494 0.301124 0.981621
v 0.660689 0.320498 0.975987
v 0.609729 0.317418 0.976035
v 0.561863 0.802159 0.812349
v 0.561980 0.788946 0.817314
v 0.566518 0.801932 0.812304
v 0.561836 0.807471 0.809971
v 0.559685 0.802211 0.812067
v 0.559740 0.789024 0.817005
v 0.566724 0.788728 0.817282
v 0.566434 0.807271 0.809900
v 0.559744 0.807419 0.809763
v 0.565392 0.430535 0.940036
v 0.565884 0.379576 0.955959
v 0.572430 0.430856 0.940119
v 0.564828 0.489003 0.921394
v 0.562080 0.430356 0.939672
v 0.562413 0.379362 0.955587
v 0.573271 0.379972 0.956059
v 0.571473 0.489239 0.921458
v 0.561698 0.488866 0.921039
v 0.563077 0.672769 0.859046
v 0.563635 0.613875 0.879646
v 0.568537 0.672729 0.859051
v 0.562591 0.724154 0.840737
v 0.560498 0.672764 0.858719
v 0.560883 0.613827 0.879310
v 0.569466 0.613924 0.879670
v 0.567733 0.724035 0.840725
v 0.560163 0.724185 0.840418
v 0.566656 0.301075 0.980049
v 0.566752 0.295136 0.981499
v 0.574568 0.301567 0.980176
v 0.566511 0.314782 0.975948
v 0.562978 0.300861 0.979661
v 0.563174 0.295081 0.981095
v 0.574665 0.295583 0.981633
v 0.574343 0.315272 0.976069
v 0.562836 0.314523 0.975567
v 0.636782 0.295943 0.978934
v 0.636749 0.296586 0.980439
v 0.610801 0.294294 0.978934
v 0.636793 0.295623 0.977064
v 0.662768 0.297592 0.978933
v 0.662724 0.298233 0.980438
v 0.610778 0.294940 0.980439
v 0.610808 0.293973 0.977064
v 0.662782 0.297274 0.977064
v 0.561791 0.809416 0.805426
v 0.561818 0.809188 0.807202
v 0.566398 0.809274 0.805223
v 0.561783 0.809386 0.803466
v 0.559636 0.809182 0.805614
v 0.559732 0.808972 0.807262
v 0.566404 0.809041 0.807041
v 0.566396 0.809247 0.803248
v 0.559605 0.809147 0.803696
v 0.559787 0.429964 0.935967
v 0.560149 0.430109 0.937632
v 0.559524 0.488503 0.917340
v 0.559666 0.429811 0.934044
v 0.560017 0.378944 0.951877
v 0.560395 0.379093 0.953543
v 0.559867 0.488644 0.919004
v 0.559409 0.488351 0.915417
v 0.559890 0.378789 0.949953
v 0.560502 0.300365 0.976059
v 0.560894 0.300568 0.977674
v 0.560308 0.314072 0.971849
v 0.560371 0.300193 0.974153
v 0.560923 0.294470 0.977844
v 0.561283 0.294814 0.979300
v 0.560707 0.314226 0.973517
v 0.560175 0.313915 0.969925
v 0.560804 0.294250 0.975991
v 0.662945 0.671533 0.852691
v 0.662655 0.671664 0.854365
v 0.670304 0.614271 0.873638
v 0.663041 0.671384 0.850764
v 0.656625 0.721483 0.834078
v 0.656353 0.721618 0.835753
v 0.669995 0.614397 0.875311
v 0.670406 0.614124 0.871712
v 0.656716 0.721332 0.832151
v 0.642454 0.804873 0.802503
v 0.642471 0.804657 0.804283
v 0.644668 0.804405 0.802536
v 0.642448 0.804839 0.800541
v 0.637817 0.805248 0.802634
v 0.637857 0.805024 0.804454
v 0.644612 0.804214 0.804193
v 0.644687 0.804364 0.800615
v 0.637803 0.805218 0.800658
v 0.558697 0.672494 0.855040
v 0.558981 0.672620 0.856701
v 0.558465 0.723941 0.836744
v 0.558602 0.672347 0.853118
v 0.558962 0.613528 0.875625
v 0.559265 0.613658 0.877287
v 0.558733 0.724063 0.838404
v 0.558376 0.723795 0.834822
v 0.558861 0.613379 0.873702
v 0.711959 0.309857 0.976001
v 0.711554 0.310005 0.977615
v 0.712340 0.304074 0.977822
v 0.712094 0.309703 0.974094
v 0.710236 0.323201 0.971707
v 0.709831 0.323303 0.973374
v 0.711949 0.304363 0.979277
v 0.712470 0.303872 0.975969
v 0.710372 0.323062 0.969782
v 0.706864 0.300571 0.978867
v 0.706765 0.301188 0.980338
v 0.698887 0.299892 0.978933
v 0.706897 0.300260 0.977009
v 0.710534 0.301306 0.978670
v 0.710318 0.301863 0.980043
v 0.698829 0.300530 0.980437
v 0.698906 0.299575 0.977064
v 0.710606 0.301015 0.976845
v 0.558192 0.802047 0.808486
v 0.558429 0.802125 0.810123
v 0.558402 0.807379 0.806439
v 0.558113 0.801916 0.806572
v 0.558174 0.788813 0.813338
v 0.558421 0.788930 0.814997
v 0.558617 0.807343 0.808007
v 0.558330 0.807286 0.804547
v 0.558091 0.788669 0.811417
v 0.602096 0.807262 0.803928
v 0.602119 0.807033 0.805748
v 0.617032 0.806420 0.803387
v 0.602088 0.807233 0.801954
v 0.587163 0.808104 0.804470
v 0.587178 0.807873 0.806289
v 0.617062 0.806193 0.805207
v 0.617022 0.806390 0.801412
v 0.587158 0.808075 0.802495
v 0.694385 0.435890 0.935111
v 0.694017 0.436001 0.936781
v 0.701343 0.386282 0.951334
v 0.694507 0.435747 0.933186
v 0.686512 0.492797 0.916123
v 0.686163 0.492913 0.917794
v 0.700958 0.386389 0.953004
v 0.701471 0.386141 0.949410
v 0.686629 0.492653 0.914198
v 0.647047 0.797314 0.805345
v 0.646811 0.797418 0.806998
v 0.648737 0.784458 0.810273
v 0.647126 0.797174 0.803425
v 0.646159 0.802516 0.803282
v 0.645958 0.802508 0.804867
v 0.648485 0.784598 0.811949
v 0.648820 0.784306 0.808346
v 0.646226 0.802414 0.801385
v 0.566744 0.291651 0.978869
v 0.566778 0.292287 0.980343
v 0.563035 0.291913 0.978676
v 0.566732 0.291334 0.977010
v 0.574716 0.291996 0.978934
v 0.574708 0.292646 0.980440
v 0.563190 0.292505 0.980050
v 0.562984 0.291611 0.976849
v 0.574719 0.291675 0.977064
v 0.561505 0.314377 -0.974798
v 0.561676 0.300750 -0.978905
v 0.561995 0.295084 -0.980377
v 0.698714 0.301646 -0.981392
v 0.706620 0.302267 -0.981262
v 0.710102 0.302835 -0.980873
v 0.647983 0.784721 -0.813249
v 0.646335 0.797516 -0.808267
v 0.645538 0.802527 -0.806041
v 0.566415 0.808417 -0.808626
v 0.561841 0.808580 -0.808736
v 0.559799 0.808417 -0.808645
v 0.559269 0.724148 -0.839672
v 0.559550 0.672713 -0.857971
v 0.559872 0.613761 -0.878559
v 0.700189 0.386446 -0.954289
v 0.693281 0.436066 -0.938068
v 0.685466 0.492987 -0.919084
v 0.570463 0.551476 -0.901000
v 0.564231 0.551333 -0.900956
v 0.561291 0.551240 -0.900610
v 0.669379 0.614492 -0.876605
v 0.662077 0.671768 -0.855660
v 0.655808 0.721730 -0.837050
v 0.559042 0.807312 -0.809150
v 0.558900 0.802172 -0.811357
v 0.558915 0.789005 -0.816263
v 0.567110 0.763986 -0.826274
v 0.562214 0.764166 -0.826299
v 0.559901 0.764226 -0.825986
v 0.560554 0.488767 -0.920280
v 0.560873 0.430241 -0.938910
v 0.561152 0.379233 -0.954822
v 0.711208 0.304531 -0.980353
v 0.710755 0.310080 -0.978847
v 0.709020 0.323348 -0.974658
v 0.573930 0.340229 -0.968350
v 0.566269 0.339775 -0.968237
v 0.562672 0.339534 -0.967860
v 0.610733 0.296074 -0.981398
v 0.636683 0.297715 -0.981396
v 0.662638 0.299357 -0.981395
v 0.644624 0.803685 -0.805584
v 0.642537 0.804070 -0.805822
v 0.637937 0.804417 -0.806043
v 0.676214 0.553684 -0.899065
v 0.673254 0.553650 -0.899490
v 0.667001 0.553526 -0.899703
v 0.650111 0.760723 -0.823175
v 0.647782 0.760843 -0.823632
v 0.642870 0.761044 -0.823914
v 0.704300 0.347664 -0.967573
v 0.700678 0.347480 -0.967966
v 0.692991 0.347045 -0.968109
v 0.631783 0.785599 -0.815080
v 0.630462 0.798525 -0.810043
v 0.629925 0.803751 -0.807615
v 0.674971 0.385225 -0.955669
v 0.669250 0.435100 -0.939504
v 0.662778 0.492314 -0.920584
v 0.649468 0.614457 -0.878243
v 0.643431 0.672038 -0.857363
v 0.638249 0.722268 -0.838810
v 0.684462 0.302510 -0.981618
v 0.683813 0.308374 -0.980134
v 0.682286 0.321805 -0.975966
v 0.617122 0.805581 -0.806795
v 0.602164 0.806417 -0.807335
v 0.587210 0.807254 -0.807875
v 0.638908 0.552929 -0.900080
v 0.618716 0.552501 -0.900351
v 0.598528 0.552072 -0.900623
v 0.620821 0.761900 -0.824601
v 0.604977 0.762515 -0.825094
v 0.589136 0.763131 -0.825588
v 0.658356 0.345060 -0.968180
v 0.633442 0.343636 -0.968230
v 0.608532 0.342212 -0.968280
v 0.563289 0.293517 -0.980886
v 0.566795 0.293397 -0.981272
v 0.574692 0.293787 -0.981401
v 0.575057 0.788327 -0.817000
v 0.574708 0.801496 -0.812015
v 0.574566 0.806821 -0.809607
v 0.586280 0.380646 -0.956009
v 0.584819 0.431401 -0.940041
v 0.583160 0.489633 -0.921346
v 0.579711 0.613993 -0.879487
v 0.578129 0.672641 -0.858835
v 0.576765 0.723808 -0.840480
v 0.588703 0.296473 -0.981631
v 0.588536 0.302442 -0.980171
v 0.588145 0.316111 -0.976056
v 0.560175 0.313757 -0.967873
v 0.560371 0.300035 -0.972100
v 0.560804 0.294092 -0.973939
v 0.698906 0.299417 -0.975011
v 0.706897 0.300103 -0.974957
v 0.710606 0.300857 -0.974792
v 0.648820 0.784148 -0.806293
v 0.647126 0.797016 -0.801373
v 0.646226 0.802256 -0.799332
v 0.566396 0.809089 -0.801196
v 0.561783 0.809229 -0.801413
v 0.559605 0.808989 -0.801643
v 0.558376 0.723637 -0.832770
v 0.558602 0.672189 -0.851065
v 0.558861 0.613221 -0.871650
v 0.701471 0.385983 -0.947357
v 0.694507 0.435590 -0.931134
v 0.686629 0.492495 -0.912146
v 0.670406 0.613966 -0.869660
v 0.663041 0.671226 -0.848712
v 0.656716 0.721174 -0.830099
v 0.558330 0.807128 -0.802495
v 0.558113 0.801758 -0.804520
v 0.558091 0.788512 -0.809364
v 0.559409 0.488193 -0.913364
v 0.559666 0.429653 -0.931991
v 0.559890 0.378631 -0.947900
v 0.712470 0.303714 -0.973917
v 0.712094 0.309545 -0.972042
v 0.710371 0.322904 -0.967730
v 0.610808 0.293815 -0.975011
v 0.636793 0.295465 -0.975011
v 0.662782 0.297116 -0.975011
v 0.644687 0.804206 -0.798563
v 0.642448 0.804681 -0.798489
v 0.637803 0.805060 -0.798606
v 0.617022 0.806233 -0.799360
v 0.602088 0.807075 -0.799901
v 0.587158 0.807918 -0.800443
v 0.562984 0.291453 -0.974797
v 0.566732 0.291176 -0.974958
v 0.574719 0.291517 -0.975011
v 0.684809 0.298674 -0.977064
v 0.684792 0.298992 -0.978933
v 0.684739 0.299631 -0.980437
v 0.588776 0.293543 -0.980440
v 0.588790 0.292895 -0.978934
v 0.588794 0.292574 -0.977064
v 0.558806 0.808467 -0.804027
v 0.558863 0.808521 -0.805909
v 0.559036 0.808366 -0.807453
v 0.574515 0.808585 -0.806748
v 0.574506 0.808817 -0.804929
v 0.574503 0.808790 -0.802954
v 0.560065 0.338940 -0.962221
v 0.560196 0.339096 -0.964145
v 0.560587 0.339248 -0.965812
v 0.559567 0.551044 -0.898581
v 0.559243 0.550909 -0.896918
v 0.559135 0.550758 -0.894995
v 0.561624 0.292563 -0.976527
v 0.561719 0.292835 -0.978339
v 0.562005 0.293336 -0.979668
v 0.651840 0.760222 -0.817477
v 0.651754 0.760373 -0.819404
v 0.651494 0.760512 -0.821079
v 0.677967 0.553565 -0.896989
v 0.678295 0.553443 -0.895317
v 0.678405 0.553298 -0.893392
v 0.629684 0.805676 -0.800953
v 0.629696 0.805706 -0.802928
v 0.629732 0.805480 -0.804748
v 0.645400 0.803548 -0.804337
v 0.645543 0.803676 -0.802779
v 0.645590 0.803614 -0.800892
v 0.558540 0.764121 -0.823976
v 0.558285 0.764003 -0.822316
v 0.558200 0.763858 -0.820395
v 0.706949 0.347393 -0.961924
v 0.706816 0.347533 -0.963848
v 0.706419 0.347637 -0.965517
v 0.711407 0.302830 -0.979654
v 0.711744 0.302380 -0.978327
v 0.711856 0.302124 -0.976517
v 0.561505 0.314377 0.974799
v 0.561676 0.300750 0.978905
v 0.561995 0.295084 0.980377
v 0.698714 0.301646 0.981392
v 0.706620 0.302267 0.981262
v 0.710102 0.302835 0.980873
v 0.647983 0.784721 0.813248
v 0.646335 0.797516 0.808267
v 0.645538 0.802527 0.806041
v 0.566415 0.808417 0.808626
v 0.561841 0.808580 0.808736
v 0.559799 0.808417 0.808644
v 0.559269 0.724148 0.839672
v 0.559550 0.672713 0.857971
v 0.559872 0.613761 0.878559
v 0.700189 0.386446 0.954289
v 0.693281 0.436066 0.938068
v 0.685466 0.492987 0.919084
v 0.570463 0.551476 0.901000
v 0.564231 0.551333 0.900956
v 0.561291 0.551240 0.900610
v 0.669379 0.614492 0.876605
v 0.662077 0.671768 0.855660
v 0.655808 0.721730 0.837050
v 0.559042 0.807312 0.809150
v 0.558900 0.802172 0.811357
v 0.558915 0.789005 0.816263
v 0.567110 0.763986 0.826274
v 0.562214 0.764166 0.826299
v 0.559901 0.764226 0.825986
v 0.560554 0.488767 0.920280
v 0.560873 0.430241 0.938911
v 0.561152 0.379233 0.954822
v 0.711208 0.304531 0.980353
v 0.710755 0.310080 0.978847
v 0.709020 0.323349 0.974658
v 0.573930 0.340229 0.968350
v 0.566269 0.339775 0.968237
v 0.562672 0.339534 0.967860
v 0.610733 0.296074 0.981398
v 0.636683 0.297715 0.981396
v 0.662638 0.299357 0.981395
v 0.644624 0.803685 0.805584
v 0.642537 0.804070 0.805822
v 0.637937 0.804417 0.806043
v 0.676214 0.553684 0.899065
v 0.673254 0.553650 0.899490
v 0.667001 0.553526 0.899703
v 0.650111 0.760723 0.823175
v 0.647782 0.760843 0.823632
v 0.642870 0.761044 0.823914
v 0.704300 0.347664 0.967573
v 0.700678 0.347480 0.967966
v 0.692991 0.347045 0.968109
v 0.631783 0.785599 0.815080
v 0.630462 0.798525 0.810044
v 0.629925 0.803751 0.807615
v 0.674971 0.385225 0.955669
v 0.669250 0.435100 0.939504
v 0.662778 0.492314 0.920584
v 0.649468 0.614457 0.878243
v 0.643431 0.672038 0.857363
v 0.638249 0.722268 0.838810
v 0.684462 0.302510 0.981618
v 0.683813 0.308374 0.980134
v 0.682286 0.321805 0.975966
v 0.617122 0.805581 0.806795
v 0.602164 0.806417 0.807335
v 0.587210 0.807254 0.807875
v 0.638908 0.552929 0.900080
v 0.618716 0.552501 0.900352
v 0.598528 0.552072 0.900623
v 0.620821 0.761900 0.824601
v 0.604977 0.762515 0.825094
v 0.589136 0.763130 0.825588
v 0.658356 0.345060 0.968180
v 0.633442 0.343636 0.968230
v 0.608531 0.342212 0.968280
v 0.563289 0.293517 0.980886
v 0.566795 0.293397 0.981272
v 0.574692 0.293787 0.981401
v 0.575057 0.788327 0.817000
v 0.574708 0.801496 0.812015
v 0.574566 0.806821 0.809607
v 0.586280 0.380646 0.956009
v 0.584819 0.431401 0.940041
v 0.583160 0.489633 0.921346
v 0.579711 0.613993 0.879488
v 0.578129 0.672641 0.858835
v 0.576765 0.723808 0.840480
v 0.588703 0.296473 0.981631
v 0.588536 0.302442 0.980171
v 0.588145 0.316111 0.976056
v 0.560175 0.313757 0.967873
v 0.560371 0.300035 0.972100
v 0.560804 0.294092 0.973939
v 0.698906 0.299417 0.975011
v 0.706897 0.300103 0.974957
v 0.710606 0.300857 0.974792
v 0.648820 0.784148 0.806293
v 0.647126 0.797016 0.801373
v 0.646226 0.802256 0.799332
v 0.566396 0.809089 0.801196
v 0.561783 0.809229 0.801413
v 0.559605 0.808989 0.801643
v 0.558376 0.723637 0.832770
v 0.558602 0.672189 0.851065
v 0.558861 0.613221 0.871650
v 0.701471 0.385983 0.947357
v 0.694507 0.435590 0.931134
v 0.686629 0.492495 0.912146
v 0.670406 0.613966 0.869660
v 0.663041 0.671226 0.848712
v 0.656716 0.721174 0.830099
v 0.558330 0.807128 0.802495
v 0.558113 0.801758 0.804520
v 0.558091 0.788512 0.809364
v 0.559409 0.488193 0.913364
v 0.559666 0.429653 0.931991
v 0.559890 0.378631 0.947900
v 0.712470 0.303714 0.973917
v 0.712094 0.309545 0.972042
v 0.710371 0.322904 0.967730
v 0.610808 0.293815 0.975011
v 0.636793 0.295465 0.975011
v 0.662782 0.297116 0.975011
v 0.644687 0.804206 0.798563
v 0.642448 0.804681 0.798489
v 0.637803 0.805060 0.798606
v 0.617022 0.806233 0.799360
v 0.602088 0.807075 0.799901
v 0.587158 0.807918 0.800443
v 0.562984 0.291453 0.974797
v 0.566732 0.291176 0.974958
v 0.574719 0.291517 0.975011
v 0.684809 0.298674 0.977064
v 0.684792 0.298992 0.978933
v 0.684739 0.299631 0.980437
v 0.588776 0.293543 0.980440
v 0.588790 0.292895 0.978934
v 0.588794 0.292574 0.977064
v 0.558806 0.808467 0.804027
v 0.558863 0.808521 0.805910
v 0.559036 0.808366 0.807453
v 0.574515 0.808585 0.806748
v 0.574506 0.808817 0.804929
v 0.574503 0.808790 0.802954
v 0.560065 0.338940 0.962221
v 0.560196 0.339096 0.964145
v 0.560587 0.339248 0.965812
v 0.559567 0.551044 0.898581
v 0.559243 0.550909 0.896918
v 0.559135 0.550758 0.894995
v 0.561624 0.292563 0.976527
v 0.561719 0.292835 0.978339
v 0.562005 0.293336 0.979668
v 0.651840 0.760222 0.817477
v 0.651754 0.760373 0.819404
v 0.651494 0.760511 0.821079
v 0.677967 0.553565 0.896989
v 0.678295 0.553443 0.895317
v 0.678405 0.553298 0.893392
v 0.629684 0.805676 0.800953
v 0.629696 0.805706 0.802928
v 0.629732 0.805480 0.804748
v 0.645400 0.803548 0.804337
v 0.645543 0.803676 0.802779
v 0.645590 0.803614 0.800892
v 0.558540 0.764121 0.823976
v 0.558285 0.764003 0.822316
v 0.558200 0.763858 0.820395
v 0.706949 0.347393 0.961924
v 0.706816 0.347533 0.963848
v 0.706419 0.347637 0.965517
v 0.711407 0.302830 0.979654
v 0.711744 0.302380 0.978327
v 0.711856 0.302124 0.976516
v 0.562390 0.293928 -0.980364
v 0.710953 0.303354 -0.980348
v 0.559268 0.808072 -0.808440
v 0.645207 0.803290 -0.805343
v 0.560213 0.551157 -0.899855
v 0.677310 0.553649 -0.898281
v 0.650976 0.760630 -0.822378
v 0.559051 0.764200 -0.825243
v 0.561369 0.339395 -0.967093
v 0.705624 0.347686 -0.966801
v 0.684635 0.300750 -0.981393
v 0.629805 0.804871 -0.806337
v 0.656028 0.553293 -0.899850
v 0.634256 0.761378 -0.824182
v 0.679473 0.346268 -0.968137
v 0.574534 0.807963 -0.808333
v 0.581419 0.551709 -0.900853
v 0.575710 0.763652 -0.826006
v 0.587427 0.341005 -0.968323
v 0.588749 0.294681 -0.981400
v 0.561624 0.292405 -0.974475
v 0.711856 0.301966 -0.974464
v 0.558806 0.808309 -0.801974
v 0.645590 0.803456 -0.798840
v 0.559135 0.550601 -0.892943
v 0.678405 0.553140 -0.891339
v 0.651840 0.760064 -0.815424
v 0.558200 0.763700 -0.818342
v 0.560065 0.338782 -0.960169
v 0.706949 0.347235 -0.959871
v 0.684809 0.298516 -0.975011
v 0.629684 0.805518 -0.798900
v 0.574503 0.808632 -0.800902
v 0.588794 0.292416 -0.975011
v 0.562390 0.293928 0.980364
v 0.710953 0.303354 0.980348
v 0.559268 0.808072 0.808440
v 0.645207 0.803289 0.805343
v 0.560213 0.551157 0.899855
v 0.677310 0.553649 0.898281
v 0.650976 0.760630 0.822378
v 0.559051 0.764200 0.825243
v 0.561369 0.339395 0.967093
v 0.705624 0.347686 0.966801
v 0.684635 0.300750 0.981393
v 0.629805 0.804871 0.806337
v 0.656028 0.553293 0.899850
v 0.634256 0.761378 0.824182
v 0.679473 0.346268 0.968137
v 0.574534 0.807963 0.808333
v 0.581419 0.551709 0.900853
v 0.575710 0.763652 0.826006
v 0.587427 0.341005 0.968323
v 0.588749 0.294681 0.981400
v 0.561624 0.292405 0.974475
v 0.711856 0.301966 0.974464
v 0.558806 0.808309 0.801974
v 0.645590 0.803456 0.798840
v 0.559135 0.550601 0.892943
v 0.678405 0.553140 0.891339
v 0.651840 0.760064 0.815424
v 0.558200 0.763700 0.818342
v 0.560065 0.338782 0.960169
v 0.706949 0.347235 0.959871
v 0.684809 0.298516 0.975011
v 0.629684 0.805518 0.798900
v 0.574503 0.808632 0.800902
v 0.588794 0.292416 0.975011
vn 0.1440 0.4035 -0.9036
vn 0.0617 0.3639 -0.9293
vn 0.0658 0.3988 -0.9146
vn 0.0487 0.3611 -0.9312
vn 0.0533 0.3962 -0.9166
vn 0.1413 0.3703 -0.9181
vn 0.0553 0.3572 -0.9324
vn 0.0427 0.3544 -0.9341
vn 0.1466 0.6058 -0.7820
vn 0.0733 0.6043 -0.7934
vn 0.1479 0.8525 -0.5014
vn 0.0618 0.6023 -0.7958
vn 0.0773 0.8568 -0.5097
vn 0.4305 0.5749 -0.6958
vn 0.4558 0.3974 -0.7964
vn 0.8077 0.3207 -0.4947
vn 0.4071 0.7942 -0.4510
vn 0.6786 0.6482 -0.3453
vn 0.7604 0.4787 -0.4389
vn 0.4541 0.3684 -0.8112
vn 0.1329 0.3638 -0.9219
vn 0.8091 0.2969 -0.5070
vn 0.8015 0.2960 -0.5195
vn 0.4422 0.3641 -0.8197
vn 0.0563 0.3193 -0.9460
vn -0.0039 0.3073 -0.9516
vn 0.0010 0.3124 -0.9499
vn -0.0122 0.3052 -0.9522
vn -0.0077 0.3103 -0.9506
vn 0.0488 0.3140 -0.9481
vn -0.0076 0.3051 -0.9523
vn -0.0155 0.3031 -0.9528
vn 0.0660 0.3269 -0.9427
vn 0.0075 0.3199 -0.9474
vn 0.0775 0.3373 -0.9382
vn -0.0017 0.3176 -0.9482
vn 0.0155 0.3303 -0.9437
vn 0.3295 0.3418 -0.8801
vn 0.3110 0.3360 -0.8890
vn 0.6930 0.3106 -0.6506
vn 0.3509 0.3494 -0.8688
vn 0.7108 0.3101 -0.6313
vn 0.2958 0.3318 -0.8957
vn 0.0434 0.3117 -0.9492
vn 0.6777 0.3111 -0.6662
vn 0.6661 0.3119 -0.6775
vn 0.2846 0.3299 -0.9001
vn 0.1057 0.3551 -0.9288
vn 0.0250 0.3407 -0.9398
vn 0.0355 0.3482 -0.9367
vn 0.0144 0.3381 -0.9410
vn 0.0242 0.3456 -0.9380
vn 0.0909 0.3475 -0.9332
vn 0.0056 0.3279 -0.9447
vn 0.1202 0.3605 -0.9250
vn 0.0461 0.3538 -0.9342
vn 0.0341 0.3511 -0.9357
vn 0.4227 0.3632 -0.8303
vn 0.3993 0.3608 -0.8428
vn 0.7703 0.3043 -0.5604
vn 0.7877 0.3000 -0.5380
vn 0.3747 0.3565 -0.8558
vn 0.7506 0.3078 -0.5847
vn 0.7302 0.3095 -0.6090
vn 0.0398 0.2780 -0.9597
vn 0.0047 0.0612 -0.9981
vn -0.0089 0.2711 -0.9625
vn -0.0036 0.0600 -0.9982
vn -0.0164 0.2692 -0.9629
vn 0.0596 0.0646 -0.9961
vn 0.0361 -0.4027 -0.9146
vn 0.0257 -0.4030 -0.9148
vn 0.0403 0.3072 -0.9508
vn -0.0095 0.3007 -0.9536
vn -0.0172 0.2988 -0.9541
vn 0.2783 0.3251 -0.9038
vn 0.2800 0.2941 -0.9138
vn 0.6627 0.2746 -0.6967
vn 0.6597 0.3078 -0.6855
vn 0.3155 0.0763 -0.9458
vn 0.3790 -0.3420 -0.8599
vn 0.1046 -0.3966 -0.9120
vn 0.6839 0.0622 -0.7269
vn 0.6609 -0.2162 -0.7186
vn 0.0531 0.3899 -0.9193
vn 0.0486 0.3518 -0.9348
vn 0.0530 0.3865 -0.9207
vn 0.0486 0.3492 -0.9358
vn 0.0530 0.3837 -0.9219
vn 0.0486 0.3551 -0.9336
vn 0.0427 0.3455 -0.9374
vn 0.0427 0.3429 -0.9384
vn 0.0616 0.5965 -0.8002
vn 0.0616 0.5933 -0.8025
vn 0.0663 0.8531 -0.5175
vn 0.0616 0.5907 -0.8045
vn 0.0664 0.8513 -0.5204
vn 0.0617 0.5997 -0.7978
vn 0.0532 0.3933 -0.9178
vn 0.0663 0.8548 -0.5146
vn 0.0663 0.8563 -0.5122
vn 0.0486 0.3583 -0.9323
vn 0.0427 0.3486 -0.9363
vn 0.0427 0.3517 -0.9351
vn -0.0074 0.3065 -0.9518
vn -0.0112 0.2998 -0.9539
vn -0.0067 0.3045 -0.9525
vn -0.0073 0.3028 -0.9530
vn -0.0119 0.3017 -0.9533
vn -0.0146 0.2979 -0.9545
vn -0.0118 0.2981 -0.9544
vn -0.0014 0.3137 -0.9495
vn -0.0010 0.3119 -0.9501
vn 0.0059 0.3236 -0.9462
vn -0.0011 0.3100 -0.9507
vn 0.0060 0.3212 -0.9470
vn -0.0016 0.3158 -0.9488
vn -0.0075 0.3085 -0.9512
vn 0.0057 0.3259 -0.9453
vn -0.0120 0.3036 -0.9527
vn -0.0152 0.2998 -0.9539
vn -0.0153 0.3016 -0.9533
vn 0.0243 0.3406 -0.9399
vn 0.0147 0.3309 -0.9435
vn 0.0244 0.3378 -0.9409
vn 0.0148 0.3288 -0.9443
vn 0.0244 0.3356 -0.9417
vn 0.0146 0.3334 -0.9426
vn 0.0063 0.3196 -0.9475
vn 0.0341 0.3457 -0.9377
vn 0.0341 0.3427 -0.9388
vn 0.0342 0.3403 -0.9397
vn 0.0341 0.3486 -0.9366
vn 0.0242 0.3433 -0.9389
vn 0.0145 0.3360 -0.9417
vn -0.0033 0.0578 -0.9983
vn -0.0160 0.2640 -0.9644
vn -0.0158 0.2659 -0.9639
vn -0.0033 0.0566 -0.9984
vn -0.0160 0.2625 -0.9648
vn 0.0255 -0.4025 -0.9150
vn 0.0255 -0.4022 -0.9152
vn -0.0033 0.0556 -0.9984
vn -0.0166 0.2937 -0.9557
vn -0.0167 0.2956 -0.9551
vn -0.0168 0.2919 -0.9563
vn -0.0151 0.2962 -0.9550
vn -0.0170 0.2973 -0.9546
vn -0.0162 0.2677 -0.9633
vn -0.0035 0.0590 -0.9982
vn 0.0256 -0.4028 -0.9149
vn -0.0413 0.3797 -0.9242
vn -0.3999 0.3150 -0.8607
vn -0.3966 0.3475 -0.8496
vn -0.8107 0.1995 -0.5504
vn -0.8094 0.2270 -0.5416
vn -0.0470 0.3457 -0.9371
vn -0.3951 0.3100 -0.8647
vn -0.8045 0.1978 -0.5600
vn -0.0294 0.5881 -0.8083
vn -0.3354 0.8001 -0.4974
vn -0.0237 0.8498 -0.5265
vn -0.3646 0.5452 -0.7548
vn -0.7679 0.4103 -0.4918
vn 0.0495 0.5890 -0.8066
vn 0.0403 0.3820 -0.9233
vn 0.0547 0.8494 -0.5249
vn 0.0664 0.8498 -0.5228
vn 0.0355 0.3475 -0.9370
vn -0.0502 0.3395 -0.9393
vn 0.0300 0.3413 -0.9395
vn -0.0743 0.2951 -0.9525
vn -0.3348 0.2814 -0.8993
vn -0.0727 0.2997 -0.9513
vn -0.7101 0.2049 -0.6736
vn -0.7215 0.2045 -0.6615
vn -0.0755 0.2934 -0.9530
vn -0.3274 0.2780 -0.9030
vn -0.7013 0.2063 -0.6823
vn -0.3439 0.2866 -0.8942
vn -0.0704 0.3064 -0.9493
vn -0.0674 0.3158 -0.9464
vn -0.7349 0.2047 -0.6465
vn -0.3540 0.2941 -0.8878
vn -0.0162 0.3015 -0.9533
vn -0.0108 0.3083 -0.9512
vn -0.0039 0.3181 -0.9480
vn -0.0204 0.2969 -0.9547
vn -0.0233 0.2951 -0.9552
vn -0.0589 0.3320 -0.9414
vn -0.3649 0.3014 -0.8809
vn -0.3760 0.3060 -0.8746
vn -0.7649 0.2062 -0.6102
vn -0.7799 0.2043 -0.5916
vn -0.0635 0.3254 -0.9434
vn -0.7495 0.2059 -0.6291
vn -0.0542 0.3367 -0.9400
vn -0.3863 0.3088 -0.8691
vn -0.7935 0.2013 -0.5742
vn 0.0221 0.3386 -0.9406
vn 0.0131 0.3339 -0.9425
vn 0.0042 0.3274 -0.9449
vn -0.0738 0.2604 -0.9626
vn -0.3236 0.0291 -0.9457
vn -0.3176 0.2427 -0.9166
vn -0.6870 -0.0307 -0.7260
vn -0.6950 0.1720 -0.6981
vn -0.0669 0.0502 -0.9965
vn -0.3342 -0.3843 -0.8606
vn -0.6315 -0.2929 -0.7179
vn -0.3185 0.2730 -0.9077
vn -0.0760 0.2892 -0.9542
vn -0.3218 0.2770 -0.9054
vn -0.6962 0.2034 -0.6884
vn -0.0239 0.2614 -0.9649
vn -0.0249 0.2908 -0.9564
vn -0.0117 0.0545 -0.9984
vn 0.0154 -0.4027 -0.9152
vn -0.0531 -0.4049 -0.9128
vn 0.0256 -0.4020 -0.9153
vn 0.0509 -0.8028 -0.5940
vn 0.0608 -0.9574 -0.2823
vn 0.0607 -0.9572 -0.2829
vn 0.0512 -0.8039 -0.5925
vn 0.0610 -0.9575 -0.2818
vn 0.0510 -0.8034 -0.5932
vn 0.0629 -0.9904 -0.1225
vn 0.0629 -0.9904 -0.1227
vn 0.0632 -0.9951 -0.0765
vn 0.0631 -0.9904 -0.1223
vn 0.0634 -0.9950 -0.0765
vn 0.0608 -0.9570 -0.2835
vn 0.0629 -0.9904 -0.1228
vn 0.0609 -0.9568 -0.2840
vn 0.0631 -0.9904 -0.1229
vn 0.0509 -0.8021 -0.5949
vn 0.0510 -0.8016 -0.5956
vn -0.0269 0.9679 -0.2498
vn -0.3850 0.9210 -0.0592
vn -0.0354 0.9978 -0.0552
vn -0.3531 0.9026 -0.2462
vn -0.7935 0.6041 -0.0735
vn -0.7455 0.6242 -0.2335
vn -0.4021 0.9146 0.0414
vn -0.0431 0.9980 0.0461
vn -0.3735 0.9249 0.0711
vn -0.0419 0.9962 0.0766
vn -0.8140 0.5806 0.0185
vn -0.7925 0.6080 0.0468
vn 0.0455 0.9974 -0.0562
vn 0.0413 0.9981 0.0454
vn 0.0582 0.9967 -0.0560
vn 0.0403 0.9962 0.0766
vn 0.0546 0.9975 0.0454
vn 0.0513 0.9674 -0.2479
vn 0.0633 0.9669 -0.2468
vn -0.9325 0.1044 -0.3458
vn -0.9893 0.0390 -0.1404
vn -0.9901 0.0379 -0.1347
vn -0.9276 0.1064 -0.3580
vn -0.9886 0.0401 -0.1448
vn -0.9238 0.1085 -0.3671
vn -0.9995 0.0056 -0.0323
vn -0.9995 0.0053 -0.0309
vn -1.0000 -0.0043 -0.0003
vn -0.9994 0.0058 -0.0333
vn -0.9911 0.0369 -0.1281
vn -0.9995 0.0051 -0.0294
vn -0.9920 0.0359 -0.1209
vn -0.9996 0.0049 -0.0277
vn -0.9379 0.1024 -0.3314
vn -0.9435 0.1008 -0.3156
vn -0.9214 0.0742 -0.3813
vn -0.9608 -0.2087 -0.1821
vn -0.9884 0.0034 -0.1516
vn -0.8962 -0.1275 -0.4249
vn -0.7687 -0.5900 -0.2469
vn -0.7243 -0.4661 -0.5080
vn -0.9679 -0.2451 -0.0549
vn -0.9988 -0.0322 -0.0368
vn -0.9732 -0.2293 -0.0176
vn -0.9992 -0.0384 -0.0029
vn -0.7696 -0.6318 -0.0917
vn -0.7849 -0.6177 -0.0475
vn -0.9883 0.0362 -0.1480
vn -0.9994 0.0012 -0.0344
vn -0.9999 -0.0084 -0.0006
vn -0.9216 0.1056 -0.3734
vn 0.9822 0.1608 -0.0964
vn 0.9439 0.2130 -0.2524
vn 0.9834 0.1575 -0.0902
vn 0.9479 0.2092 -0.2402
vn 0.9841 0.1555 -0.0852
vn 0.9384 0.2182 -0.2677
vn 0.9911 0.1319 -0.0146
vn 0.9914 0.1299 -0.0132
vn 0.9923 0.1230 0.0094
vn 0.9916 0.1289 -0.0121
vn 0.9925 0.1214 0.0093
vn 0.9908 0.1346 -0.0161
vn 0.9809 0.1648 -0.1035
vn 0.9902 0.1384 -0.0176
vn 0.9792 0.1695 -0.1110
vn 0.9921 0.1253 0.0096
vn 0.9916 0.1286 0.0099
vn 0.9320 0.2237 -0.2851
vn 0.9249 0.2292 -0.3032
vn 0.1451 0.9615 -0.2333
vn 0.0699 0.9962 -0.0522
vn 0.1442 0.9883 -0.0495
vn 0.0742 0.9684 -0.2382
vn 0.0581 0.9969 -0.0531
vn 0.0631 0.9687 -0.2399
vn 0.0671 0.9966 0.0464
vn 0.1446 0.9884 0.0470
vn 0.0665 0.9948 0.0765
vn 0.1449 0.9865 0.0759
vn 0.0546 0.9974 0.0461
vn 0.0534 0.9956 0.0765
vn 0.4389 0.8975 0.0432
vn 0.4288 0.9021 -0.0474
vn 0.7795 0.6258 0.0252
vn 0.7643 0.6424 -0.0559
vn 0.4272 0.9015 0.0693
vn 0.7645 0.6428 0.0494
vn 0.4108 0.8860 -0.2150
vn 0.7284 0.6560 -0.1974
vn -0.9543 0.0952 -0.2832
vn -0.9929 0.0347 -0.1136
vn -0.9937 0.0331 -0.1067
vn -0.9491 0.0985 -0.2991
vn -0.9996 0.0045 -0.0260
vn -0.9997 0.0042 -0.0244
vn -0.9944 0.0315 -0.1007
vn -0.9997 0.0038 -0.0229
vn -0.9949 0.0301 -0.0960
vn -1.0000 -0.0042 -0.0003
vn -0.9997 0.0034 -0.0219
vn -0.9587 0.0917 -0.2692
vn -0.9621 0.0884 -0.2580
vn 0.9796 0.1404 -0.1434
vn 0.8984 0.2392 -0.3683
vn 0.9744 0.1762 -0.1396
vn 0.9003 0.2430 -0.3610
vn 0.9740 0.1811 -0.1361
vn 0.9032 0.2052 -0.3769
vn 0.9941 0.1046 -0.0267
vn 0.9897 0.1411 -0.0241
vn 0.9951 0.0985 0.0076
vn 0.9889 0.1468 -0.0230
vn 0.9913 0.1312 0.0101
vn 0.9912 -0.1236 -0.0460
vn 0.9807 -0.0867 -0.1750
vn 0.8370 -0.5406 -0.0847
vn 0.8327 -0.4986 -0.2405
vn 0.9944 -0.1053 -0.0081
vn 0.8500 -0.5251 -0.0404
vn 0.9066 -0.0104 -0.4219
vn 0.1443 -0.9488 -0.2810
vn 0.4368 -0.6915 -0.5753
vn 0.4611 -0.8415 -0.2814
vn 0.7753 -0.3796 -0.5047
vn 0.1367 -0.7938 -0.5926
vn 0.1444 -0.9821 -0.1210
vn 0.4555 -0.8828 -0.1146
vn 0.1447 -0.9865 -0.0759
vn 0.4651 -0.8826 -0.0679
vn 0.0744 -0.9897 -0.1222
vn 0.0724 -0.9568 -0.2815
vn 0.0746 -0.9943 -0.0765
vn 0.0627 -0.8033 -0.5922
vn -0.9626 0.1133 -0.2459
vn -0.9951 0.0322 -0.0929
vn -0.9945 0.0539 -0.0894
vn -0.9638 0.0897 -0.2509
vn -0.9998 0.0062 -0.0209
vn -0.9994 0.0277 -0.0185
vn -1.0000 -0.0008 -0.0001
vn -0.9997 0.0237 0.0018
vn -0.9653 0.2468 -0.0847
vn -0.9769 0.2134 -0.0058
vn -0.9719 0.2348 0.0181
vn -0.9203 0.3087 -0.2402
vn -0.6834 0.6188 -0.3873
vn 0.0632 0.9678 -0.2434
vn 0.0582 0.9968 -0.0554
vn 0.0581 0.9968 -0.0546
vn 0.0632 0.9673 -0.2453
vn 0.0546 0.9975 0.0455
vn 0.0546 0.9974 0.0457
vn 0.0534 0.9956 0.0766
vn 0.0581 0.9969 -0.0538
vn 0.0546 0.9974 0.0459
vn 0.0631 0.9683 -0.2415
vn 0.9761 0.1773 -0.1252
vn 0.9178 0.2339 -0.3207
vn 0.9776 0.1739 -0.1183
vn 0.9110 0.2378 -0.3368
vn 0.9893 0.1447 -0.0206
vn 0.9897 0.1421 -0.0191
vn 0.9908 0.1346 0.0103
vn 0.9911 0.1321 0.0102
vn 0.9890 0.1464 -0.0219
vn 0.9749 0.1799 -0.1313
vn 0.9906 0.1361 0.0104
vn 0.9906 0.1364 0.0104
vn 0.9050 0.2409 -0.3506
vn 0.9809 0.1784 -0.0777
vn 0.8930 0.3978 -0.2103
vn 0.9344 0.3494 -0.0688
vn 0.9463 0.2317 -0.2256
vn 0.9882 0.1530 -0.0086
vn 0.9467 0.3220 0.0041
vn 0.9887 0.1491 0.0114
vn 0.9397 0.3410 0.0262
vn 0.9912 0.1316 -0.0112
vn 0.9841 0.1574 -0.0819
vn 0.9922 0.1244 0.0096
vn 0.9926 0.1209 0.0093
vn 0.9497 0.2101 -0.2322
vn -0.0346 -0.8010 -0.5976
vn 0.0501 -0.9573 -0.2845
vn -0.0225 -0.9582 -0.2851
vn 0.0399 -0.8018 -0.5962
vn 0.0524 -0.9910 -0.1231
vn -0.0183 -0.9922 -0.1227
vn 0.0527 -0.9957 -0.0766
vn -0.0183 -0.9969 -0.0767
vn -0.3554 -0.8893 -0.2876
vn -0.3458 -0.9307 -0.1190
vn -0.3570 -0.9313 -0.0716
vn -0.3485 -0.7356 -0.5808
vn 0.1440 0.4035 0.9036
vn 0.0617 0.3639 0.9293
vn 0.1413 0.3703 0.9181
vn 0.0553 0.3572 0.9324
vn 0.1329 0.3638 0.9219
vn 0.0658 0.3988 0.9146
vn 0.0487 0.3611 0.9312
vn 0.0427 0.3544 0.9341
vn 0.4558 0.3974 0.7964
vn 0.8092 0.2969 0.5070
vn 0.8077 0.3207 0.4947
vn 0.4542 0.3684 0.8112
vn 0.8015 0.2960 0.5196
vn 0.4306 0.5749 0.6958
vn 0.1466 0.6057 0.7820
vn 0.4071 0.7942 0.4510
vn 0.1479 0.8525 0.5014
vn 0.6787 0.6481 0.3453
vn 0.0733 0.6042 0.7934
vn 0.0533 0.3962 0.9166
vn 0.0773 0.8568 0.5097
vn 0.0618 0.6023 0.7958
vn 0.0563 0.3193 0.9460
vn -0.0039 0.3073 0.9516
vn 0.0488 0.3141 0.9481
vn -0.0076 0.3051 0.9523
vn 0.0433 0.3117 0.9492
vn 0.0010 0.3124 0.9499
vn -0.0122 0.3052 0.9522
vn -0.0155 0.3031 0.9528
vn 0.3110 0.3359 0.8890
vn 0.6777 0.3111 0.6662
vn 0.6930 0.3106 0.6506
vn 0.2958 0.3318 0.8957
vn 0.6661 0.3119 0.6775
vn 0.3296 0.3418 0.8801
vn 0.0660 0.3269 0.9427
vn 0.3509 0.3494 0.8688
vn 0.0775 0.3373 0.9382
vn 0.7108 0.3101 0.6312
vn 0.0075 0.3199 0.9474
vn -0.0077 0.3103 0.9506
vn 0.0155 0.3303 0.9437
vn -0.0017 0.3176 0.9482
vn 0.1056 0.3551 0.9288
vn 0.0250 0.3407 0.9398
vn 0.0909 0.3475 0.9332
vn 0.0355 0.3482 0.9367
vn 0.0144 0.3381 0.9409
vn 0.0056 0.3279 0.9447
vn 0.3993 0.3608 0.8428
vn 0.7506 0.3078 0.5846
vn 0.7703 0.3043 0.5604
vn 0.3747 0.3565 0.8558
vn 0.7302 0.3095 0.6090
vn 0.4227 0.3632 0.8303
vn 0.1202 0.3605 0.9250
vn 0.4422 0.3641 0.8197
vn 0.7877 0.3000 0.5380
vn 0.0461 0.3538 0.9342
vn 0.0242 0.3456 0.9380
vn 0.0341 0.3511 0.9357
vn 0.0398 0.2780 0.9597
vn 0.0047 0.0612 0.9981
vn 0.0596 0.0646 0.9961
vn 0.0362 -0.4027 0.9146
vn 0.1046 -0.3966 0.9120
vn -0.0089 0.2711 0.9625
vn -0.0036 0.0600 0.9982
vn 0.0257 -0.4030 0.9148
vn 0.3156 0.0763 0.9458
vn 0.2800 0.2941 0.9138
vn 0.6840 0.0623 0.7269
vn 0.6627 0.2747 0.6967
vn 0.3790 -0.3420 0.8599
vn 0.6609 -0.2162 0.7186
vn 0.2783 0.3251 0.9038
vn 0.0403 0.3072 0.9508
vn 0.2846 0.3299 0.9001
vn 0.6597 0.3078 0.6855
vn -0.0095 0.3007 0.9536
vn -0.0164 0.2692 0.9629
vn -0.0172 0.2988 0.9541
vn 0.0531 0.3899 0.9193
vn 0.0486 0.3518 0.9348
vn 0.0486 0.3551 0.9336
vn 0.0427 0.3455 0.9374
vn 0.0427 0.3486 0.9363
vn 0.0530 0.3865 0.9207
vn 0.0486 0.3492 0.9358
vn 0.0427 0.3429 0.9384
vn 0.0532 0.3933 0.9178
vn 0.0486 0.3583 0.9323
vn 0.0427 0.3517 0.9351
vn 0.0617 0.5996 0.7978
vn 0.0616 0.5965 0.8002
vn 0.0663 0.8548 0.5147
vn 0.0663 0.8531 0.5175
vn 0.0663 0.8563 0.5122
vn 0.0616 0.5934 0.8025
vn 0.0530 0.3837 0.9219
vn 0.0664 0.8513 0.5204
vn 0.0616 0.5907 0.8045
vn -0.0074 0.3065 0.9518
vn -0.0112 0.2998 0.9539
vn -0.0119 0.3017 0.9533
vn -0.0146 0.2979 0.9545
vn -0.0152 0.2998 0.9539
vn -0.0073 0.3028 0.9530
vn -0.0067 0.3045 0.9525
vn -0.0118 0.2981 0.9544
vn -0.0075 0.3085 0.9512
vn -0.0120 0.3036 0.9527
vn -0.0153 0.3016 0.9533
vn -0.0016 0.3158 0.9488
vn -0.0014 0.3137 0.9495
vn 0.0057 0.3259 0.9453
vn 0.0059 0.3236 0.9462
vn -0.0011 0.3100 0.9507
vn -0.0010 0.3119 0.9501
vn 0.0060 0.3212 0.9470
vn 0.0243 0.3406 0.9399
vn 0.0147 0.3309 0.9435
vn 0.0146 0.3334 0.9426
vn 0.0244 0.3378 0.9409
vn 0.0148 0.3288 0.9443
vn 0.0063 0.3196 0.9475
vn 0.0242 0.3433 0.9389
vn 0.0145 0.3360 0.9417
vn 0.0341 0.3486 0.9366
vn 0.0341 0.3457 0.9377
vn 0.0342 0.3427 0.9388
vn 0.0244 0.3355 0.9417
vn 0.0342 0.3403 0.9397
vn -0.0160 0.2640 0.9644
vn -0.0033 0.0578 0.9983
vn -0.0158 0.2658 0.9639
vn -0.0033 0.0566 0.9984
vn 0.0255 -0.4025 0.9150
vn -0.0160 0.2625 0.9648
vn -0.0033 0.0556 0.9984
vn 0.0255 -0.4022 0.9152
vn -0.0162 0.2677 0.9633
vn -0.0035 0.0590 0.9982
vn 0.0256 -0.4028 0.9149
vn -0.0170 0.2973 0.9546
vn -0.0167 0.2956 0.9551
vn -0.0166 0.2937 0.9557
vn -0.0168 0.2919 0.9563
vn -0.0151 0.2962 0.9550
vn -0.0413 0.3797 0.9242
vn -0.3999 0.3150 0.8607
vn -0.0470 0.3457 0.9371
vn -0.3951 0.3100 0.8647
vn -0.0502 0.3395 0.9393
vn -0.3966 0.3475 0.8497
vn -0.8107 0.1995 0.5504
vn -0.8045 0.1979 0.5600
vn 0.0403 0.3820 0.9233
vn 0.0355 0.3475 0.9370
vn 0.0300 0.3413 0.9395
vn 0.0495 0.5890 0.8066
vn -0.0294 0.5881 0.8083
vn 0.0547 0.8494 0.5249
vn -0.0237 0.8498 0.5265
vn 0.0664 0.8498 0.5228
vn -0.3646 0.5452 0.7548
vn -0.8094 0.2270 0.5415
vn -0.3354 0.8000 0.4974
vn -0.7679 0.4103 0.4918
vn -0.3348 0.2814 0.8993
vn -0.0743 0.2951 0.9525
vn -0.0727 0.2997 0.9513
vn -0.3274 0.2780 0.9030
vn -0.0755 0.2934 0.9530
vn -0.7101 0.2049 0.6736
vn -0.7013 0.2064 0.6823
vn -0.3218 0.2770 0.9054
vn -0.0204 0.2969 0.9547
vn -0.0162 0.3015 0.9533
vn -0.0233 0.2951 0.9552
vn -0.0704 0.3064 0.9493
vn -0.0108 0.3083 0.9512
vn -0.0675 0.3158 0.9464
vn -0.0039 0.3181 0.9480
vn -0.3439 0.2866 0.8942
vn -0.7215 0.2045 0.6615
vn -0.3540 0.2941 0.8878
vn -0.7349 0.2047 0.6465
vn -0.0589 0.3320 0.9414
vn -0.3649 0.3014 0.8809
vn -0.0635 0.3254 0.9434
vn -0.3760 0.3060 0.8746
vn -0.7649 0.2062 0.6102
vn -0.7495 0.2059 0.6291
vn 0.0131 0.3339 0.9425
vn 0.0042 0.3274 0.9449
vn 0.0221 0.3386 0.9406
vn -0.0542 0.3367 0.9400
vn -0.3864 0.3088 0.8691
vn -0.7799 0.2043 0.5915
vn -0.7936 0.2013 0.5742
vn -0.0739 0.2604 0.9626
vn -0.3236 0.0291 0.9457
vn -0.0669 0.0502 0.9965
vn -0.3342 -0.3843 0.8606
vn -0.0531 -0.4049 0.9128
vn -0.3176 0.2427 0.9166
vn -0.6870 -0.0307 0.7260
vn -0.6315 -0.2929 0.7179
vn -0.0117 0.0545 0.9984
vn -0.0239 0.2614 0.9649
vn 0.0154 -0.4027 0.9152
vn 0.0256 -0.4020 0.9153
vn -0.0760 0.2892 0.9542
vn -0.0249 0.2908 0.9564
vn -0.3184 0.2730 0.9077
vn -0.6950 0.1720 0.6981
vn -0.6962 0.2034 0.6885
vn 0.0608 -0.9574 0.2823
vn 0.0509 -0.8028 0.5941
vn 0.0607 -0.9572 0.2829
vn 0.0511 -0.8039 0.5925
vn 0.0510 -0.8034 0.5932
vn 0.0509 -0.8021 0.5949
vn 0.0608 -0.9570 0.2835
vn 0.0510 -0.8016 0.5956
vn 0.0609 -0.9568 0.2840
vn 0.0629 -0.9904 0.1227
vn 0.0629 -0.9904 0.1228
vn 0.0632 -0.9951 0.0765
vn 0.0631 -0.9904 0.1230
vn 0.0629 -0.9904 0.1225
vn 0.0631 -0.9904 0.1223
vn 0.0610 -0.9575 0.2818
vn 0.0634 -0.9950 0.0765
vn -0.3850 0.9210 0.0591
vn -0.0269 0.9679 0.2499
vn -0.0354 0.9978 0.0552
vn -0.7935 0.6041 0.0735
vn -0.3531 0.9026 0.2462
vn -0.7455 0.6243 0.2335
vn 0.0513 0.9674 0.2479
vn 0.0455 0.9974 0.0563
vn 0.0633 0.9669 0.2468
vn 0.0582 0.9967 0.0561
vn -0.0431 0.9980 -0.0461
vn 0.0413 0.9981 -0.0454
vn -0.0419 0.9962 -0.0766
vn 0.0546 0.9975 -0.0454
vn 0.0403 0.9962 -0.0766
vn -0.4021 0.9146 -0.0414
vn -0.8140 0.5806 -0.0184
vn -0.3735 0.9249 -0.0711
vn -0.7925 0.6080 -0.0468
vn -0.9893 0.0390 0.1404
vn -0.9325 0.1044 0.3458
vn -0.9901 0.0379 0.1347
vn -0.9276 0.1064 0.3580
vn -0.9886 0.0401 0.1448
vn -0.9238 0.1085 0.3671
vn -0.9379 0.1025 0.3314
vn -0.9911 0.0369 0.1281
vn -0.9435 0.1008 0.3156
vn -0.9920 0.0359 0.1209
vn -0.9995 0.0053 0.0309
vn -0.9995 0.0051 0.0294
vn -1.0000 -0.0043 0.0003
vn -0.9996 0.0049 0.0277
vn -0.9995 0.0056 0.0323
vn -0.9994 0.0058 0.0333
vn -0.9609 -0.2087 0.1821
vn -0.9214 0.0742 0.3813
vn -0.9884 0.0034 0.1516
vn -0.8962 -0.1275 0.4249
vn -0.7687 -0.5900 0.2469
vn -0.9216 0.1056 0.3734
vn -0.9883 0.0362 0.1480
vn -0.9988 -0.0322 0.0368
vn -0.9994 0.0012 0.0344
vn -0.9992 -0.0384 0.0029
vn -0.9999 -0.0084 0.0006
vn -0.9679 -0.2451 0.0548
vn -0.7697 -0.6318 0.0916
vn -0.9732 -0.2293 0.0176
vn -0.7849 -0.6177 0.0475
vn 0.9822 0.1608 0.0964
vn 0.9439 0.2130 0.2524
vn 0.9384 0.2181 0.2677
vn 0.9834 0.1575 0.0902
vn 0.9479 0.2092 0.2402
vn 0.9809 0.1648 0.1035
vn 0.9320 0.2237 0.2851
vn 0.9792 0.1695 0.1110
vn 0.9249 0.2292 0.3032
vn 0.9908 0.1346 0.0161
vn 0.9911 0.1319 0.0146
vn 0.9921 0.1253 -0.0096
vn 0.9923 0.1230 -0.0094
vn 0.9902 0.1384 0.0176
vn 0.9916 0.1286 -0.0099
vn 0.9914 0.1299 0.0133
vn 0.9841 0.1555 0.0852
vn 0.9925 0.1214 -0.0093
vn 0.9916 0.1289 0.0122
vn 0.0699 0.9962 0.0522
vn 0.1451 0.9615 0.2332
vn 0.1442 0.9883 0.0495
vn 0.0581 0.9969 0.0531
vn 0.0742 0.9684 0.2381
vn 0.4109 0.8860 0.2150
vn 0.4288 0.9021 0.0474
vn 0.7643 0.6424 0.0559
vn 0.7285 0.6560 0.1975
vn 0.4389 0.8975 -0.0432
vn 0.1446 0.9884 -0.0470
vn 0.4272 0.9015 -0.0693
vn 0.1450 0.9865 -0.0758
vn 0.7795 0.6258 -0.0252
vn 0.7645 0.6428 -0.0494
vn 0.0671 0.9966 -0.0464
vn 0.0546 0.9974 -0.0461
vn 0.0665 0.9948 -0.0765
vn 0.0534 0.9956 -0.0765
vn -0.9929 0.0347 0.1136
vn -0.9543 0.0952 0.2832
vn -0.9937 0.0331 0.1068
vn -0.9491 0.0985 0.2991
vn -0.9587 0.0917 0.2691
vn -0.9944 0.0315 0.1007
vn -0.9621 0.0884 0.2580
vn -0.9949 0.0301 0.0960
vn -0.9997 0.0042 0.0244
vn -0.9997 0.0038 0.0229
vn -0.9997 0.0034 0.0219
vn -1.0000 -0.0042 0.0003
vn -0.9996 0.0045 0.0259
vn 0.9796 0.1404 0.1434
vn 0.8984 0.2391 0.3683
vn 0.9032 0.2052 0.3769
vn 0.9744 0.1762 0.1396
vn 0.9003 0.2430 0.3610
vn 0.9807 -0.0867 0.1750
vn 0.9066 -0.0105 0.4219
vn 0.8327 -0.4986 0.2406
vn 0.7753 -0.3796 0.5047
vn 0.9912 -0.1236 0.0460
vn 0.9941 0.1046 0.0268
vn 0.9944 -0.1053 0.0081
vn 0.9951 0.0985 -0.0076
vn 0.8370 -0.5406 0.0847
vn 0.8500 -0.5252 0.0404
vn 0.9897 0.1411 0.0241
vn 0.9740 0.1811 0.1361
vn 0.9913 0.1312 -0.0101
vn 0.9889 0.1468 0.0230
vn 0.1443 -0.9488 0.2810
vn 0.4368 -0.6915 0.5753
vn 0.1367 -0.7938 0.5926
vn 0.4611 -0.8415 0.2814
vn 0.0724 -0.9568 0.2815
vn 0.0627 -0.8033 0.5922
vn 0.0744 -0.9897 0.1222
vn 0.1444 -0.9821 0.1210
vn 0.0746 -0.9943 0.0765
vn 0.1447 -0.9865 0.0759
vn 0.4555 -0.8828 0.1146
vn 0.4651 -0.8826 0.0679
vn -0.9951 0.0322 0.0929
vn -0.9626 0.1133 0.2459
vn -0.9945 0.0539 0.0894
vn -0.9638 0.0897 0.2509
vn -0.9203 0.3087 0.2403
vn -0.9653 0.2468 0.0847
vn -0.6834 0.6187 0.3874
vn -0.9994 0.0277 0.0185
vn -0.9769 0.2134 0.0058
vn -0.9997 0.0237 -0.0018
vn -0.9719 0.2348 -0.0180
vn -0.9998 0.0062 0.0209
vn -1.0000 -0.0008 0.0001
vn 0.0582 0.9968 0.0554
vn 0.0632 0.9678 0.2434
vn 0.0581 0.9968 0.0546
vn 0.0632 0.9673 0.2453
vn 0.0631 0.9683 0.2415
vn 0.0581 0.9969 0.0538
vn 0.0631 0.9687 0.2399
vn 0.0546 0.9974 -0.0457
vn 0.0546 0.9974 -0.0459
vn 0.0546 0.9974 -0.0456
vn 0.0534 0.9956 -0.0766
vn 0.9761 0.1773 0.1253
vn 0.9178 0.2339 0.3207
vn 0.9110 0.2378 0.3368
vn 0.9776 0.1739 0.1183
vn 0.9749 0.1798 0.1313
vn 0.9050 0.2409 0.3506
vn 0.9890 0.1464 0.0219
vn 0.9893 0.1447 0.0206
vn 0.9906 0.1361 -0.0105
vn 0.9908 0.1346 -0.0103
vn 0.9906 0.1364 -0.0104
vn 0.9897 0.1421 0.0191
vn 0.9911 0.1321 -0.0102
vn 0.9809 0.1784 0.0777
vn 0.8930 0.3978 0.2103
vn 0.9463 0.2317 0.2256
vn 0.7604 0.4787 0.4389
vn 0.9344 0.3494 0.0688
vn 0.9841 0.1574 0.0819
vn 0.9497 0.2101 0.2322
vn 0.9912 0.1316 0.0112
vn 0.9882 0.1530 0.0086
vn 0.9922 0.1244 -0.0096
vn 0.9887 0.1491 -0.0114
vn 0.9926 0.1209 -0.0093
vn 0.9467 0.3219 -0.0041
vn 0.9397 0.3410 -0.0262
vn 0.0501 -0.9573 0.2845
vn -0.0346 -0.8010 0.5976
vn -0.0225 -0.9582 0.2851
vn 0.0399 -0.8018 0.5962
vn -0.3485 -0.7356 0.5808
vn -0.3554 -0.8893 0.2877
vn -0.7243 -0.4661 0.5080
vn -0.0183 -0.9923 0.1227
vn -0.3458 -0.9307 0.1190
vn -0.0183 -0.9969 0.0767
vn -0.3570 -0.9313 0.0716
vn 0.0524 -0.9910 0.1231
vn 0.0527 -0.9957 0.0766
s 1
f 1//1 6//2 2//3
f 2//3 523//4 524//5
f 5//6 519//7 6//2
f 6//2 836//8 523//4
f 2//3 3//9 1//1
f 7//10 512//11 3//9
f 524//5 7//10 2//3
f 525//12 513//13 7//10
f 1//1 8//14 4//15
f 8//14 476//16 4//15
f 3//9 511//17 8//14
f 8//14 826//18 477//19
f 4//15 5//6 1//1
f 9//20 518//21 5//6
f 4//15 475//22 9//20
f 9//20 829//23 517//24
f 10//25 15//26 11//27
f 11//27 526//28 527//29
f 14//30 522//31 15//26
f 15//26 837//32 526//28
f 11//27 12//33 10//25
f 16//34 515//35 12//33
f 527//29 16//34 11//27
f 528//36 516//37 16//34
f 10//25 17//38 13//39
f 17//38 485//40 13//39
f 12//33 514//41 17//38
f 514//41 486//42 17//38
f 13//39 14//30 10//25
f 18//43 521//44 14//30
f 13//39 484//45 18//43
f 18//43 832//46 520//47
f 19//48 24//49 20//50
f 20//50 529//51 530//52
f 23//53 516//37 24//49
f 24//49 835//54 529//51
f 20//50 21//55 19//48
f 25//56 518//21 21//55
f 530//52 25//56 20//50
f 531//57 519//7 25//56
f 19//48 26//58 22//59
f 26//58 491//60 22//59
f 21//55 517//24 26//58
f 517//24 492//61 26//58
f 22//59 23//53 19//48
f 27//62 515//35 23//53
f 22//59 490//63 27//62
f 27//62 828//64 514//41
f 28//65 33//66 29//67
f 29//67 532//68 533//69
f 32//70 472//71 33//66
f 33//66 833//72 532//68
f 29//67 30//73 28//65
f 34//74 521//44 30//73
f 533//69 34//74 29//67
f 534//75 522//31 34//74
f 28//65 35//76 31//77
f 35//76 503//78 31//77
f 30//73 520//47 35//76
f 520//47 504//79 35//76
f 28//65 36//80 32//70
f 32//70 474//81 473//82
f 31//77 502//83 36//80
f 36//80 824//84 474//81
f 37//85 42//86 38//87
f 38//87 550//88 551//89
f 41//90 543//91 42//86
f 42//86 840//92 550//88
f 38//87 39//93 37//85
f 43//94 536//95 39//93
f 551//89 43//94 38//87
f 552//96 537//97 43//94
f 37//85 44//98 40//99
f 40//99 525//12 524//5
f 39//93 535//100 44//98
f 44//98 834//101 525//12
f 40//99 41//90 37//85
f 45//102 542//103 41//90
f 524//5 45//102 40//99
f 523//4 541//104 45//102
f 46//105 51//106 47//107
f 51//106 554//108 47//107
f 50//109 546//110 51//106
f 546//110 553//111 51//106
f 47//107 48//112 46//105
f 52//113 539//114 48//112
f 47//107 555//115 52//113
f 555//115 540//116 52//113
f 46//105 53//117 49//118
f 49//118 528//36 527//29
f 48//112 538//119 53//117
f 53//117 835//54 528//36
f 49//118 50//109 46//105
f 54//120 545//121 50//109
f 527//29 54//120 49//118
f 526//28 544//122 54//120
f 55//123 60//124 56//125
f 56//125 556//126 557//127
f 59//128 540//116 60//124
f 60//124 839//129 556//126
f 56//125 57//130 55//123
f 61//131 542//103 57//130
f 557//127 61//131 56//125
f 558//132 543//91 61//131
f 55//123 62//133 58//134
f 58//134 531//57 530//52
f 57//130 541//104 62//133
f 62//133 836//8 531//57
f 58//134 59//128 55//123
f 63//135 539//114 59//128
f 530//52 63//135 58//134
f 529//51 538//119 63//135
f 68//136 65//137 64//138
f 69//139 560//140 65//137
f 509//141 69//139 68//136
f 508//142 559//143 69//139
f 64//138 70//144 66//145
f 70//144 545//121 66//145
f 65//137 561//146 70//144
f 70//144 841//147 546//110
f 64//138 71//148 67//149
f 67//149 534//75 533//69
f 66//145 544//122 71//148
f 71//148 837//32 534//75
f 67//149 68//136 64//138
f 72//150 509//141 68//136
f 533//69 72//150 67//149
f 532//68 510//151 72//150
f 73//152 78//153 74//154
f 74//154 495//155 494//156
f 77//157 498//158 78//153
f 78//153 830//159 495//155
f 74//154 75//160 73//152
f 75//160 480//161 479//162
f 494//156 79//163 74//154
f 493//164 480//161 79//163
f 73//152 80//165 76//166
f 76//166 552//96 551//89
f 75//160 478//167 80//165
f 80//165 838//168 552//96
f 76//166 77//157 73//152
f 81//169 497//170 77//157
f 551//89 81//169 76//166
f 550//88 496//171 81//169
f 86//172 83//173 82//174
f 83//173 501//175 500//176
f 506//177 87//178 86//172
f 87//178 831//179 501//175
f 82//174 88//180 84//181
f 88//180 488//182 84//181
f 500//176 88//180 83//173
f 499//183 489//184 88//180
f 84//181 85//185 82//174
f 89//186 554//108 85//185
f 488//182 89//186 84//181
f 487//187 555//115 89//186
f 82//174 90//188 86//172
f 86//172 505//189 506//177
f 85//185 553//111 90//188
f 90//188 841//147 505//189
f 91//190 96//191 92//192
f 92//192 483//193 482//194
f 95//195 489//184 96//191
f 96//191 827//196 483//193
f 92//192 93//197 91//190
f 97//198 497//170 93//197
f 482//194 97//198 92//192
f 481//199 498//158 97//198
f 91//190 98//200 94//201
f 94//201 558//132 557//127
f 93//197 496//171 98//200
f 98//200 840//92 558//132
f 94//201 95//195 91//190
f 95//195 487//187 488//182
f 557//127 99//202 94//201
f 556//126 487//187 99//202
f 100//203 105//204 101//205
f 101//205 471//206 470//207
f 104//208 547//209 105//204
f 105//204 823//210 471//206
f 100//203 106//211 102//212
f 102//212 507//213 506//177
f 470//207 106//211 101//205
f 469//214 507//213 106//211
f 102//212 103//215 100//203
f 107//216 560//140 103//215
f 506//177 107//216 102//212
f 505//189 561//146 107//216
f 100//203 108//217 104//208
f 104//208 549//218 548//219
f 103//215 559//143 108//217
f 108//217 842//220 549//218
f 113//221 110//222 109//223
f 110//222 606//224 605//225
f 113//221 510//151 114//226
f 114//226 833//72 606//224
f 109//223 115//227 111//228
f 111//228 594//229 593//229
f 110//222 604//230 115//227
f 115//227 853//231 594//229
f 111//228 112//232 109//223
f 116//233 608//234 112//232
f 593//229 116//233 111//228
f 592//229 609//235 116//233
f 109//223 117//236 113//221
f 113//221 508//142 509//141
f 112//232 607//237 117//236
f 117//236 842//220 508//142
f 122//238 119//239 118//240
f 123//241 611//242 119//239
f 122//238 480//161 123//241
f 480//161 612//243 123//241
f 118//240 124//244 120//245
f 120//245 573//246 572//247
f 119//239 610//248 124//244
f 124//244 845//249 573//246
f 120//245 121//250 118//240
f 125//251 614//252 121//250
f 572//247 125//251 120//245
f 571//253 615//254 125//251
f 118//240 126//255 122//238
f 122//238 478//167 479//162
f 121//250 613//256 126//255
f 126//255 838//168 478//167
f 131//257 128//258 127//259
f 132//260 617//261 128//258
f 500//176 132//260 131//257
f 501//175 618//262 132//260
f 127//259 133//263 129//264
f 129//264 588//265 587//265
f 128//258 616//266 133//263
f 133//263 851//265 588//265
f 129//264 130//267 127//259
f 134//268 620//269 130//267
f 587//265 134//268 129//264
f 586//265 621//270 134//268
f 127//259 135//271 131//257
f 131//257 499//183 500//176
f 130//267 619//272 135//271
f 135//271 827//196 499//183
f 140//273 137//274 136//275
f 141//276 623//277 137//274
f 470//207 141//276 140//273
f 141//276 823//210 624//278
f 136//275 142//279 138//280
f 138//280 564//281 563//282
f 137//274 622//283 142//279
f 142//279 843//284 564//281
f 138//280 139//285 136//275
f 143//286 617//261 139//285
f 563//282 143//286 138//280
f 562//287 616//266 143//286
f 136//275 144//288 140//273
f 140//273 469//214 470//207
f 139//285 618//262 144//288
f 144//288 831//179 469//214
f 145//289 150//290 146//291
f 146//291 627//292 626//293
f 149//294 492//61 150//290
f 150//290 829//23 627//292
f 146//291 147//295 145//289
f 151//296 581//297 147//295
f 626//293 151//296 146//291
f 625//298 582//299 151//296
f 145//289 152//300 148//301
f 148//301 630//302 629//303
f 147//295 580//304 152//300
f 152//300 848//305 630//302
f 148//301 149//294 145//289
f 153//306 491//60 149//294
f 629//303 153//306 148//301
f 628//307 490//63 153//306
f 158//308 155//309 154//310
f 159//311 632//312 155//309
f 158//308 513//13 159//311
f 159//311 834//101 633//313
f 154//310 160//314 156//315
f 156//315 597//316 596//317
f 155//309 631//318 160//314
f 160//314 854//319 597//316
f 154//310 161//320 157//321
f 157//321 636//322 635//323
f 156//315 595//324 161//320
f 161//320 846//325 636//322
f 154//310 162//326 158//308
f 162//326 512//11 158//308
f 635//323 162//326 157//321
f 634//327 511//17 162//326
f 167//328 164//329 163//330
f 168//331 620//269 164//329
f 482//194 168//331 167//328
f 483//193 619//272 168//331
f 163//330 169//332 165//333
f 165//333 576//265 575//265
f 164//329 621//270 169//332
f 169//332 847//265 576//265
f 165//333 166//334 163//330
f 170//335 638//336 166//334
f 575//265 170//335 165//333
f 574//337 639//338 170//335
f 163//330 171//339 167//328
f 167//328 481//199 482//194
f 166//334 637//340 171//339
f 171//339 830//159 481//199
f 172//341 177//342 173//343
f 173//343 642//344 641//345
f 176//346 504//79 177//342
f 177//342 832//46 642//344
f 173//343 174//347 172//341
f 178//348 590//349 174//347
f 641//345 178//348 173//343
f 640//350 591//351 178//348
f 172//341 179//352 175//353
f 175//353 645//354 644//355
f 174//347 589//356 179//352
f 179//352 844//357 645//354
f 175//353 176//346 172//341
f 180//358 503//78 176//346
f 644//355 180//358 175//353
f 180//358 824//84 502//83
f 181//359 186//360 182//361
f 182//361 643//362 644//355
f 185//363 474//81 186//360
f 186//360 824//84 643//362
f 182//361 183//364 181//359
f 187//365 566//366 183//364
f 644//355 187//365 182//361
f 645//354 567//367 187//365
f 181//359 188//368 184//369
f 188//368 605//225 184//369
f 183//364 565//370 188//368
f 565//370 604//230 188//368
f 184//369 185//363 181//359
f 189//371 473//82 185//363
f 605//225 189//371 184//369
f 606//224 472//71 189//371
f 194//372 191//373 190//374
f 195//375 638//336 191//373
f 494//156 195//375 194//372
f 495//155 637//340 195//375
f 190//374 196//376 192//377
f 192//377 585//378 584//379
f 191//373 639//338 196//376
f 196//376 850//337 585//378
f 192//377 193//380 190//374
f 197//381 611//242 193//380
f 584//379 197//381 192//377
f 583//382 610//248 197//381
f 190//374 198//383 194//372
f 194//372 493//164 494//156
f 193//380 612//243 198//383
f 198//383 825//384 493//164
f 203//385 200//386 199//387
f 204//388 614//252 200//386
f 203//385 537//97 204//388
f 204//388 838//168 613//256
f 199//387 205//389 201//390
f 201//390 600//319 599//391
f 200//386 615//254 205//389
f 205//389 855//319 600//319
f 201//390 202//392 199//387
f 206//393 632//312 202//392
f 599//391 206//393 201//390
f 598//319 631//318 206//393
f 199//387 207//394 203//385
f 207//394 536//95 203//385
f 202//392 633//313 207//394
f 633//313 535//100 207//394
f 208//395 213//396 209//397
f 209//397 628//307 629//303
f 212//398 486//42 213//396
f 213//396 828//64 628//307
f 209//397 210//399 208//395
f 214//400 578//401 210//399
f 629//303 214//400 209//397
f 630//302 579//402 214//400
f 208//395 215//403 211//404
f 211//404 640//350 641//345
f 210//399 577//405 215//403
f 215//403 852//406 640//350
f 211//404 212//398 208//395
f 216//407 485//40 212//398
f 641//345 216//407 211//404
f 642//344 484//45 216//407
f 217//408 222//409 218//410
f 218//410 634//327 635//323
f 221//411 477//19 222//409
f 222//409 826//18 634//327
f 218//410 219//412 217//408
f 223//413 569//414 219//412
f 635//323 223//413 218//410
f 636//322 570//415 223//413
f 217//408 224//416 220//417
f 220//417 625//298 626//293
f 219//412 568//418 224//416
f 224//416 849//419 625//298
f 220//417 221//411 217//408
f 225//420 476//16 221//411
f 626//293 225//420 220//417
f 627//292 475//22 225//420
f 230//421 227//422 226//423
f 231//424 608//234 227//422
f 548//219 231//424 230//421
f 549//218 607//237 231//424
f 226//423 232//425 228//426
f 228//426 603//427 602//428
f 227//422 609//235 232//425
f 232//425 856//231 603//427
f 228//426 229//429 226//423
f 233//430 623//277 229//429
f 602//428 233//430 228//426
f 601//431 622//283 233//430
f 226//423 234//432 230//421
f 230//421 547//209 548//219
f 229//429 624//278 234//432
f 234//432 823//210 547//209
f 235//433 240//434 236//435
f 236//435 696//436 695//437
f 239//438 700//439 240//434
f 240//434 870//440 696//436
f 236//435 237//441 235//433
f 237//441 652//442 653//443
f 695//437 241//444 236//435
f 241//444 863//445 652//442
f 235//433 242//446 238//447
f 238//447 688//448 689//449
f 653//443 242//446 237//441
f 242//446 860//450 688//448
f 238//447 239//438 235//433
f 243//451 701//452 239//438
f 689//449 243//451 238//447
f 690//453 702//454 243//451
f 244//455 249//456 245//457
f 245//457 699//458 698//459
f 248//460 703//461 249//456
f 249//456 871//462 699//458
f 245//457 246//463 244//455
f 246//463 661//464 662//465
f 698//459 250//466 245//457
f 250//466 866//467 661//464
f 244//455 251//468 247//469
f 247//469 691//470 692//471
f 662//465 251//468 246//463
f 663//472 691//470 251//468
f 247//469 248//460 244//455
f 252//473 704//474 248//460
f 692//471 252//473 247//469
f 693//475 705//476 252//473
f 253//477 258//478 254//479
f 254//479 693//475 692//471
f 257//480 706//481 258//478
f 258//478 869//482 693//475
f 254//479 255//483 253//477
f 255//483 667//484 668//485
f 692//471 259//486 254//479
f 259//486 862//487 667//484
f 253//477 260//488 256//489
f 256//489 694//490 695//437
f 668//485 260//488 255//483
f 669//491 694//490 260//488
f 256//489 257//480 253//477
f 261//492 707//493 257//480
f 695//437 261//492 256//489
f 696//436 708//494 261//492
f 262//495 267//496 263//497
f 263//497 649//498 650//499
f 266//500 709//501 267//496
f 267//496 867//502 649//498
f 262//495 268//503 264//504
f 264//504 679//505 680//506
f 263//497 651//507 268//503
f 268//503 858//508 679//505
f 262//495 269//509 265//510
f 265//510 697//511 698//459
f 680//506 269//509 264//504
f 681//512 697//511 269//509
f 265//510 266//500 262//495
f 270//513 710//514 266//500
f 698//459 270//513 265//510
f 699//458 711//515 270//513
f 271//516 276//517 272//518
f 272//518 720//519 719//520
f 275//521 727//522 276//517
f 276//517 874//523 720//519
f 272//518 273//524 271//516
f 277//525 701//452 273//524
f 719//520 277//525 272//518
f 718//526 700//439 277//525
f 271//516 278//527 274//528
f 274//528 712//529 713//530
f 273//524 702//454 278//527
f 278//527 868//531 712//529
f 274//528 275//521 271//516
f 279//532 728//533 275//521
f 713//530 279//532 274//528
f 714//534 729//535 279//532
f 280//536 285//537 281//538
f 281//538 723//539 722//540
f 731//541 285//537 284//542
f 730//543 723//539 285//537
f 281//538 282//544 280//536
f 286//545 704//474 282//544
f 722//540 286//545 281//538
f 721//546 703//461 286//545
f 280//536 287//547 283//548
f 283//548 715//549 716//550
f 282//544 705//476 287//547
f 287//547 869//482 715//549
f 283//548 284//542 280//536
f 284//542 732//551 731//541
f 716//550 288//552 283//548
f 717//553 732//551 288//552
f 289//554 294//555 290//556
f 290//556 717//553 716//550
f 293//557 733//558 294//555
f 294//555 873//559 717//553
f 290//556 291//560 289//554
f 295//561 707//493 291//560
f 716//550 295//561 290//556
f 715//549 706//481 295//561
f 289//554 296//562 292//563
f 292//563 718//526 719//520
f 291//560 708//494 296//562
f 296//562 870//440 718//526
f 292//563 293//557 289//554
f 297//564 734//565 293//557
f 719//520 297//564 292//563
f 720//519 735//566 297//564
f 302//567 299//568 298//569
f 303//570 686//571 299//568
f 737//572 303//570 302//567
f 736//573 685//574 303//570
f 299//568 300//575 298//569
f 304//576 710//514 300//575
f 686//571 304//576 299//568
f 687//577 709//501 304//576
f 298//569 305//578 301//579
f 301//579 721//546 722//540
f 300//575 711//515 305//578
f 305//578 871//462 721//546
f 298//569 306//580 302//567
f 302//567 738//581 737//572
f 722//540 306//580 301//579
f 306//580 875//582 738//581
f 307//583 312//584 308//585
f 308//585 675//586 674//587
f 311//588 672//589 312//584
f 312//584 864//590 675//586
f 308//585 309//591 307//583
f 313//592 728//533 309//591
f 674//587 313//592 308//585
f 673//593 727//522 313//592
f 307//583 314//594 310//595
f 310//595 655//596 656//597
f 309//591 729//535 314//594
f 314//594 872//598 655//596
f 310//595 311//588 307//583
f 315//599 671//600 311//588
f 310//595 657//601 315//599
f 657//601 670//602 315//599
f 320//603 317//604 316//605
f 321//606 683//607 317//604
f 320//603 678//608 321//606
f 321//606 865//609 684//610
f 316//605 322//611 318//612
f 318//612 730//543 731//541
f 317//604 682//613 322//611
f 322//611 875//582 730//543
f 318//612 319//614 316//605
f 323//615 665//616 319//614
f 731//541 323//615 318//612
f 732//551 664//617 323//615
f 316//605 324//618 320//603
f 324//618 677//619 320//603
f 665//616 324//618 319//614
f 666//620 676//621 324//618
f 325//622 330//623 326//624
f 326//624 666//620 665//616
f 329//625 660//626 330//623
f 330//623 861//627 666//620
f 326//624 327//628 325//622
f 331//629 734//565 327//628
f 326//624 664//617 331//629
f 664//617 733//558 331//629
f 325//622 332//630 328//631
f 328//631 673//593 674//587
f 327//628 735//566 332//630
f 332//630 874//523 673//593
f 328//631 329//625 325//622
f 333//632 659//633 329//625
f 674//587 333//632 328//631
f 675//586 658//634 333//632
f 334//635 339//636 335//637
f 335//637 724//638 725//639
f 338//640 648//641 339//636
f 339//636 857//642 724//638
f 334//635 340//643 336//644
f 336//644 736//573 737//572
f 335//637 726//645 340//643
f 340//643 876//646 736//573
f 336//644 337//647 334//635
f 341//648 683//607 337//647
f 737//572 341//648 336//644
f 738//581 682//613 341//648
f 334//635 342//649 338//640
f 342//649 647//650 338//640
f 337//647 684//610 342//649
f 684//610 646//651 342//649
f 347//652 344//653 343//654
f 344//653 687//577 686//571
f 347//652 783//655 348//656
f 348//656 867//502 687//577
f 343//654 349//657 345//658
f 345//658 784//659 785//660
f 344//653 685//574 349//657
f 349//657 876//646 784//659
f 345//658 346//661 343//654
f 350//662 770//663 346//661
f 785//660 350//662 345//658
f 786//664 769//663 350//662
f 343//654 351//665 347//652
f 347//652 781//666 782//667
f 346//661 771//663 351//665
f 351//665 887//668 781//666
f 356//669 353//670 352//671
f 353//670 657//601 656//597
f 788//672 357//673 356//669
f 789//674 657//601 357//673
f 352//671 358//675 354//676
f 354//676 790//677 791//678
f 353//670 655//596 358//675
f 358//675 872//598 790//677
f 354//676 355//679 352//671
f 359//680 749//681 355//679
f 791//678 359//680 354//676
f 792//682 748//683 359//680
f 352//671 360//684 356//669
f 356//669 787//685 788//672
f 355//679 750//686 360//684
f 360//684 879//687 787//685
f 365//688 362//689 361//690
f 366//691 677//619 362//689
f 794//692 366//691 365//688
f 795//693 678//608 366//691
f 361//690 367//694 363//695
f 363//695 796//696 797//697
f 362//689 676//621 367//694
f 367//694 861//627 796//696
f 363//695 364//698 361//690
f 368//699 764//700 364//698
f 797//697 368//699 363//695
f 798//701 763//700 368//699
f 361//690 369//702 365//688
f 365//688 793//703 794//692
f 364//698 765//700 369//702
f 369//702 885//700 793//703
f 374//704 371//705 370//706
f 375//707 647//650 371//705
f 800//708 375//707 374//704
f 375//707 857//642 648//641
f 370//706 376//709 372//710
f 372//710 795//693 794//692
f 371//705 646//651 376//709
f 376//709 865//609 795//693
f 372//710 373//711 370//706
f 377//712 740//713 373//711
f 794//692 377//712 372//710
f 793//703 739//714 377//712
f 370//706 378//715 374//704
f 374//704 799//716 800//708
f 373//711 741//717 378//715
f 378//715 877//718 799//716
f 379//719 384//720 380//721
f 380//721 669//491 668//485
f 383//722 804//723 384//720
f 384//720 863//445 669//491
f 380//721 381//724 379//719
f 385//725 806//726 381//724
f 668//485 385//725 380//721
f 667//484 805//727 385//725
f 379//719 386//728 382//729
f 382//729 757//730 758//731
f 381//724 807//732 386//728
f 386//728 882//733 757//730
f 382//729 383//722 379//719
f 387//734 803//735 383//722
f 758//731 387//734 382//729
f 759//736 802//737 387//734
f 392//738 389//739 388//740
f 389//739 690//453 689//449
f 809//741 393//742 392//738
f 393//742 868//531 690//453
f 388//740 394//743 390//744
f 394//743 812//745 390//744
f 689//449 394//743 389//739
f 688//448 811//746 394//743
f 388//740 395//747 391//748
f 391//748 772//749 773//750
f 390//744 813//751 395//747
f 395//747 880//752 772//749
f 388//740 396//753 392//738
f 392//738 808//754 809//741
f 391//748 774//755 396//753
f 396//753 888//756 808//754
f 401//757 398//758 397//759
f 402//760 659//633 398//758
f 797//697 402//760 401//757
f 796//696 660//626 402//760
f 397//759 403//761 399//762
f 399//762 814//763 815//764
f 398//758 658//634 403//761
f 403//761 864//590 814//763
f 399//762 400//765 397//759
f 404//766 752//700 400//765
f 815//764 404//766 399//762
f 816//767 751//768 404//766
f 397//759 405//769 401//757
f 401//757 798//701 797//697
f 400//765 753//700 405//769
f 405//769 881//700 798//701
f 406//770 411//771 407//772
f 407//772 681//512 680//506
f 410//773 819//774 411//771
f 411//771 866//467 681//512
f 407//772 408//775 406//770
f 412//776 821//777 408//775
f 680//506 412//776 407//772
f 412//776 858//508 820//778
f 406//770 413//779 409//780
f 409//780 766//781 767//782
f 408//775 822//783 413//779
f 413//779 878//784 766//781
f 409//780 410//773 406//770
f 414//785 818//786 410//773
f 767//782 414//785 409//780
f 768//787 817//788 414//785
f 415//789 420//790 416//791
f 416//791 651//507 650//499
f 419//792 820//778 420//790
f 420//790 858//508 651//507
f 416//791 417//793 415//789
f 421//794 782//667 417//793
f 650//499 421//794 416//791
f 649//498 783//655 421//794
f 415//789 422//795 418//796
f 418//796 742//797 743//798
f 782//667 422//795 417//793
f 781//666 742//797 422//795
f 418//796 419//792 415//789
f 423//799 821//777 419//792
f 743//798 423//799 418//796
f 744//800 822//783 423//799
f 428//801 425//802 424//803
f 429//804 671//600 425//802
f 815//764 429//804 428//801
f 814//763 672//589 429//804
f 424//803 430//805 426//806
f 426//806 789//674 788//672
f 425//802 670//602 430//805
f 430//805 859//807 789//674
f 426//806 427//808 424//803
f 431//809 761//810 427//808
f 788//672 431//809 426//806
f 787//685 760//811 431//809
f 424//803 432//812 428//801
f 428//801 816//767 815//764
f 427//808 762//813 432//812
f 432//812 884//768 816//767
f 437//814 434//815 433//816
f 434//815 714//534 713//530
f 791//678 438//817 437//814
f 438//817 872//598 714//534
f 433//816 439//818 435//819
f 435//819 810//820 809//741
f 713//530 439//818 434//815
f 712//529 810//820 439//818
f 435//819 436//821 433//816
f 440//822 776//756 436//821
f 809//741 440//822 435//819
f 808//754 775//756 440//822
f 433//816 441//823 437//814
f 437//814 792//682 791//678
f 436//821 777//824 441//823
f 441//823 889//824 792//682
f 442//825 447//826 443//827
f 443//827 663//472 662//465
f 446//828 805//727 447//826
f 447//826 862//487 663//472
f 443//827 444//829 442//825
f 448//830 818//786 444//829
f 662//465 448//830 443//827
f 661//464 819//774 448//830
f 442//825 449//831 445//832
f 445//832 754//833 755//834
f 444//829 817//788 449//831
f 449//831 886//835 754//833
f 445//832 446//828 442//825
f 450//836 806//726 446//828
f 755//834 450//836 445//832
f 756//837 807//732 450//836
f 451//838 456//839 452//840
f 452//840 654//841 653//443
f 455//842 811//746 456//839
f 456//839 860//450 654//841
f 452//840 453//843 451//838
f 457//844 803//735 453//843
f 653//443 457//844 452//840
f 652//442 804//723 457//844
f 451//838 458//845 454//846
f 454//846 745//847 746//848
f 453//843 802//737 458//845
f 458//845 883//849 745//847
f 454//846 455//842 451//838
f 459//850 812//745 455//842
f 746//848 459//850 454//846
f 747//851 813//751 459//850
f 464//852 461//853 460//854
f 465//855 725//639 461//853
f 785//660 465//855 464//852
f 784//659 726//645 465//855
f 460//854 466//856 462//857
f 462//857 801//858 800//708
f 461//853 724//638 466//856
f 466//856 857//642 801//858
f 462//857 463//859 460//854
f 467//860 779//861 463//859
f 800//708 467//860 462//857
f 799//716 778//862 467//860
f 460//854 468//863 464//852
f 464//852 786//664 785//660
f 463//859 780//864 468//863
f 468//863 890//668 786//664
f 1//1 5//6 6//2
f 2//3 6//2 523//4
f 5//6 518//21 519//7
f 6//2 519//7 836//8
f 2//3 7//10 3//9
f 7//10 513//13 512//11
f 524//5 525//12 7//10
f 525//12 834//101 513//13
f 1//1 3//9 8//14
f 8//14 477//19 476//16
f 3//9 512//11 511//17
f 8//14 511//17 826//18
f 4//15 9//20 5//6
f 9//20 517//24 518//21
f 4//15 476//16 475//22
f 9//20 475//22 829//23
f 10//25 14//30 15//26
f 11//27 15//26 526//28
f 14//30 521//44 522//31
f 15//26 522//31 837//32
f 11//27 16//34 12//33
f 16//34 516//37 515//35
f 527//29 528//36 16//34
f 528//36 835//54 516//37
f 10//25 12//33 17//38
f 17//38 486//42 485//40
f 12//33 515//35 514//41
f 514//41 828//64 486//42
f 13//39 18//43 14//30
f 18//43 520//47 521//44
f 13//39 485//40 484//45
f 18//43 484//45 832//46
f 19//48 23//53 24//49
f 20//50 24//49 529//51
f 23//53 515//35 516//37
f 24//49 516//37 835//54
f 20//50 25//56 21//55
f 25//56 519//7 518//21
f 530//52 531//57 25//56
f 531//57 836//8 519//7
f 19//48 21//55 26//58
f 26//58 492//61 491//60
f 21//55 518//21 517//24
f 517//24 829//23 492//61
f 22//59 27//62 23//53
f 27//62 514//41 515//35
f 22//59 491//60 490//63
f 27//62 490//63 828//64
f 28//65 32//70 33//66
f 29//67 33//66 532//68
f 32//70 473//82 472//71
f 33//66 472//71 833//72
f 29//67 34//74 30//73
f 34//74 522//31 521//44
f 533//69 534//75 34//74
f 534//75 837//32 522//31
f 28//65 30//73 35//76
f 35//76 504//79 503//78
f 30//73 521//44 520//47
f 520//47 832//46 504//79
f 28//65 31//77 36//80
f 32//70 36//80 474//81
f 31//77 503//78 502//83
f 36//80 502//83 824//84
f 37//85 41//90 42//86
f 38//87 42//86 550//88
f 41//90 542//103 543//91
f 42//86 543//91 840//92
f 38//87 43//94 39//93
f 43//94 537//97 536//95
f 551//89 552//96 43//94
f 552//96 838//168 537//97
f 37//85 39//93 44//98
f 40//99 44//98 525//12
f 39//93 536//95 535//100
f 44//98 535//100 834//101
f 40//99 45//102 41//90
f 45//102 541//104 542//103
f 524//5 523//4 45//102
f 523//4 836//8 541//104
f 46//105 50//109 51//106
f 51//106 553//111 554//108
f 50//109 545//121 546//110
f 546//110 841//147 553//111
f 47//107 52//113 48//112
f 52//113 540//116 539//114
f 47//107 554//108 555//115
f 555//115 839//129 540//116
f 46//105 48//112 53//117
f 49//118 53//117 528//36
f 48//112 539//114 538//119
f 53//117 538//119 835//54
f 49//118 54//120 50//109
f 54//120 544//122 545//121
f 527//29 526//28 54//120
f 526//28 837//32 544//122
f 55//123 59//128 60//124
f 56//125 60//124 556//126
f 59//128 539//114 540//116
f 60//124 540//116 839//129
f 56//125 61//131 57//130
f 61//131 543//91 542//103
f 557//127 558//132 61//131
f 558//132 840//92 543//91
f 55//123 57//130 62//133
f 58//134 62//133 531//57
f 57//130 542//103 541//104
f 62//133 541//104 836//8
f 58//134 63//135 59//128
f 63//135 538//119 539//114
f 530//52 529//51 63//135
f 529//51 835//54 538//119
f 68//136 69//139 65//137
f 69//139 559//143 560//140
f 509//141 508//142 69//139
f 508//142 842//220 559//143
f 64//138 65//137 70//144
f 70//144 546//110 545//121
f 65//137 560//140 561//146
f 70//144 561//146 841//147
f 64//138 66//145 71//148
f 67//149 71//148 534//75
f 66//145 545//121 544//122
f 71//148 544//122 837//32
f 67//149 72//150 68//136
f 72//150 510//151 509//141
f 533//69 532//68 72//150
f 532//68 833//72 510//151
f 73//152 77//157 78//153
f 74//154 78//153 495//155
f 77//157 497//170 498//158
f 78//153 498//158 830//159
f 74//154 79//163 75//160
f 75//160 79//163 480//161
f 494//156 493//164 79//163
f 493//164 825//384 480//161
f 73//152 75//160 80//165
f 76//166 80//165 552//96
f 75//160 479//162 478//167
f 80//165 478//167 838//168
f 76//166 81//169 77//157
f 81//169 496//171 497//170
f 551//89 550//88 81//169
f 550//88 840//92 496//171
f 86//172 87//178 83//173
f 83//173 87//178 501//175
f 506//177 507//213 87//178
f 87//178 507//213 831//179
f 82//174 83//173 88//180
f 88//180 489//184 488//182
f 500//176 499//183 88//180
f 499//183 827//196 489//184
f 84//181 89//186 85//185
f 89//186 555//115 554//108
f 488//182 487//187 89//186
f 487//187 839//129 555//115
f 82//174 85//185 90//188
f 86//172 90//188 505//189
f 85//185 554//108 553//111
f 90//188 553//111 841//147
f 91//190 95//195 96//191
f 92//192 96//191 483//193
f 95//195 488//182 489//184
f 96//191 489//184 827//196
f 92//192 97//198 93//197
f 97//198 498//158 497//170
f 482//194 481//199 97//198
f 481//199 830//159 498//158
f 91//190 93//197 98//200
f 94//201 98//200 558//132
f 93//197 497//170 496//171
f 98//200 496//171 840//92
f 94//201 99//202 95//195
f 95//195 99//202 487//187
f 557//127 556//126 99//202
f 556//126 839//129 487//187
f 100//203 104//208 105//204
f 101//205 105//204 471//206
f 104//208 548//219 547//209
f 105//204 547//209 823//210
f 100//203 101//205 106//211
f 102//212 106//211 507//213
f 470//207 469//214 106//211
f 469//214 831//179 507//213
f 102//212 107//216 103//215
f 107//216 561//146 560//140
f 506//177 505//189 107//216
f 505//189 841//147 561//146
f 100//203 103//215 108//217
f 104//208 108//217 549//218
f 103//215 560//140 559//143
f 108//217 559//143 842//220
f 113//221 114//226 110//222
f 110//222 114//226 606//224
f 113//221 509//141 510//151
f 114//226 510//151 833//72
f 109//223 110//222 115//227
f 111//228 115//227 594//229
f 110//222 605//225 604//230
f 115//227 604//230 853//231
f 111//228 116//233 112//232
f 116//233 609//235 608//234
f 593//229 592//229 116//233
f 592//229 856//231 609//235
f 109//223 112//232 117//236
f 113//221 117//236 508//142
f 112//232 608//234 607//237
f 117//236 607//237 842//220
f 122//238 123//241 119//239
f 123//241 612//243 611//242
f 122//238 479//162 480//161
f 480//161 825//384 612//243
f 118//240 119//239 124//244
f 120//245 124//244 573//246
f 119//239 611//242 610//248
f 124//244 610//248 845//249
f 120//245 125//251 121//250
f 125//251 615//254 614//252
f 572//247 571//253 125//251
f 571//253 855//319 615//254
f 118//240 121//250 126//255
f 122//238 126//255 478//167
f 121//250 614//252 613//256
f 126//255 613//256 838//168
f 131//257 132//260 128//258
f 132//260 618//262 617//261
f 500//176 501//175 132//260
f 501//175 831//179 618//262
f 127//259 128//258 133//263
f 129//264 133//263 588//265
f 128//258 617//261 616//266
f 133//263 616//266 851//265
f 129//264 134//268 130//267
f 134//268 621//270 620//269
f 587//265 586//265 134//268
f 586//265 847//265 621//270
f 127//259 130//267 135//271
f 131//257 135//271 499//183
f 130//267 620//269 619//272
f 135//271 619//272 827//196
f 140//273 141//276 137//274
f 141//276 624//278 623//277
f 470//207 471//206 141//276
f 141//276 471//206 823//210
f 136//275 137//274 142//279
f 138//280 142//279 564//281
f 137//274 623//277 622//283
f 142//279 622//283 843//284
f 138//280 143//286 139//285
f 143//286 616//266 617//261
f 563//282 562//287 143//286
f 562//287 851//265 616//266
f 136//275 139//285 144//288
f 140//273 144//288 469//214
f 139//285 617//261 618//262
f 144//288 618//262 831//179
f 145//289 149//294 150//290
f 146//291 150//290 627//292
f 149//294 491//60 492//61
f 150//290 492//61 829//23
f 146//291 151//296 147//295
f 151//296 582//299 581//297
f 626//293 625//298 151//296
f 625//298 849//419 582//299
f 145//289 147//295 152//300
f 148//301 152//300 630//302
f 147//295 581//297 580//304
f 152//300 580//304 848//305
f 148//301 153//306 149//294
f 153//306 490//63 491//60
f 629//303 628//307 153//306
f 628//307 828//64 490//63
f 158//308 159//311 155//309
f 159//311 633//313 632//312
f 158//308 512//11 513//13
f 159//311 513//13 834//101
f 154//310 155//309 160//314
f 156//315 160//314 597//316
f 155//309 632//312 631//318
f 160//314 631//318 854//319
f 154//310 156//315 161//320
f 157//321 161//320 636//322
f 156//315 596//317 595//324
f 161//320 595//324 846//325
f 154//310 157//321 162//326
f 162//326 511//17 512//11
f 635//323 634//327 162//326
f 634//327 826//18 511//17
f 167//328 168//331 164//329
f 168//331 619//272 620//269
f 482//194 483//193 168//331
f 483//193 827//196 619//272
f 163//330 164//329 169//332
f 165//333 169//332 576//265
f 164//329 620//269 621//270
f 169//332 621//270 847//265
f 165//333 170//335 166//334
f 170//335 639//338 638//336
f 575//265 574//337 170//335
f 574//337 850//337 639//338
f 163//330 166//334 171//339
f 167//328 171//339 481//199
f 166//334 638//336 637//340
f 171//339 637//340 830//159
f 172//341 176//346 177//342
f 173//343 177//342 642//344
f 176//346 503//78 504//79
f 177//342 504//79 832//46
f 173//343 178//348 174//347
f 178//348 591//351 590//349
f 641//345 640//350 178//348
f 640//350 852//406 591//351
f 172//341 174//347 179//352
f 175//353 179//352 645//354
f 174//347 590//349 589//356
f 179//352 589//356 844//357
f 175//353 180//358 176//346
f 180//358 502//83 503//78
f 644//355 643//362 180//358
f 180//358 643//362 824//84
f 181//359 185//363 186//360
f 182//361 186//360 643//362
f 185//363 473//82 474//81
f 186//360 474//81 824//84
f 182//361 187//365 183//364
f 187//365 567//367 566//366
f 644//355 645//354 187//365
f 645//354 844//357 567//367
f 181//359 183//364 188//368
f 188//368 604//230 605//225
f 183//364 566//366 565//370
f 565//370 853//231 604//230
f 184//369 189//371 185//363
f 189//371 472//71 473//82
f 605//225 606//224 189//371
f 606//224 833//72 472//71
f 194//372 195//375 191//373
f 195//375 637//340 638//336
f 494//156 495//155 195//375
f 495//155 830//159 637//340
f 190//374 191//373 196//376
f 192//377 196//376 585//378
f 191//373 638//336 639//338
f 196//376 639//338 850//337
f 192//377 197//381 193//380
f 197//381 610//248 611//242
f 584//379 583//382 197//381
f 583//382 845//249 610//248
f 190//374 193//380 198//383
f 194//372 198//383 493//164
f 193//380 611//242 612//243
f 198//383 612//243 825//384
f 203//385 204//388 200//386
f 204//388 613//256 614//252
f 203//385 536//95 537//97
f 204//388 537//97 838//168
f 199//387 200//386 205//389
f 201//390 205//389 600//319
f 200//386 614//252 615//254
f 205//389 615//254 855//319
f 201//390 206//393 202//392
f 206//393 631//318 632//312
f 599//391 598//319 206//393
f 598//319 854//319 631//318
f 199//387 202//392 207//394
f 207//394 535//100 536//95
f 202//392 632//312 633//313
f 633//313 834//101 535//100
f 208//395 212//398 213//396
f 209//397 213//396 628//307
f 212//398 485//40 486//42
f 213//396 486//42 828//64
f 209//397 214//400 210//399
f 214//400 579//402 578//401
f 629//303 630//302 214//400
f 630//302 848//305 579//402
f 208//395 210//399 215//403
f 211//404 215//403 640//350
f 210//399 578//401 577//405
f 215//403 577//405 852//406
f 211//404 216//407 212//398
f 216//407 484//45 485//40
f 641//345 642//344 216//407
f 642//344 832//46 484//45
f 217//408 221//411 222//409
f 218//410 222//409 634//327
f 221//411 476//16 477//19
f 222//409 477//19 826//18
f 218//410 223//413 219//412
f 223//413 570//415 569//414
f 635//323 636//322 223//413
f 636//322 846//325 570//415
f 217//408 219//412 224//416
f 220//417 224//416 625//298
f 219//412 569//414 568//418
f 224//416 568//418 849//419
f 220//417 225//420 221//411
f 225//420 475//22 476//16
f 626//293 627//292 225//420
f 627//292 829//23 475//22
f 230//421 231//424 227//422
f 231//424 607//237 608//234
f 548//219 549//218 231//424
f 549//218 842//220 607//237
f 226//423 227//422 232//425
f 228//426 232//425 603//427
f 227//422 608//234 609//235
f 232//425 609//235 856//231
f 228//426 233//430 229//429
f 233//430 622//283 623//277
f 602//428 601//431 233//430
f 601//431 843//284 622//283
f 226//423 229//429 234//432
f 230//421 234//432 547//209
f 229//429 623//277 624//278
f 234//432 624//278 823//210
f 235//433 239//438 240//434
f 236//435 240//434 696//436
f 239//438 701//452 700//439
f 240//434 700//439 870//440
f 236//435 241//444 237//441
f 237//441 241//444 652//442
f 695//437 694//490 241//444
f 241//444 694//490 863//445
f 235//433 237//441 242//446
f 238//447 242//446 688//448
f 653//443 654//841 242//446
f 242//446 654//841 860//450
f 238//447 243//451 239//438
f 243//451 702//454 701//452
f 689//449 690//453 243//451
f 690//453 868//531 702//454
f 244//455 248//460 249//456
f 245//457 249//456 699//458
f 248//460 704//474 703//461
f 249//456 703//461 871//462
f 245//457 250//466 246//463
f 246//463 250//466 661//464
f 698//459 697//511 250//466
f 250//466 697//511 866//467
f 244//455 246//463 251//468
f 247//469 251//468 691//470
f 662//465 663//472 251//468
f 663//472 862//487 691//470
f 247//469 252//473 248//460
f 252//473 705//476 704//474
f 692//471 693//475 252//473
f 693//475 869//482 705//476
f 253//477 257//480 258//478
f 254//479 258//478 693//475
f 257//480 707//493 706//481
f 258//478 706//481 869//482
f 254//479 259//486 255//483
f 255//483 259//486 667//484
f 692//471 691//470 259//486
f 259//486 691//470 862//487
f 253//477 255//483 260//488
f 256//489 260//488 694//490
f 668//485 669//491 260//488
f 669//491 863//445 694//490
f 256//489 261//492 257//480
f 261//492 708//494 707//493
f 695//437 696//436 261//492
f 696//436 870//440 708//494
f 262//495 266//500 267//496
f 263//497 267//496 649//498
f 266//500 710//514 709//501
f 267//496 709//501 867//502
f 262//495 263//497 268//503
f 264//504 268//503 679//505
f 263//497 650//499 651//507
f 268//503 651//507 858//508
f 262//495 264//504 269//509
f 265//510 269//509 697//511
f 680//506 681//512 269//509
f 681//512 866//467 697//511
f 265//510 270//513 266//500
f 270//513 711//515 710//514
f 698//459 699//458 270//513
f 699//458 871//462 711//515
f 271//516 275//521 276//517
f 272//518 276//517 720//519
f 275//521 728//533 727//522
f 276//517 727//522 874//523
f 272//518 277//525 273//524
f 277//525 700//439 701//452
f 719//520 718//526 277//525
f 718//526 870//440 700//439
f 271//516 273//524 278//527
f 274//528 278//527 712//529
f 273//524 701//452 702//454
f 278//527 702//454 868//531
f 274//528 279//532 275//521
f 279//532 729//535 728//533
f 713//530 714//534 279//532
f 714//534 872//598 729//535
f 280//536 284//542 285//537
f 281//538 285//537 723//539
f 731//541 730//543 285//537
f 730//543 875//582 723//539
f 281//538 286//545 282//544
f 286//545 703//461 704//474
f 722//540 721//546 286//545
f 721//546 871//462 703//461
f 280//536 282//544 287//547
f 283//548 287//547 715//549
f 282//544 704//474 705//476
f 287//547 705//476 869//482
f 283//548 288//552 284//542
f 284//542 288//552 732//551
f 716//550 717//553 288//552
f 717//553 873//559 732//551
f 289//554 293//557 294//555
f 290//556 294//555 717//553
f 293//557 734//565 733//558
f 294//555 733//558 873//559
f 290//556 295//561 291//560
f 295//561 706//481 707//493
f 716//550 715//549 295//561
f 715//549 869//482 706//481
f 289//554 291//560 296//562
f 292//563 296//562 718//526
f 291//560 707//493 708//494
f 296//562 708//494 870//440
f 292//563 297//564 293//557
f 297//564 735//566 734//565
f 719//520 720//519 297//564
f 720//519 874//523 735//566
f 302//567 303//570 299//568
f 303//570 685//574 686//571
f 737//572 736//573 303//570
f 736//573 876//646 685//574
f 299//568 304//576 300//575
f 304//576 709//501 710//514
f 686//571 687//577 304//576
f 687//577 867//502 709//501
f 298//569 300//575 305//578
f 301//579 305//578 721//546
f 300//575 710//514 711//515
f 305//578 711//515 871//462
f 298//569 301//579 306//580
f 302//567 306//580 738//581
f 722//540 723//539 306//580
f 306//580 723//539 875//582
f 307//583 311//588 312//584
f 308//585 312//584 675//586
f 311//588 671//600 672//589
f 312//584 672//589 864//590
f 308//585 313//592 309//591
f 313//592 727//522 728//533
f 674//587 673//593 313//592
f 673//593 874//523 727//522
f 307//583 309//591 314//594
f 310//595 314//594 655//596
f 309//591 728//533 729//535
f 314//594 729//535 872//598
f 310//595 315//599 311//588
f 315//599 670//602 671//600
f 310//595 656//597 657//601
f 657//601 859//807 670//602
f 320//603 321//606 317//604
f 321//606 684//610 683//607
f 320//603 677//619 678//608
f 321//606 678//608 865//609
f 316//605 317//604 322//611
f 318//612 322//611 730//543
f 317//604 683//607 682//613
f 322//611 682//613 875//582
f 318//612 323//615 319//614
f 323//615 664//617 665//616
f 731//541 732//551 323//615
f 732//551 873//559 664//617
f 316//605 319//614 324//618
f 324//618 676//621 677//619
f 665//616 666//620 324//618
f 666//620 861//627 676//621
f 325//622 329//625 330//623
f 326//624 330//623 666//620
f 329//625 659//633 660//626
f 330//623 660//626 861//627
f 326//624 331//629 327//628
f 331//629 733//558 734//565
f 326//624 665//616 664//617
f 664//617 873//559 733//558
f 325//622 327//628 332//630
f 328//631 332//630 673//593
f 327//628 734//565 735//566
f 332//630 735//566 874//523
f 328//631 333//632 329//625
f 333//632 658//634 659//633
f 674//587 675//586 333//632
f 675//586 864//590 658//634
f 334//635 338//640 339//636
f 335//637 339//636 724//638
f 338//640 647//650 648//641
f 339//636 648//641 857//642
f 334//635 335//637 340//643
f 336//644 340//643 736//573
f 335//637 725//639 726//645
f 340//643 726//645 876//646
f 336//644 341//648 337//647
f 341//648 682//613 683//607
f 737//572 738//581 341//648
f 738//581 875//582 682//613
f 334//635 337//647 342//649
f 342//649 646//651 647//650
f 337//647 683//607 684//610
f 684//610 865//609 646//651
f 347//652 348//656 344//653
f 344//653 348//656 687//577
f 347//652 782//667 783//655
f 348//656 783//655 867//502
f 343//654 344//653 349//657
f 345//658 349//657 784//659
f 344//653 686//571 685//574
f 349//657 685//574 876//646
f 345//658 350//662 346//661
f 350//662 769//663 770//663
f 785//660 786//664 350//662
f 786//664 890//668 769//663
f 343//654 346//661 351//665
f 347//652 351//665 781//666
f 346//661 770//663 771//663
f 351//665 771//663 887//668
f 356//669 357//673 353//670
f 353//670 357//673 657//601
f 788//672 789//674 357//673
f 789//674 859//807 657//601
f 352//671 353//670 358//675
f 354//676 358//675 790//677
f 353//670 656//597 655//596
f 358//675 655//596 872//598
f 354//676 359//680 355//679
f 359//680 748//683 749//681
f 791//678 792//682 359//680
f 792//682 889//824 748//683
f 352//671 355//679 360//684
f 356//669 360//684 787//685
f 355//679 749//681 750//686
f 360//684 750//686 879//687
f 365//688 366//691 362//689
f 366//691 678//608 677//619
f 794//692 795//693 366//691
f 795//693 865//609 678//608
f 361//690 362//689 367//694
f 363//695 367//694 796//696
f 362//689 677//619 676//621
f 367//694 676//621 861//627
f 363//695 368//699 364//698
f 368//699 763//700 764//700
f 797//697 798//701 368//699
f 798//701 881//700 763//700
f 361//690 364//698 369//702
f 365//688 369//702 793//703
f 364//698 764//700 765//700
f 369//702 765//700 885//700
f 374//704 375//707 371//705
f 375//707 648//641 647//650
f 800//708 801//858 375//707
f 375//707 801//858 857//642
f 370//706 371//705 376//709
f 372//710 376//709 795//693
f 371//705 647//650 646//651
f 376//709 646//651 865//609
f 372//710 377//712 373//711
f 377//712 739//714 740//713
f 794//692 793//703 377//712
f 793//703 885//700 739//714
f 370//706 373//711 378//715
f 374//704 378//715 799//716
f 373//711 740//713 741//717
f 378//715 741//717 877//718
f 379//719 383//722 384//720
f 380//721 384//720 669//491
f 383//722 803//735 804//723
f 384//720 804//723 863//445
f 380//721 385//725 381//724
f 385//725 805//727 806//726
f 668//485 667//484 385//725
f 667//484 862//487 805//727
f 379//719 381//724 386//728
f 382//729 386//728 757//730
f 381//724 806//726 807//732
f 386//728 807//732 882//733
f 382//729 387//734 383//722
f 387//734 802//737 803//735
f 758//731 759//736 387//734
f 759//736 883//849 802//737
f 392//738 393//742 389//739
f 389//739 393//742 690//453
f 809//741 810//820 393//742
f 393//742 810//820 868//531
f 388//740 389//739 394//743
f 394//743 811//746 812//745
f 689//449 688//448 394//743
f 688//448 860//450 811//746
f 388//740 390//744 395//747
f 391//748 395//747 772//749
f 390//744 812//745 813//751
f 395//747 813//751 880//752
f 388//740 391//748 396//753
f 392//738 396//753 808//754
f 391//748 773//750 774//755
f 396//753 774//755 888//756
f 401//757 402//760 398//758
f 402//760 660//626 659//633
f 797//697 796//696 402//760
f 796//696 861//627 660//626
f 397//759 398//758 403//761
f 399//762 403//761 814//763
f 398//758 659//633 658//634
f 403//761 658//634 864//590
f 399//762 404//766 400//765
f 404//766 751//768 752//700
f 815//764 816//767 404//766
f 816//767 884//768 751//768
f 397//759 400//765 405//769
f 401//757 405//769 798//701
f 400//765 752//700 753//700
f 405//769 753//700 881//700
f 406//770 410//773 411//771
f 407//772 411//771 681//512
f 410//773 818//786 819//774
f 411//771 819//774 866//467
f 407//772 412//776 408//775
f 412//776 820//778 821//777
f 680//506 679//505 412//776
f 412//776 679//505 858//508
f 406//770 408//775 413//779
f 409//780 413//779 766//781
f 408//775 821//777 822//783
f 413//779 822//783 878//784
f 409//780 414//785 410//773
f 414//785 817//788 818//786
f 767//782 768//787 414//785
f 768//787 886//835 817//788
f 415//789 419//792 420//790
f 416//791 420//790 651//507
f 419//792 821//777 820//778
f 420//790 820//778 858//508
f 416//791 421//794 417//793
f 421//794 783//655 782//667
f 650//499 649//498 421//794
f 649//498 867//502 783//655
f 415//789 417//793 422//795
f 418//796 422//795 742//797
f 782//667 781//666 422//795
f 781//666 887//668 742//797
f 418//796 423//799 419//792
f 423//799 822//783 821//777
f 743//798 744//800 423//799
f 744//800 878//784 822//783
f 428//801 429//804 425//802
f 429//804 672//589 671//600
f 815//764 814//763 429//804
f 814//763 864//590 672//589
f 424//803 425//802 430//805
f 426//806 430//805 789//674
f 425//802 671//600 670//602
f 430//805 670//602 859//807
f 426//806 431//809 427//808
f 431//809 760//811 761//810
f 788//672 787//685 431//809
f 787//685 879//687 760//811
f 424//803 427//808 432//812
f 428//801 432//812 816//767
f 427//808 761//810 762//813
f 432//812 762//813 884//768
f 437//814 438//817 434//815
f 434//815 438//817 714//534
f 791//678 790//677 438//817
f 438//817 790//677 872//598
f 433//816 434//815 439//818
f 435//819 439//818 810//820
f 713//530 712//529 439//818
f 712//529 868//531 810//820
f 435//819 440//822 436//821
f 440//822 775//756 776//756
f 809//741 808//754 440//822
f 808//754 888//756 775//756
f 433//816 436//821 441//823
f 437//814 441//823 792//682
f 436//821 776//756 777//824
f 441//823 777//824 889//824
f 442//825 446//828 447//826
f 443//827 447//826 663//472
f 446//828 806//726 805//727
f 447//826 805//727 862//487
f 443//827 448//830 444//829
f 448//830 819//774 818//786
f 662//465 661//464 448//830
f 661//464 866//467 819//774
f 442//825 444//829 449//831
f 445//832 449//831 754//833
f 444//829 818//786 817//788
f 449//831 817//788 886//835
f 445//832 450//836 446//828
f 450//836 807//732 806//726
f 755//834 756//837 450//836
f 756//837 882//733 807//732
f 451//838 455//842 456//839
f 452//840 456//839 654//841
f 455//842 812//745 811//746
f 456//839 811//746 860//450
f 452//840 457//844 453//843
f 457//844 804//723 803//735
f 653//443 652//442 457//844
f 652//442 863//445 804//723
f 451//838 453//843 458//845
f 454//846 458//845 745//847
f 453//843 803//735 802//737
f 458//845 802//737 883//849
f 454//846 459//850 455//842
f 459//850 813//751 812//745
f 746//848 747//851 459//850
f 747//851 880//752 813//751
f 464//852 465//855 461//853
f 465//855 726//645 725//639
f 785//660 784//659 465//855
f 784//659 876//646 726//645
f 460//854 461//853 466//856
f 462//857 466//856 801//858
f 461//853 725//639 724//638
f 466//856 724//638 857//642
f 462//857 467//860 463//859
f 467//860 778//862 779//861
f 800//708 799//716 467//860
f 799//716 877//718 778//862
f 460//854 463//859 468//863
f 464//852 468//863 786//664
f 463//859 779//861 780//864
f 468//863 780//864 890//668
