# Blender v2.79 (sub 0) OBJ File: 'fiat500.blend'
# www.blender.org
o Plane.011_Plane.008
v -0.997162 0.218850 -1.006886
v -0.989758 0.219248 -1.006987
v -0.997382 0.216442 -1.007084
v -1.000479 0.218676 -1.006518
v -0.996618 0.223949 -1.005760
v -0.989223 0.224487 -1.005831
v -0.990004 0.216754 -1.007196
v -1.000598 0.216376 -1.006724
v -0.999960 0.223689 -1.005401
v -0.983418 0.351647 -0.972356
v -0.976491 0.355369 -0.971536
v -0.985434 0.330095 -0.978300
v -0.986543 0.349935 -0.972395
v -0.981681 0.370738 -0.967021
v -0.974814 0.374899 -0.966052
v -0.978437 0.333313 -0.977646
v -0.988592 0.328614 -0.978269
v -0.984777 0.368825 -0.967125
v -0.978895 0.401507 -0.958233
v -0.972133 0.406370 -0.957021
v -0.979428 0.395784 -0.959970
v -0.981920 0.399263 -0.958454
v -0.978604 0.404304 -0.957067
v -0.971876 0.409240 -0.955821
v -0.972639 0.400514 -0.958805
v -0.982487 0.393610 -0.960158
v -0.981549 0.401999 -0.957340
v -0.992113 0.264768 -0.995525
v -0.984880 0.266368 -0.995332
v -0.994073 0.246900 -1.000041
v -0.995381 0.264026 -0.995287
v -0.989911 0.285359 -0.990232
v -0.982756 0.287484 -0.989900
v -0.986770 0.248036 -0.999966
v -0.997374 0.246368 -0.999750
v -0.993143 0.284378 -0.990057
v -0.930615 0.222505 -1.006790
v -0.905641 0.223884 -1.006706
v -0.930789 0.219542 -1.007115
v -0.955489 0.221131 -1.006873
v -0.930238 0.228776 -1.005380
v -0.905330 0.230591 -1.005190
v -0.905784 0.220723 -1.007081
v -0.955692 0.218364 -1.007149
v -0.955045 0.226968 -1.005569
v -0.921182 0.384938 -0.963932
v -0.897824 0.397422 -0.960719
v -0.922587 0.358900 -0.971396
v -0.944447 0.372505 -0.967132
v -0.919966 0.407926 -0.957219
v -0.896802 0.421869 -0.953485
v -0.899002 0.369704 -0.968756
v -0.946078 0.348139 -0.974025
v -0.943037 0.394040 -0.960938
v -0.918021 0.444899 -0.946227
v -0.895167 0.461163 -0.941662
v -0.918387 0.438020 -0.948361
v -0.940784 0.428703 -0.950775
v -0.917837 0.448274 -0.944867
v -0.895014 0.464750 -0.940236
v -0.895474 0.453852 -0.943944
v -0.941209 0.422254 -0.952761
v -0.940570 0.431866 -0.949482
v -0.927177 0.279109 -0.992804
v -0.902811 0.284492 -0.991738
v -0.928511 0.257087 -0.998362
v -0.951445 0.273747 -0.993866
v -0.925674 0.304405 -0.986266
v -0.901570 0.311552 -0.984732
v -0.903909 0.260912 -0.997685
v -0.953012 0.253276 -0.999035
v -0.949682 0.297286 -0.987793
v -0.862558 0.226230 -1.006434
v -0.858646 0.226435 -1.006037
v -0.862694 0.222762 -1.006896
v -0.870563 0.225803 -1.006589
v -0.862347 0.233679 -1.004732
v -0.858401 0.233918 -1.004315
v -0.858916 0.223043 -1.006513
v -0.870663 0.222363 -1.007032
v -0.870347 0.233123 -1.004922
v -0.857541 0.418974 -0.955064
v -0.853853 0.420933 -0.954180
v -0.858318 0.388342 -0.964076
v -0.865030 0.414965 -0.956215
v -0.856861 0.445954 -0.946948
v -0.853207 0.448152 -0.945990
v -0.854590 0.390026 -0.963275
v -0.865884 0.384880 -0.965051
v -0.864284 0.441469 -0.948258
v -0.855786 0.489255 -0.933728
v -0.852232 0.491755 -0.932683
v -0.855975 0.481221 -0.936251
v -0.863090 0.484037 -0.935281
v -0.855729 0.493132 -0.932218
v -0.852309 0.495430 -0.931258
v -0.852367 0.483729 -0.935196
v -0.863312 0.476118 -0.937769
v -0.862979 0.487924 -0.933761
v -0.860766 0.293746 -0.989758
v -0.856907 0.294555 -0.989197
v -0.861457 0.267473 -0.996381
v -0.868590 0.292040 -0.990235
v -0.859978 0.323855 -0.981945
v -0.856163 0.324947 -0.981310
v -0.857560 0.268033 -0.995884
v -0.869357 0.266269 -0.996731
v -0.867717 0.321580 -0.982572
v -1.002506 0.218280 -1.002913
v -1.002443 0.215951 -1.003436
v -1.002614 0.218120 -1.001003
v -1.002044 0.223271 -1.001698
v -1.002183 0.218446 -1.004536
v -1.002139 0.216180 -1.004931
v -1.002545 0.215769 -1.001570
v -1.002153 0.223117 -0.999775
v -1.001715 0.223420 -1.003363
v -0.855612 0.495867 -0.927774
v -0.862893 0.490662 -0.929211
v -0.855594 0.495888 -0.925816
v -0.852076 0.498024 -0.927167
v -0.855666 0.495489 -0.929541
v -0.862907 0.490313 -0.931010
v -0.862889 0.490673 -0.927243
v -0.852016 0.498067 -0.925242
v -0.852255 0.497577 -0.928836
v -0.917690 0.450619 -0.940420
v -0.940397 0.434049 -0.945077
v -0.917682 0.450609 -0.938457
v -0.894892 0.467258 -0.935746
v -0.917713 0.450332 -0.942202
v -0.940424 0.433787 -0.946853
v -0.940388 0.434031 -0.943117
v -0.894885 0.467257 -0.933781
v -0.894911 0.466945 -0.937535
v -0.862705 0.220205 -1.003817
v -0.858778 0.220714 -1.003692
v -0.862692 0.219938 -1.001934
v -0.870729 0.219765 -1.003859
v -0.862742 0.220690 -1.005362
v -0.858957 0.221158 -1.005131
v -0.858718 0.220461 -1.001844
v -0.870732 0.219495 -1.001963
v -0.870719 0.220258 -1.005440
v -0.997417 0.263305 -0.991664
v -0.999430 0.245780 -0.996092
v -0.997524 0.263134 -0.989744
v -0.995155 0.283506 -0.986473
v -0.997096 0.263502 -0.993316
v -0.999105 0.245956 -0.997750
v -0.999538 0.245616 -0.994171
v -0.995261 0.283327 -0.984556
v -0.994838 0.283727 -0.988119
v -0.849563 0.493498 -0.928561
v -0.849895 0.497176 -0.927442
v -0.849422 0.493471 -0.926620
v -0.849606 0.485424 -0.930985
v -0.849987 0.493263 -0.930282
v -0.850285 0.496812 -0.929085
v -0.849765 0.497192 -0.925527
v -0.849461 0.485380 -0.929035
v -0.850042 0.485239 -0.932730
v -0.851024 0.422186 -0.950083
v -0.850408 0.449597 -0.941844
v -0.850875 0.422119 -0.948139
v -0.851727 0.391061 -0.959235
v -0.851470 0.422072 -0.951810
v -0.850850 0.449452 -0.943578
v -0.850261 0.449540 -0.939897
v -0.851576 0.390982 -0.957295
v -0.852179 0.390980 -0.960953
v -0.997573 0.214535 -1.003836
v -0.990163 0.214751 -1.003867
v -0.997593 0.214301 -1.001944
v -1.000873 0.214658 -1.003741
v -0.997516 0.214919 -1.005408
v -0.990137 0.215151 -1.005473
v -0.990171 0.214513 -1.001963
v -1.000924 0.214435 -1.001885
v -1.000721 0.215013 -1.005206
v -0.853936 0.294903 -0.985337
v -0.853226 0.325516 -0.977392
v -0.853780 0.294788 -0.983405
v -0.854559 0.268188 -0.992074
v -0.854405 0.294931 -0.987027
v -0.853690 0.325509 -0.979091
v -0.853072 0.325413 -0.975458
v -0.854401 0.268063 -0.990145
v -0.855033 0.268246 -0.993756
v -0.855693 0.226254 -1.002416
v -0.855361 0.233823 -1.000570
v -0.855537 0.226102 -1.000507
v -0.856242 0.222742 -1.003229
v -0.856160 0.226395 -1.004040
v -0.855841 0.233921 -1.002242
v -0.855201 0.233685 -0.998645
v -0.856100 0.222554 -1.001366
v -0.856667 0.222989 -1.004713
v -0.978424 0.406132 -0.952859
v -0.981472 0.403564 -0.953514
v -0.978423 0.406090 -0.950917
v -0.971668 0.411198 -0.951474
v -0.978428 0.405942 -0.954578
v -0.981387 0.403463 -0.955096
v -0.981501 0.403492 -0.951619
v -0.971658 0.411169 -0.949517
v -0.971701 0.410972 -0.953241
v -0.983745 0.397666 -0.955162
v -0.984379 0.391967 -0.956774
v -0.983840 0.397458 -0.953265
v -0.983187 0.400637 -0.954297
v -0.983459 0.397972 -0.956749
v -0.984080 0.392310 -0.958388
v -0.984479 0.391748 -0.954868
v -0.983270 0.400471 -0.952427
v -0.982936 0.400819 -0.955803
v -0.930901 0.217244 -1.003863
v -0.905877 0.218300 -1.003861
v -0.930907 0.216990 -1.001963
v -0.955824 0.216190 -1.003865
v -0.930883 0.217690 -1.005457
v -0.905862 0.218766 -1.005450
v -0.905882 0.218040 -1.001963
v -0.955831 0.215943 -1.001963
v -0.955803 0.216617 -1.005463
v -0.988482 0.348594 -0.968933
v -0.990554 0.327423 -0.974767
v -0.988584 0.348390 -0.967022
v -0.986695 0.367353 -0.963697
v -0.988176 0.348889 -0.970560
v -0.990245 0.327694 -0.976400
v -0.990658 0.327227 -0.972855
v -0.986796 0.367142 -0.961788
v -0.986392 0.367668 -0.965318
v -0.997162 0.218850 1.006886
v -0.996618 0.223949 1.005760
v -1.000479 0.218676 1.006518
v -0.997382 0.216442 1.007084
v -0.989758 0.219248 1.006987
v -0.989223 0.224487 1.005831
v -0.999960 0.223689 1.005401
v -1.000598 0.216376 1.006724
v -0.990004 0.216754 1.007196
v -0.983418 0.351647 0.972356
v -0.981681 0.370738 0.967021
v -0.986543 0.349935 0.972395
v -0.985434 0.330095 0.978300
v -0.976491 0.355369 0.971536
v -0.974814 0.374899 0.966052
v -0.984777 0.368825 0.967125
v -0.988592 0.328614 0.978269
v -0.978437 0.333313 0.977646
v -0.978895 0.401507 0.958234
v -0.978604 0.404304 0.957067
v -0.981920 0.399263 0.958454
v -0.979428 0.395784 0.959970
v -0.972133 0.406370 0.957021
v -0.971876 0.409240 0.955821
v -0.981549 0.401999 0.957340
v -0.982487 0.393610 0.960158
v -0.972639 0.400514 0.958805
v -0.992113 0.264768 0.995525
v -0.989911 0.285359 0.990232
v -0.995381 0.264026 0.995287
v -0.994073 0.246900 1.000041
v -0.984880 0.266368 0.995332
v -0.982757 0.287484 0.989900
v -0.993143 0.284378 0.990057
v -0.997374 0.246368 0.999750
v -0.986769 0.248036 0.999966
v -0.930615 0.222505 1.006790
v -0.930238 0.228776 1.005380
v -0.955489 0.221131 1.006873
v -0.930789 0.219542 1.007115
v -0.905641 0.223884 1.006706
v -0.905330 0.230591 1.005190
v -0.955045 0.226968 1.005569
v -0.955692 0.218364 1.007149
v -0.905784 0.220723 1.007081
v -0.921182 0.384938 0.963932
v -0.919966 0.407926 0.957219
v -0.944447 0.372505 0.967132
v -0.922587 0.358900 0.971396
v -0.897824 0.397422 0.960719
v -0.896802 0.421869 0.953485
v -0.943037 0.394040 0.960938
v -0.946078 0.348139 0.974025
v -0.899002 0.369704 0.968756
v -0.918021 0.444899 0.946227
v -0.917837 0.448274 0.944867
v -0.940784 0.428703 0.950775
v -0.918387 0.438020 0.948361
v -0.895167 0.461163 0.941662
v -0.895014 0.464750 0.940236
v -0.940570 0.431866 0.949482
v -0.941209 0.422254 0.952761
v -0.895474 0.453852 0.943944
v -0.927177 0.279109 0.992804
v -0.925674 0.304405 0.986266
v -0.951445 0.273747 0.993866
v -0.928511 0.257087 0.998362
v -0.902811 0.284492 0.991738
v -0.901570 0.311552 0.984732
v -0.949682 0.297286 0.987792
v -0.953012 0.253276 0.999035
v -0.903909 0.260912 0.997685
v -0.862558 0.226230 1.006434
v -0.862347 0.233679 1.004732
v -0.870563 0.225803 1.006589
v -0.862694 0.222762 1.006896
v -0.858646 0.226435 1.006037
v -0.858401 0.233918 1.004315
v -0.870347 0.233123 1.004922
v -0.870663 0.222363 1.007032
v -0.858916 0.223043 1.006513
v -0.857541 0.418974 0.955064
v -0.856860 0.445954 0.946948
v -0.865030 0.414965 0.956215
v -0.858318 0.388342 0.964076
v -0.853853 0.420933 0.954180
v -0.853207 0.448152 0.945990
v -0.864284 0.441469 0.948258
v -0.865884 0.384880 0.965051
v -0.854590 0.390026 0.963275
v -0.855786 0.489255 0.933728
v -0.855729 0.493132 0.932218
v -0.863090 0.484037 0.935281
v -0.855975 0.481221 0.936251
v -0.852232 0.491755 0.932683
v -0.852309 0.495430 0.931258
v -0.862979 0.487924 0.933761
v -0.863312 0.476118 0.937769
v -0.852366 0.483729 0.935196
v -0.860766 0.293746 0.989758
v -0.859978 0.323855 0.981945
v -0.868590 0.292040 0.990235
v -0.861457 0.267473 0.996381
v -0.856907 0.294555 0.989197
v -0.856163 0.324947 0.981310
v -0.867717 0.321580 0.982572
v -0.869357 0.266269 0.996731
v -0.857560 0.268033 0.995884
v -1.002506 0.218280 1.002913
v -1.002183 0.218446 1.004536
v -1.002044 0.223271 1.001698
v -1.002614 0.218120 1.001003
v -1.002443 0.215951 1.003436
v -1.002139 0.216180 1.004931
v -1.001715 0.223420 1.003363
v -1.002153 0.223117 0.999775
v -1.002545 0.215769 1.001570
v -0.855612 0.495867 0.927774
v -0.855666 0.495488 0.929541
v -0.852076 0.498024 0.927167
v -0.855594 0.495888 0.925816
v -0.862893 0.490662 0.929211
v -0.862907 0.490313 0.931010
v -0.852255 0.497577 0.928836
v -0.852016 0.498067 0.925242
v -0.862889 0.490673 0.927243
v -0.917690 0.450619 0.940420
v -0.917713 0.450332 0.942202
v -0.894892 0.467258 0.935746
v -0.917682 0.450609 0.938457
v -0.940397 0.434049 0.945077
v -0.940424 0.433787 0.946853
v -0.894911 0.466945 0.937535
v -0.894885 0.467257 0.933781
v -0.940388 0.434031 0.943117
v -0.862705 0.220205 1.003817
v -0.862742 0.220690 1.005362
v -0.870729 0.219765 1.003859
v -0.862692 0.219938 1.001934
v -0.858778 0.220714 1.003692
v -0.858957 0.221158 1.005131
v -0.870719 0.220258 1.005440
v -0.870732 0.219495 1.001963
v -0.858718 0.220461 1.001844
v -0.997417 0.263305 0.991664
v -0.997095 0.263502 0.993316
v -0.995155 0.283506 0.986473
v -0.997524 0.263134 0.989744
v -0.999430 0.245780 0.996092
v -0.999105 0.245956 0.997750
v -0.994838 0.283727 0.988119
v -0.995261 0.283327 0.984556
v -0.999538 0.245616 0.994171
v -0.849563 0.493498 0.928561
v -0.849987 0.493263 0.930282
v -0.849606 0.485424 0.930985
v -0.849422 0.493471 0.926620
v -0.849895 0.497176 0.927442
v -0.850285 0.496812 0.929085
v -0.850042 0.485239 0.932730
v -0.849461 0.485380 0.929035
v -0.849765 0.497192 0.925527
v -0.851024 0.422186 0.950083
v -0.851470 0.422072 0.951810
v -0.851727 0.391061 0.959235
v -0.850875 0.422119 0.948140
v -0.850408 0.449597 0.941844
v -0.850850 0.449452 0.943579
v -0.852179 0.390980 0.960953
v -0.851576 0.390982 0.957295
v -0.850261 0.449540 0.939897
v -0.997573 0.214535 1.003836
v -0.997516 0.214919 1.005408
v -1.000873 0.214658 1.003741
v -0.997593 0.214301 1.001944
v -0.990163 0.214751 1.003867
v -0.990138 0.215151 1.005473
v -1.000721 0.215013 1.005206
v -1.000924 0.214435 1.001885
v -0.990171 0.214513 1.001963
v -0.853936 0.294903 0.985337
v -0.854405 0.294931 0.987027
v -0.854559 0.268188 0.992074
v -0.853780 0.294788 0.983405
v -0.853226 0.325516 0.977392
v -0.853690 0.325509 0.979091
v -0.855033 0.268246 0.993756
v -0.854401 0.268063 0.990145
v -0.853072 0.325413 0.975458
v -0.855693 0.226254 1.002416
v -0.856160 0.226395 1.004040
v -0.856242 0.222742 1.003229
v -0.855537 0.226102 1.000507
v -0.855361 0.233823 1.000570
v -0.855841 0.233921 1.002242
v -0.856667 0.222989 1.004713
v -0.856100 0.222554 1.001366
v -0.855201 0.233685 0.998645
v -0.978424 0.406132 0.952859
v -0.978428 0.405943 0.954578
v -0.971668 0.411198 0.951474
v -0.978423 0.406090 0.950917
v -0.981472 0.403564 0.953514
v -0.981387 0.403463 0.955096
v -0.971701 0.410972 0.953241
v -0.971658 0.411169 0.949517
v -0.981501 0.403492 0.951619
v -0.983745 0.397666 0.955162
v -0.983459 0.397972 0.956749
v -0.983187 0.400637 0.954297
v -0.983840 0.397458 0.953265
v -0.984379 0.391967 0.956774
v -0.984080 0.392310 0.958388
v -0.982936 0.400819 0.955803
v -0.983270 0.400471 0.952427
v -0.984479 0.391748 0.954868
v -0.930901 0.217244 1.003863
v -0.930883 0.217690 1.005457
v -0.955824 0.216190 1.003865
v -0.930907 0.216990 1.001963
v -0.905877 0.218300 1.003861
v -0.905862 0.218766 1.005450
v -0.955803 0.216617 1.005463
v -0.955831 0.215943 1.001963
v -0.905882 0.218040 1.001963
v -0.988482 0.348594 0.968933
v -0.988176 0.348889 0.970560
v -0.986695 0.367353 0.963697
v -0.988584 0.348390 0.967022
v -0.990555 0.327423 0.974767
v -0.990245 0.327694 0.976400
v -0.986392 0.367668 0.965318
v -0.986796 0.367142 0.961788
v -0.990658 0.327227 0.972855
v -0.850914 0.484712 -0.934168
v -0.850830 0.492703 -0.931688
v -0.851051 0.496197 -0.930381
v -0.971767 0.410362 -0.954721
v -0.978475 0.405380 -0.956004
v -0.981371 0.403003 -0.956369
v -1.001057 0.223561 -1.004641
v -1.001541 0.218587 -1.005771
v -1.001552 0.216356 -1.006033
v -0.870698 0.221087 -1.006550
v -0.862755 0.221505 -1.006433
v -0.859067 0.221898 -1.006094
v -0.855980 0.268206 -0.995067
v -0.855343 0.294830 -0.988354
v -0.854617 0.325338 -0.980436
v -0.985787 0.368142 -0.966509
v -0.987564 0.349321 -0.971761
v -0.989625 0.328078 -0.977614
v -0.866796 0.353117 -0.974069
v -0.859146 0.355991 -0.973274
v -0.855375 0.357381 -0.972558
v -0.853083 0.390662 -0.962337
v -0.852364 0.421684 -0.953212
v -0.851734 0.449004 -0.944996
v -0.982422 0.401209 -0.956849
v -0.982883 0.398473 -0.957891
v -0.983483 0.392837 -0.959565
v -0.863695 0.462488 -0.941877
v -0.856323 0.467348 -0.940440
v -0.852697 0.469734 -0.939423
v -0.994202 0.284010 -0.989359
v -0.996453 0.263738 -0.994568
v -0.998456 0.246150 -0.999013
v -0.857512 0.223141 -1.005811
v -0.857093 0.226473 -1.005279
v -0.856801 0.233960 -1.003532
v -0.869962 0.246040 -1.001735
v -0.862001 0.246847 -1.001483
v -0.858074 0.247211 -1.001035
v -0.894950 0.466162 -0.939061
v -0.917760 0.449600 -0.943715
v -0.940479 0.433106 -0.948352
v -1.000589 0.215563 -1.006220
v -0.997444 0.215529 -1.006532
v -0.990087 0.215791 -1.006632
v -0.990825 0.306287 -0.984303
v -0.987631 0.307519 -0.984408
v -0.980557 0.310196 -0.983921
v -0.983392 0.383859 -0.962898
v -0.980318 0.385930 -0.962743
v -0.973498 0.390436 -0.961655
v -0.998955 0.232543 -1.003203
v -0.995629 0.232909 -1.003535
v -0.988270 0.233679 -1.003549
v -0.975968 0.225445 -1.005729
v -0.976467 0.219974 -1.006943
v -0.976696 0.217374 -1.007177
v -0.962494 0.382327 -0.964073
v -0.964066 0.362017 -0.969830
v -0.965889 0.339064 -0.976242
v -0.959740 0.418023 -0.953370
v -0.959980 0.415039 -0.954606
v -0.960454 0.408952 -0.956468
v -0.969930 0.291283 -0.989081
v -0.971913 0.269226 -0.994762
v -0.973678 0.250065 -0.999604
v -0.955762 0.217311 -1.006609
v -0.930848 0.218424 -1.006592
v -0.905833 0.219539 -1.006574
v -0.947850 0.322536 -0.981088
v -0.924109 0.331494 -0.979033
v -0.900271 0.340489 -0.976970
v -0.941931 0.411154 -0.955971
v -0.919010 0.426181 -0.951835
v -0.895998 0.441270 -0.947684
v -0.954255 0.237231 -1.003027
v -0.929567 0.239816 -1.002650
v -0.904778 0.242411 -1.002271
v -0.852388 0.496717 -0.930212
v -0.855718 0.494621 -0.931047
v -0.862934 0.489456 -0.932554
v -0.884106 0.232133 -1.005028
v -0.884359 0.225055 -1.006635
v -0.884476 0.221724 -1.007051
v -0.877067 0.433754 -0.950308
v -0.877923 0.408062 -0.957983
v -0.878906 0.378911 -0.966508
v -0.875570 0.478799 -0.936297
v -0.875698 0.475030 -0.937781
v -0.875954 0.467351 -0.940188
v -0.881030 0.317639 -0.983424
v -0.882048 0.289076 -0.990828
v -0.882946 0.264167 -0.997108
v -0.849461 0.485222 -0.926982
v -0.849422 0.493313 -0.924567
v -0.849765 0.497034 -0.923474
v -0.971658 0.411011 -0.947465
v -0.978423 0.405933 -0.948865
v -0.981501 0.403334 -0.949566
v -1.002153 0.222959 -0.997723
v -1.002614 0.217962 -0.998951
v -1.002545 0.215611 -0.999517
v -0.870732 0.219337 -0.999911
v -0.862692 0.219780 -0.999881
v -0.858718 0.220303 -0.999792
v -0.854401 0.267905 -0.988093
v -0.853780 0.294631 -0.981353
v -0.853072 0.325255 -0.973405
v -0.986796 0.366984 -0.959735
v -0.988584 0.348233 -0.964970
v -0.990658 0.327069 -0.970802
v -0.851576 0.390824 -0.955242
v -0.850875 0.421962 -0.946087
v -0.850261 0.449382 -0.937845
v -0.983270 0.400313 -0.950374
v -0.983840 0.397300 -0.951213
v -0.984479 0.391590 -0.952815
v -0.995261 0.283169 -0.982503
v -0.997524 0.262976 -0.987692
v -0.999538 0.245458 -0.992119
v -0.856100 0.222396 -0.999314
v -0.855537 0.225944 -0.998455
v -0.855201 0.233528 -0.996592
v -0.894885 0.467099 -0.931729
v -0.917682 0.450452 -0.936405
v -0.940388 0.433873 -0.941064
v -1.000924 0.214277 -0.999832
v -0.997593 0.214143 -0.999891
v -0.990171 0.214355 -0.999911
v -0.955831 0.215785 -0.999911
v -0.930907 0.216832 -0.999911
v -0.905882 0.217882 -0.999911
v -0.852016 0.497909 -0.923190
v -0.855594 0.495730 -0.923764
v -0.862889 0.490515 -0.925191
v -1.001972 0.214922 -1.001767
v -1.001888 0.215128 -1.003602
v -1.001636 0.215433 -1.005003
v -1.000701 0.232219 -1.001179
v -1.001028 0.232060 -0.999517
v -1.001137 0.231901 -0.997595
v -0.875465 0.481452 -0.929804
v -0.875470 0.481446 -0.931771
v -0.875486 0.481111 -0.933566
v -0.851015 0.497659 -0.928736
v -0.850700 0.498128 -0.927140
v -0.850595 0.498179 -0.925240
v -0.959536 0.420043 -0.947042
v -0.959546 0.420069 -0.949000
v -0.959577 0.419829 -0.950770
v -0.857093 0.221266 -1.001665
v -0.857205 0.221493 -1.003493
v -0.857540 0.221858 -1.004874
v -0.884541 0.219678 -1.005444
v -0.884553 0.219195 -1.003860
v -0.884557 0.218929 -1.001963
v -0.992499 0.305501 -0.982400
v -0.992812 0.305254 -0.980760
v -0.992917 0.305067 -0.978846
v -0.850360 0.471161 -0.936978
v -0.849922 0.471330 -0.935237
v -0.849775 0.471281 -0.933288
v -0.852933 0.358140 -0.970287
v -0.852475 0.358183 -0.968579
v -0.852322 0.358092 -0.966641
v -0.976853 0.215063 -1.001963
v -0.976845 0.215305 -1.003866
v -0.976821 0.215714 -1.005469
v -0.855526 0.247296 -0.998940
v -0.855049 0.247213 -0.997265
v -0.854890 0.247080 -0.995338
v -0.982560 0.402058 -0.951997
v -0.982498 0.402172 -0.953855
v -0.982312 0.402200 -0.955327
v -0.985394 0.382066 -0.957590
v -0.985294 0.382282 -0.959497
v -0.984994 0.382614 -0.961114
v -0.850914 0.484712 0.934168
v -0.850830 0.492703 0.931688
v -0.851051 0.496197 0.930381
v -0.971767 0.410362 0.954721
v -0.978475 0.405380 0.956004
v -0.981371 0.403003 0.956369
v -1.001057 0.223561 1.004641
v -1.001541 0.218587 1.005771
v -1.001552 0.216356 1.006033
v -0.870698 0.221087 1.006550
v -0.862755 0.221505 1.006433
v -0.859067 0.221898 1.006094
v -0.855980 0.268206 0.995067
v -0.855343 0.294830 0.988354
v -0.854617 0.325338 0.980436
v -0.985787 0.368142 0.966509
v -0.987564 0.349321 0.971761
v -0.989625 0.328078 0.977614
v -0.866796 0.353117 0.974069
v -0.859146 0.355991 0.973274
v -0.855375 0.357381 0.972558
v -0.853083 0.390662 0.962337
v -0.852364 0.421684 0.953212
v -0.851734 0.449004 0.944996
v -0.982422 0.401209 0.956849
v -0.982883 0.398473 0.957891
v -0.983483 0.392837 0.959565
v -0.863695 0.462488 0.941877
v -0.856323 0.467348 0.940440
v -0.852697 0.469734 0.939423
v -0.994202 0.284010 0.989359
v -0.996453 0.263738 0.994568
v -0.998456 0.246150 0.999013
v -0.857512 0.223141 1.005811
v -0.857093 0.226473 1.005279
v -0.856801 0.233960 1.003532
v -0.869962 0.246040 1.001735
v -0.862001 0.246847 1.001483
v -0.858074 0.247211 1.001035
v -0.894950 0.466162 0.939061
v -0.917760 0.449600 0.943715
v -0.940479 0.433106 0.948352
v -1.000589 0.215563 1.006220
v -0.997444 0.215529 1.006532
v -0.990087 0.215791 1.006632
v -0.990825 0.306287 0.984303
v -0.987631 0.307519 0.984408
v -0.980557 0.310196 0.983921
v -0.983392 0.383859 0.962898
v -0.980318 0.385930 0.962743
v -0.973498 0.390436 0.961655
v -0.998955 0.232543 1.003203
v -0.995629 0.232909 1.003535
v -0.988270 0.233679 1.003549
v -0.975968 0.225445 1.005729
v -0.976467 0.219974 1.006943
v -0.976696 0.217374 1.007177
v -0.962494 0.382327 0.964073
v -0.964066 0.362017 0.969830
v -0.965889 0.339064 0.976242
v -0.959740 0.418023 0.953370
v -0.959980 0.415039 0.954606
v -0.960454 0.408952 0.956468
v -0.969930 0.291283 0.989081
v -0.971913 0.269226 0.994762
v -0.973678 0.250065 0.999604
v -0.955762 0.217311 1.006609
v -0.930848 0.218424 1.006592
v -0.905833 0.219539 1.006574
v -0.947850 0.322536 0.981088
v -0.924109 0.331494 0.979033
v -0.900271 0.340489 0.976970
v -0.941931 0.411154 0.955971
v -0.919010 0.426181 0.951835
v -0.895998 0.441270 0.947684
v -0.954255 0.237231 1.003027
v -0.929567 0.239816 1.002650
v -0.904778 0.242411 1.002271
v -0.852388 0.496717 0.930212
v -0.855718 0.494621 0.931047
v -0.862934 0.489456 0.932554
v -0.884106 0.232133 1.005028
v -0.884359 0.225055 1.006635
v -0.884476 0.221724 1.007051
v -0.877067 0.433755 0.950308
v -0.877923 0.408062 0.957983
v -0.878906 0.378911 0.966508
v -0.875570 0.478799 0.936297
v -0.875698 0.475030 0.937781
v -0.875954 0.467351 0.940188
v -0.881030 0.317639 0.983424
v -0.882048 0.289076 0.990828
v -0.882946 0.264167 0.997108
v -0.849461 0.485222 0.926982
v -0.849422 0.493313 0.924567
v -0.849765 0.497034 0.923474
v -0.971658 0.411011 0.947465
v -0.978423 0.405933 0.948865
v -0.981501 0.403334 0.949566
v -1.002153 0.222959 0.997723
v -1.002614 0.217962 0.998951
v -1.002545 0.215611 0.999517
v -0.870732 0.219337 0.999911
v -0.862692 0.219780 0.999881
v -0.858718 0.220303 0.999792
v -0.854401 0.267905 0.988093
v -0.853780 0.294631 0.981353
v -0.853072 0.325255 0.973405
v -0.986796 0.366984 0.959735
v -0.988584 0.348233 0.964970
v -0.990658 0.327069 0.970802
v -0.851576 0.390824 0.955242
v -0.850875 0.421962 0.946087
v -0.850261 0.449382 0.937845
v -0.983270 0.400313 0.950374
v -0.983840 0.397300 0.951213
v -0.984479 0.391590 0.952815
v -0.995261 0.283169 0.982503
v -0.997524 0.262976 0.987692
v -0.999538 0.245458 0.992119
v -0.856100 0.222396 0.999314
v -0.855537 0.225944 0.998455
v -0.855201 0.233528 0.996592
v -0.894885 0.467099 0.931729
v -0.917682 0.450452 0.936405
v -0.940388 0.433873 0.941064
v -1.000924 0.214277 0.999832
v -0.997593 0.214143 0.999891
v -0.990171 0.214355 0.999911
v -0.955831 0.215785 0.999911
v -0.930907 0.216832 0.999911
v -0.905882 0.217882 0.999911
v -0.852016 0.497909 0.923190
v -0.855594 0.495730 0.923764
v -0.862889 0.490515 0.925191
v -1.001972 0.214922 1.001767
v -1.001888 0.215128 1.003602
v -1.001636 0.215433 1.005003
v -1.000701 0.232219 1.001179
v -1.001028 0.232060 0.999517
v -1.001137 0.231901 0.997595
v -0.875465 0.481452 0.929804
v -0.875470 0.481446 0.931771
v -0.875486 0.481111 0.933566
v -0.851015 0.497659 0.928736
v -0.850700 0.498128 0.927140
v -0.850595 0.498179 0.925240
v -0.959536 0.420043 0.947042
v -0.959546 0.420069 0.949000
v -0.959577 0.419829 0.950770
v -0.857093 0.221266 1.001665
v -0.857205 0.221493 1.003493
v -0.857540 0.221858 1.004874
v -0.884541 0.219678 1.005444
v -0.884553 0.219195 1.003860
v -0.884557 0.218929 1.001963
v -0.992499 0.305501 0.982400
v -0.992812 0.305254 0.980760
v -0.992917 0.305067 0.978845
v -0.850360 0.471161 0.936978
v -0.849922 0.471330 0.935237
v -0.849775 0.471281 0.933288
v -0.852933 0.358140 0.970287
v -0.852475 0.358183 0.968579
v -0.852322 0.358092 0.966641
v -0.976853 0.215063 1.001963
v -0.976845 0.215305 1.003866
v -0.976822 0.215714 1.005469
v -0.855526 0.247296 0.998940
v -0.855049 0.247213 0.997265
v -0.854890 0.247080 0.995338
v -0.982560 0.402058 0.951997
v -0.982498 0.402172 0.953855
v -0.982312 0.402200 0.955327
v -0.985394 0.382066 0.957590
v -0.985294 0.382282 0.959497
v -0.984994 0.382614 0.961114
v -0.851441 0.496941 -0.929793
v -0.982061 0.402152 -0.956216
v -0.857993 0.222267 -1.005640
v -1.001294 0.215760 -1.005796
v -0.853848 0.357894 -0.971652
v -0.991871 0.305835 -0.983627
v -0.851236 0.470666 -0.938408
v -0.984393 0.383120 -0.962296
v -1.000046 0.232380 -1.002451
v -0.856482 0.247304 -1.000239
v -0.959638 0.419191 -0.952258
v -0.976775 0.216376 -1.006623
v -0.967873 0.314981 -0.982821
v -0.961260 0.398477 -0.959456
v -0.975078 0.235052 -1.003346
v -0.884516 0.220485 -1.006560
v -0.879959 0.348152 -0.975211
v -0.876393 0.454135 -0.944153
v -0.883655 0.244618 -1.001947
v -0.875518 0.480283 -0.935103
v -0.850595 0.498021 -0.923187
v -0.982560 0.401900 -0.949944
v -0.857093 0.221108 -0.999613
v -1.001972 0.214764 -0.999714
v -0.852322 0.357935 -0.964589
v -0.992917 0.304909 -0.976793
v -0.849776 0.471124 -0.931236
v -0.985394 0.381909 -0.955537
v -1.001137 0.231743 -0.995543
v -0.854890 0.246922 -0.993286
v -0.959536 0.419885 -0.944990
v -0.976853 0.214905 -0.999911
v -0.884557 0.218772 -0.999911
v -0.875465 0.481295 -0.927752
v -0.851441 0.496941 0.929793
v -0.982061 0.402152 0.956216
v -0.857993 0.222267 1.005640
v -1.001294 0.215760 1.005796
v -0.853848 0.357894 0.971652
v -0.991871 0.305835 0.983627
v -0.851236 0.470666 0.938408
v -0.984393 0.383120 0.962296
v -1.000046 0.232380 1.002451
v -0.856482 0.247304 1.000239
v -0.959638 0.419191 0.952258
v -0.976775 0.216376 1.006623
v -0.967873 0.314981 0.982821
v -0.961260 0.398477 0.959456
v -0.975078 0.235052 1.003346
v -0.884516 0.220485 1.006560
v -0.879959 0.348152 0.975211
v -0.876393 0.454135 0.944153
v -0.883655 0.244618 1.001947
v -0.875518 0.480283 0.935103
v -0.850595 0.498021 0.923187
v -0.982560 0.401900 0.949944
v -0.857093 0.221108 0.999613
v -1.001972 0.214764 0.999714
v -0.852322 0.357935 0.964589
v -0.992917 0.304909 0.976793
v -0.849776 0.471124 0.931236
v -0.985394 0.381909 0.955537
v -1.001137 0.231743 0.995543
v -0.854890 0.246922 0.993286
v -0.959536 0.419885 0.944990
v -0.976853 0.214905 0.999911
v -0.884557 0.218772 0.999911
v -0.875465 0.481295 0.927752
vn -0.0742 0.2353 -0.9691
vn -0.0136 0.1512 -0.9884
vn -0.0699 0.1555 -0.9854
vn -0.0177 0.2300 -0.9730
vn -0.0054 0.1541 -0.9880
vn -0.0757 0.2488 -0.9656
vn -0.0189 0.2434 -0.9697
vn -0.0093 0.2296 -0.9732
vn 0.0026 -0.2213 -0.9752
vn -0.0556 -0.2241 -0.9730
vn 0.0239 -0.7162 -0.6974
vn -0.0294 -0.7208 -0.6925
vn 0.0109 -0.2077 -0.9781
vn 0.0316 -0.7031 -0.7104
vn -0.3572 0.1687 -0.9187
vn -0.3445 -0.2076 -0.9155
vn -0.7515 0.1492 -0.6425
vn -0.5840 -0.5859 -0.5618
vn -0.7237 -0.2041 -0.6592
vn -0.3573 0.2500 -0.8999
vn -0.3595 0.2639 -0.8950
vn -0.7467 0.2274 -0.6251
vn -0.7476 0.2401 -0.6192
vn -0.0854 0.2765 -0.9572
vn -0.0222 0.2705 -0.9624
vn -0.0858 0.2741 -0.9579
vn -0.0202 0.2731 -0.9618
vn -0.0133 0.2719 -0.9622
vn -0.0845 0.2774 -0.9570
vn -0.0176 0.2738 -0.9616
vn -0.0110 0.2747 -0.9615
vn -0.0234 0.2664 -0.9636
vn -0.0852 0.2702 -0.9590
vn -0.0232 0.2602 -0.9652
vn -0.0835 0.2646 -0.9607
vn -0.0147 0.2673 -0.9635
vn -0.0145 0.2604 -0.9654
vn -0.3925 0.2800 -0.8760
vn -0.3865 0.2777 -0.8795
vn -0.7799 0.2353 -0.5800
vn -0.3799 0.2742 -0.8834
vn -0.7739 0.2368 -0.5873
vn -0.3976 0.2816 -0.8733
vn -0.4016 0.2823 -0.8712
vn -0.7851 0.2341 -0.5734
vn -0.7892 0.2333 -0.5680
vn -0.2990 0.5422 -0.7852
vn -0.0692 0.3435 -0.9366
vn -0.1347 0.3461 -0.9284
vn -0.2419 0.5454 -0.8025
vn -0.0570 0.3415 -0.9381
vn -0.4930 0.7338 -0.4674
vn -0.4527 0.7474 -0.4863
vn -0.2257 0.5389 -0.8116
vn -0.0232 0.2837 -0.9586
vn -0.0906 0.2871 -0.9536
vn -0.0131 0.2846 -0.9586
vn -0.0081 0.2754 -0.9613
vn -0.4360 0.3421 -0.8324
vn -0.4080 0.2909 -0.8654
vn -0.7972 0.2821 -0.5336
vn -0.7924 0.2401 -0.5607
vn -0.5177 0.4975 -0.6959
vn -0.6314 0.6558 -0.4137
vn -0.7989 0.4099 -0.4400
vn -0.7860 0.5334 -0.3124
vn -0.0811 0.2587 -0.9625
vn -0.0208 0.2490 -0.9683
vn -0.0789 0.2542 -0.9639
vn -0.0220 0.2538 -0.9670
vn -0.0122 0.2481 -0.9686
vn -0.0133 0.2534 -0.9673
vn -0.0197 0.2454 -0.9692
vn -0.0770 0.2509 -0.9649
vn -0.0111 0.2443 -0.9696
vn -0.0104 0.2422 -0.9702
vn -0.3679 0.2678 -0.8904
vn -0.3631 0.2656 -0.8931
vn -0.7560 0.2402 -0.6088
vn -0.7512 0.2405 -0.6147
vn -0.3736 0.2706 -0.8872
vn -0.7617 0.2393 -0.6022
vn -0.7677 0.2381 -0.5949
vn -0.0095 0.2303 -0.9731
vn -0.0062 0.1696 -0.9855
vn -0.0060 0.1649 -0.9863
vn -0.0094 0.2306 -0.9730
vn -0.0063 0.1733 -0.9848
vn -0.0104 0.2411 -0.9704
vn -0.0103 0.2406 -0.9705
vn -0.0093 0.2309 -0.9729
vn 0.0079 -0.1428 -0.9897
vn 0.0089 -0.1638 -0.9864
vn 0.0287 -0.6339 -0.7729
vn 0.0299 -0.6577 -0.7526
vn 0.0070 -0.1263 -0.9919
vn 0.0276 -0.6141 -0.7887
vn -0.0057 0.1594 -0.9872
vn 0.0099 -0.1866 -0.9824
vn 0.0310 -0.6820 -0.7306
vn -0.0094 0.2300 -0.9731
vn -0.0105 0.2417 -0.9703
vn -0.0153 0.2824 -0.9592
vn -0.0184 0.2817 -0.9593
vn -0.0167 0.2787 -0.9602
vn -0.0175 0.2857 -0.9581
vn -0.0200 0.2838 -0.9586
vn -0.0127 0.2830 -0.9590
vn -0.0152 0.2864 -0.9580
vn -0.0196 0.2881 -0.9574
vn -0.0182 0.2751 -0.9612
vn -0.0170 0.2727 -0.9619
vn -0.0164 0.2653 -0.9640
vn -0.0158 0.2638 -0.9644
vn -0.0191 0.2768 -0.9607
vn -0.0167 0.2664 -0.9637
vn -0.0148 0.2752 -0.9613
vn -0.0157 0.2699 -0.9627
vn -0.0151 0.2620 -0.9649
vn -0.0128 0.2784 -0.9604
vn -0.0100 0.2791 -0.9602
vn -0.2036 0.5156 -0.8323
vn -0.0516 0.3356 -0.9406
vn -0.0528 0.3374 -0.9399
vn -0.1940 0.5043 -0.8414
vn -0.0516 0.3341 -0.9411
vn -0.4150 0.7259 -0.5484
vn -0.4035 0.7155 -0.5703
vn -0.1874 0.4953 -0.8483
vn -0.0182 0.2922 -0.9561
vn -0.0161 0.2899 -0.9569
vn -0.0203 0.2939 -0.9556
vn -0.0176 0.2888 -0.9572
vn -0.0546 0.3394 -0.9390
vn -0.0142 0.2871 -0.9578
vn -0.2146 0.5278 -0.8218
vn -0.4274 0.7362 -0.5247
vn -0.4389 0.7447 -0.5028
vn -0.0139 0.2547 -0.9669
vn -0.0123 0.2480 -0.9687
vn -0.0123 0.2481 -0.9687
vn -0.0140 0.2553 -0.9667
vn -0.0121 0.2480 -0.9687
vn -0.0139 0.2557 -0.9666
vn -0.0110 0.2430 -0.9699
vn -0.0111 0.2434 -0.9698
vn -0.0108 0.2427 -0.9700
vn -0.0101 0.2403 -0.9706
vn -0.0123 0.2481 -0.9686
vn -0.0112 0.2439 -0.9697
vn -0.0136 0.2540 -0.9671
vn 0.0477 0.2298 -0.9720
vn 0.2669 0.1592 -0.9504
vn 0.0498 0.1758 -0.9832
vn 0.2618 0.2166 -0.9405
vn 0.6344 0.0991 -0.7665
vn 0.0474 0.2384 -0.9700
vn 0.2622 0.2254 -0.9383
vn 0.6312 0.1621 -0.7584
vn 0.2836 -0.1281 -0.9503
vn 0.0663 -0.1140 -0.9912
vn 0.2905 -0.5682 -0.7699
vn 0.0884 -0.5929 -0.8003
vn 0.6140 -0.1795 -0.7686
vn 0.5101 -0.5133 -0.6901
vn 0.0015 0.1753 -0.9845
vn 0.0147 -0.1166 -0.9930
vn 0.0350 -0.6014 -0.7982
vn -0.0011 0.2309 -0.9730
vn -0.0017 0.2399 -0.9708
vn 0.0360 0.2884 -0.9568
vn 0.2627 0.2695 -0.9265
vn 0.0371 0.2840 -0.9581
vn 0.2622 0.2738 -0.9254
vn 0.6459 0.2041 -0.7356
vn 0.0371 0.2889 -0.9566
vn 0.2634 0.2741 -0.9249
vn 0.6474 0.2071 -0.7335
vn 0.2641 0.2622 -0.9281
vn 0.0393 0.2766 -0.9601
vn 0.2659 0.2515 -0.9306
vn 0.0426 0.2656 -0.9631
vn 0.6445 0.1989 -0.7383
vn 0.6431 0.1907 -0.7416
vn -0.0129 0.2848 -0.9585
vn -0.0114 0.2776 -0.9606
vn -0.0084 0.2668 -0.9637
vn -0.0132 0.2892 -0.9572
vn -0.0116 0.2898 -0.9570
vn -0.1278 0.4906 -0.8620
vn 0.2321 0.3207 -0.9183
vn 0.0042 0.3312 -0.9435
vn 0.0990 0.5003 -0.8602
vn 0.6236 0.2659 -0.7351
vn -0.3369 0.7121 -0.6160
vn -0.1180 0.7567 -0.6430
vn 0.4908 0.4921 -0.7189
vn 0.2611 0.2789 -0.9241
vn 0.0344 0.2934 -0.9554
vn 0.6483 0.2129 -0.7310
vn 0.6498 0.2066 -0.7314
vn -0.0445 0.3330 -0.9419
vn -0.0143 0.2945 -0.9555
vn -0.1768 0.4901 -0.8535
vn -0.3838 0.7024 -0.5994
vn -0.3949 0.7064 -0.5873
vn 0.0456 0.2544 -0.9660
vn 0.2659 0.2328 -0.9355
vn 0.0470 0.2464 -0.9680
vn 0.2669 0.2405 -0.9332
vn 0.6383 0.1765 -0.7492
vn 0.6413 0.1823 -0.7453
vn 0.2642 0.2276 -0.9372
vn 0.0475 0.2409 -0.9694
vn 0.6351 0.1729 -0.7528
vn 0.6322 0.1716 -0.7556
vn -0.0034 0.2478 -0.9688
vn -0.0023 0.2423 -0.9702
vn -0.0053 0.2558 -0.9667
vn -0.9418 0.1003 -0.3207
vn -0.9491 -0.2745 -0.1546
vn -0.9909 0.0597 -0.1201
vn -0.9020 -0.2337 -0.3628
vn -0.6571 -0.7295 -0.1896
vn -0.6363 -0.6705 -0.3814
vn -0.9538 -0.2960 -0.0520
vn -0.9990 0.0372 -0.0252
vn -0.9605 -0.2775 -0.0213
vn -0.9993 0.0368 0.0029
vn -0.6559 -0.7498 -0.0863
vn -0.6664 -0.7434 -0.0572
vn -0.9850 0.1301 -0.1135
vn -0.9939 0.1081 -0.0197
vn -0.9836 0.1418 -0.1113
vn -0.9947 0.1026 0.0079
vn -0.9926 0.1198 -0.0185
vn -0.9355 0.1722 -0.3085
vn -0.9346 0.1838 -0.3044
vn -0.4791 0.8225 -0.3063
vn -0.5738 0.8151 -0.0789
vn -0.5370 0.8393 -0.0844
vn -0.5208 0.8027 -0.2905
vn -0.5788 0.8120 -0.0741
vn -0.5283 0.8016 -0.2798
vn -0.5899 0.8069 0.0293
vn -0.5543 0.8318 0.0301
vn -0.5930 0.8028 0.0617
vn -0.5559 0.8288 0.0637
vn -0.5944 0.8036 0.0302
vn -0.5978 0.7993 0.0615
vn -0.2866 0.9509 -0.1167
vn -0.3052 0.9518 0.0313
vn 0.3653 0.9155 -0.1687
vn 0.3642 0.9286 0.0714
vn 0.3878 0.9216 0.0162
vn -0.2412 0.9002 -0.3625
vn 0.2989 0.8504 -0.4328
vn 0.2192 0.7503 -0.6237
vn -0.5369 0.8067 -0.2467
vn -0.5819 0.8117 -0.0506
vn -0.5804 0.8122 -0.0589
vn -0.5423 0.8087 -0.2279
vn -0.5835 0.8109 -0.0435
vn -0.5473 0.8097 -0.2116
vn -0.5941 0.8036 0.0358
vn -0.5938 0.8039 0.0339
vn -0.5969 0.8000 0.0616
vn -0.5968 0.8000 0.0616
vn -0.5948 0.8030 0.0374
vn -0.5973 0.7996 0.0615
vn -0.5792 0.8124 -0.0672
vn -0.5938 0.8039 0.0319
vn -0.5970 0.7999 0.0615
vn -0.5319 0.8043 -0.2649
vn 0.0942 -0.9705 -0.2216
vn 0.2992 -0.8329 -0.4655
vn 0.3018 -0.9251 -0.2302
vn 0.6018 -0.6471 -0.4680
vn 0.6411 -0.7312 -0.2328
vn 0.0954 -0.8829 -0.4597
vn 0.0936 -0.9897 -0.1084
vn 0.2963 -0.9491 -0.1068
vn 0.0937 -0.9926 -0.0763
vn 0.6420 -0.7606 -0.0963
vn 0.2982 -0.9517 -0.0732
vn 0.0475 -0.9744 -0.2196
vn 0.0479 -0.9929 -0.1086
vn 0.0407 -0.9757 -0.2153
vn 0.0479 -0.9959 -0.0766
vn 0.0411 -0.9933 -0.1077
vn 0.0452 -0.8900 -0.4537
vn 0.0382 -0.8952 -0.4439
vn -0.9377 0.1816 -0.2962
vn -0.9839 0.1413 -0.1097
vn -0.9844 0.1391 -0.1079
vn -0.9359 0.1834 -0.3007
vn -0.9926 0.1194 -0.0182
vn -0.9929 0.1173 -0.0179
vn -0.9936 0.1128 0.0087
vn -0.9938 0.1105 0.0085
vn -0.9935 0.1133 0.0087
vn -0.9850 0.1357 -0.1060
vn -0.9933 0.1138 -0.0177
vn -0.9859 0.1311 -0.1042
vn -0.9942 0.1069 0.0082
vn -0.9939 0.1090 -0.0176
vn -0.9398 0.1786 -0.2914
vn -0.9420 0.1747 -0.2863
vn 0.9821 0.0934 -0.1636
vn 0.7614 0.4653 -0.4512
vn 0.8823 0.4327 -0.1851
vn 0.8928 0.1709 -0.4167
vn 0.9979 0.0541 -0.0340
vn 0.9187 0.3945 -0.0183
vn 0.9988 0.0489 0.0038
vn 0.9103 0.4126 0.0317
vn 0.9993 -0.0022 -0.0375
vn 0.9862 0.0352 -0.1617
vn 0.9992 -0.0107 -0.0382
vn 0.9864 0.0270 -0.1623
vn 0.9999 -0.0121 -0.0009
vn 0.9998 -0.0218 -0.0016
vn 0.9067 0.1105 -0.4070
vn 0.9074 0.1028 -0.4075
vn 0.9858 0.0271 -0.1658
vn 0.9059 0.1037 -0.4104
vn 0.9861 0.0274 -0.1639
vn 0.9046 0.1026 -0.4137
vn 0.9991 -0.0108 -0.0391
vn 0.9992 -0.0107 -0.0386
vn 0.9998 -0.0219 -0.0017
vn 0.9998 -0.0218 -0.0017
vn 0.9991 -0.0111 -0.0397
vn 0.9854 0.0263 -0.1679
vn 0.9991 -0.0116 -0.0403
vn 0.9851 0.0247 -0.1703
vn 0.9997 -0.0221 -0.0017
vn 0.9997 -0.0223 -0.0017
vn 0.9031 0.1003 -0.4175
vn 0.9016 0.0963 -0.4216
vn -0.0128 -0.9320 -0.3622
vn 0.0345 -0.9826 -0.1826
vn -0.0074 -0.9835 -0.1807
vn 0.0328 -0.9305 -0.3647
vn 0.0412 -0.9816 -0.1866
vn 0.0398 -0.9263 -0.3747
vn 0.0347 -0.9944 -0.1003
vn -0.0067 -0.9950 -0.0995
vn 0.0347 -0.9964 -0.0766
vn -0.0067 -0.9970 -0.0767
vn 0.0414 -0.9940 -0.1012
vn 0.0414 -0.9962 -0.0766
vn -0.2477 -0.9499 -0.1905
vn -0.2408 -0.9655 -0.0990
vn -0.2438 -0.9669 -0.0744
vn -0.2591 -0.8898 -0.3756
vn -0.2939 -0.6832 -0.6684
vn 0.9844 0.0218 -0.1747
vn 0.9001 0.0919 -0.4258
vn 0.9847 0.0229 -0.1725
vn 0.8984 0.0890 -0.4300
vn 0.9991 -0.0125 -0.0414
vn 0.9991 -0.0122 -0.0409
vn 0.9997 -0.0227 -0.0017
vn 0.9997 -0.0226 -0.0017
vn 0.9990 -0.0128 -0.0418
vn 0.9840 0.0211 -0.1766
vn 0.9990 -0.0128 -0.0421
vn 0.9838 0.0210 -0.1780
vn 0.9997 -0.0228 -0.0017
vn 0.8967 0.0873 -0.4339
vn 0.8953 0.0869 -0.4368
vn 0.9815 -0.0546 -0.1836
vn 0.8949 0.0771 -0.4395
vn 0.9837 0.0110 -0.1796
vn 0.8950 0.0125 -0.4459
vn 0.9949 -0.0890 -0.0475
vn 0.9988 -0.0231 -0.0432
vn 0.9956 -0.0932 -0.0071
vn 0.9995 -0.0320 -0.0024
vn 0.9219 -0.3812 -0.0693
vn 0.9140 -0.3482 -0.2084
vn 0.9286 -0.3699 -0.0284
vn 0.6494 -0.7582 -0.0583
vn 0.8427 -0.2716 -0.4648
vn -0.5858 0.7880 -0.1893
vn -0.7239 0.6891 -0.0337
vn -0.6170 0.7862 -0.0343
vn -0.6960 0.6969 -0.1728
vn -0.8581 0.5114 -0.0454
vn -0.8334 0.5262 -0.1688
vn -0.7330 0.6794 0.0333
vn -0.6272 0.7779 0.0384
vn -0.7285 0.6830 0.0525
vn -0.6280 0.7759 0.0597
vn -0.8658 0.4999 0.0204
vn -0.8617 0.5058 0.0389
vn -0.5894 0.8069 -0.0387
vn -0.6000 0.7990 0.0384
vn -0.6021 0.7960 0.0613
vn -0.5555 0.8071 -0.2000
vn -0.9451 0.2123 -0.2482
vn -0.9872 0.1280 -0.0948
vn -0.9815 0.1705 -0.0864
vn -0.9493 0.1713 -0.2634
vn -0.9879 0.1203 -0.0973
vn -0.9492 0.1645 -0.2682
vn -0.9941 0.1067 -0.0155
vn -0.9885 0.1508 -0.0104
vn -0.9948 0.1015 0.0078
vn -0.9886 0.1501 0.0115
vn -0.9950 0.0984 -0.0166
vn -0.9957 0.0919 0.0070
vn -0.9469 0.3146 -0.0665
vn -0.9546 0.2976 0.0035
vn -0.9516 0.3065 0.0235
vn -0.9147 0.3471 -0.2066
vn 0.0395 -0.9113 -0.4098
vn 0.0413 -0.9771 -0.2087
vn 0.0415 -0.9787 -0.2009
vn 0.0390 -0.9027 -0.4284
vn 0.0416 -0.9935 -0.1062
vn 0.0417 -0.9937 -0.1044
vn 0.0417 -0.9962 -0.0766
vn 0.0418 -0.9962 -0.0766
vn 0.0411 -0.9962 -0.0766
vn 0.0415 -0.9803 -0.1932
vn 0.0417 -0.9938 -0.1027
vn 0.0398 -0.9195 -0.3909
vn -0.9463 0.1677 -0.2763
vn -0.9867 0.1265 -0.1023
vn -0.9873 0.1232 -0.1005
vn -0.9443 0.1708 -0.2812
vn -0.9944 0.1042 -0.0174
vn -0.9947 0.1009 -0.0172
vn -0.9952 0.0972 0.0074
vn -0.9955 0.0941 0.0072
vn -0.9948 0.1019 0.0078
vn -0.9877 0.1210 -0.0988
vn -0.9949 0.0989 -0.0169
vn -0.9957 0.0921 0.0070
vn -0.9480 0.1655 -0.2719
vn -0.0136 0.1512 0.9884
vn -0.0742 0.2353 0.9691
vn -0.0699 0.1556 0.9854
vn -0.0177 0.2300 0.9730
vn -0.0757 0.2488 0.9656
vn -0.0054 0.1541 0.9880
vn -0.0093 0.2296 0.9732
vn -0.0189 0.2434 0.9697
vn -0.3573 0.2500 0.8999
vn -0.3572 0.1687 0.9187
vn -0.7467 0.2274 0.6251
vn -0.7515 0.1492 0.6425
vn -0.3595 0.2639 0.8950
vn -0.7476 0.2401 0.6192
vn -0.0555 -0.2241 0.9730
vn -0.3445 -0.2076 0.9156
vn -0.0294 -0.7208 0.6925
vn -0.5840 -0.5859 0.5618
vn -0.2939 -0.6832 0.6684
vn 0.0026 -0.2212 0.9752
vn 0.0109 -0.2077 0.9781
vn 0.0239 -0.7162 0.6974
vn 0.0316 -0.7031 0.7104
vn -0.0222 0.2705 0.9624
vn -0.0855 0.2765 0.9572
vn -0.0858 0.2741 0.9579
vn -0.0202 0.2731 0.9618
vn -0.0845 0.2774 0.9570
vn -0.0133 0.2719 0.9622
vn -0.0110 0.2747 0.9615
vn -0.0176 0.2738 0.9616
vn -0.3976 0.2816 0.8733
vn -0.3926 0.2800 0.8760
vn -0.7851 0.2341 0.5734
vn -0.7799 0.2353 0.5799
vn -0.4016 0.2822 0.8712
vn -0.7892 0.2333 0.5680
vn -0.0852 0.2702 0.9590
vn -0.3865 0.2777 0.8794
vn -0.0835 0.2646 0.9607
vn -0.7740 0.2367 0.5873
vn -0.3799 0.2742 0.8834
vn -0.0234 0.2664 0.9636
vn -0.0147 0.2673 0.9635
vn -0.0232 0.2602 0.9652
vn -0.0145 0.2604 0.9654
vn -0.0692 0.3435 0.9366
vn -0.2990 0.5422 0.7852
vn -0.1347 0.3461 0.9284
vn -0.2418 0.5454 0.8025
vn -0.4930 0.7338 0.4675
vn -0.0570 0.3415 0.9381
vn -0.2257 0.5389 0.8115
vn -0.4527 0.7474 0.4863
vn -0.5177 0.4975 0.6959
vn -0.4360 0.3421 0.8324
vn -0.7989 0.4100 0.4401
vn -0.7972 0.2821 0.5336
vn -0.6315 0.6558 0.4137
vn -0.7860 0.5334 0.3124
vn -0.0906 0.2871 0.9536
vn -0.4079 0.2909 0.8654
vn -0.7924 0.2401 0.5607
vn -0.0231 0.2837 0.9586
vn -0.0131 0.2846 0.9586
vn -0.0081 0.2754 0.9613
vn -0.0208 0.2490 0.9683
vn -0.0811 0.2587 0.9625
vn -0.0789 0.2542 0.9639
vn -0.0220 0.2538 0.9670
vn -0.0121 0.2481 0.9686
vn -0.0133 0.2534 0.9673
vn -0.3736 0.2706 0.8872
vn -0.3678 0.2678 0.8905
vn -0.7617 0.2393 0.6021
vn -0.7560 0.2402 0.6088
vn -0.7677 0.2381 0.5949
vn -0.0770 0.2510 0.9649
vn -0.3631 0.2656 0.8931
vn -0.7512 0.2405 0.6147
vn -0.0197 0.2454 0.9692
vn -0.0111 0.2443 0.9696
vn -0.0104 0.2422 0.9702
vn -0.0062 0.1696 0.9855
vn -0.0095 0.2303 0.9731
vn -0.0060 0.1649 0.9863
vn -0.0094 0.2306 0.9730
vn -0.0104 0.2411 0.9704
vn -0.0063 0.1733 0.9848
vn -0.0093 0.2309 0.9729
vn -0.0103 0.2406 0.9705
vn -0.0094 0.2300 0.9731
vn -0.0057 0.1594 0.9872
vn -0.0105 0.2417 0.9703
vn 0.0089 -0.1638 0.9864
vn 0.0099 -0.1866 0.9824
vn 0.0299 -0.6577 0.7526
vn 0.0310 -0.6820 0.7306
vn 0.0079 -0.1428 0.9897
vn 0.0070 -0.1263 0.9919
vn 0.0287 -0.6339 0.7729
vn 0.0276 -0.6141 0.7887
vn -0.0184 0.2817 0.9593
vn -0.0153 0.2824 0.9592
vn -0.0167 0.2787 0.9602
vn -0.0175 0.2857 0.9581
vn -0.0127 0.2830 0.9590
vn -0.0200 0.2838 0.9586
vn -0.0196 0.2881 0.9574
vn -0.0152 0.2864 0.9580
vn -0.0128 0.2784 0.9604
vn -0.0148 0.2752 0.9613
vn -0.0100 0.2791 0.9602
vn -0.0171 0.2727 0.9619
vn -0.0157 0.2699 0.9627
vn -0.0158 0.2638 0.9644
vn -0.0151 0.2620 0.9649
vn -0.0182 0.2751 0.9612
vn -0.0191 0.2768 0.9607
vn -0.0164 0.2653 0.9640
vn -0.0167 0.2664 0.9637
vn -0.0516 0.3356 0.9406
vn -0.2036 0.5156 0.8323
vn -0.0528 0.3374 0.9399
vn -0.1940 0.5043 0.8414
vn -0.4150 0.7259 0.5484
vn -0.0516 0.3341 0.9411
vn -0.1874 0.4953 0.8483
vn -0.4035 0.7155 0.5703
vn -0.2146 0.5278 0.8218
vn -0.0545 0.3394 0.9390
vn -0.4274 0.7362 0.5246
vn -0.4389 0.7447 0.5027
vn -0.0161 0.2899 0.9569
vn -0.0142 0.2871 0.9578
vn -0.0182 0.2922 0.9561
vn -0.0203 0.2939 0.9556
vn -0.0176 0.2888 0.9572
vn -0.0123 0.2480 0.9687
vn -0.0139 0.2547 0.9669
vn -0.0123 0.2481 0.9687
vn -0.0140 0.2553 0.9667
vn -0.0121 0.2480 0.9687
vn -0.0139 0.2557 0.9666
vn -0.0136 0.2540 0.9671
vn -0.0123 0.2481 0.9686
vn -0.0111 0.2434 0.9698
vn -0.0112 0.2439 0.9697
vn -0.0110 0.2430 0.9699
vn -0.0108 0.2427 0.9700
vn -0.0101 0.2403 0.9706
vn 0.2670 0.1592 0.9504
vn 0.0477 0.2298 0.9720
vn 0.0498 0.1758 0.9832
vn 0.2618 0.2166 0.9405
vn 0.0474 0.2384 0.9700
vn 0.6344 0.0991 0.7666
vn 0.6312 0.1621 0.7585
vn 0.2622 0.2254 0.9383
vn -0.0011 0.2309 0.9730
vn 0.0015 0.1753 0.9845
vn -0.0017 0.2399 0.9708
vn 0.0663 -0.1140 0.9912
vn 0.0147 -0.1166 0.9930
vn 0.0884 -0.5929 0.8003
vn 0.0350 -0.6014 0.7982
vn 0.2836 -0.1281 0.9503
vn 0.6140 -0.1795 0.7686
vn 0.2905 -0.5681 0.7699
vn 0.5101 -0.5133 0.6901
vn 0.2627 0.2695 0.9265
vn 0.0360 0.2884 0.9568
vn 0.0371 0.2840 0.9581
vn 0.2621 0.2738 0.9254
vn 0.0371 0.2889 0.9566
vn 0.6458 0.2041 0.7356
vn 0.6474 0.2071 0.7335
vn 0.2634 0.2741 0.9249
vn -0.0132 0.2892 0.9572
vn -0.0129 0.2848 0.9585
vn -0.0116 0.2898 0.9570
vn 0.0392 0.2766 0.9602
vn -0.0114 0.2776 0.9606
vn 0.0426 0.2656 0.9631
vn -0.0084 0.2668 0.9637
vn 0.2641 0.2622 0.9281
vn 0.6445 0.1989 0.7383
vn 0.2659 0.2515 0.9306
vn 0.6431 0.1907 0.7416
vn 0.2321 0.3207 0.9183
vn -0.1278 0.4905 0.8620
vn 0.0042 0.3312 0.9435
vn 0.0990 0.5003 0.8602
vn -0.3369 0.7121 0.6159
vn 0.6236 0.2659 0.7352
vn 0.4908 0.4921 0.7189
vn -0.1180 0.7567 0.6430
vn -0.1769 0.4901 0.8535
vn -0.0445 0.3330 0.9419
vn -0.3838 0.7024 0.5994
vn -0.3949 0.7064 0.5873
vn 0.0344 0.2934 0.9554
vn -0.0143 0.2945 0.9555
vn 0.2611 0.2789 0.9241
vn 0.6483 0.2129 0.7310
vn 0.6498 0.2066 0.7314
vn 0.2659 0.2328 0.9355
vn 0.0455 0.2544 0.9660
vn 0.0470 0.2464 0.9680
vn 0.2669 0.2405 0.9332
vn 0.6383 0.1765 0.7492
vn 0.6413 0.1823 0.7453
vn -0.0053 0.2558 0.9667
vn -0.0034 0.2478 0.9688
vn 0.0475 0.2409 0.9694
vn -0.0023 0.2423 0.9702
vn 0.2641 0.2276 0.9372
vn 0.6351 0.1729 0.7528
vn 0.6322 0.1716 0.7556
vn -0.9491 -0.2745 0.1546
vn -0.9418 0.1003 0.3208
vn -0.9910 0.0597 0.1200
vn -0.9020 -0.2337 0.3628
vn -0.6572 -0.7295 0.1896
vn -0.7237 -0.2041 0.6592
vn -0.9355 0.1722 0.3085
vn -0.9850 0.1301 0.1135
vn -0.9346 0.1838 0.3044
vn -0.9836 0.1418 0.1113
vn -0.9990 0.0372 0.0251
vn -0.9939 0.1081 0.0197
vn -0.9993 0.0367 -0.0028
vn -0.9926 0.1198 0.0185
vn -0.9947 0.1026 -0.0079
vn -0.9538 -0.2960 0.0519
vn -0.6560 -0.7498 0.0863
vn -0.9605 -0.2774 0.0213
vn -0.6664 -0.7434 0.0572
vn -0.5738 0.8151 0.0789
vn -0.4791 0.8225 0.3063
vn -0.5370 0.8394 0.0844
vn -0.5209 0.8027 0.2905
vn -0.5788 0.8120 0.0741
vn -0.5283 0.8016 0.2798
vn -0.2412 0.9002 0.3625
vn -0.2866 0.9509 0.1168
vn 0.2990 0.8504 0.4328
vn 0.3653 0.9154 0.1687
vn 0.2192 0.7503 0.6237
vn -0.5543 0.8318 -0.0301
vn -0.3052 0.9518 -0.0313
vn -0.5559 0.8288 -0.0638
vn 0.3642 0.9286 -0.0714
vn -0.3042 0.9498 -0.0730
vn -0.5899 0.8069 -0.0293
vn -0.5944 0.8036 -0.0302
vn -0.5930 0.8028 -0.0617
vn -0.5978 0.7993 -0.0615
vn -0.5819 0.8117 0.0506
vn -0.5369 0.8067 0.2467
vn -0.5804 0.8122 0.0589
vn -0.5423 0.8086 0.2279
vn -0.5835 0.8109 0.0435
vn -0.5473 0.8097 0.2115
vn -0.5319 0.8043 0.2649
vn -0.5792 0.8124 0.0671
vn -0.5938 0.8039 -0.0338
vn -0.5938 0.8039 -0.0319
vn -0.5968 0.8000 -0.0616
vn -0.5970 0.7999 -0.0615
vn -0.5941 0.8036 -0.0358
vn -0.5948 0.8030 -0.0374
vn -0.5969 0.8000 -0.0615
vn -0.5973 0.7996 -0.0615
vn 0.0942 -0.9705 0.2216
vn 0.2992 -0.8329 0.4655
vn 0.0954 -0.8829 0.4597
vn 0.3018 -0.9251 0.2302
vn 0.6018 -0.6471 0.4680
vn 0.0452 -0.8900 0.4537
vn 0.0475 -0.9744 0.2196
vn 0.0382 -0.8952 0.4439
vn 0.0407 -0.9757 0.2153
vn 0.0936 -0.9897 0.1084
vn 0.0479 -0.9929 0.1086
vn 0.0937 -0.9926 0.0764
vn 0.0411 -0.9933 0.1077
vn 0.0479 -0.9959 0.0766
vn 0.2963 -0.9491 0.1069
vn 0.6411 -0.7313 0.2328
vn 0.2982 -0.9517 0.0732
vn 0.6420 -0.7606 0.0963
vn -0.9839 0.1413 0.1097
vn -0.9377 0.1816 0.2962
vn -0.9843 0.1391 0.1079
vn -0.9359 0.1834 0.3007
vn -0.9398 0.1786 0.2914
vn -0.9850 0.1357 0.1060
vn -0.9420 0.1747 0.2864
vn -0.9859 0.1311 0.1042
vn -0.9929 0.1173 0.0179
vn -0.9933 0.1138 0.0177
vn -0.9938 0.1105 -0.0085
vn -0.9939 0.1090 0.0176
vn -0.9942 0.1069 -0.0082
vn -0.9926 0.1195 0.0182
vn -0.9936 0.1128 -0.0087
vn -0.9935 0.1133 -0.0087
vn 0.9821 0.0934 0.1635
vn 0.7615 0.4653 0.4512
vn 0.8928 0.1710 0.4167
vn 0.8823 0.4327 0.1851
vn 0.9862 0.0352 0.1617
vn 0.9067 0.1105 0.4070
vn 0.9864 0.0270 0.1623
vn 0.9074 0.1028 0.4075
vn 0.9993 -0.0022 0.0375
vn 0.9979 0.0541 0.0340
vn 0.9999 -0.0121 0.0009
vn 0.9988 0.0489 -0.0038
vn 0.9992 -0.0107 0.0382
vn 0.9998 -0.0218 0.0016
vn 0.9187 0.3945 0.0183
vn 0.9103 0.4126 -0.0317
vn 0.3878 0.9216 -0.0162
vn 0.9858 0.0271 0.1657
vn 0.9059 0.1037 0.4104
vn 0.9046 0.1026 0.4137
vn 0.9861 0.0274 0.1639
vn 0.9854 0.0262 0.1679
vn 0.9031 0.1003 0.4175
vn 0.9851 0.0247 0.1703
vn 0.9016 0.0963 0.4216
vn 0.9991 -0.0111 0.0397
vn 0.9992 -0.0108 0.0391
vn 0.9997 -0.0221 0.0017
vn 0.9998 -0.0219 0.0017
vn 0.9991 -0.0116 0.0403
vn 0.9997 -0.0223 0.0017
vn 0.9992 -0.0107 0.0386
vn 0.0345 -0.9826 0.1826
vn -0.0128 -0.9320 0.3623
vn -0.0074 -0.9835 0.1808
vn 0.0328 -0.9305 0.3647
vn 0.0412 -0.9815 0.1866
vn 0.0398 -0.9263 0.3747
vn -0.2591 -0.8898 0.3756
vn -0.2477 -0.9499 0.1905
vn -0.6363 -0.6706 0.3814
vn -0.0067 -0.9950 0.0995
vn -0.2408 -0.9655 0.0990
vn -0.0067 -0.9970 0.0767
vn -0.2438 -0.9669 0.0744
vn 0.0347 -0.9944 0.1003
vn 0.0414 -0.9940 0.1012
vn 0.0347 -0.9964 0.0766
vn 0.0414 -0.9962 0.0766
vn 0.9844 0.0218 0.1747
vn 0.9001 0.0919 0.4258
vn 0.8984 0.0890 0.4300
vn 0.9847 0.0229 0.1725
vn 0.9840 0.0211 0.1766
vn 0.8967 0.0873 0.4339
vn 0.9838 0.0210 0.1780
vn 0.8953 0.0868 0.4368
vn 0.9990 -0.0128 0.0418
vn 0.9991 -0.0125 0.0414
vn 0.9997 -0.0228 0.0017
vn 0.9997 -0.0227 0.0017
vn 0.9990 -0.0128 0.0421
vn 0.9991 -0.0122 0.0409
vn 0.9997 -0.0226 0.0017
vn 0.9815 -0.0546 0.1835
vn 0.8949 0.0772 0.4395
vn 0.8950 0.0125 0.4459
vn 0.9837 0.0110 0.1796
vn 0.9139 -0.3482 0.2084
vn 0.8427 -0.2715 0.4648
vn 0.9219 -0.3812 0.0693
vn 0.9949 -0.0890 0.0475
vn 0.9286 -0.3699 0.0284
vn 0.9956 -0.0932 0.0071
vn 0.6494 -0.7582 0.0583
vn 0.9988 -0.0231 0.0432
vn 0.9995 -0.0320 0.0024
vn -0.7239 0.6891 0.0337
vn -0.5858 0.7880 0.1893
vn -0.6170 0.7862 0.0343
vn -0.6960 0.6969 0.1728
vn -0.8581 0.5114 0.0454
vn -0.8334 0.5262 0.1688
vn -0.5555 0.8071 0.2000
vn -0.5894 0.8069 0.0388
vn -0.6272 0.7779 -0.0384
vn -0.6000 0.7990 -0.0384
vn -0.6280 0.7759 -0.0597
vn -0.6021 0.7960 -0.0613
vn -0.7330 0.6794 -0.0333
vn -0.8658 0.4999 -0.0204
vn -0.7285 0.6830 -0.0525
vn -0.8617 0.5058 -0.0389
vn -0.9872 0.1279 0.0949
vn -0.9451 0.2123 0.2482
vn -0.9815 0.1705 0.0864
vn -0.9879 0.1203 0.0973
vn -0.9493 0.1713 0.2634
vn -0.9147 0.3472 0.2067
vn -0.9469 0.3146 0.0664
vn -0.9885 0.1508 0.0104
vn -0.9546 0.2976 -0.0035
vn -0.9886 0.1501 -0.0115
vn -0.9516 0.3065 -0.0235
vn -0.9941 0.1067 0.0154
vn -0.9950 0.0984 0.0166
vn -0.9948 0.1015 -0.0078
vn -0.9957 0.0919 -0.0071
vn 0.0413 -0.9771 0.2087
vn 0.0395 -0.9113 0.4098
vn 0.0415 -0.9787 0.2009
vn 0.0390 -0.9027 0.4284
vn 0.0398 -0.9195 0.3909
vn 0.0415 -0.9803 0.1932
vn 0.0417 -0.9937 0.1044
vn 0.0417 -0.9938 0.1027
vn 0.0418 -0.9962 0.0766
vn 0.0417 -0.9962 0.0766
vn 0.0416 -0.9935 0.1062
vn 0.0411 -0.9962 0.0766
vn -0.9867 0.1264 0.1023
vn -0.9463 0.1677 0.2763
vn -0.9873 0.1232 0.1005
vn -0.9443 0.1708 0.2812
vn -0.9479 0.1655 0.2720
vn -0.9877 0.1210 0.0988
vn -0.9492 0.1645 0.2682
vn -0.9947 0.1009 0.0172
vn -0.9949 0.0989 0.0169
vn -0.9955 0.0941 -0.0072
vn -0.9957 0.0921 -0.0071
vn -0.9944 0.1042 0.0174
vn -0.9952 0.0972 -0.0074
vn -0.9948 0.1019 -0.0078
vn -0.3042 0.9498 0.0730
s 1
f 5//1 2//2 1//3
f 6//4 524//5 2//2
f 521//6 6//4 5//1
f 522//7 523//8 6//4
f 1//3 7//9 3//10
f 3//10 513//11 512//12
f 2//2 525//13 7//9
f 7//9 834//14 513//11
f 3//10 4//15 1//3
f 8//16 476//17 4//15
f 512//12 8//16 3//10
f 8//16 826//18 477//19
f 1//3 9//20 5//1
f 5//1 520//21 521//6
f 4//15 475//22 9//20
f 9//20 831//23 520//21
f 14//24 11//25 10//26
f 15//27 527//28 11//25
f 518//29 15//27 14//24
f 519//30 526//31 15//27
f 10//26 16//32 12//33
f 12//33 516//34 515//35
f 11//25 528//36 16//32
f 16//32 835//37 516//34
f 12//33 13//38 10//26
f 17//39 485//40 13//38
f 515//35 17//39 12//33
f 514//41 486//42 17//39
f 10//26 18//43 14//24
f 14//24 517//44 518//29
f 13//38 484//45 18//43
f 18//43 830//46 517//44
f 23//47 20//48 19//49
f 24//50 530//51 20//48
f 473//52 24//50 23//47
f 472//53 529//54 24//50
f 19//49 25//55 21//56
f 21//56 519//30 518//29
f 20//48 531//57 25//55
f 25//55 836//58 519//30
f 21//56 22//59 19//49
f 26//60 494//61 22//59
f 518//29 26//60 21//56
f 517//44 495//62 26//60
f 19//49 27//63 23//47
f 23//47 474//64 473//52
f 22//59 493//65 27//63
f 27//63 824//66 474//64
f 32//67 29//68 28//69
f 33//70 533//71 29//68
f 515//35 33//70 32//67
f 516//34 532//72 33//70
f 28//69 34//73 30//74
f 30//74 522//7 521//6
f 29//68 534//75 34//73
f 34//73 837//76 522//7
f 30//74 31//77 28//69
f 35//78 500//79 31//77
f 521//6 35//78 30//74
f 520//21 501//80 35//78
f 28//69 36//81 32//67
f 32//67 514//41 515//35
f 31//77 499//82 36//81
f 36//81 828//83 514//41
f 41//84 38//85 37//86
f 42//87 551//88 38//85
f 545//89 42//87 41//84
f 546//90 550//91 42//87
f 37//86 43//92 39//93
f 39//93 537//94 536//95
f 38//85 552//96 43//92
f 43//92 838//97 537//94
f 39//93 40//98 37//86
f 44//99 524//5 40//98
f 536//95 44//99 39//93
f 535//100 525//13 44//99
f 37//86 45//101 41//84
f 41//84 544//102 545//89
f 40//98 523//8 45//101
f 45//101 837//76 544//102
f 50//103 47//104 46//105
f 51//106 554//107 47//104
f 542//108 51//106 50//103
f 543//109 553//110 51//106
f 46//105 52//111 48//112
f 48//112 540//113 539//114
f 47//104 555//115 52//111
f 52//111 839//116 540//113
f 48//112 49//117 46//105
f 53//118 527//28 49//117
f 539//114 53//118 48//112
f 538//119 528//36 53//118
f 46//105 54//120 50//103
f 50//103 541//121 542//108
f 49//117 526//31 54//120
f 54//120 836//58 541//121
f 59//122 56//123 55//124
f 60//125 557//126 56//123
f 509//127 60//125 59//122
f 508//128 556//129 60//125
f 55//124 61//130 57//131
f 57//131 543//109 542//108
f 56//123 558//132 61//130
f 61//130 840//133 543//109
f 57//131 58//134 55//124
f 62//135 530//51 58//134
f 542//108 62//135 57//131
f 541//121 531//57 62//135
f 55//124 63//136 59//122
f 59//122 510//137 509//127
f 58//134 529//54 63//136
f 63//136 833//138 510//137
f 68//139 65//140 64//141
f 69//142 560//143 65//140
f 539//114 69//142 68//139
f 540//113 559//144 69//142
f 64//141 70//145 66//146
f 66//146 546//90 545//89
f 65//140 561//147 70//145
f 70//145 841//148 546//90
f 66//146 67//149 64//141
f 71//150 533//71 67//149
f 545//89 71//150 66//146
f 544//102 534//75 71//150
f 64//141 72//151 68//139
f 68//139 538//119 539//114
f 67//149 532//72 72//151
f 72//151 835//37 538//119
f 77//152 74//153 73//154
f 78//155 503//156 74//153
f 506//157 78//155 77//152
f 507//158 504//159 78//155
f 73//154 79//160 75//161
f 75//161 480//162 479//163
f 74//153 502//164 79//160
f 79//160 825//165 480//162
f 75//161 76//166 73//154
f 80//167 551//88 76//166
f 479//163 80//167 75//161
f 478//168 552//96 80//167
f 73//154 81//169 77//152
f 77//152 505//170 506//157
f 76//166 550//91 81//169
f 81//169 841//148 505//170
f 86//171 83//172 82//173
f 87//174 491//175 83//172
f 497//176 87//174 86//171
f 498//177 492//178 87//174
f 82//173 88//179 84//180
f 84//180 489//181 488//182
f 83//172 490//183 88//179
f 88//179 827//184 489//181
f 84//180 85//185 82//173
f 89//186 554//107 85//185
f 488//182 89//186 84//180
f 487//187 555//115 89//186
f 82//173 90//188 86//171
f 86//171 496//189 497//176
f 85//185 553//110 90//188
f 90//188 840//133 496//189
f 95//190 92//191 91//192
f 96//193 470//194 92//191
f 548//195 96//193 95//190
f 547//196 471//197 96//193
f 91//192 97//198 93//199
f 93//199 498//177 497//176
f 92//191 469//200 97//198
f 97//198 829//201 498//177
f 93//199 94//202 91//192
f 98//203 557//126 94//202
f 497//176 98//203 93//199
f 496//189 558//132 98//203
f 91//192 99//204 95//190
f 95//190 549//205 548//195
f 94//202 556//129 99//204
f 99//204 842//206 549//205
f 104//207 101//208 100//209
f 105//210 482//211 101//208
f 488//182 105//210 104//207
f 489//181 483//212 105//210
f 100//209 106//213 102//214
f 102//214 507//158 506//157
f 101//208 481//215 106//213
f 106//213 832//216 507//158
f 102//214 103//217 100//209
f 107//218 560//143 103//217
f 506//157 107//218 102//214
f 505//170 561//147 107//218
f 100//209 108//219 104//207
f 104//207 487//187 488//182
f 103//217 559//144 108//219
f 108//219 839//116 487//187
f 113//220 110//221 109//222
f 114//223 605//224 110//221
f 476//17 114//223 113//220
f 114//223 826//18 606//225
f 109//222 115//226 111//227
f 111//227 570//228 569//229
f 110//221 604//230 115//226
f 115//226 846//231 570//228
f 111//227 112//232 109//222
f 116//233 608//234 112//232
f 569//229 116//233 111//227
f 568//235 609//236 116//233
f 109//222 117//237 113//220
f 113//220 475//22 476//17
f 112//232 607//238 117//237
f 117//237 831//23 475//22
f 122//239 119//240 118//241
f 123//242 611//243 119//240
f 548//195 123//242 122//239
f 549//205 612//244 123//242
f 118//241 124//245 120//246
f 120//246 603//247 602//248
f 119//240 610//249 124//245
f 124//245 856//250 603//247
f 120//246 121//251 118//241
f 125//252 614//253 121//251
f 602//248 125//252 120//246
f 125//252 843//254 615//255
f 118//241 126//256 122//239
f 122//239 547//196 548//195
f 121//251 613//257 126//256
f 126//256 823//258 547//196
f 131//259 128//260 127//261
f 132//262 617//263 128//260
f 509//127 132//262 131//259
f 510//137 618//264 132//262
f 127//261 133//265 129//266
f 129//266 594//267 593//268
f 128//260 616//269 133//265
f 133//265 853//270 594//267
f 129//266 130//271 127//261
f 134//272 611//243 130//271
f 593//268 134//272 129//266
f 592//273 610//249 134//272
f 127//261 135//274 131//259
f 131//259 508//128 509//127
f 130//271 612//244 135//274
f 135//274 842//206 508//128
f 136//275 141//276 137//277
f 137//277 621//278 620//279
f 140//280 480//162 141//276
f 141//276 825//165 621//278
f 137//277 138//281 136//275
f 142//282 572//283 138//281
f 620//279 142//282 137//277
f 619//284 573//285 142//282
f 138//281 139//286 136//275
f 143//287 623//288 139//286
f 572//283 143//287 138//281
f 571//289 624//290 143//287
f 136//275 144//291 140//280
f 140//280 478//168 479//163
f 139//286 622//292 144//291
f 144//291 838//97 478//168
f 149//293 146//294 145//295
f 150//296 608//234 146//294
f 500//79 150//296 149//293
f 501//80 607//238 150//296
f 145//295 151//297 147//298
f 147//298 588//299 587//300
f 146//294 609//236 151//297
f 151//297 851//301 588//299
f 147//298 148//302 145//295
f 152//303 626//304 148//302
f 587//300 152//303 147//298
f 586//305 627//306 152//303
f 145//295 153//307 149//293
f 153//307 500//79 149//293
f 148//302 625//308 153//307
f 625//308 499//82 153//307
f 154//309 159//310 155//311
f 155//311 613//257 614//253
f 158//312 471//197 159//310
f 159//310 823//258 613//257
f 155//311 156//313 154//309
f 160//314 563//315 156//313
f 614//253 160//314 155//311
f 615//255 564//316 160//314
f 154//309 161//317 157//318
f 157//318 630//319 629//320
f 156//313 562//321 161//317
f 161//317 849//322 630//319
f 157//318 158//312 154//309
f 162//323 470//194 158//312
f 629//320 162//323 157//318
f 628//324 469//200 162//323
f 163//325 168//326 164//327
f 164//327 628//324 629//320
f 167//328 492//178 168//326
f 168//326 829//201 628//324
f 164//327 165//329 163//325
f 169//330 581//331 165//329
f 629//320 169//330 164//327
f 630//319 582//332 169//330
f 163//325 170//333 166//334
f 166//334 633//335 632//336
f 165//329 580//337 170//333
f 170//333 847//338 633//335
f 166//334 167//328 163//325
f 171//339 491//175 167//328
f 632//336 171//339 166//334
f 631//340 490//183 171//339
f 176//341 173//342 172//343
f 177//344 635//345 173//342
f 512//12 177//344 176//341
f 513//11 636//346 177//344
f 172//343 178//347 174//348
f 174//348 597//349 596//350
f 173//342 634//351 178//347
f 178//347 854//352 597//349
f 174//348 175//353 172//343
f 179//354 605//224 175//353
f 596//350 179//354 174//348
f 595//355 604//230 179//354
f 172//343 180//356 176//341
f 176//341 511//357 512//12
f 175//353 606//225 180//356
f 180//356 826//18 511//357
f 181//358 186//359 182//360
f 182//360 631//340 632//336
f 185//361 483//212 186//359
f 186//359 827//184 631//340
f 182//360 183//362 181//358
f 187//363 575//364 183//362
f 632//336 187//363 182//360
f 633//335 576//365 187//363
f 181//358 188//366 184//367
f 184//367 639//368 638//369
f 183//362 574//370 188//366
f 188//366 852//370 639//368
f 184//367 185//361 181//358
f 189//371 482//211 185//361
f 638//369 189//371 184//367
f 637//372 481//215 189//371
f 190//373 195//374 191//375
f 191//375 637//372 638//369
f 194//376 504//159 195//374
f 195//374 832//216 637//372
f 191//375 192//377 190//373
f 196//378 590//379 192//377
f 638//369 196//378 191//375
f 639//368 591//380 196//378
f 190//373 197//381 193//382
f 193//382 619//284 620//279
f 192//377 589//383 197//381
f 197//381 845//384 619//284
f 193//382 194//376 190//373
f 198//385 503//156 194//376
f 620//279 198//385 193//382
f 621//278 502//164 198//385
f 203//386 200//387 199//388
f 204//389 641//390 200//387
f 473//52 204//389 203//386
f 474//64 642//391 204//389
f 199//388 205//392 201//393
f 201//393 567//394 566//395
f 200//387 640//396 205//392
f 205//392 844//397 567//394
f 201//393 202//398 199//388
f 206//399 617//263 202//398
f 566//395 206//399 201//393
f 565//400 616//269 206//399
f 199//388 207//401 203//386
f 203//386 472//53 473//52
f 202//398 618//264 207//401
f 207//401 833//138 472//53
f 212//402 209//403 208//404
f 213//405 644//406 209//403
f 212//402 495//62 213//405
f 213//405 830//46 645//407
f 208//404 214//408 210//409
f 210//409 585//410 584//411
f 209//403 643//412 214//408
f 214//408 850//413 585//410
f 210//409 211//414 208//404
f 215//415 641//390 211//414
f 584//411 215//415 210//409
f 583//416 640//396 215//415
f 208//404 216//417 212//402
f 216//417 494//61 212//402
f 211//414 642//391 216//417
f 216//417 824//66 493//65
f 221//418 218//419 217//420
f 222//421 623//288 218//419
f 536//95 222//421 221//418
f 537//94 622//292 222//421
f 217//420 223//422 219//423
f 219//423 600//424 599//425
f 218//419 624//290 223//422
f 223//422 855//426 600//424
f 219//423 220//427 217//420
f 224//428 635//345 220//427
f 599//425 224//428 219//423
f 598//424 634//351 224//428
f 217//420 225//429 221//418
f 221//418 535//100 536//95
f 220//427 636//346 225//429
f 225//429 834//14 535//100
f 230//430 227//431 226//432
f 231//433 626//304 227//431
f 230//430 486//42 231//433
f 231//433 828//83 625//308
f 226//432 232//434 228//435
f 228//435 579//436 578//437
f 227//431 627//306 232//434
f 232//434 848//438 579//436
f 228//435 229//439 226//432
f 233//440 644//406 229//439
f 578//437 233//440 228//435
f 577//441 643//412 233//440
f 226//432 234//442 230//430
f 234//442 485//40 230//430
f 229//439 645//407 234//442
f 645//407 484//45 234//442
f 239//443 236//444 235//445
f 240//446 698//447 236//444
f 701//448 240//446 239//443
f 700//449 699//450 240//446
f 235//445 241//451 237//452
f 237//452 652//453 653//454
f 236//444 697//455 241//451
f 241//451 865//456 652//453
f 237//452 238//457 235//445
f 242//458 689//459 238//457
f 653//454 242//458 237//452
f 242//458 860//460 688//461
f 235//445 243//462 239//443
f 239//443 702//463 701//448
f 238//457 690//464 243//462
f 243//462 868//465 702//463
f 248//466 245//467 244//468
f 249//469 695//470 245//467
f 704//471 249//469 248//466
f 703//472 696//473 249//469
f 244//468 250//474 246//475
f 246//475 661//476 662//477
f 245//467 694//478 250//474
f 250//474 864//479 661//476
f 246//475 247//480 244//468
f 251//481 692//482 247//480
f 662//477 251//481 246//475
f 663//483 691//484 251//481
f 244//468 252//485 248//466
f 248//466 705//486 704//471
f 247//480 693//487 252//485
f 252//485 869//488 705//486
f 257//489 254//490 253//491
f 258//492 650//493 254//490
f 707//494 258//492 257//489
f 706//495 649//496 258//492
f 253//491 259//497 255//498
f 255//498 670//499 671//500
f 254//490 651//501 259//497
f 259//497 858//502 670//499
f 255//498 256//503 253//491
f 260//504 695//470 256//503
f 671//500 260//504 255//498
f 672//505 694//478 260//504
f 253//491 261//506 257//489
f 257//489 708//507 707//494
f 256//503 696//473 261//506
f 261//506 870//508 708//507
f 266//509 263//510 262//511
f 267//512 692//482 263//510
f 710//513 267//512 266//509
f 709//514 693//487 267//512
f 262//511 268//515 264//516
f 264//516 676//517 677//518
f 263//510 691//484 268//515
f 268//515 862//519 676//517
f 264//516 265//520 262//511
f 269//521 698//447 265//520
f 677//518 269//521 264//516
f 678//522 697//455 269//521
f 262//511 270//523 266//509
f 266//509 711//524 710//513
f 265//520 699//450 270//523
f 270//523 871//525 711//524
f 275//526 272//527 271//528
f 276//529 722//530 272//527
f 728//531 276//529 275//526
f 727//532 723//533 276//529
f 271//528 277//534 273//535
f 273//535 700//449 701//448
f 272//527 721//536 277//534
f 277//534 871//525 700//449
f 273//535 274//537 271//528
f 278//538 713//539 274//537
f 701//448 278//538 273//535
f 702//463 712//540 278//538
f 271//528 279//541 275//526
f 275//526 729//542 728//531
f 274//537 714//543 279//541
f 279//541 872//544 729//542
f 284//545 281//546 280//547
f 285//548 719//549 281//546
f 731//550 285//548 284//545
f 730//551 720//552 285//548
f 280//547 286//553 282//554
f 282//554 703//472 704//471
f 281//546 718//555 286//553
f 286//553 870//508 703//472
f 282//554 283//556 280//547
f 287//557 716//558 283//556
f 704//471 287//557 282//554
f 705//486 715//559 287//557
f 280//547 288//560 284//545
f 284//545 732//561 731//550
f 283//556 717//562 288//560
f 288//560 873//563 732//561
f 293//564 290//565 289//566
f 294//567 686//568 290//565
f 734//569 294//567 293//564
f 733//570 685//571 294//567
f 289//566 295//572 291//573
f 291//573 706//495 707//494
f 290//565 687//574 295//572
f 295//572 867//575 706//495
f 291//573 292//576 289//566
f 296//577 719//549 292//576
f 707//494 296//577 291//573
f 708//507 718//555 296//577
f 289//566 297//578 293//564
f 293//564 735//579 734//569
f 292//576 720//552 297//578
f 297//578 874//580 735//579
f 302//581 299//582 298//583
f 303//584 716//558 299//582
f 737//585 303//584 302//581
f 736//586 717//562 303//584
f 298//583 304//587 300//588
f 300//588 709//514 710//513
f 299//582 715//559 304//587
f 304//587 869//488 709//514
f 300//588 301//589 298//583
f 305//590 722//530 301//589
f 710//513 305//590 300//588
f 711//524 721//536 305//590
f 298//583 306//591 302//581
f 302//581 738//592 737//585
f 301//589 723//533 306//591
f 306//591 875//593 738//592
f 311//594 308//595 307//596
f 312//597 683//598 308//595
f 680//599 312//597 311//594
f 681//600 684//601 312//597
f 307//596 313//602 309//603
f 309//603 727//532 728//531
f 308//595 682//604 313//602
f 313//602 875//593 727//532
f 309//603 310//605 307//596
f 314//606 656//607 310//605
f 728//531 314//606 309//603
f 729//542 655//608 314//606
f 307//596 315//609 311//594
f 311//594 679//610 680//599
f 310//605 657//611 315//609
f 315//609 859//612 679//610
f 320//613 317//614 316//615
f 321//616 674//617 317//614
f 668//618 321//616 320//613
f 669//619 675//620 321//616
f 316//615 322//621 318//622
f 318//622 730//551 731//550
f 317//614 673//623 322//621
f 322//621 874//580 730//551
f 318//622 319//624 316//615
f 323//625 665//626 319//624
f 731//550 323//625 318//622
f 732//561 664//627 323//625
f 316//615 324//628 320//613
f 320//613 667//629 668//618
f 319//624 666//630 324//628
f 324//628 861//631 667//629
f 329//632 326//633 325//634
f 330//635 725//636 326//633
f 647//637 330//635 329//632
f 648//638 724//639 330//635
f 325//634 331//640 327//641
f 327//641 733//570 734//569
f 326//633 726//642 331//640
f 331//640 876//643 733//570
f 327//641 328//644 325//634
f 332//645 674//617 328//644
f 734//569 332//645 327//641
f 735//579 673//623 332//645
f 325//634 333//646 329//632
f 329//632 646//647 647//637
f 328//644 675//620 333//646
f 333//646 863//648 646//647
f 338//649 335//650 334//651
f 339//652 665//626 335//650
f 659//653 339//652 338//649
f 660//654 666//630 339//652
f 334//651 340//655 336//656
f 336//656 736//586 737//585
f 335//650 664//627 340//655
f 340//655 873//563 736//586
f 336//656 337//657 334//651
f 341//658 683//598 337//657
f 737//585 341//658 336//656
f 738//592 682//604 341//658
f 334//651 342//659 338//649
f 338//649 658//660 659//653
f 337//657 684//601 342//659
f 342//659 866//661 658//660
f 347//662 344//663 343//664
f 348//665 653//454 344//663
f 782//666 348//665 347//662
f 348//665 860//460 654//667
f 343//664 349//668 345//669
f 345//669 784//670 785//671
f 344//663 652//453 349//668
f 349//668 865//456 784//670
f 345//669 346//672 343//664
f 350//673 746//674 346//672
f 785//671 350//673 345//669
f 786//675 745//676 350//673
f 343//664 351//677 347//662
f 347//662 781//678 782//666
f 346//672 747//679 351//677
f 351//677 880//680 781//678
f 356//681 353//682 352//683
f 357//684 725//636 353//682
f 788//685 357//684 356//681
f 789//686 726//642 357//684
f 352//683 358//687 354//688
f 354//688 790//689 791//690
f 353//682 724//639 358//687
f 358//687 857//691 790//689
f 354//688 355//692 352//683
f 359//693 779//694 355//692
f 791//690 359//693 354//688
f 359//693 877//695 778//696
f 352//683 360//697 356//681
f 356//681 787//698 788//685
f 355//692 780//699 360//697
f 360//697 890//700 787//698
f 365//701 362//702 361//703
f 366//704 686//568 362//702
f 794//705 366//704 365//701
f 795//706 687//574 366//704
f 361//703 367//707 363//708
f 363//708 789//686 788//685
f 362//702 685//571 367//707
f 367//707 876//643 789//686
f 363//708 364//709 361//703
f 368//710 770//711 364//709
f 788//685 368//710 363//708
f 787//698 769//712 368//710
f 361//703 369//713 365//701
f 365//701 793//714 794//705
f 364//709 771//715 369//713
f 369//713 887//716 793//714
f 370//717 375//718 371//719
f 371//719 657//611 656//607
f 374//720 798//721 375//718
f 375//718 859//612 657//611
f 370//717 376//722 372//723
f 372//723 799//724 800//725
f 371//719 655//608 376//722
f 376//722 872//544 799//724
f 372//723 373//726 370//717
f 377//727 749//728 373//726
f 800//725 377//727 372//723
f 801//729 748//730 377//727
f 373//726 374//720 370//717
f 378//731 797//732 374//720
f 749//728 378//731 373//726
f 750//733 796//734 378//731
f 383//735 380//736 379//737
f 384//738 677//518 380//736
f 785//671 384//738 383//735
f 784//670 678//522 384//738
f 379//737 385//739 381//740
f 381//740 802//741 803//742
f 677//518 385//739 380//736
f 676//517 802//741 385//739
f 381//740 382//743 379//737
f 386//744 764//745 382//743
f 803//742 386//744 381//740
f 804//746 763//747 386//744
f 379//737 387//748 383//735
f 383//735 786//675 785//671
f 382//743 765//749 387//748
f 387//748 885//750 786//675
f 388//751 393//752 389//753
f 389//753 648//638 647//637
f 392//754 790//689 393//752
f 393//752 857//691 648//638
f 389//753 390//755 388//751
f 394//756 806//757 390//755
f 647//637 394//756 389//753
f 646//647 805//758 394//756
f 388//751 395//759 391//760
f 391//760 739//761 740//762
f 390//755 807//763 395//759
f 395//759 883//764 739//761
f 391//760 392//754 388//751
f 396//765 791//690 392//754
f 740//762 396//765 391//760
f 741//766 792//767 396//765
f 397//768 402//769 398//770
f 398//770 669//619 668//618
f 401//771 805//758 402//769
f 402//769 863//648 669//619
f 398//770 399//772 397//768
f 403//773 809//774 399//772
f 668//618 403//773 398//770
f 667//629 808//775 403//773
f 397//768 404//776 400//777
f 400//777 757//778 758//779
f 399//772 810//780 404//776
f 404//776 881//781 757//778
f 400//777 401//771 397//768
f 405//782 806//757 401//771
f 758//779 405//782 400//777
f 759//764 807//763 405//782
f 410//783 407//784 406//785
f 411//786 689//459 407//784
f 812//787 411//786 410//783
f 813//788 690//464 411//786
f 406//785 412//789 408//790
f 408//790 783//791 782//666
f 407//784 688//461 412//789
f 412//789 860//460 783//791
f 408//790 409//792 406//785
f 413//793 773//794 409//792
f 782//666 413//793 408//790
f 781//678 772//795 413//793
f 406//785 414//796 410//783
f 410//783 811//797 812//787
f 409//792 774//798 414//796
f 414//796 888//799 811//797
f 415//800 420//801 416//802
f 416//802 660//654 659//653
f 419//803 808//775 420//801
f 420//801 861//631 660//654
f 416//802 417//804 415//800
f 421//805 815//806 417//804
f 659//653 421//805 416//802
f 658//660 814//807 421//805
f 415//800 422//808 418//809
f 418//809 751//810 752//811
f 417//804 816//812 422//808
f 422//808 886//810 751//810
f 418//809 419//803 415//800
f 423//813 809//774 419//803
f 752//811 423//813 418//809
f 753//814 810//780 423//813
f 424//815 429//816 425//817
f 425//817 681//600 680//599
f 428//818 814//807 429//816
f 429//816 866//661 681//600
f 425//817 426//819 424//815
f 430//820 797//732 426//819
f 680//599 430//820 425//817
f 679//610 798//721 430//820
f 424//815 431//821 427//822
f 427//822 766//823 767//824
f 426//819 796//734 431//821
f 431//821 879//825 766//823
f 427//822 428//818 424//815
f 432//826 815//806 428//818
f 767//824 432//826 427//822
f 768//827 816//812 432//826
f 437//828 434//829 433//830
f 438//831 650//493 434//829
f 818//832 438//831 437//828
f 819//833 651//501 438//831
f 433//830 439//834 435//835
f 435//835 795//706 794//705
f 434//829 649//496 439//834
f 439//834 867//575 795//706
f 435//835 436//836 433//830
f 440//837 743//838 436//836
f 794//705 440//837 435//835
f 793//714 742//839 440//837
f 433//830 441//840 437//828
f 437//828 817//841 818//832
f 436//836 744//842 441//840
f 441//840 878//843 817//841
f 446//844 443//845 442//846
f 443//845 672//505 671//500
f 821//847 447//848 446//844
f 447//848 864//479 672//505
f 442//846 448//849 444//850
f 444//850 819//833 818//832
f 671//500 448//849 443//845
f 448//849 858//502 819//833
f 444//850 445//851 442//846
f 449//852 761//853 445//851
f 818//832 449//852 444//850
f 817//841 760//854 449//852
f 442//846 450//855 446//844
f 446//844 820//856 821//847
f 445//851 762//857 450//855
f 450//855 884//858 820//856
f 455//859 452//860 451//861
f 456//862 713//539 452//860
f 800//725 456//862 455//859
f 799//724 714//543 456//862
f 451//861 457//863 453//864
f 453//864 813//788 812//787
f 452//860 712//540 457//863
f 457//863 868//465 813//788
f 453//864 454//865 451//861
f 458//866 776//867 454//865
f 812//787 458//866 453//864
f 811//797 775//868 458//866
f 451//861 459//869 455//859
f 455//859 801//729 800//725
f 454//865 777//868 459//869
f 459//869 889//870 801//729
f 464//871 461//872 460//873
f 461//872 663//483 662//477
f 803//742 465//874 464//871
f 465//874 862//519 663//483
f 460//873 466//875 462//876
f 462//876 822//877 821//847
f 662//477 466//875 461//872
f 661//476 822//877 466//875
f 462//876 463//878 460//873
f 467//879 755//880 463//878
f 821//847 467//879 462//876
f 820//856 754//881 467//879
f 460//873 468//882 464//871
f 464//871 804//746 803//742
f 463//878 756//883 468//882
f 468//882 882//884 804//746
f 5//1 6//4 2//2
f 6//4 523//8 524//5
f 521//6 522//7 6//4
f 522//7 837//76 523//8
f 1//3 2//2 7//9
f 3//10 7//9 513//11
f 2//2 524//5 525//13
f 7//9 525//13 834//14
f 3//10 8//16 4//15
f 8//16 477//19 476//17
f 512//12 511//357 8//16
f 8//16 511//357 826//18
f 1//3 4//15 9//20
f 5//1 9//20 520//21
f 4//15 476//17 475//22
f 9//20 475//22 831//23
f 14//24 15//27 11//25
f 15//27 526//31 527//28
f 518//29 519//30 15//27
f 519//30 836//58 526//31
f 10//26 11//25 16//32
f 12//33 16//32 516//34
f 11//25 527//28 528//36
f 16//32 528//36 835//37
f 12//33 17//39 13//38
f 17//39 486//42 485//40
f 515//35 514//41 17//39
f 514//41 828//83 486//42
f 10//26 13//38 18//43
f 14//24 18//43 517//44
f 13//38 485//40 484//45
f 18//43 484//45 830//46
f 23//47 24//50 20//48
f 24//50 529//54 530//51
f 473//52 472//53 24//50
f 472//53 833//138 529//54
f 19//49 20//48 25//55
f 21//56 25//55 519//30
f 20//48 530//51 531//57
f 25//55 531//57 836//58
f 21//56 26//60 22//59
f 26//60 495//62 494//61
f 518//29 517//44 26//60
f 517//44 830//46 495//62
f 19//49 22//59 27//63
f 23//47 27//63 474//64
f 22//59 494//61 493//65
f 27//63 493//65 824//66
f 32//67 33//70 29//68
f 33//70 532//72 533//71
f 515//35 516//34 33//70
f 516//34 835//37 532//72
f 28//69 29//68 34//73
f 30//74 34//73 522//7
f 29//68 533//71 534//75
f 34//73 534//75 837//76
f 30//74 35//78 31//77
f 35//78 501//80 500//79
f 521//6 520//21 35//78
f 520//21 831//23 501//80
f 28//69 31//77 36//81
f 32//67 36//81 514//41
f 31//77 500//79 499//82
f 36//81 499//82 828//83
f 41//84 42//87 38//85
f 42//87 550//91 551//88
f 545//89 546//90 42//87
f 546//90 841//148 550//91
f 37//86 38//85 43//92
f 39//93 43//92 537//94
f 38//85 551//88 552//96
f 43//92 552//96 838//97
f 39//93 44//99 40//98
f 44//99 525//13 524//5
f 536//95 535//100 44//99
f 535//100 834//14 525//13
f 37//86 40//98 45//101
f 41//84 45//101 544//102
f 40//98 524//5 523//8
f 45//101 523//8 837//76
f 50//103 51//106 47//104
f 51//106 553//110 554//107
f 542//108 543//109 51//106
f 543//109 840//133 553//110
f 46//105 47//104 52//111
f 48//112 52//111 540//113
f 47//104 554//107 555//115
f 52//111 555//115 839//116
f 48//112 53//118 49//117
f 53//118 528//36 527//28
f 539//114 538//119 53//118
f 538//119 835//37 528//36
f 46//105 49//117 54//120
f 50//103 54//120 541//121
f 49//117 527//28 526//31
f 54//120 526//31 836//58
f 59//122 60//125 56//123
f 60//125 556//129 557//126
f 509//127 508//128 60//125
f 508//128 842//206 556//129
f 55//124 56//123 61//130
f 57//131 61//130 543//109
f 56//123 557//126 558//132
f 61//130 558//132 840//133
f 57//131 62//135 58//134
f 62//135 531//57 530//51
f 542//108 541//121 62//135
f 541//121 836//58 531//57
f 55//124 58//134 63//136
f 59//122 63//136 510//137
f 58//134 530//51 529//54
f 63//136 529//54 833//138
f 68//139 69//142 65//140
f 69//142 559//144 560//143
f 539//114 540//113 69//142
f 540//113 839//116 559//144
f 64//141 65//140 70//145
f 66//146 70//145 546//90
f 65//140 560//143 561//147
f 70//145 561//147 841//148
f 66//146 71//150 67//149
f 71//150 534//75 533//71
f 545//89 544//102 71//150
f 544//102 837//76 534//75
f 64//141 67//149 72//151
f 68//139 72//151 538//119
f 67//149 533//71 532//72
f 72//151 532//72 835//37
f 77//152 78//155 74//153
f 78//155 504//159 503//156
f 506//157 507//158 78//155
f 507//158 832//216 504//159
f 73//154 74//153 79//160
f 75//161 79//160 480//162
f 74//153 503//156 502//164
f 79//160 502//164 825//165
f 75//161 80//167 76//166
f 80//167 552//96 551//88
f 479//163 478//168 80//167
f 478//168 838//97 552//96
f 73//154 76//166 81//169
f 77//152 81//169 505//170
f 76//166 551//88 550//91
f 81//169 550//91 841//148
f 86//171 87//174 83//172
f 87//174 492//178 491//175
f 497//176 498//177 87//174
f 498//177 829//201 492//178
f 82//173 83//172 88//179
f 84//180 88//179 489//181
f 83//172 491//175 490//183
f 88//179 490//183 827//184
f 84//180 89//186 85//185
f 89//186 555//115 554//107
f 488//182 487//187 89//186
f 487//187 839//116 555//115
f 82//173 85//185 90//188
f 86//171 90//188 496//189
f 85//185 554//107 553//110
f 90//188 553//110 840//133
f 95//190 96//193 92//191
f 96//193 471//197 470//194
f 548//195 547//196 96//193
f 547//196 823//258 471//197
f 91//192 92//191 97//198
f 93//199 97//198 498//177
f 92//191 470//194 469//200
f 97//198 469//200 829//201
f 93//199 98//203 94//202
f 98//203 558//132 557//126
f 497//176 496//189 98//203
f 496//189 840//133 558//132
f 91//192 94//202 99//204
f 95//190 99//204 549//205
f 94//202 557//126 556//129
f 99//204 556//129 842//206
f 104//207 105//210 101//208
f 105//210 483//212 482//211
f 488//182 489//181 105//210
f 489//181 827//184 483//212
f 100//209 101//208 106//213
f 102//214 106//213 507//158
f 101//208 482//211 481//215
f 106//213 481//215 832//216
f 102//214 107//218 103//217
f 107//218 561//147 560//143
f 506//157 505//170 107//218
f 505//170 841//148 561//147
f 100//209 103//217 108//219
f 104//207 108//219 487//187
f 103//217 560//143 559//144
f 108//219 559//144 839//116
f 113//220 114//223 110//221
f 114//223 606//225 605//224
f 476//17 477//19 114//223
f 114//223 477//19 826//18
f 109//222 110//221 115//226
f 111//227 115//226 570//228
f 110//221 605//224 604//230
f 115//226 604//230 846//231
f 111//227 116//233 112//232
f 116//233 609//236 608//234
f 569//229 568//235 116//233
f 568//235 851//301 609//236
f 109//222 112//232 117//237
f 113//220 117//237 475//22
f 112//232 608//234 607//238
f 117//237 607//238 831//23
f 122//239 123//242 119//240
f 123//242 612//244 611//243
f 548//195 549//205 123//242
f 549//205 842//206 612//244
f 118//241 119//240 124//245
f 120//246 124//245 603//247
f 119//240 611//243 610//249
f 124//245 610//249 856//250
f 120//246 125//252 121//251
f 125//252 615//255 614//253
f 602//248 601//885 125//252
f 125//252 601//885 843//254
f 118//241 121//251 126//256
f 122//239 126//256 547//196
f 121//251 614//253 613//257
f 126//256 613//257 823//258
f 131//259 132//262 128//260
f 132//262 618//264 617//263
f 509//127 510//137 132//262
f 510//137 833//138 618//264
f 127//261 128//260 133//265
f 129//266 133//265 594//267
f 128//260 617//263 616//269
f 133//265 616//269 853//270
f 129//266 134//272 130//271
f 134//272 610//249 611//243
f 593//268 592//273 134//272
f 592//273 856//250 610//249
f 127//261 130//271 135//274
f 131//259 135//274 508//128
f 130//271 611//243 612//244
f 135//274 612//244 842//206
f 136//275 140//280 141//276
f 137//277 141//276 621//278
f 140//280 479//163 480//162
f 141//276 480//162 825//165
f 137//277 142//282 138//281
f 142//282 573//285 572//283
f 620//279 619//284 142//282
f 619//284 845//384 573//285
f 138//281 143//287 139//286
f 143//287 624//290 623//288
f 572//283 571//289 143//287
f 571//289 855//426 624//290
f 136//275 139//286 144//291
f 140//280 144//291 478//168
f 139//286 623//288 622//292
f 144//291 622//292 838//97
f 149//293 150//296 146//294
f 150//296 607//238 608//234
f 500//79 501//80 150//296
f 501//80 831//23 607//238
f 145//295 146//294 151//297
f 147//298 151//297 588//299
f 146//294 608//234 609//236
f 151//297 609//236 851//301
f 147//298 152//303 148//302
f 152//303 627//306 626//304
f 587//300 586//305 152//303
f 586//305 848//438 627//306
f 145//295 148//302 153//307
f 153//307 499//82 500//79
f 148//302 626//304 625//308
f 625//308 828//83 499//82
f 154//309 158//312 159//310
f 155//311 159//310 613//257
f 158//312 470//194 471//197
f 159//310 471//197 823//258
f 155//311 160//314 156//313
f 160//314 564//316 563//315
f 614//253 615//255 160//314
f 615//255 843//254 564//316
f 154//309 156//313 161//317
f 157//318 161//317 630//319
f 156//313 563//315 562//321
f 161//317 562//321 849//322
f 157//318 162//323 158//312
f 162//323 469//200 470//194
f 629//320 628//324 162//323
f 628//324 829//201 469//200
f 163//325 167//328 168//326
f 164//327 168//326 628//324
f 167//328 491//175 492//178
f 168//326 492//178 829//201
f 164//327 169//330 165//329
f 169//330 582//332 581//331
f 629//320 630//319 169//330
f 630//319 849//322 582//332
f 163//325 165//329 170//333
f 166//334 170//333 633//335
f 165//329 581//331 580//337
f 170//333 580//337 847//338
f 166//334 171//339 167//328
f 171//339 490//183 491//175
f 632//336 631//340 171//339
f 631//340 827//184 490//183
f 176//341 177//344 173//342
f 177//344 636//346 635//345
f 512//12 513//11 177//344
f 513//11 834//14 636//346
f 172//343 173//342 178//347
f 174//348 178//347 597//349
f 173//342 635//345 634//351
f 178//347 634//351 854//352
f 174//348 179//354 175//353
f 179//354 604//230 605//224
f 596//350 595//355 179//354
f 595//355 846//231 604//230
f 172//343 175//353 180//356
f 176//341 180//356 511//357
f 175//353 605//224 606//225
f 180//356 606//225 826//18
f 181//358 185//361 186//359
f 182//360 186//359 631//340
f 185//361 482//211 483//212
f 186//359 483//212 827//184
f 182//360 187//363 183//362
f 187//363 576//365 575//364
f 632//336 633//335 187//363
f 633//335 847//338 576//365
f 181//358 183//362 188//366
f 184//367 188//366 639//368
f 183//362 575//364 574//370
f 188//366 574//370 852//370
f 184//367 189//371 185//361
f 189//371 481//215 482//211
f 638//369 637//372 189//371
f 637//372 832//216 481//215
f 190//373 194//376 195//374
f 191//375 195//374 637//372
f 194//376 503//156 504//159
f 195//374 504//159 832//216
f 191//375 196//378 192//377
f 196//378 591//380 590//379
f 638//369 639//368 196//378
f 639//368 852//370 591//380
f 190//373 192//377 197//381
f 193//382 197//381 619//284
f 192//377 590//379 589//383
f 197//381 589//383 845//384
f 193//382 198//385 194//376
f 198//385 502//164 503//156
f 620//279 621//278 198//385
f 621//278 825//165 502//164
f 203//386 204//389 200//387
f 204//389 642//391 641//390
f 473//52 474//64 204//389
f 474//64 824//66 642//391
f 199//388 200//387 205//392
f 201//393 205//392 567//394
f 200//387 641//390 640//396
f 205//392 640//396 844//397
f 201//393 206//399 202//398
f 206//399 616//269 617//263
f 566//395 565//400 206//399
f 565//400 853//270 616//269
f 199//388 202//398 207//401
f 203//386 207//401 472//53
f 202//398 617//263 618//264
f 207//401 618//264 833//138
f 212//402 213//405 209//403
f 213//405 645//407 644//406
f 212//402 494//61 495//62
f 213//405 495//62 830//46
f 208//404 209//403 214//408
f 210//409 214//408 585//410
f 209//403 644//406 643//412
f 214//408 643//412 850//413
f 210//409 215//415 211//414
f 215//415 640//396 641//390
f 584//411 583//416 215//415
f 583//416 844//397 640//396
f 208//404 211//414 216//417
f 216//417 493//65 494//61
f 211//414 641//390 642//391
f 216//417 642//391 824//66
f 221//418 222//421 218//419
f 222//421 622//292 623//288
f 536//95 537//94 222//421
f 537//94 838//97 622//292
f 217//420 218//419 223//422
f 219//423 223//422 600//424
f 218//419 623//288 624//290
f 223//422 624//290 855//426
f 219//423 224//428 220//427
f 224//428 634//351 635//345
f 599//425 598//424 224//428
f 598//424 854//352 634//351
f 217//420 220//427 225//429
f 221//418 225//429 535//100
f 220//427 635//345 636//346
f 225//429 636//346 834//14
f 230//430 231//433 227//431
f 231//433 625//308 626//304
f 230//430 485//40 486//42
f 231//433 486//42 828//83
f 226//432 227//431 232//434
f 228//435 232//434 579//436
f 227//431 626//304 627//306
f 232//434 627//306 848//438
f 228//435 233//440 229//439
f 233//440 643//412 644//406
f 578//437 577//441 233//440
f 577//441 850//413 643//412
f 226//432 229//439 234//442
f 234//442 484//45 485//40
f 229//439 644//406 645//407
f 645//407 830//46 484//45
f 239//443 240//446 236//444
f 240//446 699//450 698//447
f 701//448 700//449 240//446
f 700//449 871//525 699//450
f 235//445 236//444 241//451
f 237//452 241//451 652//453
f 236//444 698//447 697//455
f 241//451 697//455 865//456
f 237//452 242//458 238//457
f 242//458 688//461 689//459
f 653//454 654//667 242//458
f 242//458 654//667 860//460
f 235//445 238//457 243//462
f 239//443 243//462 702//463
f 238//457 689//459 690//464
f 243//462 690//464 868//465
f 248//466 249//469 245//467
f 249//469 696//473 695//470
f 704//471 703//472 249//469
f 703//472 870//508 696//473
f 244//468 245//467 250//474
f 246//475 250//474 661//476
f 245//467 695//470 694//478
f 250//474 694//478 864//479
f 246//475 251//481 247//480
f 251//481 691//484 692//482
f 662//477 663//483 251//481
f 663//483 862//519 691//484
f 244//468 247//480 252//485
f 248//466 252//485 705//486
f 247//480 692//482 693//487
f 252//485 693//487 869//488
f 257//489 258//492 254//490
f 258//492 649//496 650//493
f 707//494 706//495 258//492
f 706//495 867//575 649//496
f 253//491 254//490 259//497
f 255//498 259//497 670//499
f 254//490 650//493 651//501
f 259//497 651//501 858//502
f 255//498 260//504 256//503
f 260//504 694//478 695//470
f 671//500 672//505 260//504
f 672//505 864//479 694//478
f 253//491 256//503 261//506
f 257//489 261//506 708//507
f 256//503 695//470 696//473
f 261//506 696//473 870//508
f 266//509 267//512 263//510
f 267//512 693//487 692//482
f 710//513 709//514 267//512
f 709//514 869//488 693//487
f 262//511 263//510 268//515
f 264//516 268//515 676//517
f 263//510 692//482 691//484
f 268//515 691//484 862//519
f 264//516 269//521 265//520
f 269//521 697//455 698//447
f 677//518 678//522 269//521
f 678//522 865//456 697//455
f 262//511 265//520 270//523
f 266//509 270//523 711//524
f 265//520 698//447 699//450
f 270//523 699//450 871//525
f 275//526 276//529 272//527
f 276//529 723//533 722//530
f 728//531 727//532 276//529
f 727//532 875//593 723//533
f 271//528 272//527 277//534
f 273//535 277//534 700//449
f 272//527 722//530 721//536
f 277//534 721//536 871//525
f 273//535 278//538 274//537
f 278//538 712//540 713//539
f 701//448 702//463 278//538
f 702//463 868//465 712//540
f 271//528 274//537 279//541
f 275//526 279//541 729//542
f 274//537 713//539 714//543
f 279//541 714//543 872//544
f 284//545 285//548 281//546
f 285//548 720//552 719//549
f 731//550 730//551 285//548
f 730//551 874//580 720//552
f 280//547 281//546 286//553
f 282//554 286//553 703//472
f 281//546 719//549 718//555
f 286//553 718//555 870//508
f 282//554 287//557 283//556
f 287//557 715//559 716//558
f 704//471 705//486 287//557
f 705//486 869//488 715//559
f 280//547 283//556 288//560
f 284//545 288//560 732//561
f 283//556 716//558 717//562
f 288//560 717//562 873//563
f 293//564 294//567 290//565
f 294//567 685//571 686//568
f 734//569 733//570 294//567
f 733//570 876//643 685//571
f 289//566 290//565 295//572
f 291//573 295//572 706//495
f 290//565 686//568 687//574
f 295//572 687//574 867//575
f 291//573 296//577 292//576
f 296//577 718//555 719//549
f 707//494 708//507 296//577
f 708//507 870//508 718//555
f 289//566 292//576 297//578
f 293//564 297//578 735//579
f 292//576 719//549 720//552
f 297//578 720//552 874//580
f 302//581 303//584 299//582
f 303//584 717//562 716//558
f 737//585 736//586 303//584
f 736//586 873//563 717//562
f 298//583 299//582 304//587
f 300//588 304//587 709//514
f 299//582 716//558 715//559
f 304//587 715//559 869//488
f 300//588 305//590 301//589
f 305//590 721//536 722//530
f 710//513 711//524 305//590
f 711//524 871//525 721//536
f 298//583 301//589 306//591
f 302//581 306//591 738//592
f 301//589 722//530 723//533
f 306//591 723//533 875//593
f 311//594 312//597 308//595
f 312//597 684//601 683//598
f 680//599 681//600 312//597
f 681//600 866//661 684//601
f 307//596 308//595 313//602
f 309//603 313//602 727//532
f 308//595 683//598 682//604
f 313//602 682//604 875//593
f 309//603 314//606 310//605
f 314//606 655//608 656//607
f 728//531 729//542 314//606
f 729//542 872//544 655//608
f 307//596 310//605 315//609
f 311//594 315//609 679//610
f 310//605 656//607 657//611
f 315//609 657//611 859//612
f 320//613 321//616 317//614
f 321//616 675//620 674//617
f 668//618 669//619 321//616
f 669//619 863//648 675//620
f 316//615 317//614 322//621
f 318//622 322//621 730//551
f 317//614 674//617 673//623
f 322//621 673//623 874//580
f 318//622 323//625 319//624
f 323//625 664//627 665//626
f 731//550 732//561 323//625
f 732//561 873//563 664//627
f 316//615 319//624 324//628
f 320//613 324//628 667//629
f 319//624 665//626 666//630
f 324//628 666//630 861//631
f 329//632 330//635 326//633
f 330//635 724//639 725//636
f 647//637 648//638 330//635
f 648//638 857//691 724//639
f 325//634 326//633 331//640
f 327//641 331//640 733//570
f 326//633 725//636 726//642
f 331//640 726//642 876//643
f 327//641 332//645 328//644
f 332//645 673//623 674//617
f 734//569 735//579 332//645
f 735//579 874//580 673//623
f 325//634 328//644 333//646
f 329//632 333//646 646//647
f 328//644 674//617 675//620
f 333//646 675//620 863//648
f 338//649 339//652 335//650
f 339//652 666//630 665//626
f 659//653 660//654 339//652
f 660//654 861//631 666//630
f 334//651 335//650 340//655
f 336//656 340//655 736//586
f 335//650 665//626 664//627
f 340//655 664//627 873//563
f 336//656 341//658 337//657
f 341//658 682//604 683//598
f 737//585 738//592 341//658
f 738//592 875//593 682//604
f 334//651 337//657 342//659
f 338//649 342//659 658//660
f 337//657 683//598 684//601
f 342//659 684//601 866//661
f 347//662 348//665 344//663
f 348//665 654//667 653//454
f 782//666 783//791 348//665
f 348//665 783//791 860//460
f 343//664 344//663 349//668
f 345//669 349//668 784//670
f 344//663 653//454 652//453
f 349//668 652//453 865//456
f 345//669 350//673 346//672
f 350//673 745//676 746//674
f 785//671 786//675 350//673
f 786//675 885//750 745//676
f 343//664 346//672 351//677
f 347//662 351//677 781//678
f 346//672 746//674 747//679
f 351//677 747//679 880//680
f 356//681 357//684 353//682
f 357//684 726//642 725//636
f 788//685 789//686 357//684
f 789//686 876//643 726//642
f 352//683 353//682 358//687
f 354//688 358//687 790//689
f 353//682 725//636 724//639
f 358//687 724//639 857//691
f 354//688 359//693 355//692
f 359//693 778//696 779//694
f 791//690 792//767 359//693
f 359//693 792//767 877//695
f 352//683 355//692 360//697
f 356//681 360//697 787//698
f 355//692 779//694 780//699
f 360//697 780//699 890//700
f 365//701 366//704 362//702
f 366//704 687//574 686//568
f 794//705 795//706 366//704
f 795//706 867//575 687//574
f 361//703 362//702 367//707
f 363//708 367//707 789//686
f 362//702 686//568 685//571
f 367//707 685//571 876//643
f 363//708 368//710 364//709
f 368//710 769//712 770//711
f 788//685 787//698 368//710
f 787//698 890//700 769//712
f 361//703 364//709 369//713
f 365//701 369//713 793//714
f 364//709 770//711 771//715
f 369//713 771//715 887//716
f 370//717 374//720 375//718
f 371//719 375//718 657//611
f 374//720 797//732 798//721
f 375//718 798//721 859//612
f 370//717 371//719 376//722
f 372//723 376//722 799//724
f 371//719 656//607 655//608
f 376//722 655//608 872//544
f 372//723 377//727 373//726
f 377//727 748//730 749//728
f 800//725 801//729 377//727
f 801//729 889//870 748//730
f 373//726 378//731 374//720
f 378//731 796//734 797//732
f 749//728 750//733 378//731
f 750//733 879//825 796//734
f 383//735 384//738 380//736
f 384//738 678//522 677//518
f 785//671 784//670 384//738
f 784//670 865//456 678//522
f 379//737 380//736 385//739
f 381//740 385//739 802//741
f 677//518 676//517 385//739
f 676//517 862//519 802//741
f 381//740 386//744 382//743
f 386//744 763//747 764//745
f 803//742 804//746 386//744
f 804//746 882//884 763//747
f 379//737 382//743 387//748
f 383//735 387//748 786//675
f 382//743 764//745 765//749
f 387//748 765//749 885//750
f 388//751 392//754 393//752
f 389//753 393//752 648//638
f 392//754 791//690 790//689
f 393//752 790//689 857//691
f 389//753 394//756 390//755
f 394//756 805//758 806//757
f 647//637 646//647 394//756
f 646//647 863//648 805//758
f 388//751 390//755 395//759
f 391//760 395//759 739//761
f 390//755 806//757 807//763
f 395//759 807//763 883//764
f 391//760 396//765 392//754
f 396//765 792//767 791//690
f 740//762 741//766 396//765
f 741//766 877//695 792//767
f 397//768 401//771 402//769
f 398//770 402//769 669//619
f 401//771 806//757 805//758
f 402//769 805//758 863//648
f 398//770 403//773 399//772
f 403//773 808//775 809//774
f 668//618 667//629 403//773
f 667//629 861//631 808//775
f 397//768 399//772 404//776
f 400//777 404//776 757//778
f 399//772 809//774 810//780
f 404//776 810//780 881//781
f 400//777 405//782 401//771
f 405//782 807//763 806//757
f 758//779 759//764 405//782
f 759//764 883//764 807//763
f 410//783 411//786 407//784
f 411//786 690//464 689//459
f 812//787 813//788 411//786
f 813//788 868//465 690//464
f 406//785 407//784 412//789
f 408//790 412//789 783//791
f 407//784 689//459 688//461
f 412//789 688//461 860//460
f 408//790 413//793 409//792
f 413//793 772//795 773//794
f 782//666 781//678 413//793
f 781//678 880//680 772//795
f 406//785 409//792 414//796
f 410//783 414//796 811//797
f 409//792 773//794 774//798
f 414//796 774//798 888//799
f 415//800 419//803 420//801
f 416//802 420//801 660//654
f 419//803 809//774 808//775
f 420//801 808//775 861//631
f 416//802 421//805 417//804
f 421//805 814//807 815//806
f 659//653 658//660 421//805
f 658//660 866//661 814//807
f 415//800 417//804 422//808
f 418//809 422//808 751//810
f 417//804 815//806 816//812
f 422//808 816//812 886//810
f 418//809 423//813 419//803
f 423//813 810//780 809//774
f 752//811 753//814 423//813
f 753//814 881//781 810//780
f 424//815 428//818 429//816
f 425//817 429//816 681//600
f 428//818 815//806 814//807
f 429//816 814//807 866//661
f 425//817 430//820 426//819
f 430//820 798//721 797//732
f 680//599 679//610 430//820
f 679//610 859//612 798//721
f 424//815 426//819 431//821
f 427//822 431//821 766//823
f 426//819 797//732 796//734
f 431//821 796//734 879//825
f 427//822 432//826 428//818
f 432//826 816//812 815//806
f 767//824 768//827 432//826
f 768//827 886//810 816//812
f 437//828 438//831 434//829
f 438//831 651//501 650//493
f 818//832 819//833 438//831
f 819//833 858//502 651//501
f 433//830 434//829 439//834
f 435//835 439//834 795//706
f 434//829 650//493 649//496
f 439//834 649//496 867//575
f 435//835 440//837 436//836
f 440//837 742//839 743//838
f 794//705 793//714 440//837
f 793//714 887//716 742//839
f 433//830 436//836 441//840
f 437//828 441//840 817//841
f 436//836 743//838 744//842
f 441//840 744//842 878//843
f 446//844 447//848 443//845
f 443//845 447//848 672//505
f 821//847 822//877 447//848
f 447//848 822//877 864//479
f 442//846 443//845 448//849
f 444//850 448//849 819//833
f 671//500 670//499 448//849
f 448//849 670//499 858//502
f 444//850 449//852 445//851
f 449//852 760//854 761//853
f 818//832 817//841 449//852
f 817//841 878//843 760//854
f 442//846 445//851 450//855
f 446//844 450//855 820//856
f 445//851 761//853 762//857
f 450//855 762//857 884//858
f 455//859 456//862 452//860
f 456//862 714//543 713//539
f 800//725 799//724 456//862
f 799//724 872//544 714//543
f 451//861 452//860 457//863
f 453//864 457//863 813//788
f 452//860 713//539 712//540
f 457//863 712//540 868//465
f 453//864 458//866 454//865
f 458//866 775//868 776//867
f 812//787 811//797 458//866
f 811//797 888//799 775//868
f 451//861 454//865 459//869
f 455//859 459//869 801//729
f 454//865 776//867 777//868
f 459//869 777//868 889//870
f 464//871 465//874 461//872
f 461//872 465//874 663//483
f 803//742 802//741 465//874
f 465//874 802//741 862//519
f 460//873 461//872 466//875
f 462//876 466//875 822//877
f 662//477 661//476 466//875
f 661//476 864//479 822//877
f 462//876 467//879 463//878
f 467//879 754//881 755//880
f 821//847 820//856 467//879
f 820//856 884//858 754//881
f 460//873 463//878 468//882
f 464//871 468//882 804//746
f 463//878 755//880 756//883
f 468//882 756//883 882//884
