# Blender v2.79 (sub 0) OBJ File: 'fiat500.blend'
# www.blender.org
o Plane.028_Plane.031
v -19.817617 6.800946 19.948868
v -19.817617 -1.199054 19.948868
v -19.817617 6.800946 -20.051132
v -19.817617 -1.199054 -20.051132
vn 1.0000 0.0000 0.0000
s off
f 2//1 3//1 1//1
f 2//1 4//1 3//1
