# Blender v2.79 (sub 0) OBJ File: 'fiat500.blend'
# www.blender.org
o Sphere.004_Sphere
v 1.520080 0.254591 -0.036145
v 1.502820 0.227483 -0.054199
v 1.473519 0.216584 -0.063970
v 1.434330 0.223990 -0.063970
v 1.413490 0.244364 -0.054199
v 1.411862 0.275042 -0.036145
v 1.529299 0.288672 -0.087558
v 1.516618 0.278489 -0.128104
v 1.489796 0.276750 -0.148401
v 1.450606 0.284156 -0.148401
v 1.427288 0.295371 -0.128104
v 1.421082 0.309123 -0.087558
v 1.542338 0.336871 -0.087558
v 1.536132 0.350623 -0.128104
v 1.512814 0.361838 -0.148401
v 1.473624 0.369244 -0.148401
v 1.446802 0.367505 -0.128104
v 1.434121 0.357321 -0.087558
v 1.551558 0.370952 -0.036145
v 1.549930 0.399332 -0.054199
v 1.529090 0.417410 -0.063970
v 1.489901 0.424816 -0.063970
v 1.460600 0.416214 -0.054199
v 1.443341 0.391403 -0.036145
v 1.551558 0.370952 0.036565
v 1.549930 0.399332 0.054619
v 1.529090 0.417410 0.064389
v 1.489901 0.424816 0.064389
v 1.460600 0.416214 0.054619
v 1.443341 0.391403 0.036565
v 1.542338 0.336871 0.087978
v 1.536132 0.350623 0.128523
v 1.512814 0.361838 0.148821
v 1.473624 0.369244 0.148821
v 1.446802 0.367505 0.128523
v 1.434121 0.357321 0.087978
v 1.529299 0.288672 0.087978
v 1.516618 0.278489 0.128524
v 1.489796 0.276750 0.148821
v 1.450606 0.284156 0.148821
v 1.427288 0.295371 0.128523
v 1.421082 0.309123 0.087978
v 1.532689 0.284730 -0.016812
v 1.415992 0.306783 -0.016812
v 1.537006 0.300687 -0.040884
v 1.420309 0.322740 -0.040884
v 1.543111 0.323254 -0.040884
v 1.426414 0.345307 -0.040884
v 1.547428 0.339211 -0.016812
v 1.430731 0.361264 -0.016812
v 1.547428 0.339211 0.017231
v 1.430731 0.361264 0.017231
v 1.543111 0.323254 0.041303
v 1.426414 0.345307 0.041303
v 1.537006 0.300687 0.041303
v 1.420309 0.322740 0.041303
v 1.532689 0.284730 0.017231
v 1.520080 0.254591 0.036565
v 1.502820 0.227483 0.054619
v 1.473519 0.216584 0.064389
v 1.434330 0.223990 0.064389
v 1.413490 0.244364 0.054619
v 1.411862 0.275042 0.036565
v 1.415992 0.306783 0.017231
v 1.502269 0.203153 -0.112386
v 1.504889 0.203153 -0.116924
v 1.509427 0.203153 -0.119544
v 1.514668 0.203153 -0.119544
v 1.519206 0.203153 -0.116924
v 1.521826 0.203153 -0.112386
v 1.521826 0.203153 -0.107145
v 1.519206 0.203153 -0.102607
v 1.514668 0.203153 -0.099986
v 1.509427 0.203153 -0.099986
v 1.504889 0.203153 -0.102607
v 1.502269 0.203153 -0.107145
v 1.502269 0.203153 0.108829
v 1.504889 0.203153 0.104291
v 1.509427 0.203153 0.101670
v 1.514668 0.203153 0.101670
v 1.519206 0.203153 0.104291
v 1.521826 0.203153 0.108829
v 1.521826 0.203153 0.114069
v 1.519206 0.203153 0.118608
v 1.514668 0.203153 0.121228
v 1.509427 0.203153 0.121228
v 1.504889 0.203153 0.118608
v 1.502269 0.203153 0.114069
v 1.410512 0.270051 0.000210
v 1.411469 0.236894 0.000210
v 1.431946 0.215179 0.000210
v 1.471136 0.207773 0.000210
v 1.500799 0.220013 0.000210
v 1.518729 0.249600 0.000210
v 1.533204 0.286369 0.000210
v 1.415517 0.288553 -0.067176
v 1.418960 0.264585 -0.099880
v 1.440782 0.247842 -0.117167
v 1.479972 0.240436 -0.117167
v 1.508290 0.247704 -0.099880
v 1.523735 0.268102 -0.067176
v 1.527559 0.270411 -0.025900
v 1.511438 0.239529 -0.046070
v 1.491192 0.219489 -0.060257
v 1.453375 0.218255 -0.065239
v 1.419872 0.232967 -0.060257
v 1.411911 0.258337 -0.046070
v 1.413253 0.292012 -0.025900
v 1.427601 0.333222 -0.095088
v 1.437045 0.331438 -0.137852
v 1.462115 0.326700 -0.158527
v 1.501305 0.319294 -0.158527
v 1.526375 0.314556 -0.137852
v 1.535819 0.312771 -0.095088
v 1.534181 0.294888 -0.062826
v 1.523174 0.282914 -0.110759
v 1.506526 0.276175 -0.140387
v 1.469973 0.279611 -0.151341
v 1.435207 0.289653 -0.140387
v 1.423647 0.301723 -0.110759
v 1.419875 0.316489 -0.062826
v 1.428189 0.352130 -0.027085
v 1.439685 0.377891 -0.067176
v 1.455130 0.397715 -0.099880
v 1.483448 0.404409 -0.117167
v 1.522638 0.397003 -0.117167
v 1.544460 0.380834 -0.099880
v 1.547903 0.357441 -0.067176
v 1.543545 0.329504 -0.062826
v 1.539773 0.344271 -0.110759
v 1.528213 0.356341 -0.140387
v 1.493447 0.366382 -0.151341
v 1.456894 0.369819 -0.140387
v 1.440246 0.363079 -0.110759
v 1.429239 0.351106 -0.062826
v 1.444691 0.396394 0.000210
v 1.462621 0.422535 0.000210
v 1.492284 0.431329 0.000210
v 1.531474 0.423923 0.000210
v 1.551951 0.405653 0.000210
v 1.552908 0.375943 0.000210
v 1.550167 0.353982 -0.025900
v 1.551509 0.387082 -0.046070
v 1.543548 0.409007 -0.060257
v 1.510045 0.423144 -0.065239
v 1.472229 0.422485 -0.060257
v 1.451982 0.405891 -0.046070
v 1.435861 0.375583 -0.025900
v 1.439685 0.377891 0.067595
v 1.455130 0.397715 0.100299
v 1.483448 0.404409 0.117587
v 1.522638 0.397003 0.117587
v 1.544460 0.380834 0.100299
v 1.547903 0.357441 0.067595
v 1.550167 0.353982 0.026320
v 1.551509 0.387082 0.046489
v 1.543548 0.409007 0.060677
v 1.510045 0.423144 0.065659
v 1.472229 0.422485 0.060677
v 1.451982 0.405891 0.046489
v 1.435861 0.375583 0.026320
v 1.427601 0.333222 0.095507
v 1.437045 0.331438 0.138272
v 1.462115 0.326700 0.158947
v 1.501305 0.319294 0.158947
v 1.526375 0.314556 0.138272
v 1.535819 0.312771 0.095507
v 1.543545 0.329504 0.063245
v 1.539773 0.344271 0.111178
v 1.528213 0.356341 0.140807
v 1.493447 0.366382 0.151761
v 1.456894 0.369819 0.140807
v 1.440246 0.363079 0.111178
v 1.429239 0.351106 0.063245
v 1.415517 0.288553 0.067595
v 1.418960 0.264585 0.100299
v 1.440782 0.247842 0.117587
v 1.479972 0.240436 0.117587
v 1.508290 0.247704 0.100299
v 1.523735 0.268102 0.067595
v 1.534181 0.294888 0.063245
v 1.523174 0.282914 0.111178
v 1.506526 0.276175 0.140807
v 1.469973 0.279611 0.151761
v 1.435207 0.289653 0.140807
v 1.423647 0.301723 0.111178
v 1.419875 0.316489 0.063245
v 1.416372 0.308448 0.000210
v 1.418399 0.315943 -0.027085
v 1.535232 0.293864 -0.027085
v 1.423294 0.334036 -0.038391
v 1.540126 0.311957 -0.038391
v 1.545021 0.330051 -0.027085
v 1.430216 0.359624 0.000210
v 1.547048 0.337545 0.000210
v 1.428189 0.352130 0.027505
v 1.545021 0.330051 0.027505
v 1.423294 0.334036 0.038811
v 1.540126 0.311957 0.038811
v 1.418399 0.315943 0.027505
v 1.535232 0.293864 0.027505
v 1.527559 0.270411 0.026320
v 1.511438 0.239529 0.046489
v 1.491192 0.219489 0.060677
v 1.453375 0.218255 0.065659
v 1.419872 0.232967 0.060677
v 1.411911 0.258337 0.046489
v 1.413253 0.292012 0.026320
v 1.502269 0.288892 -0.107145
v 1.504889 0.288892 -0.102607
v 1.509427 0.288892 -0.099986
v 1.514668 0.288892 -0.099986
v 1.519206 0.288892 -0.102607
v 1.521826 0.288892 -0.107145
v 1.521826 0.288892 -0.112386
v 1.519206 0.288892 -0.116924
v 1.514668 0.288892 -0.119544
v 1.509427 0.288892 -0.119544
v 1.504889 0.288892 -0.116924
v 1.502269 0.288892 -0.112386
v 1.502269 0.117413 -0.107145
v 1.504889 0.117413 -0.102607
v 1.509427 0.117413 -0.099986
v 1.514668 0.117413 -0.099986
v 1.519206 0.117413 -0.102607
v 1.521826 0.117413 -0.107145
v 1.521826 0.117413 -0.112386
v 1.519206 0.117413 -0.116924
v 1.514668 0.117413 -0.119544
v 1.509427 0.117413 -0.119544
v 1.504889 0.117413 -0.116924
v 1.502269 0.117413 -0.112386
v 1.503275 0.203153 -0.114830
v 1.501918 0.203153 -0.109765
v 1.506983 0.203153 -0.118538
v 1.512048 0.203153 -0.119895
v 1.517112 0.203153 -0.118538
v 1.520820 0.203153 -0.114830
v 1.522177 0.203153 -0.109765
v 1.520820 0.203153 -0.104700
v 1.517112 0.203153 -0.100993
v 1.512048 0.203153 -0.099635
v 1.506983 0.203153 -0.100993
v 1.503275 0.203153 -0.104700
v 1.502269 0.288892 0.114069
v 1.504889 0.288892 0.118608
v 1.509427 0.288892 0.121228
v 1.514668 0.288892 0.121228
v 1.519206 0.288892 0.118608
v 1.521826 0.288892 0.114069
v 1.521826 0.288892 0.108829
v 1.519206 0.288892 0.104291
v 1.514668 0.288892 0.101670
v 1.509427 0.288892 0.101670
v 1.504889 0.288892 0.104291
v 1.502269 0.288892 0.108829
v 1.502269 0.117413 0.114069
v 1.504889 0.117413 0.118608
v 1.509427 0.117413 0.121228
v 1.514668 0.117413 0.121228
v 1.519206 0.117413 0.118608
v 1.521826 0.117413 0.114069
v 1.521826 0.117413 0.108829
v 1.519206 0.117413 0.104291
v 1.514668 0.117413 0.101670
v 1.509427 0.117413 0.101670
v 1.504889 0.117413 0.104291
v 1.502269 0.117413 0.108829
v 1.503275 0.203153 0.106384
v 1.501918 0.203153 0.111449
v 1.506983 0.203153 0.102676
v 1.512048 0.203153 0.101319
v 1.517112 0.203153 0.102676
v 1.520820 0.203153 0.106384
v 1.522177 0.203153 0.111449
v 1.520820 0.203153 0.116514
v 1.517112 0.203153 0.120222
v 1.512048 0.203153 0.121579
v 1.506983 0.203153 0.120222
v 1.503275 0.203153 0.116514
v 1.412536 0.289428 0.000210
v 1.410192 0.251984 0.000210
v 1.417626 0.224665 0.000210
v 1.450944 0.209269 0.000210
v 1.488946 0.211187 0.000210
v 1.509719 0.233175 0.000210
v 1.526876 0.267820 0.000210
v 1.540431 0.311900 0.000210
v 1.416052 0.302424 -0.047123
v 1.416564 0.275537 -0.085382
v 1.425951 0.255440 -0.110523
v 1.459955 0.242579 -0.119489
v 1.497271 0.241962 -0.110523
v 1.516091 0.256729 -0.085382
v 1.530392 0.280817 -0.047123
v 1.424540 0.333801 -0.066729
v 1.431947 0.332401 -0.119963
v 1.446050 0.329736 -0.150218
v 1.481710 0.322997 -0.161667
v 1.517370 0.316258 -0.150218
v 1.531474 0.313593 -0.119963
v 1.538880 0.312193 -0.066729
v 1.422989 0.334094 0.000210
v 1.433028 0.365177 -0.047123
v 1.447330 0.389121 -0.085382
v 1.466149 0.403027 -0.110523
v 1.503465 0.402266 -0.119489
v 1.537469 0.389549 -0.110523
v 1.546856 0.370313 -0.085382
v 1.547368 0.343569 -0.047123
v 1.436544 0.378174 0.000210
v 1.453701 0.411957 0.000210
v 1.474474 0.428776 0.000210
v 1.512476 0.429833 0.000210
v 1.545794 0.415298 0.000210
v 1.553228 0.393149 0.000210
v 1.550884 0.356566 0.000210
v 1.433028 0.365177 0.047543
v 1.447330 0.389121 0.085801
v 1.466149 0.403027 0.110943
v 1.503465 0.402266 0.119909
v 1.537469 0.389549 0.110943
v 1.546856 0.370313 0.085801
v 1.547368 0.343569 0.047543
v 1.424540 0.333801 0.067148
v 1.431947 0.332401 0.120383
v 1.446050 0.329736 0.150638
v 1.481710 0.322997 0.162087
v 1.517370 0.316258 0.150638
v 1.531474 0.313593 0.120383
v 1.538880 0.312193 0.067148
v 1.416052 0.302424 0.047543
v 1.416564 0.275537 0.085801
v 1.425951 0.255440 0.110943
v 1.459955 0.242579 0.119909
v 1.497271 0.241962 0.110943
v 1.516091 0.256729 0.085801
v 1.530392 0.280817 0.047543
v 1.501918 0.288892 -0.109765
v 1.503275 0.288892 -0.104700
v 1.506983 0.288892 -0.100993
v 1.512048 0.288892 -0.099635
v 1.517112 0.288892 -0.100993
v 1.520820 0.288892 -0.104700
v 1.522177 0.288892 -0.109765
v 1.520820 0.288892 -0.114830
v 1.517112 0.288892 -0.118538
v 1.512048 0.288892 -0.119895
v 1.506983 0.288892 -0.118538
v 1.503275 0.288892 -0.114830
v 1.501918 0.117413 -0.109765
v 1.503275 0.117413 -0.104700
v 1.506983 0.117413 -0.100993
v 1.512048 0.117413 -0.099635
v 1.517112 0.117413 -0.100993
v 1.520820 0.117413 -0.104700
v 1.522177 0.117413 -0.109765
v 1.520820 0.117413 -0.114830
v 1.517112 0.117413 -0.118538
v 1.512048 0.117413 -0.119895
v 1.506983 0.117413 -0.118538
v 1.503275 0.117413 -0.114830
v 1.501918 0.288892 0.111449
v 1.503275 0.288892 0.116514
v 1.506983 0.288892 0.120222
v 1.512048 0.288892 0.121579
v 1.517112 0.288892 0.120222
v 1.520820 0.288892 0.116514
v 1.522177 0.288892 0.111449
v 1.520820 0.288892 0.106384
v 1.517112 0.288892 0.102676
v 1.512048 0.288892 0.101319
v 1.506983 0.288892 0.102676
v 1.503275 0.288892 0.106384
v 1.501918 0.117413 0.111449
v 1.503275 0.117413 0.116514
v 1.506983 0.117413 0.120222
v 1.512048 0.117413 0.121579
v 1.517112 0.117413 0.120222
v 1.520820 0.117413 0.116514
v 1.522177 0.117413 0.111449
v 1.520820 0.117413 0.106384
v 1.517112 0.117413 0.102676
v 1.512048 0.117413 0.101319
v 1.506983 0.117413 0.102676
v 1.503275 0.117413 0.106384
vn 0.9290 -0.3687 -0.0314
vn 0.8933 -0.4494 0.0000
vn 0.8974 -0.4381 -0.0529
vn 0.8586 -0.5070 -0.0750
vn 0.9121 -0.3978 -0.0991
vn 0.7275 -0.6734 -0.1313
vn 0.8511 -0.5250 0.0000
vn 0.7136 -0.7006 0.0000
vn 0.3916 -0.9201 0.0000
vn 0.4121 -0.8840 -0.2207
vn 0.7646 -0.5863 -0.2675
vn 0.8798 -0.4524 -0.1455
vn 0.0540 -0.9985 0.0000
vn 0.0703 -0.9598 -0.2716
vn -0.1874 -0.9823 0.0000
vn -0.1798 -0.9412 -0.2861
vn 0.1248 -0.8057 -0.5789
vn 0.4713 -0.7521 -0.4606
vn -0.4269 -0.9043 0.0000
vn -0.4279 -0.8588 -0.2815
vn -0.7396 -0.6731 0.0000
vn -0.7437 -0.6255 -0.2359
vn -0.4216 -0.6826 -0.5969
vn -0.1490 -0.7752 -0.6139
vn -0.9583 -0.2858 0.0000
vn -0.9577 -0.2513 -0.1400
vn -0.9993 -0.0377 0.0000
vn -0.9968 -0.0169 -0.0781
vn -0.9485 -0.1479 -0.2799
vn -0.7410 -0.4640 -0.4854
vn -0.9984 0.0556 0.0000
vn -0.9962 0.0681 -0.0544
vn -0.9885 0.1475 -0.0320
vn -0.9885 0.1124 -0.1012
vn 0.9482 -0.3074 -0.0795
vn 0.9317 -0.3372 -0.1350
vn 0.9065 -0.3688 -0.2056
vn 0.9547 -0.2575 -0.1488
vn 0.8072 -0.4403 -0.3930
vn 0.5401 -0.5001 -0.6768
vn 0.8577 -0.2255 -0.4620
vn 0.2067 -0.4874 -0.8484
vn -0.0836 -0.4328 -0.8975
vn 0.2933 -0.0763 -0.9529
vn 0.6120 -0.1580 -0.7749
vn -0.3739 -0.3415 -0.8623
vn -0.6928 -0.1838 -0.6973
vn -0.2933 0.0763 -0.9529
vn 0.0000 0.0000 -1.0000
vn -0.9132 0.0155 -0.4071
vn -0.9877 0.0444 -0.1496
vn -0.9685 0.1353 -0.2090
vn -0.8577 0.2255 -0.4620
vn -0.6120 0.1580 -0.7749
vn -0.9746 0.1770 -0.1371
vn -0.9740 0.2119 -0.0801
vn -0.9547 0.2575 -0.1488
vn -0.9384 0.2530 -0.2353
vn 0.9740 -0.2119 -0.0801
vn 0.9746 -0.1771 -0.1371
vn 0.9384 -0.2530 -0.2353
vn 0.9685 -0.1355 -0.2090
vn 0.9884 -0.1129 -0.1011
vn 0.9132 -0.0144 -0.4072
vn 0.6926 0.1879 -0.6964
vn 0.9473 0.1601 -0.2774
vn 0.9878 -0.0446 -0.1494
vn 0.3742 0.3473 -0.8598
vn 0.0846 0.4392 -0.8944
vn 0.4202 0.7025 -0.5743
vn 0.7360 0.4843 -0.4730
vn -0.2051 0.4940 -0.8449
vn -0.5375 0.5059 -0.6746
vn -0.1155 0.8252 -0.5528
vn 0.1527 0.7945 -0.5877
vn -0.8058 0.4434 -0.3924
vn -0.9062 0.3695 -0.2056
vn -0.8725 0.4665 -0.1450
vn -0.7461 0.6124 -0.2613
vn -0.9318 0.3370 -0.1350
vn -0.9482 0.3074 -0.0795
vn -0.9108 0.4008 -0.0991
vn 0.9885 -0.1475 -0.0320
vn 0.9962 -0.0685 -0.0541
vn 0.9968 0.0217 -0.0773
vn 0.9989 0.0465 0.0000
vn 0.9984 -0.0561 0.0000
vn 0.9477 0.2884 -0.1369
vn 0.7172 0.6621 -0.2172
vn 0.6946 0.7194 0.0000
vn 0.9398 0.3415 0.0000
vn 0.4165 0.8755 -0.2449
vn 0.1823 0.9523 -0.2445
vn 0.1879 0.9822 0.0000
vn 0.4095 0.9123 0.0000
vn -0.0515 0.9716 -0.2310
vn -0.4516 0.7749 -0.4422
vn -0.3531 0.9145 -0.1971
vn -0.0322 0.9995 0.0000
vn -0.6672 0.7334 -0.1304
vn -0.8354 0.5440 -0.0787
vn -0.6195 0.7850 0.0000
vn -0.3046 0.9525 0.0000
vn -0.8935 0.4458 -0.0541
vn -0.9290 0.3687 -0.0314
vn -0.8876 0.4605 0.0000
vn -0.8145 0.5802 0.0000
vn 0.9885 -0.1475 0.0320
vn 0.9962 -0.0685 0.0541
vn 0.9968 0.0217 0.0773
vn 0.9884 -0.1129 0.1011
vn 0.9477 0.2884 0.1369
vn 0.7172 0.6621 0.2172
vn 0.9473 0.1601 0.2774
vn 0.9878 -0.0446 0.1494
vn 0.4165 0.8755 0.2449
vn 0.1823 0.9523 0.2445
vn 0.1527 0.7945 0.5877
vn 0.4202 0.7025 0.5743
vn 0.7360 0.4843 0.4730
vn -0.0515 0.9716 0.2310
vn -0.3531 0.9145 0.1971
vn -0.4516 0.7749 0.4422
vn -0.1155 0.8252 0.5528
vn -0.6672 0.7334 0.1304
vn -0.8354 0.5440 0.0787
vn -0.8725 0.4665 0.1450
vn -0.7461 0.6124 0.2613
vn -0.8935 0.4457 0.0541
vn -0.9290 0.3687 0.0314
vn -0.9108 0.4008 0.0991
vn 0.9740 -0.2119 0.0801
vn 0.9746 -0.1771 0.1371
vn 0.9685 -0.1355 0.2090
vn 0.9384 -0.2530 0.2353
vn 0.9547 -0.2575 0.1488
vn 0.9132 -0.0144 0.4072
vn 0.6926 0.1879 0.6964
vn 0.6120 -0.1580 0.7749
vn 0.8577 -0.2255 0.4620
vn 0.3742 0.3473 0.8598
vn 0.0846 0.4392 0.8944
vn 0.0000 0.0000 1.0000
vn 0.2933 -0.0763 0.9529
vn -0.2051 0.4940 0.8449
vn -0.5375 0.5059 0.6746
vn -0.6120 0.1580 0.7749
vn -0.2933 0.0763 0.9529
vn -0.8058 0.4434 0.3924
vn -0.9062 0.3695 0.2056
vn -0.8577 0.2255 0.4620
vn -0.9318 0.3370 0.1350
vn -0.9482 0.3074 0.0795
vn -0.9547 0.2575 0.1488
vn 0.9482 -0.3074 0.0795
vn 0.9317 -0.3372 0.1350
vn 0.9065 -0.3688 0.2056
vn 0.9121 -0.3978 0.0991
vn 0.8072 -0.4403 0.3930
vn 0.5401 -0.5001 0.6768
vn 0.7646 -0.5863 0.2675
vn 0.8798 -0.4524 0.1455
vn 0.2067 -0.4874 0.8484
vn -0.0836 -0.4328 0.8975
vn -0.1490 -0.7752 0.6139
vn 0.1248 -0.8057 0.5789
vn -0.3739 -0.3415 0.8623
vn -0.6928 -0.1838 0.6973
vn -0.7410 -0.4640 0.4854
vn -0.4216 -0.6826 0.5969
vn -0.9132 0.0155 0.4071
vn -0.9685 0.1353 0.2090
vn -0.9877 0.0444 0.1496
vn -0.9485 -0.1479 0.2799
vn -0.9746 0.1771 0.1371
vn -0.9384 0.2530 0.2353
vn -0.9740 0.2119 0.0801
vn -0.9885 0.1124 0.1012
vn 0.9584 -0.2847 -0.0178
vn 0.9552 -0.2960 0.0000
vn 0.9530 -0.3028 -0.0114
vn 0.9287 -0.3708 0.0000
vn 0.9383 -0.3413 -0.0562
vn -0.9758 0.2185 -0.0115
vn -0.9893 0.1456 0.0000
vn -0.9742 0.2256 0.0000
vn -0.9713 0.2372 -0.0179
vn -0.9826 0.1769 -0.0570
vn 0.9650 -0.2611 -0.0237
vn 0.9595 -0.2799 -0.0308
vn 0.9620 -0.2601 -0.0833
vn -0.9698 0.2419 -0.0309
vn -0.9650 0.2611 -0.0237
vn -0.9619 0.2601 -0.0833
vn 0.9713 -0.2372 -0.0179
vn 0.9698 -0.2419 -0.0309
vn 0.9826 -0.1769 -0.0570
vn -0.9595 0.2799 -0.0308
vn -0.9584 0.2847 -0.0178
vn -0.9383 0.3413 -0.0562
vn 0.9742 -0.2256 0.0000
vn 0.9758 -0.2185 -0.0115
vn 0.9893 -0.1456 0.0000
vn -0.9530 0.3028 -0.0114
vn -0.9552 0.2960 0.0000
vn -0.9287 0.3708 0.0000
vn 0.9713 -0.2372 0.0179
vn 0.9758 -0.2185 0.0115
vn 0.9826 -0.1769 0.0570
vn -0.9530 0.3028 0.0114
vn -0.9584 0.2847 0.0178
vn -0.9383 0.3413 0.0562
vn 0.9650 -0.2610 0.0237
vn 0.9698 -0.2419 0.0309
vn 0.9619 -0.2601 0.0833
vn -0.9595 0.2799 0.0308
vn -0.9650 0.2611 0.0237
vn -0.9619 0.2601 0.0833
vn 0.9584 -0.2847 0.0178
vn 0.9595 -0.2799 0.0308
vn 0.9383 -0.3413 0.0562
vn -0.9698 0.2419 0.0309
vn -0.9713 0.2372 0.0179
vn -0.9826 0.1769 0.0570
vn 0.9530 -0.3028 0.0114
vn 0.9290 -0.3687 0.0314
vn 0.8974 -0.4381 0.0529
vn 0.8586 -0.5070 0.0750
vn 0.7275 -0.6734 0.1313
vn 0.4121 -0.8840 0.2207
vn 0.0703 -0.9598 0.2716
vn 0.4713 -0.7521 0.4606
vn -0.1798 -0.9412 0.2861
vn -0.4279 -0.8588 0.2815
vn -0.7437 -0.6255 0.2359
vn -0.9577 -0.2513 0.1400
vn -0.9968 -0.0169 0.0781
vn -0.9962 0.0681 0.0544
vn -0.9885 0.1475 0.0320
vn -0.9758 0.2185 0.0115
vn 0.9653 -0.2611 0.0000
vn -0.9653 0.2611 0.0000
vn 0.8660 0.0000 0.5000
vn 0.9659 0.0000 0.2588
vn 1.0000 0.0000 0.0000
vn 0.5000 0.0000 0.8660
vn 0.7071 0.0000 0.7071
vn 0.2588 0.0000 0.9659
vn -0.5000 0.0000 0.8660
vn -0.2588 0.0000 0.9659
vn -0.8660 0.0000 0.5000
vn -0.7071 0.0000 0.7071
vn -1.0000 0.0000 0.0000
vn -0.9659 0.0000 0.2588
vn -0.8660 0.0000 -0.5000
vn -0.9659 0.0000 -0.2588
vn -0.5000 0.0000 -0.8660
vn -0.7071 0.0000 -0.7071
vn -0.2588 0.0000 -0.9659
vn 0.5000 0.0000 -0.8660
vn 0.2588 0.0000 -0.9659
vn 0.8660 0.0000 -0.5000
vn 0.7071 0.0000 -0.7071
vn 0.9659 0.0000 -0.2588
s 1
f 102//1 94//2 1//3
f 94//2 103//4 1//3
f 103//4 101//5 1//3
f 101//5 102//1 1//3
f 2//6 286//7 93//8
f 2//6 285//9 104//10
f 104//10 100//11 2//6
f 2//6 294//12 103//4
f 104//10 92//13 3//14
f 3//14 284//15 105//16
f 105//16 99//17 3//14
f 3//14 293//18 104//10
f 105//16 91//19 4//20
f 4//20 283//21 106//22
f 106//22 98//23 4//20
f 4//20 292//24 105//16
f 106//22 90//25 5//26
f 5//26 282//27 107//28
f 107//28 97//29 5//26
f 5//26 291//30 106//22
f 107//28 89//31 6//32
f 89//31 108//33 6//32
f 108//33 96//34 6//32
f 96//34 107//28 6//32
f 115//35 101//5 7//36
f 101//5 116//37 7//36
f 116//37 114//38 7//36
f 114//38 115//35 7//36
f 8//39 294//12 100//11
f 100//11 117//40 8//39
f 117//40 113//41 8//39
f 113//41 116//37 8//39
f 117//40 99//17 9//42
f 9//42 292//24 118//43
f 118//43 112//44 9//42
f 9//42 300//45 117//40
f 118//43 98//23 10//46
f 10//46 291//30 119//47
f 119//47 111//48 10//46
f 10//46 299//49 118//43
f 119//47 97//29 11//50
f 11//50 290//51 120//52
f 120//52 110//53 11//50
f 11//50 298//54 119//47
f 120//52 96//34 12//55
f 96//34 121//56 12//55
f 121//56 109//57 12//55
f 12//55 297//58 120//52
f 129//59 114//38 13//60
f 13//60 301//61 130//62
f 130//62 128//63 13//60
f 128//63 129//59 13//60
f 130//62 113//41 14//64
f 14//64 300//45 131//65
f 131//65 127//66 14//64
f 14//64 309//67 130//62
f 131//65 112//44 15//68
f 15//68 299//49 132//69
f 132//69 126//70 15//68
f 15//68 308//71 131//65
f 132//69 111//48 16//72
f 16//72 298//54 133//73
f 133//73 125//74 16//72
f 16//72 307//75 132//69
f 133//73 110//53 17//76
f 110//53 134//77 17//76
f 17//76 305//78 124//79
f 124//79 133//73 17//76
f 134//77 109//57 18//80
f 109//57 135//81 18//80
f 135//81 123//82 18//80
f 18//80 305//78 134//77
f 142//83 128//63 19//84
f 128//63 143//85 19//84
f 19//84 316//86 141//87
f 141//87 142//83 19//84
f 20//88 309//67 127//66
f 127//66 144//89 20//88
f 20//88 315//90 140//91
f 140//91 143//85 20//88
f 21//92 308//71 126//70
f 21//92 307//75 145//93
f 21//92 314//94 139//95
f 139//95 144//89 21//92
f 145//93 125//74 22//96
f 22//96 306//97 146//98
f 146//98 138//99 22//96
f 22//96 314//94 145//93
f 146//98 124//79 23//100
f 23//100 305//78 147//101
f 147//101 137//102 23//100
f 23//100 313//103 146//98
f 147//101 123//82 24//104
f 123//82 148//105 24//104
f 148//105 136//106 24//104
f 24//104 312//107 147//101
f 155//108 141//87 25//109
f 25//109 316//86 156//110
f 156//110 154//111 25//109
f 154//111 155//108 25//109
f 156//110 140//91 26//112
f 26//112 315//90 157//113
f 157//113 153//114 26//112
f 26//112 323//115 156//110
f 157//113 139//95 27//116
f 27//116 314//94 158//117
f 27//116 321//118 152//119
f 27//116 322//120 157//113
f 28//121 314//94 138//99
f 138//99 159//122 28//121
f 28//121 320//123 151//124
f 151//124 158//117 28//121
f 29//125 313//103 137//102
f 137//102 160//126 29//125
f 29//125 319//127 150//128
f 150//128 159//122 29//125
f 30//129 312//107 136//106
f 136//106 161//130 30//129
f 161//130 149//131 30//129
f 149//131 160//126 30//129
f 168//132 154//111 31//133
f 154//111 169//134 31//133
f 31//133 330//135 167//136
f 167//136 168//132 31//133
f 32//137 323//115 153//114
f 153//114 170//138 32//137
f 32//137 329//139 166//140
f 166//140 169//134 32//137
f 33//141 322//120 152//119
f 152//119 171//142 33//141
f 33//141 328//143 165//144
f 165//144 170//138 33//141
f 34//145 321//118 151//124
f 151//124 172//146 34//145
f 34//145 327//147 164//148
f 164//148 171//142 34//145
f 172//146 150//128 35//149
f 35//149 319//127 173//150
f 173//150 163//151 35//149
f 163//151 172//146 35//149
f 36//152 319//127 149//131
f 149//131 174//153 36//152
f 174//153 162//154 36//152
f 162//154 173//150 36//152
f 181//155 167//136 37//156
f 167//136 182//157 37//156
f 182//157 180//158 37//156
f 180//158 181//155 37//156
f 182//157 166//140 38//159
f 166//140 183//160 38//159
f 183//160 179//161 38//159
f 38//159 337//162 182//157
f 39//163 329//139 165//144
f 165//144 184//164 39//163
f 39//163 335//165 178//166
f 178//166 183//160 39//163
f 40//167 328//143 164//148
f 164//148 185//168 40//167
f 40//167 334//169 177//170
f 177//170 184//164 40//167
f 41//171 327//147 163//151
f 163//151 186//172 41//171
f 41//171 333//173 176//174
f 176//174 185//168 41//171
f 42//175 326//176 162//154
f 162//154 187//177 42//175
f 187//177 175//178 42//175
f 175//178 186//172 42//175
f 190//179 95//180 43//181
f 43//181 287//182 102//1
f 43//181 295//183 190//179
f 44//184 281//185 188//186
f 188//186 189//187 44//184
f 44//184 289//188 108//33
f 192//189 190//179 45//190
f 45//190 295//183 115//35
f 45//190 302//191 192//189
f 46//192 289//188 189//187
f 189//187 191//193 46//192
f 46//192 296//194 121//56
f 193//195 192//189 47//196
f 47//196 302//191 129//59
f 47//196 310//197 193//195
f 48//198 296//194 191//193
f 191//193 122//199 48//198
f 48//198 304//200 135//81
f 195//201 193//195 49//202
f 49//202 310//197 142//83
f 49//202 317//203 195//201
f 50//204 304//200 122//199
f 122//199 194//205 50//204
f 50//204 311//206 148//105
f 197//207 195//201 51//208
f 51//208 317//203 155//108
f 51//208 324//209 197//207
f 52//210 311//206 194//205
f 194//205 196//211 52//210
f 52//210 318//212 161//130
f 199//213 197//207 53//214
f 53//214 324//209 168//132
f 53//214 331//215 199//213
f 54//216 318//212 196//211
f 196//211 198//217 54//216
f 54//216 325//218 174//153
f 201//219 199//213 55//220
f 55//220 331//215 181//155
f 55//220 338//221 201//219
f 56//222 325//218 198//217
f 198//217 200//223 56//222
f 56//222 332//224 187//177
f 95//180 201//219 57//225
f 57//225 338//221 202//226
f 57//225 287//182 95//180
f 202//226 180//158 58//227
f 180//158 203//228 58//227
f 203//228 94//2 58//227
f 94//2 202//226 58//227
f 59//229 337//162 179//161
f 179//161 204//230 59//229
f 59//229 285//9 93//8
f 59//229 286//7 203//228
f 60//231 336//232 178//166
f 178//166 205//233 60//231
f 60//231 284//15 92//13
f 92//13 204//230 60//231
f 61//234 335//165 177//170
f 177//170 206//235 61//234
f 61//234 283//21 91//19
f 91//19 205//233 61//234
f 62//236 334//169 176//174
f 176//174 207//237 62//236
f 62//236 282//27 90//25
f 90//25 206//235 62//236
f 207//237 175//178 63//238
f 175//178 208//239 63//238
f 208//239 89//31 63//238
f 89//31 207//237 63//238
f 64//240 332//224 200//223
f 200//223 188//186 64//240
f 64//240 281//185 208//239
f 102//1 287//182 94//2
f 94//2 286//7 103//4
f 103//4 294//12 101//5
f 101//5 295//183 102//1
f 2//6 103//4 286//7
f 2//6 93//8 285//9
f 104//10 293//18 100//11
f 2//6 100//11 294//12
f 104//10 285//9 92//13
f 3//14 92//13 284//15
f 105//16 292//24 99//17
f 3//14 99//17 293//18
f 105//16 284//15 91//19
f 4//20 91//19 283//21
f 106//22 291//30 98//23
f 4//20 98//23 292//24
f 106//22 283//21 90//25
f 5//26 90//25 282//27
f 107//28 290//51 97//29
f 5//26 97//29 291//30
f 107//28 282//27 89//31
f 89//31 281//185 108//33
f 108//33 289//188 96//34
f 96//34 290//51 107//28
f 115//35 295//183 101//5
f 101//5 294//12 116//37
f 116//37 301//61 114//38
f 114//38 302//191 115//35
f 8//39 116//37 294//12
f 100//11 293//18 117//40
f 117//40 300//45 113//41
f 113//41 301//61 116//37
f 117//40 293//18 99//17
f 9//42 99//17 292//24
f 118//43 299//49 112//44
f 9//42 112//44 300//45
f 118//43 292//24 98//23
f 10//46 98//23 291//30
f 119//47 298//54 111//48
f 10//46 111//48 299//49
f 119//47 291//30 97//29
f 11//50 97//29 290//51
f 120//52 297//58 110//53
f 11//50 110//53 298//54
f 120//52 290//51 96//34
f 96//34 289//188 121//56
f 121//56 296//194 109//57
f 12//55 109//57 297//58
f 129//59 302//191 114//38
f 13//60 114//38 301//61
f 130//62 309//67 128//63
f 128//63 310//197 129//59
f 130//62 301//61 113//41
f 14//64 113//41 300//45
f 131//65 308//71 127//66
f 14//64 127//66 309//67
f 131//65 300//45 112//44
f 15//68 112//44 299//49
f 132//69 307//75 126//70
f 15//68 126//70 308//71
f 132//69 299//49 111//48
f 16//72 111//48 298//54
f 133//73 306//97 125//74
f 16//72 125//74 307//75
f 133//73 298//54 110//53
f 110//53 297//58 134//77
f 17//76 134//77 305//78
f 124//79 306//97 133//73
f 134//77 297//58 109//57
f 109//57 296//194 135//81
f 135//81 304//200 123//82
f 18//80 123//82 305//78
f 142//83 310//197 128//63
f 128//63 309//67 143//85
f 19//84 143//85 316//86
f 141//87 317//203 142//83
f 20//88 143//85 309//67
f 127//66 308//71 144//89
f 20//88 144//89 315//90
f 140//91 316//86 143//85
f 21//92 144//89 308//71
f 21//92 126//70 307//75
f 21//92 145//93 314//94
f 139//95 315//90 144//89
f 145//93 307//75 125//74
f 22//96 125//74 306//97
f 146//98 313//103 138//99
f 22//96 138//99 314//94
f 146//98 306//97 124//79
f 23//100 124//79 305//78
f 147//101 312//107 137//102
f 23//100 137//102 313//103
f 147//101 305//78 123//82
f 123//82 304//200 148//105
f 148//105 311//206 136//106
f 24//104 136//106 312//107
f 155//108 317//203 141//87
f 25//109 141//87 316//86
f 156//110 323//115 154//111
f 154//111 324//209 155//108
f 156//110 316//86 140//91
f 26//112 140//91 315//90
f 157//113 322//120 153//114
f 26//112 153//114 323//115
f 157//113 315//90 139//95
f 27//116 139//95 314//94
f 27//116 158//117 321//118
f 27//116 152//119 322//120
f 28//121 158//117 314//94
f 138//99 313//103 159//122
f 28//121 159//122 320//123
f 151//124 321//118 158//117
f 29//125 159//122 313//103
f 137//102 312//107 160//126
f 29//125 160//126 319//127
f 150//128 320//123 159//122
f 30//129 160//126 312//107
f 136//106 311//206 161//130
f 161//130 318//212 149//131
f 149//131 319//127 160//126
f 168//132 324//209 154//111
f 154//111 323//115 169//134
f 31//133 169//134 330//135
f 167//136 331//215 168//132
f 32//137 169//134 323//115
f 153//114 322//120 170//138
f 32//137 170//138 329//139
f 166//140 330//135 169//134
f 33//141 170//138 322//120
f 152//119 321//118 171//142
f 33//141 171//142 328//143
f 165//144 329//139 170//138
f 34//145 171//142 321//118
f 151//124 320//123 172//146
f 34//145 172//146 327//147
f 164//148 328//143 171//142
f 172//146 320//123 150//128
f 35//149 150//128 319//127
f 173//150 326//176 163//151
f 163//151 327//147 172//146
f 36//152 173//150 319//127
f 149//131 318//212 174//153
f 174//153 325//218 162//154
f 162//154 326//176 173//150
f 181//155 331//215 167//136
f 167//136 330//135 182//157
f 182//157 337//162 180//158
f 180//158 338//221 181//155
f 182//157 330//135 166//140
f 166//140 329//139 183//160
f 183//160 336//232 179//161
f 38//159 179//161 337//162
f 39//163 183//160 329//139
f 165//144 328//143 184//164
f 39//163 184//164 335//165
f 178//166 336//232 183//160
f 40//167 184//164 328//143
f 164//148 327//147 185//168
f 40//167 185//168 334//169
f 177//170 335//165 184//164
f 41//171 185//168 327//147
f 163//151 326//176 186//172
f 41//171 186//172 333//173
f 176//174 334//169 185//168
f 42//175 186//172 326//176
f 162//154 325//218 187//177
f 187//177 332//224 175//178
f 175//178 333//173 186//172
f 190//179 288//241 95//180
f 43//181 95//180 287//182
f 43//181 102//1 295//183
f 44//184 108//33 281//185
f 188//186 303//242 189//187
f 44//184 189//187 289//188
f 192//189 288//241 190//179
f 45//190 190//179 295//183
f 45//190 115//35 302//191
f 46//192 121//56 289//188
f 189//187 303//242 191//193
f 46//192 191//193 296//194
f 193//195 288//241 192//189
f 47//196 192//189 302//191
f 47//196 129//59 310//197
f 48//198 135//81 296//194
f 191//193 303//242 122//199
f 48//198 122//199 304//200
f 195//201 288//241 193//195
f 49//202 193//195 310//197
f 49//202 142//83 317//203
f 50//204 148//105 304//200
f 122//199 303//242 194//205
f 50//204 194//205 311//206
f 197//207 288//241 195//201
f 51//208 195//201 317//203
f 51//208 155//108 324//209
f 52//210 161//130 311//206
f 194//205 303//242 196//211
f 52//210 196//211 318//212
f 199//213 288//241 197//207
f 53//214 197//207 324//209
f 53//214 168//132 331//215
f 54//216 174//153 318//212
f 196//211 303//242 198//217
f 54//216 198//217 325//218
f 201//219 288//241 199//213
f 55//220 199//213 331//215
f 55//220 181//155 338//221
f 56//222 187//177 325//218
f 198//217 303//242 200//223
f 56//222 200//223 332//224
f 95//180 288//241 201//219
f 57//225 201//219 338//221
f 57//225 202//226 287//182
f 202//226 338//221 180//158
f 180//158 337//162 203//228
f 203//228 286//7 94//2
f 94//2 287//182 202//226
f 59//229 203//228 337//162
f 179//161 336//232 204//230
f 59//229 204//230 285//9
f 59//229 93//8 286//7
f 60//231 204//230 336//232
f 178//166 335//165 205//233
f 60//231 205//233 284//15
f 92//13 285//9 204//230
f 61//234 205//233 335//165
f 177//170 334//169 206//235
f 61//234 206//235 283//21
f 91//19 284//15 205//233
f 62//236 206//235 334//169
f 176//174 333//173 207//237
f 62//236 207//237 282//27
f 90//25 283//21 206//235
f 207//237 333//173 175//178
f 175//178 332//224 208//239
f 208//239 281//185 89//31
f 89//31 282//27 207//237
f 64//240 208//239 332//224
f 200//223 303//242 188//186
f 64//240 188//186 281//185
f 233//243 220//244 65//244
f 220//244 234//245 65//244
f 234//245 232//244 65//244
f 232//244 233//243 65//244
f 235//246 219//247 66//247
f 219//247 233//243 66//247
f 233//243 231//247 66//247
f 231//247 235//246 66//247
f 236//143 218//248 67//248
f 218//248 235//246 67//248
f 235//246 230//248 67//248
f 230//248 236//143 67//248
f 237//249 217//250 68//250
f 217//250 236//143 68//250
f 236//143 229//250 68//250
f 229//250 237//249 68//250
f 238//251 216//252 69//252
f 216//252 237//249 69//252
f 237//249 228//252 69//252
f 228//252 238//251 69//252
f 239//253 215//254 70//254
f 215//254 238//251 70//254
f 238//251 227//254 70//254
f 227//254 239//253 70//254
f 240//255 214//256 71//256
f 214//256 239//253 71//256
f 239//253 226//256 71//256
f 226//256 240//255 71//256
f 241//257 213//258 72//258
f 213//258 240//255 72//258
f 240//255 225//258 72//258
f 225//258 241//257 72//258
f 242//49 212//259 73//259
f 212//259 241//257 73//259
f 241//257 224//259 73//259
f 224//259 242//49 73//259
f 243//260 211//261 74//261
f 211//261 242//49 74//261
f 242//49 223//261 74//261
f 223//261 243//260 74//261
f 244//262 210//263 75//263
f 210//263 243//260 75//263
f 243//260 222//263 75//263
f 222//263 244//262 75//263
f 234//245 209//264 76//264
f 209//264 244//262 76//264
f 244//262 221//264 76//264
f 221//264 234//245 76//264
f 269//243 256//244 77//244
f 256//244 270//245 77//244
f 270//245 268//244 77//244
f 268//244 269//243 77//244
f 271//246 255//247 78//247
f 255//247 269//243 78//247
f 269//243 267//247 78//247
f 267//247 271//246 78//247
f 272//143 254//248 79//248
f 254//248 271//246 79//248
f 271//246 266//248 79//248
f 266//248 272//143 79//248
f 273//249 253//250 80//250
f 253//250 272//143 80//250
f 272//143 265//250 80//250
f 265//250 273//249 80//250
f 274//251 252//252 81//252
f 252//252 273//249 81//252
f 273//249 264//252 81//252
f 264//252 274//251 81//252
f 275//253 251//254 82//254
f 251//254 274//251 82//254
f 274//251 263//254 82//254
f 263//254 275//253 82//254
f 276//255 250//256 83//256
f 250//256 275//253 83//256
f 275//253 262//256 83//256
f 262//256 276//255 83//256
f 277//257 249//258 84//258
f 249//258 276//255 84//258
f 276//255 261//258 84//258
f 261//258 277//257 84//258
f 278//49 248//259 85//259
f 248//259 277//257 85//259
f 277//257 260//259 85//259
f 260//259 278//49 85//259
f 279//260 247//261 86//261
f 247//261 278//49 86//261
f 278//49 259//261 86//261
f 259//261 279//260 86//261
f 280//262 246//263 87//263
f 246//263 279//260 87//263
f 279//260 258//263 87//263
f 258//263 280//262 87//263
f 88//264 363//245 245//264
f 245//264 280//262 88//264
f 280//262 257//264 88//264
f 257//264 270//245 88//264
f 233//243 350//243 220//244
f 220//244 339//245 234//245
f 234//245 351//245 232//244
f 232//244 362//243 233//243
f 235//246 349//246 219//247
f 219//247 350//243 233//243
f 233//243 362//243 231//247
f 231//247 361//246 235//246
f 236//143 348//143 218//248
f 218//248 349//246 235//246
f 235//246 361//246 230//248
f 230//248 360//143 236//143
f 237//249 347//249 217//250
f 217//250 348//143 236//143
f 236//143 360//143 229//250
f 229//250 359//249 237//249
f 238//251 346//251 216//252
f 216//252 347//249 237//249
f 237//249 359//249 228//252
f 228//252 358//251 238//251
f 239//253 345//253 215//254
f 215//254 346//251 238//251
f 238//251 358//251 227//254
f 227//254 357//253 239//253
f 240//255 344//255 214//256
f 214//256 345//253 239//253
f 239//253 357//253 226//256
f 226//256 356//255 240//255
f 241//257 343//257 213//258
f 213//258 344//255 240//255
f 240//255 356//255 225//258
f 225//258 355//257 241//257
f 242//49 342//49 212//259
f 212//259 343//257 241//257
f 241//257 355//257 224//259
f 224//259 354//49 242//49
f 243//260 341//260 211//261
f 211//261 342//49 242//49
f 242//49 354//49 223//261
f 223//261 353//260 243//260
f 244//262 340//262 210//263
f 210//263 341//260 243//260
f 243//260 353//260 222//263
f 222//263 352//262 244//262
f 234//245 339//245 209//264
f 209//264 340//262 244//262
f 244//262 352//262 221//264
f 221//264 351//245 234//245
f 269//243 374//243 256//244
f 256//244 363//245 270//245
f 270//245 375//245 268//244
f 268//244 386//243 269//243
f 271//246 373//246 255//247
f 255//247 374//243 269//243
f 269//243 386//243 267//247
f 267//247 385//246 271//246
f 272//143 372//143 254//248
f 254//248 373//246 271//246
f 271//246 385//246 266//248
f 266//248 384//143 272//143
f 273//249 371//249 253//250
f 253//250 372//143 272//143
f 272//143 384//143 265//250
f 265//250 383//249 273//249
f 274//251 370//251 252//252
f 252//252 371//249 273//249
f 273//249 383//249 264//252
f 264//252 382//251 274//251
f 275//253 369//253 251//254
f 251//254 370//251 274//251
f 274//251 382//251 263//254
f 263//254 381//253 275//253
f 276//255 368//255 250//256
f 250//256 369//253 275//253
f 275//253 381//253 262//256
f 262//256 380//255 276//255
f 277//257 367//257 249//258
f 249//258 368//255 276//255
f 276//255 380//255 261//258
f 261//258 379//257 277//257
f 278//49 366//49 248//259
f 248//259 367//257 277//257
f 277//257 379//257 260//259
f 260//259 378//49 278//49
f 279//260 365//260 247//261
f 247//261 366//49 278//49
f 278//49 378//49 259//261
f 259//261 377//260 279//260
f 280//262 364//262 246//263
f 246//263 365//260 279//260
f 279//260 377//260 258//263
f 258//263 376//262 280//262
f 88//264 270//245 363//245
f 245//264 364//262 280//262
f 280//262 376//262 257//264
f 257//264 375//245 270//245
