# Blender v2.79 (sub 0) OBJ File: 'fiat500.blend'
# www.blender.org
o wheel_hub_Plane.020
v 1.690030 -0.688513 -1.141390
v 1.652404 -0.726139 -1.141358
v 1.652404 -0.779349 -1.141358
v 1.690030 -0.816974 -1.141390
v 1.743240 -0.816974 -1.141436
v 1.780865 -0.779349 -1.141468
v 1.780865 -0.726139 -1.141468
v 1.743240 -0.688513 -1.141436
v 1.698152 -0.708141 -1.150560
v 1.672024 -0.734268 -1.150538
v 1.672024 -0.771219 -1.150538
v 1.698152 -0.797347 -1.150560
v 1.735102 -0.797347 -1.150592
v 1.761230 -0.771219 -1.150614
v 1.761230 -0.734268 -1.150614
v 1.735102 -0.708141 -1.150592
v 1.729111 -0.740256 -1.154757
v 1.704135 -0.765232 -1.154735
v 1.729111 -0.765232 -1.154757
v 1.704135 -0.740256 -1.154735
v 1.690095 -0.688513 -1.064595
v 1.652470 -0.726139 -1.064562
v 1.652470 -0.779349 -1.064562
v 1.690095 -0.816974 -1.064595
v 1.743306 -0.816974 -1.064640
v 1.780931 -0.779349 -1.064673
v 1.780931 -0.726139 -1.064673
v 1.743306 -0.688513 -1.064640
v 1.743367 -0.688513 -0.992955
v 1.780992 -0.726139 -0.992988
v 1.780992 -0.779349 -0.992988
v 1.743367 -0.816974 -0.992955
v 1.690157 -0.816974 -0.992910
v 1.652532 -0.779349 -0.992877
v 1.652532 -0.726139 -0.992877
v 1.690157 -0.688513 -0.992910
v 1.741203 -0.693420 -1.146280
v 1.775954 -0.728171 -1.146310
v 1.775954 -0.777316 -1.146310
v 1.741203 -0.812067 -1.146280
v 1.692058 -0.812067 -1.146238
v 1.657307 -0.777316 -1.146209
v 1.657307 -0.728171 -1.146209
v 1.692058 -0.693420 -1.146238
v 1.667387 -0.703430 -1.064575
v 1.716635 -0.683003 -1.141413
v 1.646960 -0.752744 -1.064558
v 1.667387 -0.802058 -1.064575
v 1.716700 -0.822484 -1.064618
v 1.766014 -0.802058 -1.064660
v 1.786441 -0.752744 -1.064677
v 1.766014 -0.703430 -1.064660
v 1.729538 -0.725983 -1.153656
v 1.743385 -0.739830 -1.153667
v 1.743385 -0.765657 -1.153667
v 1.729538 -0.779504 -1.153656
v 1.703711 -0.779504 -1.153633
v 1.689864 -0.765657 -1.153622
v 1.689864 -0.739830 -1.153622
v 1.703711 -0.725983 -1.153633
v 1.682382 -0.718499 -1.150547
v 1.716627 -0.704314 -1.150576
v 1.668197 -0.752744 -1.150535
v 1.682382 -0.786988 -1.150547
v 1.716627 -0.801173 -1.150576
v 1.750872 -0.786988 -1.150605
v 1.765056 -0.752744 -1.150617
v 1.750872 -0.718499 -1.150605
v 1.716623 -0.739184 -1.154805
v 1.703064 -0.752744 -1.154793
v 1.716623 -0.766303 -1.154805
v 1.730182 -0.752744 -1.154817
v 1.667321 -0.703430 -1.141371
v 1.716700 -0.683003 -1.064618
v 1.646894 -0.752744 -1.141353
v 1.667321 -0.802058 -1.141371
v 1.716635 -0.822484 -1.141413
v 1.765949 -0.802058 -1.141455
v 1.786375 -0.752744 -1.141473
v 1.765949 -0.703430 -1.141455
v 1.690048 -0.688513 -1.119636
v 1.652423 -0.726139 -1.119604
v 1.652423 -0.779349 -1.119604
v 1.690048 -0.816974 -1.119636
v 1.743258 -0.816974 -1.119682
v 1.780884 -0.779349 -1.119714
v 1.780884 -0.726139 -1.119714
v 1.743258 -0.688513 -1.119682
v 1.716762 -0.683003 -0.992933
v 1.766076 -0.703430 -0.992975
v 1.786502 -0.752744 -0.992992
v 1.766076 -0.802058 -0.992975
v 1.716762 -0.822484 -0.992933
v 1.667448 -0.802058 -0.992890
v 1.647021 -0.752744 -0.992873
v 1.667448 -0.703430 -0.992890
v 1.716631 -0.688331 -1.146259
v 1.762177 -0.707197 -1.146298
v 1.781043 -0.752744 -1.146315
v 1.762177 -0.798290 -1.146298
v 1.716631 -0.817156 -1.146259
v 1.671084 -0.798290 -1.146220
v 1.652218 -0.752744 -1.146204
v 1.671084 -0.707197 -1.146220
v 1.716624 -0.723687 -1.153659
v 1.741081 -0.728287 -1.152861
v 1.745681 -0.752744 -1.153684
v 1.741081 -0.777200 -1.152861
v 1.716624 -0.781800 -1.153659
v 1.692168 -0.777200 -1.152819
v 1.687568 -0.752744 -1.153634
v 1.692168 -0.728287 -1.152819
v 1.716623 -0.752744 -1.154893
v 1.667339 -0.703430 -1.119617
v 1.716653 -0.683003 -1.119659
v 1.646913 -0.752744 -1.119599
v 1.667339 -0.802058 -1.119617
v 1.716653 -0.822484 -1.119659
v 1.765967 -0.802058 -1.119701
v 1.786394 -0.752744 -1.119719
v 1.765967 -0.703430 -1.119701
vt 0.000000 0.000000
vt 0.000000 0.000000
vt 0.000000 0.000000
vt 0.000000 0.000000
vt 0.000000 0.000000
vt 0.000000 0.000000
vt 0.000000 0.000000
vt 0.000000 0.000000
vt 0.000000 0.000000
vt 0.000000 0.000000
vt 0.000000 0.000000
vt 0.000000 0.000000
vt 0.000000 0.000000
vt 0.000000 0.000000
vt 0.000000 0.000000
vt 0.000000 0.000000
vt 0.000000 0.000000
vt 0.000000 0.000000
vt 0.000000 0.000000
vt 0.000000 0.000000
vt 0.000000 0.000000
vt 0.000000 0.000000
vt 0.000000 0.000000
vt 0.000000 0.000000
vt 0.000000 0.000000
vt 0.000000 0.000000
vt 0.000000 0.000000
vt 0.000000 0.000000
vt 0.000000 0.000000
vt 0.000000 0.000000
vt 0.000000 0.000000
vt 0.000000 0.000000
vt 0.000000 0.000000
vt 0.000000 0.000000
vt 0.000000 0.000000
vt 0.000000 0.000000
vt 0.000000 0.000000
vt 0.000000 0.000000
vt 0.000000 0.000000
vt 0.000000 0.000000
vt 0.000000 0.000000
vt 0.000000 0.000000
vt 0.000000 0.000000
vt 0.000000 0.000000
vt 0.000000 0.000000
vt 0.000000 0.000000
vt 0.000000 0.000000
vt 0.000000 0.000000
vt 0.000000 0.000000
vt 0.000000 0.000000
vt 0.000000 0.000000
vt 0.000000 0.000000
vt 0.000000 0.000000
vt 0.000000 0.000000
vt 0.000000 0.000000
vt 0.000000 0.000000
vt 0.000000 0.000000
vt 0.000000 0.000000
vt 0.000000 0.000000
vt 0.000000 0.000000
vt 0.000000 0.000000
vt 0.000000 0.000000
vt 0.000000 0.000000
vt 0.000000 0.000000
vt 0.000000 0.000000
vt 0.000000 0.000000
vt 0.000000 0.000000
vt 0.000000 0.000000
vt 0.000000 0.000000
vt 0.000000 0.000000
vt 0.000000 0.000000
vt 0.000000 0.000000
vt 0.000000 0.000000
vt 0.000000 0.000000
vt 0.000000 0.000000
vt 0.000000 0.000000
vt 0.000000 0.000000
vt 0.000000 0.000000
vt 0.000000 0.000000
vt 0.000000 0.000000
vt 0.000000 0.000000
vt 0.000000 0.000000
vt 0.000000 0.000000
vt 0.000000 0.000000
vt 0.000000 0.000000
vt 0.000000 0.000000
vt 0.000000 0.000000
vt 0.000000 0.000000
vt 0.000000 0.000000
vt 0.000000 0.000000
vt 0.000000 0.000000
vt 0.000000 0.000000
vt 0.000000 0.000000
vt 0.000000 0.000000
vt 0.000000 0.000000
vt 0.000000 0.000000
vt 0.000000 0.000000
vt 0.000000 0.000000
vt 0.000000 0.000000
vt 0.000000 0.000000
vt 0.000000 0.000000
vt 0.000000 0.000000
vt 0.000000 0.000000
vt 0.000000 0.000000
vt 0.000000 0.000000
vt 0.000000 0.000000
vt 0.000000 0.000000
vt 0.000000 0.000000
vt 0.000000 0.000000
vt 0.000000 0.000000
vt 0.000000 0.000000
vt 0.000000 0.000000
vt 0.000000 0.000000
vt 0.000000 0.000000
vt 0.000000 0.000000
vt 0.000000 0.000000
vt 0.000000 0.000000
vt 0.000000 0.000000
vt 0.000000 0.000000
vt 0.000000 0.000000
vt 0.000000 0.000000
vn -0.3532 0.8519 -0.3866
vn -0.7071 0.7071 0.0006
vn -0.3827 0.9239 0.0003
vn 0.0000 1.0000 0.0000
vn -0.0003 0.9224 -0.3863
vn -0.0007 0.5030 -0.8643
vn -0.1930 0.4641 -0.8645
vn -0.3564 0.3557 -0.8639
vn -0.6525 0.6522 -0.3857
vn -0.8522 0.3529 -0.3862
vn -1.0000 0.0000 0.0009
vn -0.9239 0.3827 0.0008
vn -0.4649 0.1922 -0.8643
vn -0.5038 0.0000 -0.8638
vn -0.9227 0.0000 -0.3855
vn -0.8522 -0.3529 -0.3862
vn -0.7071 -0.7071 0.0006
vn -0.9239 -0.3827 0.0008
vn -0.4649 -0.1922 -0.8643
vn -0.3564 -0.3557 -0.8639
vn -0.6525 -0.6522 -0.3857
vn -0.3532 -0.8519 -0.3866
vn 0.0000 -1.0000 0.0000
vn -0.3827 -0.9239 0.0003
vn -0.1930 -0.4641 -0.8645
vn -0.0007 -0.5030 -0.8643
vn -0.0003 -0.9224 -0.3863
vn 0.3525 -0.8519 -0.3872
vn 0.7071 -0.7071 -0.0006
vn 0.3827 -0.9239 -0.0003
vn 0.1915 -0.4641 -0.8648
vn 0.3549 -0.3557 -0.8646
vn 0.6519 -0.6522 -0.3868
vn 0.8516 -0.3529 -0.3876
vn 1.0000 0.0000 -0.0009
vn 0.9239 -0.3827 -0.0008
vn 0.4634 -0.1922 -0.8650
vn 0.5023 0.0000 -0.8647
vn 0.9220 0.0000 -0.3871
vn 0.8516 0.3529 -0.3876
vn 0.7071 0.7071 -0.0006
vn 0.9239 0.3827 -0.0008
vn 0.4634 0.1922 -0.8650
vn 0.3549 0.3557 -0.8646
vn 0.6519 0.6522 -0.3868
vn 0.3525 0.8519 -0.3872
vn 0.3827 0.9239 -0.0003
vn 0.1915 0.4641 -0.8648
vn -0.1547 0.1539 -0.9759
vn -0.0835 0.2010 -0.9760
vn -0.0008 0.2158 -0.9764
vn -0.0008 0.1211 -0.9926
vn -0.0537 0.1129 -0.9921
vn -0.1054 0.1046 -0.9889
vn -0.2166 0.0000 -0.9762
vn -0.2018 0.0826 -0.9759
vn -0.1138 0.0529 -0.9921
vn -0.1220 0.0000 -0.9925
vn -0.1547 -0.1539 -0.9759
vn -0.2018 -0.0826 -0.9759
vn -0.1138 -0.0529 -0.9921
vn -0.1054 -0.1046 -0.9889
vn -0.0008 -0.2158 -0.9764
vn -0.0835 -0.2010 -0.9760
vn -0.0537 -0.1129 -0.9921
vn -0.0008 -0.1211 -0.9926
vn 0.1531 -0.1539 -0.9761
vn 0.0818 -0.2010 -0.9761
vn 0.0520 -0.1129 -0.9922
vn 0.1037 -0.1046 -0.9891
vn 0.2150 0.0000 -0.9766
vn 0.2002 -0.0826 -0.9763
vn 0.1121 -0.0529 -0.9923
vn 0.1202 0.0000 -0.9927
vn 0.1531 0.1539 -0.9761
vn 0.2002 0.0826 -0.9763
vn 0.1121 0.0529 -0.9923
vn 0.1037 0.1046 -0.9891
vn 0.0818 0.2010 -0.9761
vn 0.0520 0.1129 -0.9922
vn 0.0410 0.0419 -0.9983
vn 0.0419 0.0000 -0.9991
vn -0.0008 0.0000 -1.0000
vn -0.0009 0.0428 -0.9991
vn -0.0427 -0.0419 -0.9982
vn -0.0436 0.0000 -0.9990
vn -0.0008 -0.0428 -0.9991
vn 0.0410 -0.0418 -0.9983
vn -0.0427 0.0419 -0.9982
s 1
f 1/1/1 114/2/2 81/3/3
f 1/1/1 115/4/4 46/5/5
f 1/1/1 97/6/6 44/7/7
f 1/1/1 104/8/8 73/9/9
f 2/10/10 116/11/11 82/12/12
f 2/10/10 114/2/2 73/9/9
f 2/10/10 104/8/8 43/13/13
f 2/10/10 103/14/14 75/15/15
f 3/16/16 117/17/17 83/18/18
f 3/16/16 116/11/11 75/15/15
f 3/16/16 103/14/14 42/19/19
f 3/16/16 102/20/20 76/21/21
f 4/22/22 118/23/23 84/24/24
f 4/22/22 117/17/17 76/21/21
f 4/22/22 102/20/20 41/25/25
f 4/22/22 101/26/26 77/27/27
f 5/28/28 119/29/29 85/30/30
f 5/28/28 118/23/23 77/27/27
f 5/28/28 101/26/26 40/31/31
f 5/28/28 100/32/32 78/33/33
f 6/34/34 120/35/35 86/36/36
f 6/34/34 119/29/29 78/33/33
f 6/34/34 100/32/32 39/37/37
f 6/34/34 99/38/38 79/39/39
f 7/40/40 121/41/41 87/42/42
f 7/40/40 120/35/35 79/39/39
f 7/40/40 99/38/38 38/43/43
f 7/40/40 98/44/44 80/45/45
f 8/46/46 115/4/4 88/47/47
f 8/46/46 121/41/41 80/45/45
f 8/46/46 98/44/44 37/48/48
f 8/46/46 97/6/6 46/5/5
f 61/49/49 44/7/7 9/50/50
f 44/7/7 62/51/51 9/50/50
f 9/50/50 105/52/52 60/53/53
f 9/50/50 112/54/54 61/49/49
f 63/55/55 43/13/13 10/56/56
f 43/13/13 61/49/49 10/56/56
f 10/56/56 112/54/54 59/57/57
f 10/56/56 111/58/58 63/55/55
f 64/59/59 42/19/19 11/60/60
f 42/19/19 63/55/55 11/60/60
f 11/60/60 111/58/58 58/61/61
f 11/60/60 110/62/62 64/59/59
f 65/63/63 41/25/25 12/64/64
f 41/25/25 64/59/59 12/64/64
f 12/64/64 110/62/62 57/65/65
f 12/64/64 109/66/66 65/63/63
f 66/67/67 40/31/31 13/68/68
f 40/31/31 65/63/63 13/68/68
f 13/68/68 109/66/66 56/69/69
f 13/68/68 108/70/70 66/67/67
f 67/71/71 39/37/37 14/72/72
f 39/37/37 66/67/67 14/72/72
f 14/72/72 108/70/70 55/73/73
f 14/72/72 107/74/74 67/71/71
f 68/75/75 38/43/43 15/76/76
f 38/43/43 67/71/71 15/76/76
f 15/76/76 107/74/74 54/77/77
f 15/76/76 106/78/78 68/75/75
f 62/51/51 37/48/48 16/79/79
f 37/48/48 68/75/75 16/79/79
f 16/79/79 106/78/78 53/80/80
f 16/79/79 105/52/52 62/51/51
f 17/81/81 106/78/78 54/77/77
f 54/77/77 72/82/82 17/81/81
f 17/81/81 113/83/83 69/84/84
f 69/84/84 53/80/80 17/81/81
f 18/85/85 110/62/62 58/61/61
f 58/61/61 70/86/86 18/85/85
f 18/85/85 113/83/83 71/87/87
f 71/87/87 57/65/65 18/85/85
f 19/88/88 108/70/70 56/69/69
f 56/69/69 71/87/87 19/88/88
f 19/88/88 113/83/83 72/82/82
f 72/82/82 55/73/73 19/88/88
f 20/89/89 112/54/54 60/53/53
f 60/53/53 69/84/84 20/89/89
f 20/89/89 113/83/83 70/86/86
f 70/86/86 59/57/57 20/89/89
f 45/90/2 36/91/3 21/92/3
f 36/91/3 74/93/4 21/92/3
f 74/93/4 81/3/3 21/92/3
f 81/3/3 45/90/2 21/92/3
f 47/94/11 35/95/12 22/96/12
f 35/95/12 45/90/2 22/96/12
f 45/90/2 82/12/12 22/96/12
f 82/12/12 47/94/11 22/96/12
f 48/97/17 34/98/18 23/99/18
f 34/98/18 47/94/11 23/99/18
f 47/94/11 83/18/18 23/99/18
f 83/18/18 48/97/17 23/99/18
f 49/100/23 33/101/24 24/102/24
f 33/101/24 48/97/17 24/102/24
f 48/97/17 84/24/24 24/102/24
f 84/24/24 49/100/23 24/102/24
f 50/103/29 32/104/30 25/105/30
f 32/104/30 49/100/23 25/105/30
f 49/100/23 85/30/30 25/105/30
f 85/30/30 50/103/29 25/105/30
f 51/106/35 31/107/36 26/108/36
f 31/107/36 50/103/29 26/108/36
f 50/103/29 86/36/36 26/108/36
f 86/36/36 51/106/35 26/108/36
f 52/109/41 30/110/42 27/111/42
f 30/110/42 51/106/35 27/111/42
f 51/106/35 87/42/42 27/111/42
f 87/42/42 52/109/41 27/111/42
f 74/93/4 29/112/47 28/113/47
f 29/112/47 52/109/41 28/113/47
f 52/109/41 88/47/47 28/113/47
f 88/47/47 74/93/4 28/113/47
f 1/1/1 73/9/9 114/2/2
f 1/1/1 81/3/3 115/4/4
f 1/1/1 46/5/5 97/6/6
f 1/1/1 44/7/7 104/8/8
f 2/10/10 75/15/15 116/11/11
f 2/10/10 82/12/12 114/2/2
f 2/10/10 73/9/9 104/8/8
f 2/10/10 43/13/13 103/14/14
f 3/16/16 76/21/21 117/17/17
f 3/16/16 83/18/18 116/11/11
f 3/16/16 75/15/15 103/14/14
f 3/16/16 42/19/19 102/20/20
f 4/22/22 77/27/27 118/23/23
f 4/22/22 84/24/24 117/17/17
f 4/22/22 76/21/21 102/20/20
f 4/22/22 41/25/25 101/26/26
f 5/28/28 78/33/33 119/29/29
f 5/28/28 85/30/30 118/23/23
f 5/28/28 77/27/27 101/26/26
f 5/28/28 40/31/31 100/32/32
f 6/34/34 79/39/39 120/35/35
f 6/34/34 86/36/36 119/29/29
f 6/34/34 78/33/33 100/32/32
f 6/34/34 39/37/37 99/38/38
f 7/40/40 80/45/45 121/41/41
f 7/40/40 87/42/42 120/35/35
f 7/40/40 79/39/39 99/38/38
f 7/40/40 38/43/43 98/44/44
f 8/46/46 46/5/5 115/4/4
f 8/46/46 88/47/47 121/41/41
f 8/46/46 80/45/45 98/44/44
f 8/46/46 37/48/48 97/6/6
f 61/49/49 104/8/8 44/7/7
f 44/7/7 97/6/6 62/51/51
f 9/50/50 62/51/51 105/52/52
f 9/50/50 60/53/53 112/54/54
f 63/55/55 103/14/14 43/13/13
f 43/13/13 104/8/8 61/49/49
f 10/56/56 61/49/49 112/54/54
f 10/56/56 59/57/57 111/58/58
f 64/59/59 102/20/20 42/19/19
f 42/19/19 103/14/14 63/55/55
f 11/60/60 63/55/55 111/58/58
f 11/60/60 58/61/61 110/62/62
f 65/63/63 101/26/26 41/25/25
f 41/25/25 102/20/20 64/59/59
f 12/64/64 64/59/59 110/62/62
f 12/64/64 57/65/65 109/66/66
f 66/67/67 100/32/32 40/31/31
f 40/31/31 101/26/26 65/63/63
f 13/68/68 65/63/63 109/66/66
f 13/68/68 56/69/69 108/70/70
f 67/71/71 99/38/38 39/37/37
f 39/37/37 100/32/32 66/67/67
f 14/72/72 66/67/67 108/70/70
f 14/72/72 55/73/73 107/74/74
f 68/75/75 98/44/44 38/43/43
f 38/43/43 99/38/38 67/71/71
f 15/76/76 67/71/71 107/74/74
f 15/76/76 54/77/77 106/78/78
f 62/51/51 97/6/6 37/48/48
f 37/48/48 98/44/44 68/75/75
f 16/79/79 68/75/75 106/78/78
f 16/79/79 53/80/80 105/52/52
f 17/81/81 53/80/80 106/78/78
f 54/77/77 107/74/74 72/82/82
f 17/81/81 72/82/82 113/83/83
f 69/84/84 105/52/52 53/80/80
f 18/85/85 57/65/65 110/62/62
f 58/61/61 111/58/58 70/86/86
f 18/85/85 70/86/86 113/83/83
f 71/87/87 109/66/66 57/65/65
f 19/88/88 55/73/73 108/70/70
f 56/69/69 109/66/66 71/87/87
f 19/88/88 71/87/87 113/83/83
f 72/82/82 107/74/74 55/73/73
f 20/89/89 59/57/57 112/54/54
f 60/53/53 105/52/52 69/84/84
f 20/89/89 69/84/84 113/83/83
f 70/86/86 111/58/58 59/57/57
f 45/90/2 96/114/2 36/91/3
f 36/91/3 89/115/4 74/93/4
f 74/93/4 115/4/4 81/3/3
f 81/3/3 114/2/2 45/90/2
f 47/94/11 95/116/11 35/95/12
f 35/95/12 96/114/2 45/90/2
f 45/90/2 114/2/2 82/12/12
f 82/12/12 116/11/11 47/94/11
f 48/97/17 94/117/17 34/98/18
f 34/98/18 95/116/11 47/94/11
f 47/94/11 116/11/11 83/18/18
f 83/18/18 117/17/17 48/97/17
f 49/100/23 93/118/23 33/101/24
f 33/101/24 94/117/17 48/97/17
f 48/97/17 117/17/17 84/24/24
f 84/24/24 118/23/23 49/100/23
f 50/103/29 92/119/29 32/104/30
f 32/104/30 93/118/23 49/100/23
f 49/100/23 118/23/23 85/30/30
f 85/30/30 119/29/29 50/103/29
f 51/106/35 91/120/35 31/107/36
f 31/107/36 92/119/29 50/103/29
f 50/103/29 119/29/29 86/36/36
f 86/36/36 120/35/35 51/106/35
f 52/109/41 90/121/41 30/110/42
f 30/110/42 91/120/35 51/106/35
f 51/106/35 120/35/35 87/42/42
f 87/42/42 121/41/41 52/109/41
f 74/93/4 89/115/4 29/112/47
f 29/112/47 90/121/41 52/109/41
f 52/109/41 121/41/41 88/47/47
f 88/47/47 115/4/4 74/93/4
