# Blender v2.79 (sub 0) OBJ File: 'm3_interior_open.blend'
# www.blender.org
o BMW_Hood_Sign_Circle.016
v -0.012459 0.028261 4.356815
v -0.026302 0.039508 4.339416
v -0.016766 0.052005 4.320082
v 0.012459 0.053568 4.317665
v 0.026302 0.042321 4.335064
v 0.016766 0.029824 4.354397
v -0.007672 0.027185 4.358480
v -0.025291 0.036750 4.343683
v -0.020430 0.050017 4.323159
v 0.007672 0.054644 4.316000
v 0.025291 0.045080 4.330797
v 0.020430 0.031813 4.351321
v -0.002590 0.026636 4.359329
v -0.023308 0.034151 4.347703
v -0.023308 0.047678 4.326777
v -0.002591 0.055193 4.315151
v 0.002590 0.055193 4.315151
v 0.023308 0.047678 4.326777
v 0.023308 0.034151 4.347703
v 0.002591 0.026636 4.359329
v -0.020430 0.031813 4.351321
v -0.025291 0.045079 4.330797
v -0.007672 0.054644 4.316000
v 0.020430 0.050017 4.323159
v 0.025291 0.036750 4.343683
v 0.007672 0.027185 4.358480
v -0.016766 0.029824 4.354397
v -0.026302 0.042321 4.335064
v -0.012459 0.053568 4.317665
v 0.016766 0.052005 4.320082
v 0.026302 0.039508 4.339416
v 0.012459 0.028261 4.356815
v -0.028032 0.007443 4.378050
v -0.059179 0.032748 4.338902
v -0.037725 0.060867 4.295402
v 0.028032 0.064382 4.289963
v 0.059179 0.039077 4.329112
v 0.037725 0.010958 4.372611
v -0.017262 0.005021 4.381796
v -0.056905 0.026542 4.348504
v -0.045967 0.056392 4.302325
v 0.017262 0.066804 4.286217
v 0.056905 0.045283 4.319510
v 0.045968 0.015433 4.365688
v -0.005829 0.003786 4.383707
v -0.052444 0.020695 4.357548
v -0.052444 0.051130 4.310465
v -0.005829 0.068039 4.284307
v 0.005829 0.068039 4.284307
v 0.052444 0.051130 4.310465
v 0.052444 0.020695 4.357548
v 0.005829 0.003786 4.383707
v -0.045967 0.015433 4.365688
v -0.056905 0.045283 4.319510
v -0.017262 0.066804 4.286217
v 0.045967 0.056392 4.302325
v 0.056905 0.026542 4.348504
v 0.017262 0.005021 4.381796
v -0.037725 0.010958 4.372611
v -0.059179 0.039077 4.329112
v -0.028032 0.064382 4.289963
v 0.037724 0.060867 4.295402
v 0.059179 0.032748 4.338902
v 0.028032 0.007443 4.378050
v -0.037376 -0.013766 4.385156
v -0.078906 0.019975 4.332958
v -0.050299 0.057466 4.274959
v 0.037376 0.062154 4.267707
v 0.078906 0.028413 4.319905
v 0.050299 -0.009078 4.377904
v -0.023016 -0.016995 4.390152
v -0.075873 0.011699 4.345761
v -0.061290 0.051499 4.284189
v 0.023016 0.065383 4.262712
v 0.075873 0.036688 4.307102
v 0.061290 -0.003112 4.368674
v -0.007771 -0.018641 4.392698
v -0.069925 0.003904 4.357821
v -0.069925 0.044484 4.295043
v -0.007772 0.067029 4.260165
v 0.007771 0.067029 4.260165
v 0.069925 0.044484 4.295043
v 0.069925 0.003904 4.357821
v 0.007772 -0.018641 4.392698
v -0.061290 -0.003112 4.368674
v -0.075873 0.036688 4.307102
v -0.023016 0.065383 4.262712
v 0.061290 0.051499 4.284189
v 0.075873 0.011699 4.345761
v 0.023016 -0.016995 4.390152
v -0.050299 -0.009078 4.377904
v -0.078906 0.028413 4.319905
v -0.037376 0.062154 4.267707
v 0.050299 0.057466 4.274959
v 0.078906 0.019975 4.332958
v 0.037376 -0.013766 4.385156
v -0.037376 -0.007815 4.389003
v -0.078906 0.025926 4.336805
v -0.050299 0.063417 4.278806
v 0.037376 0.068105 4.271554
v 0.078906 0.034364 4.323751
v 0.050299 -0.003127 4.381751
v -0.023016 -0.011044 4.393998
v -0.075873 0.017650 4.349607
v -0.061290 0.057451 4.288036
v 0.023016 0.071334 4.266558
v 0.075873 0.042639 4.310949
v 0.061290 0.002839 4.372521
v -0.007771 -0.012690 4.396545
v -0.069925 0.009855 4.361667
v -0.069925 0.050435 4.298889
v -0.007772 0.072980 4.264012
v 0.007771 0.072980 4.264012
v 0.069925 0.050435 4.298889
v 0.069925 0.009855 4.361667
v 0.007772 -0.012690 4.396545
v -0.061290 0.002839 4.372521
v -0.075873 0.042639 4.310949
v -0.023016 0.071334 4.266558
v 0.061290 0.057451 4.288036
v 0.075873 0.017650 4.349607
v 0.023016 -0.011044 4.393998
v -0.050299 -0.003127 4.381751
v -0.078906 0.034364 4.323751
v -0.037376 0.068105 4.271554
v 0.050299 0.063417 4.278806
v 0.078906 0.025926 4.336805
v 0.037376 -0.007815 4.389003
v -0.007286 0.072510 4.269580
v -0.021577 0.070967 4.271968
v -0.035040 0.067940 4.276651
v -0.047156 0.063545 4.283450
v -0.057459 0.057951 4.292103
v -0.065555 0.051374 4.302278
v -0.071131 0.044066 4.313584
v -0.073974 0.036307 4.325586
v -0.073974 0.028397 4.337824
v -0.071131 0.020639 4.349826
v -0.065555 0.013330 4.361132
v -0.057459 0.006753 4.371307
v -0.047156 0.001160 4.379961
v -0.035040 -0.003235 4.386759
v -0.021577 -0.006262 4.391443
v -0.007286 -0.007806 4.393830
v 0.007286 -0.007806 4.393830
v 0.021577 -0.006262 4.391443
v 0.035040 -0.003235 4.386759
v 0.047156 0.001160 4.379961
v 0.057459 0.006753 4.371307
v 0.065555 0.013330 4.361132
v 0.071131 0.020639 4.349826
v 0.073974 0.028397 4.337824
v 0.073974 0.036307 4.325586
v 0.071131 0.044066 4.313584
v 0.065555 0.051374 4.302278
v 0.057459 0.057951 4.292103
v 0.047156 0.063545 4.283450
v 0.035040 0.067940 4.276651
v 0.021577 0.070967 4.271967
v 0.007286 0.072510 4.269580
v -0.000000 0.068195 4.284066
v -0.008844 0.029515 4.355294
v -0.033038 0.009071 4.375531
v -0.022666 0.038658 4.341150
v -0.059466 0.035913 4.334007
v -0.016341 0.049977 4.323640
v -0.033038 0.062754 4.292482
v 0.008844 0.052697 4.319433
v 0.033038 0.062754 4.292482
v 0.022666 0.043554 4.333577
v 0.059466 0.035913 4.334006
v 0.016341 0.032235 4.351087
v 0.033038 0.009071 4.375531
v -0.004508 0.028802 4.356399
v -0.021351 0.036305 4.344791
v -0.019215 0.048076 4.326581
v 0.004508 0.053410 4.318328
v 0.021351 0.045907 4.329937
v 0.019215 0.034136 4.348146
v 0.000000 0.028560 4.356771
v -0.019215 0.034136 4.348146
v -0.021351 0.045907 4.329937
v -0.004509 0.053410 4.318328
v 0.019215 0.048076 4.326581
v 0.021351 0.036305 4.344791
v 0.004509 0.028802 4.356399
v -0.016341 0.032235 4.351087
v -0.022666 0.043553 4.333577
v -0.008844 0.052696 4.319433
v 0.016341 0.049977 4.323640
v 0.022666 0.038658 4.341150
v 0.008844 0.029515 4.355294
v -0.000000 0.053651 4.317955
v -0.022757 0.006088 4.380146
v -0.012839 0.030675 4.353501
v -0.058324 0.029615 4.343750
v -0.023110 0.041106 4.337364
v -0.042049 0.058739 4.298693
v -0.012839 0.051537 4.321227
v 0.022757 0.065737 4.287867
v 0.012839 0.051537 4.321226
v 0.058324 0.042210 4.324264
v 0.023110 0.041106 4.337364
v 0.042049 0.013086 4.369320
v 0.012839 0.030675 4.353501
v -0.011601 0.004251 4.382988
v -0.054940 0.023559 4.353118
v -0.049444 0.053847 4.306261
v 0.011601 0.067574 4.285025
v 0.054940 0.048266 4.314895
v 0.049444 0.017978 4.361752
v 0.000000 0.003630 4.383947
v -0.049444 0.017978 4.361752
v -0.054940 0.048266 4.314895
v -0.011601 0.067574 4.285025
v 0.049444 0.053848 4.306261
v 0.054940 0.023559 4.353118
v 0.011601 0.004251 4.382988
v -0.042049 0.013086 4.369320
v -0.058324 0.042210 4.324264
v -0.022757 0.065737 4.287867
v 0.042049 0.058739 4.298693
v 0.058324 0.029615 4.343750
v 0.022757 0.006088 4.380146
v -0.019467 0.019511 4.366770
v -0.041097 0.037084 4.339583
v -0.026198 0.056611 4.309376
v 0.019467 0.059052 4.305598
v 0.041097 0.041479 4.332785
v 0.026198 0.021952 4.362993
v -0.011987 0.017829 4.369372
v -0.039517 0.032774 4.346251
v -0.031922 0.053503 4.314183
v 0.011987 0.060734 4.302997
v 0.039517 0.045789 4.326117
v 0.031922 0.025060 4.358185
v -0.004048 0.016972 4.370698
v -0.036419 0.028714 4.352533
v -0.036419 0.049849 4.319836
v -0.004048 0.061591 4.301671
v 0.004048 0.061591 4.301671
v 0.036419 0.049849 4.319836
v 0.036419 0.028714 4.352533
v 0.004048 0.016972 4.370698
v -0.031922 0.025060 4.358186
v -0.039517 0.045789 4.326117
v -0.011987 0.060734 4.302997
v 0.031922 0.053503 4.314183
v 0.039517 0.032774 4.346251
v 0.011987 0.017829 4.369372
v -0.026198 0.021952 4.362993
v -0.041097 0.041479 4.332785
v -0.019467 0.059052 4.305598
v 0.026198 0.056611 4.309376
v 0.041097 0.037084 4.339583
v 0.019467 0.019511 4.366770
v -0.007772 0.062608 4.257308
v -0.023016 0.060962 4.259854
v -0.037376 0.057733 4.264850
v -0.050299 0.053045 4.272101
v -0.061290 0.047079 4.281332
v -0.069925 0.040063 4.292185
v -0.075873 0.032268 4.304245
v -0.078906 0.023992 4.317048
v -0.078906 0.015554 4.330101
v -0.075873 0.007279 4.342903
v -0.069925 -0.000517 4.354963
v -0.061290 -0.007532 4.365817
v -0.050299 -0.013499 4.375047
v -0.037376 -0.018187 4.382299
v -0.023016 -0.021416 4.387294
v -0.007771 -0.023062 4.389841
v 0.007772 -0.023062 4.389841
v 0.023016 -0.021416 4.387294
v 0.037376 -0.018187 4.382298
v 0.050299 -0.013499 4.375047
v 0.061290 -0.007532 4.365817
v 0.069925 -0.000517 4.354963
v 0.075873 0.007279 4.342903
v 0.078906 0.015554 4.330101
v 0.078906 0.023992 4.317047
v 0.075873 0.032268 4.304245
v 0.069925 0.040063 4.292185
v 0.061290 0.047079 4.281332
v 0.050299 0.053045 4.272101
v 0.037376 0.057733 4.264849
v 0.023016 0.060962 4.259854
v 0.007771 0.062608 4.257308
v -0.044050 -0.011595 4.381797
v -0.030342 -0.009621 4.391798
v -0.079288 0.024194 4.326431
v -0.077765 0.021748 4.343269
v -0.044050 0.059982 4.271066
v -0.056065 0.060581 4.283194
v 0.044050 0.059983 4.271066
v 0.030342 0.069911 4.268759
v 0.079288 0.024194 4.326431
v 0.077765 0.038542 4.317287
v 0.044050 -0.011595 4.381797
v 0.056065 -0.000291 4.377363
v -0.015468 -0.012071 4.395587
v -0.073253 0.013673 4.355761
v -0.065926 0.054058 4.293284
v 0.015468 0.072361 4.264970
v 0.073253 0.046617 4.304796
v 0.065926 0.006232 4.367272
v 0.000000 -0.012898 4.396866
v -0.065926 0.006232 4.367272
v -0.073253 0.046617 4.304796
v -0.000000 0.067236 4.259843
v -0.015468 0.072361 4.264970
v 0.065926 0.054058 4.293284
v 0.073253 0.013673 4.355761
v 0.015468 -0.012071 4.395587
v -0.056065 -0.000291 4.377363
v -0.077765 0.038542 4.317287
v -0.030342 0.069911 4.268759
v 0.056065 0.060581 4.283194
v 0.077765 0.021748 4.343269
v 0.030342 -0.009621 4.391798
v -0.044050 -0.005644 4.385644
v -0.030342 -0.015573 4.387951
v -0.079288 0.030145 4.330278
v -0.077765 0.015796 4.339422
v -0.044050 0.065934 4.274912
v -0.056065 0.054630 4.279346
v 0.044050 0.065934 4.274912
v 0.030342 0.063960 4.264912
v 0.079288 0.030145 4.330278
v 0.077765 0.032591 4.313441
v 0.044050 -0.005644 4.385644
v 0.056065 -0.006242 4.373516
v -0.015468 -0.018022 4.391740
v -0.073253 0.007722 4.351913
v -0.065926 0.048107 4.289437
v 0.015468 0.066409 4.261123
v 0.073253 0.040666 4.300949
v 0.065926 0.000280 4.363426
v 0.000000 -0.018849 4.393019
v -0.065926 0.000280 4.363426
v -0.073253 0.040665 4.300950
v -0.000000 0.073188 4.263690
v -0.015468 0.066409 4.261123
v 0.065926 0.048107 4.289437
v 0.073253 0.007722 4.351913
v 0.015468 -0.018022 4.391740
v -0.056065 -0.006242 4.373516
v -0.077765 0.032591 4.313441
v -0.030342 0.063960 4.264912
v 0.056065 0.054630 4.279346
v 0.077765 0.015797 4.339422
v 0.030342 -0.015573 4.387951
v -0.037376 -0.010068 4.387547
v -0.078906 0.023673 4.335349
v -0.050299 0.061164 4.277349
v 0.037376 0.065852 4.270097
v 0.078906 0.032111 4.322295
v 0.050299 -0.005380 4.380294
v -0.023016 -0.013297 4.392542
v -0.075873 0.015397 4.348151
v -0.061290 0.055197 4.286580
v 0.023016 0.069081 4.265102
v 0.075873 0.040386 4.309493
v 0.061290 0.000586 4.371064
v -0.007771 -0.014943 4.395088
v -0.069925 0.007602 4.360211
v -0.069925 0.048182 4.297433
v -0.007772 0.070727 4.262555
v 0.007771 0.070727 4.262555
v 0.069925 0.048182 4.297433
v 0.069925 0.007602 4.360211
v 0.007772 -0.014943 4.395088
v -0.061290 0.000586 4.371064
v -0.075873 0.040386 4.309493
v -0.023016 0.069081 4.265102
v 0.061290 0.055197 4.286579
v 0.075873 0.015397 4.348151
v 0.023016 -0.013297 4.392542
v -0.050299 -0.005380 4.380294
v -0.078906 0.032111 4.322295
v -0.037376 0.065852 4.270097
v 0.050299 0.061164 4.277349
v 0.078906 0.023673 4.335349
v 0.037376 -0.010068 4.387547
v -0.000000 0.072705 4.269279
v -0.014502 0.071929 4.270478
v -0.028446 0.069633 4.274031
v -0.041297 0.065904 4.279799
v -0.052561 0.060886 4.287563
v -0.061805 0.054771 4.297023
v -0.068675 0.047794 4.307816
v -0.072905 0.040225 4.319526
v -0.074333 0.032352 4.331705
v -0.072905 0.024480 4.343884
v -0.068675 0.016910 4.355595
v -0.061805 0.009933 4.366387
v -0.052561 0.003819 4.375847
v -0.041297 -0.001200 4.383611
v -0.028446 -0.004929 4.389380
v -0.014502 -0.007225 4.392932
v 0.000000 -0.008000 4.394131
v 0.014502 -0.007225 4.392932
v 0.028446 -0.004929 4.389380
v 0.041297 -0.001200 4.383611
v 0.052561 0.003819 4.375847
v 0.061806 0.009934 4.366387
v 0.068675 0.016910 4.355595
v 0.072905 0.024480 4.343884
v 0.074333 0.032352 4.331705
v 0.072904 0.040225 4.319526
v 0.068675 0.047795 4.307816
v 0.061805 0.054771 4.297023
v 0.052561 0.060886 4.287563
v 0.041297 0.065904 4.279799
v 0.028446 0.069633 4.274031
v 0.014501 0.071929 4.270478
v -0.000000 0.042326 4.338152
v -0.000000 0.061297 4.302231
v -0.015486 0.019034 4.367612
v -0.022482 0.021064 4.364472
v -0.039689 0.035044 4.342845
v -0.040466 0.039329 4.336215
v -0.028614 0.054863 4.312185
v -0.022482 0.057595 4.307958
v 0.015486 0.059625 4.304818
v 0.022482 0.057595 4.307958
v 0.039689 0.043615 4.329585
v 0.040466 0.039329 4.336215
v 0.028614 0.023796 4.360246
v 0.022482 0.021064 4.364472
v -0.007895 0.017784 4.369546
v -0.037386 0.030923 4.349220
v -0.033646 0.051534 4.317335
v 0.007894 0.060875 4.302884
v 0.037386 0.047736 4.323210
v 0.033646 0.027125 4.355096
v 0.000000 0.017362 4.370199
v -0.033646 0.027125 4.355096
v -0.037386 0.047736 4.323210
v -0.007895 0.060875 4.302884
v 0.033646 0.051534 4.317335
v 0.037386 0.030923 4.349220
v 0.007895 0.017784 4.369546
v -0.028614 0.023796 4.360246
v -0.039689 0.043615 4.329585
v -0.015486 0.059625 4.304818
v 0.028614 0.054863 4.312185
v 0.039689 0.035044 4.342845
v 0.015486 0.019034 4.367612
v -0.000000 0.062816 4.256986
v -0.015468 0.061989 4.258265
v -0.030342 0.059540 4.262055
v -0.044050 0.055562 4.268208
v -0.056065 0.050209 4.276489
v -0.065926 0.043687 4.286580
v -0.073253 0.036245 4.298092
v -0.077765 0.028171 4.310584
v -0.079288 0.019773 4.323574
v -0.077765 0.011376 4.336565
v -0.073253 0.003302 4.349056
v -0.065926 -0.004140 4.360569
v -0.056065 -0.010663 4.370659
v -0.044050 -0.016016 4.378940
v -0.030342 -0.019993 4.385093
v -0.015468 -0.022442 4.388883
v 0.000000 -0.023270 4.390162
v 0.015468 -0.022442 4.388883
v 0.030342 -0.019993 4.385093
v 0.044050 -0.016015 4.378940
v 0.056065 -0.010663 4.370659
v 0.065926 -0.004140 4.360569
v 0.073253 0.003302 4.349056
v 0.077765 0.011376 4.336565
v 0.079288 0.019773 4.323574
v 0.077765 0.028171 4.310583
v 0.073253 0.036245 4.298092
v 0.065926 0.043687 4.286580
v 0.056065 0.050209 4.276489
v 0.044050 0.055562 4.268208
v 0.030342 0.059540 4.262055
v 0.015468 0.061989 4.258265
v -0.044050 -0.007897 4.384188
v -0.030342 -0.011875 4.390341
v -0.079288 0.027892 4.328822
v -0.077765 0.019494 4.341813
v -0.044050 0.063680 4.273456
v -0.056065 0.058328 4.281737
v 0.044050 0.063680 4.273456
v 0.030342 0.067658 4.267303
v 0.079288 0.027892 4.328822
v 0.077765 0.036289 4.315831
v 0.044050 -0.007897 4.384188
v 0.056065 -0.002544 4.375906
v -0.015468 -0.014324 4.394130
v -0.073253 0.011420 4.354304
v -0.065926 0.051805 4.291828
v 0.015468 0.070107 4.263514
v 0.073253 0.044364 4.303339
v 0.065926 0.003978 4.365816
v 0.000000 -0.015151 4.395410
v -0.065926 0.003978 4.365816
v -0.073253 0.044363 4.303340
v -0.000000 0.070934 4.262234
v -0.015468 0.070107 4.263514
v 0.065926 0.051805 4.291828
v 0.073253 0.011420 4.354304
v 0.015468 -0.014324 4.394130
v -0.056065 -0.002544 4.375906
v -0.077765 0.036289 4.315831
v -0.030342 0.067658 4.267303
v 0.056065 0.058328 4.281737
v 0.077765 0.019495 4.341813
v 0.030342 -0.011875 4.390341
vt 0.419582 0.355204
vt 0.356619 0.290356
vt 0.375439 0.273010
vt 0.400313 0.266962
vt 0.442203 0.367453
vt 0.417250 0.380813
vt 0.333122 0.484685
vt 0.244295 0.500612
vt 0.240346 0.475323
vt 0.249152 0.451298
vt 0.355876 0.472725
vt 0.353102 0.500888
vt 0.392677 0.628421
vt 0.356619 0.710673
vt 0.333400 0.699911
vt 0.318319 0.679272
vt 0.395377 0.602920
vt 0.417250 0.620852
vt 0.575204 0.646243
vt 0.637441 0.710430
vt 0.618598 0.727757
vt 0.593747 0.733825
vt 0.552671 0.634074
vt 0.577624 0.620713
vt 0.661663 0.516762
vt 0.749763 0.500176
vt 0.753691 0.525444
vt 0.744907 0.549489
vt 0.638997 0.528802
vt 0.641771 0.500639
vt 0.602110 0.373026
vt 0.637441 0.290114
vt 0.660638 0.300856
vt 0.675741 0.321515
vt 0.599497 0.398607
vt 0.577624 0.380675
vt 0.449478 0.342795
vt 0.422151 0.253620
vt 0.447725 0.252538
vt 0.469279 0.359216
vt 0.339435 0.452940
vt 0.250210 0.425722
vt 0.263533 0.403870
vt 0.364089 0.445640
vt 0.369796 0.605559
vt 0.297648 0.664188
vt 0.286889 0.640998
vt 0.377427 0.581062
vt 0.545309 0.658653
vt 0.571887 0.747148
vt 0.546336 0.748250
vt 0.525595 0.642312
vt 0.655350 0.548507
vt 0.743827 0.575045
vt 0.730525 0.596917
vt 0.630784 0.555887
vt 0.624991 0.395889
vt 0.696390 0.336579
vt 0.707171 0.359789
vt 0.617447 0.420466
vt 0.481214 0.336454
vt 0.471739 0.243712
vt 0.497030 0.247639
vt 0.497437 0.356418
vt 0.351818 0.423032
vt 0.269558 0.378990
vt 0.286889 0.360152
vt 0.377427 0.420673
vt 0.351818 0.578667
vt 0.269558 0.622170
vt 0.263533 0.597320
vt 0.364089 0.556117
vt 0.481214 0.665021
vt 0.497030 0.753148
vt 0.471739 0.757099
vt 0.447725 0.748334
vt 0.469279 0.642360
vt 0.497437 0.645109
vt 0.513572 0.664994
vt 0.522299 0.757056
vt 0.642967 0.578416
vt 0.724479 0.621778
vt 0.707171 0.640636
vt 0.617446 0.580855
vt 0.642967 0.422781
vt 0.724479 0.378598
vt 0.730525 0.403468
vt 0.630784 0.445410
vt 0.513572 0.336426
vt 0.522299 0.243669
vt 0.546336 0.252453
vt 0.525595 0.359167
vt 0.369796 0.396109
vt 0.297648 0.336923
vt 0.318319 0.321823
vt 0.395377 0.398784
vt 0.339435 0.548780
vt 0.250210 0.575471
vt 0.249152 0.549917
vt 0.355876 0.529046
vt 0.449478 0.658735
vt 0.422151 0.747277
vt 0.400313 0.733992
vt 0.442203 0.634169
vt 0.624990 0.605339
vt 0.696389 0.663844
vt 0.675739 0.678964
vt 0.599496 0.602743
vt 0.655350 0.452668
vt 0.743827 0.425296
vt 0.744907 0.450870
vt 0.638997 0.472481
vt 0.545309 0.342712
vt 0.571887 0.253490
vt 0.593747 0.266795
vt 0.552671 0.367358
vt 0.392677 0.373206
vt 0.333400 0.301138
vt 0.333122 0.517046
vt 0.240346 0.525887
vt 0.419582 0.646377
vt 0.375439 0.727967
vt 0.602109 0.628240
vt 0.660637 0.699629
vt 0.661663 0.484402
vt 0.753691 0.474880
vt 0.575204 0.355070
vt 0.618599 0.272800
vt 0.289908 0.191026
vt 0.276588 0.089668
vt 0.321172 0.172264
vt 0.354119 0.156647
vt 0.124846 0.500003
vt 0.033422 0.453832
vt 0.126639 0.463595
vt 0.131983 0.427534
vt 0.289908 0.808694
vt 0.181128 0.881893
vt 0.260636 0.787002
vt 0.233627 0.762550
vt 0.702586 0.808337
vt 0.728709 0.935358
vt 0.671322 0.827100
vt 0.638376 0.842718
vt 0.867648 0.499362
vt 0.988089 0.546917
vt 0.865856 0.535770
vt 0.860512 0.571830
vt 0.702587 0.190670
vt 0.789946 0.139790
vt 0.731859 0.212362
vt 0.758868 0.236814
vt 0.360669 0.054765
vt 0.388437 0.144342
vt 0.423791 0.135450
vt 0.051177 0.364549
vt 0.140843 0.392169
vt 0.153117 0.357837
vt 0.136565 0.793789
vt 0.209153 0.735561
vt 0.187439 0.706305
vt 0.639024 0.972588
vt 0.604058 0.855023
vt 0.568704 0.863914
vt 0.969150 0.642151
vt 0.851652 0.607195
vt 0.839377 0.641527
vt 0.878068 0.184295
vt 0.783341 0.263804
vt 0.805056 0.293060
vt 0.449928 0.036932
vt 0.459845 0.130075
vt 0.496248 0.128251
vt 0.086004 0.280432
vt 0.168705 0.324875
vt 0.187439 0.293593
vt 0.086004 0.718156
vt 0.168704 0.675054
vt 0.153117 0.642119
vt 0.496248 0.871114
vt 0.446740 0.991694
vt 0.459845 0.869352
vt 0.423791 0.864039
vt 0.543815 0.991610
vt 0.532651 0.869290
vt 0.932001 0.731876
vt 0.823790 0.674489
vt 0.805056 0.705772
vt 0.932001 0.264971
vt 0.823790 0.324310
vt 0.839377 0.357246
vt 0.540936 0.036853
vt 0.532651 0.130012
vt 0.568704 0.135325
vt 0.136565 0.204712
vt 0.209153 0.264299
vt 0.233627 0.237267
vt 0.051177 0.634098
vt 0.140843 0.607808
vt 0.131983 0.572459
vt 0.351530 0.972836
vt 0.388437 0.855209
vt 0.354119 0.842963
vt 0.878068 0.812644
vt 0.783341 0.735065
vt 0.758867 0.762097
vt 0.969150 0.354632
vt 0.851652 0.391556
vt 0.860512 0.426906
vt 0.630196 0.054532
vt 0.604058 0.144156
vt 0.638377 0.156402
vt 0.200917 0.140299
vt 0.260636 0.212769
vt 0.033422 0.544847
vt 0.126639 0.536407
vt 0.261843 0.935761
vt 0.321172 0.827403
vt 0.809425 0.881351
vt 0.731858 0.786595
vt 0.988089 0.449834
vt 0.865856 0.462957
vt 0.714276 0.089290
vt 0.671323 0.171962
vt 0.304057 0.039862
vt 0.260976 0.061454
vt 0.260129 0.060685
vt 0.218443 0.085701
vt 0.259116 0.059764
vt 0.303044 0.038942
vt 0.007876 0.401044
vt 0.001599 0.449896
vt 0.000751 0.449126
vt -0.001639 0.497669
vt -0.000261 0.448205
vt 0.179413 0.880336
vt 0.142559 0.850194
vt 0.180261 0.881105
vt 0.218443 0.909258
vt 0.178401 0.879416
vt 0.141711 0.849424
vt 0.683067 0.954623
vt 0.727842 0.934571
vt 0.726995 0.933801
vt 0.768680 0.908784
vt 0.725982 0.932880
vt 0.979249 0.593440
vt 0.987221 0.546129
vt 0.986374 0.545359
vt 0.988764 0.496815
vt 0.985361 0.544439
vt 0.807711 0.114149
vt 0.846259 0.145830
vt 0.808558 0.114919
vt 0.768682 0.085226
vt 0.806698 0.113228
vt 0.844399 0.144139
vt 0.845412 0.145060
vt 0.396954 0.011599
vt 0.350662 0.024224
vt 0.349815 0.023454
vt 0.304904 0.040632
vt 0.348802 0.022534
vt 0.395941 0.010679
vt 0.036057 0.308116
vt 0.020538 0.354661
vt 0.019690 0.353891
vt 0.018678 0.352971
vt 0.081818 0.772739
vt 0.111618 0.812517
vt 0.110771 0.811747
vt 0.140699 0.848505
vt 0.109758 0.810827
vt 0.590171 0.982885
vt 0.638157 0.971800
vt 0.637309 0.971030
vt 0.636297 0.970110
vt 0.951068 0.686369
vt 0.968282 0.641363
vt 0.967435 0.640593
vt 0.966422 0.639673
vt 0.950056 0.685448
vt 0.905307 0.221745
vt 0.877201 0.183508
vt 0.876354 0.182738
vt 0.875341 0.181817
vt 0.493563 0.002000
vt 0.445872 0.005202
vt 0.445025 0.004432
vt 0.444012 0.003512
vt 0.081818 0.222456
vt 0.057687 0.264936
vt 0.056840 0.264166
vt 0.035044 0.307196
vt 0.055827 0.263246
vt 0.036057 0.687158
vt 0.057687 0.731842
vt 0.056840 0.731072
vt 0.055827 0.730152
vt 0.035044 0.686238
vt 0.445025 0.990135
vt 0.397801 0.983822
vt 0.445872 0.990906
vt 0.493563 0.992484
vt 0.444012 0.989215
vt 0.396954 0.983051
vt 0.542948 0.990822
vt 0.542100 0.990052
vt 0.541088 0.989132
vt 0.492550 0.991563
vt 0.905307 0.772029
vt 0.931133 0.731088
vt 0.930286 0.730318
vt 0.951916 0.687139
vt 0.929273 0.729398
vt 0.904295 0.771108
vt 0.951068 0.307327
vt 0.931133 0.264183
vt 0.930286 0.263413
vt 0.929273 0.262492
vt 0.590172 0.011432
vt 0.542948 0.005118
vt 0.542100 0.004349
vt 0.541088 0.003428
vt 0.589159 0.010512
vt 0.143402 0.147356
vt 0.111618 0.184168
vt 0.110771 0.183398
vt 0.080805 0.221536
vt 0.109758 0.182478
vt 0.007876 0.594278
vt 0.020538 0.642180
vt 0.019690 0.641410
vt 0.036904 0.687928
vt 0.018678 0.640490
vt 0.304057 0.954950
vt 0.350662 0.972048
vt 0.349815 0.971278
vt 0.348802 0.970357
vt 0.876354 0.811087
vt 0.844569 0.847899
vt 0.877201 0.811857
vt 0.875341 0.810166
vt 0.843722 0.847129
vt 0.979249 0.400207
vt 0.968282 0.353844
vt 0.967435 0.353074
vt 0.966422 0.352154
vt 0.683068 0.039535
vt 0.638158 0.023976
vt 0.637311 0.023206
vt 0.591019 0.012202
vt 0.636298 0.022286
vt 0.180261 0.115461
vt 0.179413 0.114691
vt 0.144249 0.148126
vt 0.178401 0.113770
vt 0.001599 0.546979
vt 0.000751 0.546209
vt 0.008724 0.595048
vt -0.000261 0.545289
vt -0.002652 0.496749
vt 0.260976 0.934973
vt 0.260129 0.934203
vt 0.259116 0.933283
vt 0.808557 0.880564
vt 0.807710 0.879794
vt 0.842709 0.846209
vt 0.806697 0.878874
vt 0.987221 0.449046
vt 0.986374 0.448276
vt 0.980096 0.400977
vt 0.978236 0.399287
vt 0.985361 0.447356
vt 0.727844 0.061051
vt 0.726997 0.060282
vt 0.683915 0.040305
vt 0.725984 0.059361
vt 0.261492 0.061924
vt 0.317771 0.070147
vt 0.237508 0.113121
vt 0.219807 0.086940
vt 0.305421 0.041101
vt 0.002115 0.450365
vt 0.040101 0.408755
vt 0.031181 0.499342
vt -0.000275 0.498909
vt 0.009240 0.402283
vt 0.180777 0.881575
vt 0.143426 0.850982
vt 0.220158 0.910816
vt 0.219807 0.910497
vt 0.143075 0.850663
vt 0.728358 0.935040
vt 0.684781 0.956181
vt 0.770395 0.910341
vt 0.770044 0.910022
vt 0.684430 0.955862
vt 0.987738 0.546598
vt 0.980964 0.594998
vt 0.990479 0.498373
vt 0.990128 0.498054
vt 0.980613 0.594679
vt 0.809075 0.115388
vt 0.854774 0.155957
vt 0.753356 0.112676
vt 0.770046 0.086465
vt 0.846776 0.146299
vt 0.351179 0.024694
vt 0.404861 0.043651
vt 0.398317 0.012838
vt 0.021054 0.355130
vt 0.066520 0.321635
vt 0.037420 0.309355
vt 0.112135 0.812986
vt 0.109421 0.757219
vt 0.152764 0.858630
vt 0.083181 0.773978
vt 0.638673 0.972269
vt 0.591886 0.984443
vt 0.591535 0.984124
vt 0.968799 0.641832
vt 0.952783 0.687926
vt 0.952432 0.687608
vt 0.877717 0.183977
vt 0.907022 0.223303
vt 0.847127 0.146617
vt 0.906671 0.222985
vt 0.446389 0.005671
vt 0.495432 0.034651
vt 0.494926 0.003239
vt 0.058203 0.265405
vt 0.109421 0.241329
vt 0.083181 0.223695
vt 0.058203 0.732311
vt 0.066520 0.676987
vt 0.037420 0.688397
vt 0.446389 0.991375
vt 0.398668 0.984610
vt 0.495277 0.994042
vt 0.494926 0.993724
vt 0.398317 0.984291
vt 0.543464 0.991291
vt 0.591019 0.983655
vt 0.931650 0.731557
vt 0.907022 0.773586
vt 0.906155 0.772799
vt 0.906671 0.773268
vt 0.931650 0.264652
vt 0.952783 0.308885
vt 0.952432 0.308566
vt 0.543464 0.005587
vt 0.586003 0.043494
vt 0.591535 0.012671
vt 0.112135 0.184638
vt 0.167156 0.170923
vt 0.144765 0.148595
vt 0.021054 0.642649
vt 0.040101 0.589912
vt 0.009240 0.595517
vt 0.351179 0.972517
vt 0.305772 0.956508
vt 0.305421 0.956189
vt 0.877717 0.812325
vt 0.845437 0.848686
vt 0.845086 0.848368
vt 0.968799 0.354313
vt 0.980964 0.401764
vt 0.980613 0.401446
vt 0.638674 0.024446
vt 0.673094 0.069840
vt 0.684432 0.040774
vt 0.180777 0.115930
vt 0.002115 0.547448
vt 0.261492 0.935442
vt 0.809074 0.881033
vt 0.987738 0.449515
vt 0.728360 0.061521
vt 0.497716 0.501017
vt 0.219290 0.086471
vt 0.217431 0.084781
vt 0.008724 0.401814
vt -0.000792 0.498439
vt 0.006864 0.400124
vt 0.219290 0.910028
vt 0.217431 0.908338
vt 0.683914 0.955393
vt 0.769527 0.909554
vt 0.767668 0.907863
vt 0.682054 0.953703
vt 0.980096 0.594210
vt 0.989611 0.497585
vt 0.987751 0.495895
vt 0.978236 0.592520
vt 0.769529 0.085996
vt 0.767669 0.084306
vt 0.397801 0.012369
vt 0.036904 0.308886
vt 0.082665 0.773509
vt 0.080805 0.771819
vt 0.589159 0.981965
vt 0.906155 0.222515
vt 0.904295 0.220825
vt 0.494410 0.002770
vt 0.492550 0.001080
vt 0.082665 0.223226
vt 0.494410 0.993254
vt 0.395941 0.982131
vt 0.951916 0.308097
vt 0.950056 0.306406
vt 0.142389 0.146435
vt 0.006864 0.593358
vt 0.304904 0.955719
vt 0.303044 0.954029
vt 0.682056 0.038614
vn -0.0503 0.7838 0.6189
vn -0.0921 0.7533 0.6512
vn -0.0826 0.7429 0.6643
vn -0.0634 0.7450 0.6640
vn -0.0292 0.7990 0.6005
vn -0.0424 0.8029 0.5946
vn -0.1063 0.8293 0.5486
vn -0.1659 0.8282 0.5354
vn -0.1745 0.8175 0.5489
vn -0.1627 0.8106 0.5625
vn -0.0749 0.8293 0.5538
vn -0.0764 0.8374 0.5413
vn -0.0678 0.8798 0.4704
vn -0.0921 0.9030 0.4195
vn -0.1112 0.9004 0.4206
vn -0.1173 0.8918 0.4368
vn -0.0540 0.8667 0.4959
vn -0.0425 0.8718 0.4879
vn 0.0504 0.8861 0.4606
vn 0.0921 0.9030 0.4195
vn 0.0826 0.9107 0.4046
vn 0.0635 0.9114 0.4066
vn 0.0292 0.8757 0.4820
vn 0.0425 0.8718 0.4879
vn 0.1063 0.8407 0.5309
vn 0.1659 0.8282 0.5353
vn 0.1745 0.8361 0.5200
vn 0.1627 0.8457 0.5082
vn 0.0749 0.8455 0.5287
vn 0.0764 0.8373 0.5413
vn 0.0679 0.7902 0.6091
vn 0.0921 0.7533 0.6512
vn 0.1112 0.7532 0.6483
vn 0.1173 0.7645 0.6338
vn 0.0540 0.8080 0.5866
vn 0.0424 0.8029 0.5946
vn -0.0310 0.7795 0.6256
vn -0.0509 0.7357 0.6753
vn -0.0323 0.7399 0.6720
vn -0.0149 0.7967 0.6042
vn -0.1023 0.8182 0.5658
vn -0.1678 0.7992 0.5772
vn -0.1532 0.7937 0.5886
vn -0.0705 0.8215 0.5658
vn -0.0826 0.8718 0.4828
vn -0.1355 0.8872 0.4410
vn -0.1379 0.8782 0.4579
vn -0.0635 0.8604 0.5056
vn 0.0310 0.8905 0.4539
vn 0.0509 0.9179 0.3935
vn 0.0323 0.9165 0.3987
vn 0.0148 0.8780 0.4783
vn 0.1022 0.8518 0.5137
vn 0.1678 0.8544 0.4917
vn 0.1532 0.8626 0.4820
vn 0.0706 0.8532 0.5167
vn 0.0826 0.7982 0.5967
vn 0.1355 0.7664 0.6279
vn 0.1379 0.7781 0.6128
vn 0.0635 0.8143 0.5769
vn -0.0104 0.7773 0.6290
vn -0.0172 0.7321 0.6810
vn 0.0000 0.7381 0.6746
vn 0.0000 0.7959 0.6054
vn -0.0941 0.8076 0.5821
vn -0.1546 0.7819 0.6038
vn -0.1379 0.7781 0.6127
vn -0.0635 0.8143 0.5769
vn -0.0942 0.8623 0.4975
vn -0.1546 0.8717 0.4650
vn -0.1532 0.8626 0.4820
vn -0.0706 0.8532 0.5167
vn -0.0104 0.8927 0.4505
vn 0.0000 0.9182 0.3960
vn -0.0172 0.9215 0.3879
vn -0.0323 0.9165 0.3987
vn -0.0148 0.8780 0.4783
vn 0.0000 0.8788 0.4771
vn 0.0105 0.8927 0.4505
vn 0.0172 0.9215 0.3879
vn 0.0942 0.8623 0.4975
vn 0.1546 0.8717 0.4650
vn 0.1379 0.8782 0.4579
vn 0.0634 0.8604 0.5056
vn 0.0941 0.8076 0.5821
vn 0.1546 0.7819 0.6038
vn 0.1532 0.7937 0.5886
vn 0.0706 0.8215 0.5658
vn 0.0105 0.7773 0.6290
vn 0.0172 0.7321 0.6810
vn 0.0323 0.7399 0.6720
vn 0.0149 0.7967 0.6042
vn -0.0826 0.7982 0.5967
vn -0.1355 0.7664 0.6279
vn -0.1173 0.7645 0.6338
vn -0.0540 0.8080 0.5866
vn -0.1022 0.8518 0.5137
vn -0.1678 0.8544 0.4917
vn -0.1627 0.8457 0.5082
vn -0.0749 0.8455 0.5287
vn -0.0310 0.8905 0.4539
vn -0.0509 0.9179 0.3935
vn -0.0634 0.9114 0.4066
vn -0.0292 0.8757 0.4820
vn 0.0826 0.8718 0.4828
vn 0.1355 0.8872 0.4410
vn 0.1173 0.8918 0.4368
vn 0.0540 0.8667 0.4959
vn 0.1023 0.8182 0.5658
vn 0.1678 0.7992 0.5772
vn 0.1627 0.8106 0.5625
vn 0.0749 0.8292 0.5538
vn 0.0310 0.7795 0.6256
vn 0.0509 0.7357 0.6753
vn 0.0635 0.7450 0.6640
vn 0.0292 0.7990 0.6005
vn -0.0679 0.7902 0.6091
vn -0.1112 0.7532 0.6483
vn -0.1063 0.8407 0.5309
vn -0.1745 0.8361 0.5200
vn -0.0504 0.8862 0.4606
vn -0.0826 0.9107 0.4046
vn 0.0678 0.8798 0.4704
vn 0.1112 0.9004 0.4206
vn 0.1063 0.8293 0.5486
vn 0.1745 0.8175 0.5489
vn 0.0503 0.7838 0.6189
vn 0.0827 0.7429 0.6643
vn -0.1364 0.7033 0.6977
vn -0.1773 0.5979 0.7816
vn -0.1159 0.6963 0.7083
vn -0.0939 0.6910 0.7167
vn -0.2455 0.8141 0.5262
vn -0.3744 0.7581 0.5339
vn -0.2447 0.8009 0.5464
vn -0.2408 0.7881 0.5665
vn -0.1364 0.9249 0.3548
vn -0.2387 0.9360 0.2587
vn -0.1560 0.9172 0.3665
vn -0.1736 0.9084 0.3804
vn 0.1364 0.9249 0.3548
vn 0.1773 0.9582 0.2243
vn 0.1159 0.9318 0.3441
vn 0.0939 0.9372 0.3358
vn 0.2455 0.8141 0.5262
vn 0.3744 0.7981 0.4720
vn 0.2447 0.8271 0.5059
vn 0.2408 0.8401 0.4860
vn 0.1364 0.7033 0.6977
vn 0.2387 0.6202 0.7472
vn 0.1559 0.7108 0.6858
vn 0.1736 0.7199 0.6720
vn -0.1092 0.5826 0.8054
vn -0.0714 0.6863 0.7238
vn -0.0479 0.6834 0.7284
vn -0.3601 0.7188 0.5947
vn -0.2353 0.7753 0.5861
vn -0.2268 0.7631 0.6052
vn -0.2908 0.9077 0.3025
vn -0.1901 0.8987 0.3952
vn -0.2041 0.8881 0.4117
vn 0.1092 0.9735 0.2006
vn 0.0714 0.9418 0.3286
vn 0.0479 0.9448 0.3240
vn 0.3600 0.8374 0.4112
vn 0.2353 0.8528 0.4662
vn 0.2268 0.8651 0.4473
vn 0.2908 0.6485 0.7034
vn 0.1901 0.7293 0.6572
vn 0.2041 0.7401 0.6408
vn -0.0369 0.5748 0.8174
vn -0.0240 0.6812 0.7317
vn 0.0000 0.6808 0.7324
vn -0.3318 0.6818 0.6519
vn -0.2168 0.7511 0.6235
vn -0.2041 0.7401 0.6408
vn -0.3318 0.8744 0.3540
vn -0.2169 0.8769 0.4288
vn -0.2268 0.8651 0.4473
vn 0.0000 0.9474 0.3201
vn -0.0369 0.9814 0.1885
vn -0.0241 0.9469 0.3207
vn -0.0479 0.9448 0.3240
vn 0.0369 0.9814 0.1885
vn 0.0241 0.9469 0.3207
vn 0.3318 0.8744 0.3540
vn 0.2169 0.8769 0.4288
vn 0.2041 0.8881 0.4117
vn 0.3318 0.6818 0.6519
vn 0.2168 0.7511 0.6235
vn 0.2268 0.7631 0.6052
vn 0.0368 0.5748 0.8174
vn 0.0241 0.6812 0.7317
vn 0.0479 0.6834 0.7284
vn -0.2908 0.6485 0.7034
vn -0.1901 0.7293 0.6572
vn -0.1736 0.7199 0.6720
vn -0.3600 0.8374 0.4112
vn -0.2353 0.8528 0.4662
vn -0.2408 0.8401 0.4860
vn -0.1092 0.9735 0.2006
vn -0.0714 0.9418 0.3286
vn -0.0939 0.9372 0.3358
vn 0.2909 0.9077 0.3025
vn 0.1901 0.8987 0.3952
vn 0.1736 0.9084 0.3804
vn 0.3601 0.7188 0.5947
vn 0.2353 0.7753 0.5861
vn 0.2408 0.7881 0.5665
vn 0.1092 0.5826 0.8054
vn 0.0714 0.6863 0.7238
vn 0.0939 0.6910 0.7167
vn -0.2387 0.6202 0.7472
vn -0.1560 0.7108 0.6858
vn -0.3744 0.7981 0.4720
vn -0.2447 0.8271 0.5059
vn -0.1773 0.9582 0.2243
vn -0.1159 0.9318 0.3440
vn 0.2387 0.9360 0.2587
vn 0.1560 0.9172 0.3665
vn 0.3744 0.7581 0.5339
vn 0.2447 0.8009 0.5464
vn 0.1773 0.5979 0.7816
vn 0.1159 0.6963 0.7083
vn -0.3827 -0.5015 0.7759
vn -0.4714 -0.4787 0.7407
vn -0.5556 -0.4513 0.6983
vn -0.3827 -0.5015 0.7758
vn -0.9808 -0.1059 0.1638
vn -0.9952 -0.0532 0.0823
vn -1.0000 0.0000 0.0000
vn -0.6344 0.4196 -0.6492
vn -0.7071 0.3839 -0.5938
vn -0.5556 0.4514 -0.6983
vn -0.6344 0.4197 -0.6492
vn 0.3827 0.5015 -0.7759
vn 0.4714 0.4787 -0.7407
vn 0.4714 0.4788 -0.7406
vn 0.5556 0.4514 -0.6983
vn 0.9808 0.1059 -0.1638
vn 0.9952 0.0532 -0.0823
vn 1.0000 0.0000 0.0000
vn 0.6344 -0.4196 0.6492
vn 0.7071 -0.3839 0.5938
vn 0.5556 -0.4513 0.6983
vn 0.7071 -0.3838 0.5938
vn -0.1951 -0.5324 0.8237
vn -0.2903 -0.5195 0.8037
vn -0.2903 -0.5195 0.8036
vn -0.9239 -0.2077 0.3214
vn -0.9569 -0.1576 0.2438
vn -0.8314 0.3016 -0.4666
vn -0.7730 0.3443 -0.5327
vn -0.7730 0.3444 -0.5327
vn -0.7071 0.3838 -0.5938
vn 0.1951 0.5324 -0.8237
vn 0.2903 0.5195 -0.8036
vn 0.9239 0.2077 -0.3214
vn 0.9569 0.1576 -0.2438
vn 0.8314 -0.3016 0.4666
vn 0.7730 -0.3444 0.5328
vn 0.0000 -0.5428 0.8398
vn -0.0980 -0.5403 0.8357
vn -0.0980 -0.5402 0.8358
vn -0.8314 -0.3016 0.4666
vn -0.8819 -0.2559 0.3959
vn -0.9239 0.2077 -0.3214
vn -0.8819 0.2559 -0.3959
vn -0.0981 0.5402 -0.8358
vn -0.1950 0.5324 -0.8237
vn -0.0980 0.5403 -0.8357
vn 0.0000 0.5428 -0.8398
vn -0.0980 0.5402 -0.8358
vn -0.1951 0.5324 -0.8237
vn 0.0980 0.5403 -0.8357
vn 0.0980 0.5402 -0.8358
vn 0.8314 0.3016 -0.4666
vn 0.8819 0.2559 -0.3959
vn 0.8314 0.3016 -0.4665
vn 0.9239 -0.2077 0.3214
vn 0.8819 -0.2559 0.3959
vn 0.1951 -0.5324 0.8237
vn 0.0980 -0.5403 0.8357
vn 0.0980 -0.5402 0.8358
vn -0.7071 -0.3838 0.5938
vn -0.7730 -0.3444 0.5328
vn -0.9808 0.1059 -0.1638
vn -0.9569 0.1576 -0.2438
vn -0.3827 0.5015 -0.7759
vn -0.2903 0.5195 -0.8036
vn 0.7730 0.3444 -0.5328
vn 0.7071 0.3839 -0.5938
vn 0.7730 0.3444 -0.5327
vn 0.7071 0.3838 -0.5938
vn 0.9808 -0.1059 0.1638
vn 0.9569 -0.1576 0.2438
vn 0.3826 -0.5015 0.7759
vn 0.2902 -0.5195 0.8037
vn 0.2903 -0.5195 0.8036
vn 0.1951 -0.5325 0.8237
vn -0.6344 -0.4197 0.6492
vn -0.6344 -0.4196 0.6492
vn -0.7071 -0.3839 0.5938
vn -0.9952 0.0532 -0.0823
vn -0.4714 0.4787 -0.7407
vn 0.6344 0.4196 -0.6492
vn 0.9952 -0.0532 0.0823
vn 0.4714 -0.4787 0.7407
vn 0.4714 -0.4788 0.7406
vn 0.3827 -0.5015 0.7759
vn -0.4059 0.0148 0.9138
vn -0.1440 0.5894 0.7949
vn -0.2090 0.6082 0.7657
vn -0.4784 0.0383 0.8773
vn -0.3295 -0.0048 0.9441
vn -0.8569 0.3812 0.3469
vn -0.3690 0.7382 0.5646
vn -0.3763 0.7781 0.5029
vn -0.8610 0.4270 0.2760
vn -0.8445 0.3358 0.4171
vn -0.5463 0.7884 -0.2829
vn -0.2660 0.9225 0.2795
vn -0.2090 0.9479 0.2402
vn -0.4783 0.8157 -0.3253
vn -0.6089 0.7575 -0.2353
vn 0.4059 0.8393 -0.3617
vn 0.1440 0.9668 0.2110
vn 0.2090 0.9479 0.2402
vn 0.4783 0.8157 -0.3253
vn 0.3295 0.8589 -0.3920
vn 0.8569 0.4729 0.2051
vn 0.3690 0.8179 0.4413
vn 0.3763 0.7781 0.5029
vn 0.8611 0.4270 0.2760
vn 0.8445 0.5182 0.1349
vn 0.5463 0.0657 0.8350
vn 0.2661 0.6337 0.7264
vn 0.2090 0.6082 0.7657
vn 0.4784 0.0384 0.8773
vn 0.6089 0.0965 0.7873
vn -0.2499 -0.0202 0.9680
vn -0.0734 0.5777 0.8129
vn -0.1679 -0.0315 0.9853
vn -0.8240 0.2914 0.4859
vn -0.3476 0.6999 0.6239
vn -0.7955 0.2481 0.5528
vn -0.6656 0.7236 -0.1827
vn -0.3128 0.8916 0.3274
vn -0.7160 0.6867 -0.1257
vn 0.2500 0.8743 -0.4160
vn 0.0734 0.9784 0.1930
vn 0.1680 0.8855 -0.4332
vn 0.8240 0.5627 0.0661
vn 0.3476 0.8563 0.3820
vn 0.7955 0.6059 -0.0007
vn 0.6656 0.1305 0.7348
vn 0.3128 0.6646 0.6785
vn 0.7160 0.1673 0.6778
vn -0.0844 -0.0381 0.9957
vn 0.0000 0.5738 0.8189
vn 0.0000 -0.0404 0.9992
vn -0.7594 0.2067 0.6169
vn -0.3128 0.6646 0.6785
vn -0.7160 0.1673 0.6778
vn -0.7594 0.6474 -0.0649
vn -0.3476 0.8563 0.3820
vn -0.7955 0.6059 -0.0007
vn -0.0844 0.8922 -0.4436
vn -0.0734 0.9784 0.1930
vn 0.0000 0.9824 0.1870
vn 0.0000 0.8945 -0.4471
vn -0.1680 0.8855 -0.4332
vn 0.0844 0.8922 -0.4436
vn 0.1950 0.5324 -0.8237
vn 0.7594 0.6474 -0.0649
vn 0.3128 0.8916 0.3274
vn 0.7159 0.6867 -0.1258
vn 0.7594 0.2067 0.6169
vn 0.3476 0.6999 0.6239
vn 0.7955 0.2481 0.5528
vn 0.0844 -0.0381 0.9957
vn 0.0734 0.5777 0.8129
vn 0.1680 -0.0315 0.9853
vn -0.6656 0.1305 0.7348
vn -0.2661 0.6337 0.7264
vn -0.6089 0.0964 0.7873
vn -0.8239 0.5628 0.0661
vn -0.3690 0.8179 0.4413
vn -0.8445 0.5182 0.1349
vn -0.2500 0.8743 -0.4160
vn -0.1440 0.9668 0.2110
vn -0.3295 0.8589 -0.3920
vn 0.6656 0.7236 -0.1827
vn 0.2660 0.9225 0.2795
vn 0.6088 0.7576 -0.2352
vn 0.8240 0.2914 0.4859
vn 0.3690 0.7382 0.5646
vn 0.8445 0.3358 0.4171
vn 0.2499 -0.0202 0.9680
vn 0.1440 0.5894 0.7949
vn 0.3295 -0.0048 0.9441
vn -0.5462 0.0657 0.8350
vn -0.8569 0.4729 0.2051
vn -0.4059 0.8393 -0.3617
vn 0.5463 0.7884 -0.2829
vn 0.8569 0.3812 0.3469
vn 0.4059 0.0148 0.9138
vn 0.0000 0.8398 0.5429
vn -0.5556 0.4513 -0.6983
vn -0.5555 0.4514 -0.6983
vn 0.3827 0.5015 -0.7758
vn 0.5556 0.4513 -0.6983
vn 0.5555 0.4514 -0.6983
vn 0.9808 0.1059 -0.1639
vn -0.1950 -0.5325 0.8237
vn -0.8315 0.3016 -0.4665
vn 0.0000 -0.5429 0.8398
vn 0.0000 0.5429 -0.8398
vn -0.1950 0.5325 -0.8236
vn 0.9239 -0.2078 0.3214
vn -0.3827 0.5015 -0.7758
vn 0.3827 -0.5016 0.7758
s 1
f 1/1/1 420/2/2 225/3/3
f 1/1/1 419/4/4 162/5/5
f 162/5/5 195/6/6 1/1/1
f 2/7/7 422/8/8 226/9/9
f 2/7/7 421/10/10 164/11/11
f 164/11/11 197/12/12 2/7/7
f 3/13/13 424/14/14 227/15/15
f 3/13/13 423/16/16 166/17/17
f 166/17/17 199/18/18 3/13/13
f 4/19/19 426/20/20 228/21/21
f 4/19/19 425/22/22 168/23/23
f 168/23/23 201/24/24 4/19/19
f 5/25/25 428/26/26 229/27/27
f 5/25/25 427/28/28 170/29/29
f 170/29/29 203/30/30 5/25/25
f 6/31/31 430/32/32 230/33/33
f 6/31/31 429/34/34 172/35/35
f 172/35/35 205/36/36 6/31/31
f 7/37/37 419/4/4 231/38/38
f 7/37/37 431/39/39 174/40/40
f 174/40/40 162/5/5 7/37/37
f 8/41/41 421/10/10 232/42/42
f 8/41/41 432/43/43 175/44/44
f 175/44/44 164/11/11 8/41/41
f 9/45/45 423/16/16 233/46/46
f 9/45/45 433/47/47 176/48/48
f 176/48/48 166/17/17 9/45/45
f 10/49/49 425/22/22 234/50/50
f 10/49/49 434/51/51 177/52/52
f 177/52/52 168/23/23 10/49/49
f 11/53/53 427/28/28 235/54/54
f 11/53/53 435/55/55 178/56/56
f 178/56/56 170/29/29 11/53/53
f 12/57/57 429/34/34 236/58/58
f 12/57/57 436/59/59 179/60/60
f 179/60/60 172/35/35 12/57/57
f 13/61/61 431/39/39 237/62/62
f 13/61/61 437/63/63 180/64/64
f 180/64/64 174/40/40 13/61/61
f 14/65/65 432/43/43 238/66/66
f 14/65/65 438/67/67 181/68/68
f 181/68/68 175/44/44 14/65/65
f 15/69/69 433/47/47 239/70/70
f 15/69/69 439/71/71 182/72/72
f 182/72/72 176/48/48 15/69/69
f 16/73/73 418/74/74 240/75/75
f 16/73/73 440/76/76 183/77/77
f 183/77/77 193/78/78 16/73/73
f 17/79/79 434/51/51 241/80/80
f 17/79/79 418/74/74 193/78/78
f 193/78/78 177/52/52 17/79/79
f 18/81/81 435/55/55 242/82/82
f 18/81/81 441/83/83 184/84/84
f 184/84/84 178/56/56 18/81/81
f 19/85/85 436/59/59 243/86/86
f 19/85/85 442/87/87 185/88/88
f 185/88/88 179/60/60 19/85/85
f 20/89/89 437/63/63 244/90/90
f 20/89/89 443/91/91 186/92/92
f 186/92/92 180/64/64 20/89/89
f 21/93/93 438/67/67 245/94/94
f 21/93/93 444/95/95 187/96/96
f 187/96/96 181/68/68 21/93/93
f 22/97/97 439/71/71 246/98/98
f 22/97/97 445/99/99 188/100/100
f 188/100/100 182/72/72 22/97/97
f 23/101/101 440/76/76 247/102/102
f 23/101/101 446/103/103 189/104/104
f 189/104/104 183/77/77 23/101/101
f 24/105/105 441/83/83 248/106/106
f 24/105/105 447/107/107 190/108/108
f 190/108/108 184/84/84 24/105/105
f 25/109/109 442/87/87 249/110/110
f 25/109/109 448/111/111 191/112/112
f 191/112/112 185/88/88 25/109/109
f 26/113/113 443/91/91 250/114/114
f 26/113/113 449/115/115 192/116/116
f 192/116/116 186/92/92 26/113/113
f 27/117/117 444/95/95 251/118/118
f 27/117/117 420/2/2 195/6/6
f 195/6/6 187/96/96 27/117/117
f 28/119/119 445/99/99 252/120/120
f 28/119/119 422/8/8 197/12/12
f 197/12/12 188/100/100 28/119/119
f 29/121/121 446/103/103 253/122/122
f 29/121/121 424/14/14 199/18/18
f 199/18/18 189/104/104 29/121/121
f 30/123/123 447/107/107 254/124/124
f 30/123/123 426/20/20 201/24/24
f 201/24/24 190/108/108 30/123/123
f 31/125/125 448/111/111 255/126/126
f 31/125/125 428/26/26 203/30/30
f 203/30/30 191/112/112 31/125/125
f 32/127/127 449/115/115 256/128/128
f 32/127/127 430/32/32 205/36/36
f 205/36/36 192/116/116 32/127/127
f 163/129/129 142/130/130 33/131/131
f 142/130/130 194/132/132 33/131/131
f 194/132/132 225/3/3 33/131/131
f 225/3/3 163/129/129 33/131/131
f 165/133/133 137/134/134 34/135/135
f 137/134/134 196/136/136 34/135/135
f 196/136/136 226/9/9 34/135/135
f 226/9/9 165/133/133 34/135/135
f 167/137/137 132/138/138 35/139/139
f 132/138/138 198/140/140 35/139/139
f 198/140/140 227/15/15 35/139/139
f 227/15/15 167/137/137 35/139/139
f 169/141/141 158/142/142 36/143/143
f 158/142/142 200/144/144 36/143/143
f 200/144/144 228/21/21 36/143/143
f 228/21/21 169/141/141 36/143/143
f 171/145/145 153/146/146 37/147/147
f 153/146/146 202/148/148 37/147/147
f 202/148/148 229/27/27 37/147/147
f 229/27/27 171/145/145 37/147/147
f 173/149/149 148/150/150 38/151/151
f 148/150/150 204/152/152 38/151/151
f 204/152/152 230/33/33 38/151/151
f 230/33/33 173/149/149 38/151/151
f 194/132/132 143/153/153 39/154/154
f 143/153/153 206/155/155 39/154/154
f 206/155/155 231/38/38 39/154/154
f 231/38/38 194/132/132 39/154/154
f 196/136/136 138/156/156 40/157/157
f 138/156/156 207/158/158 40/157/157
f 207/158/158 232/42/42 40/157/157
f 232/42/42 196/136/136 40/157/157
f 198/140/140 133/159/159 41/160/160
f 133/159/159 208/161/161 41/160/160
f 208/161/161 233/46/46 41/160/160
f 233/46/46 198/140/140 41/160/160
f 200/144/144 159/162/162 42/163/163
f 159/162/162 209/164/164 42/163/163
f 209/164/164 234/50/50 42/163/163
f 234/50/50 200/144/144 42/163/163
f 202/148/148 154/165/165 43/166/166
f 154/165/165 210/167/167 43/166/166
f 210/167/167 235/54/54 43/166/166
f 235/54/54 202/148/148 43/166/166
f 204/152/152 149/168/168 44/169/169
f 149/168/168 211/170/170 44/169/169
f 211/170/170 236/58/58 44/169/169
f 236/58/58 204/152/152 44/169/169
f 206/155/155 144/171/171 45/172/172
f 144/171/171 212/173/173 45/172/172
f 212/173/173 237/62/62 45/172/172
f 237/62/62 206/155/155 45/172/172
f 207/158/158 139/174/174 46/175/175
f 139/174/174 213/176/176 46/175/175
f 213/176/176 238/66/66 46/175/175
f 238/66/66 207/158/158 46/175/175
f 208/161/161 134/177/177 47/178/178
f 134/177/177 214/179/179 47/178/178
f 214/179/179 239/70/70 47/178/178
f 239/70/70 208/161/161 47/178/178
f 161/180/180 129/181/181 48/182/182
f 129/181/181 215/183/183 48/182/182
f 215/183/183 240/75/75 48/182/182
f 240/75/75 161/180/180 48/182/182
f 209/164/164 160/184/184 49/185/185
f 160/184/184 161/180/180 49/185/185
f 161/180/180 241/80/80 49/185/185
f 241/80/80 209/164/164 49/185/185
f 210/167/167 155/186/186 50/187/187
f 155/186/186 216/188/188 50/187/187
f 216/188/188 242/82/82 50/187/187
f 242/82/82 210/167/167 50/187/187
f 211/170/170 150/189/189 51/190/190
f 150/189/189 217/191/191 51/190/190
f 217/191/191 243/86/86 51/190/190
f 243/86/86 211/170/170 51/190/190
f 212/173/173 145/192/192 52/193/193
f 145/192/192 218/194/194 52/193/193
f 218/194/194 244/90/90 52/193/193
f 244/90/90 212/173/173 52/193/193
f 213/176/176 140/195/195 53/196/196
f 140/195/195 219/197/197 53/196/196
f 219/197/197 245/94/94 53/196/196
f 245/94/94 213/176/176 53/196/196
f 214/179/179 135/198/198 54/199/199
f 135/198/198 220/200/200 54/199/199
f 220/200/200 246/98/98 54/199/199
f 246/98/98 214/179/179 54/199/199
f 215/183/183 130/201/201 55/202/202
f 130/201/201 221/203/203 55/202/202
f 221/203/203 247/102/102 55/202/202
f 247/102/102 215/183/183 55/202/202
f 216/188/188 156/204/204 56/205/205
f 156/204/204 222/206/206 56/205/205
f 222/206/206 248/106/106 56/205/205
f 248/106/106 216/188/188 56/205/205
f 217/191/191 151/207/207 57/208/208
f 151/207/207 223/209/209 57/208/208
f 223/209/209 249/110/110 57/208/208
f 249/110/110 217/191/191 57/208/208
f 218/194/194 146/210/210 58/211/211
f 146/210/210 224/212/212 58/211/211
f 224/212/212 250/114/114 58/211/211
f 250/114/114 218/194/194 58/211/211
f 219/197/197 141/213/213 59/214/214
f 141/213/213 163/129/129 59/214/214
f 163/129/129 251/118/118 59/214/214
f 251/118/118 219/197/197 59/214/214
f 220/200/200 136/215/215 60/216/216
f 136/215/215 165/133/133 60/216/216
f 165/133/133 252/120/120 60/216/216
f 252/120/120 220/200/200 60/216/216
f 221/203/203 131/217/217 61/218/218
f 131/217/217 167/137/137 61/218/218
f 167/137/137 253/122/122 61/218/218
f 253/122/122 221/203/203 61/218/218
f 222/206/206 157/219/219 62/220/220
f 157/219/219 169/141/141 62/220/220
f 169/141/141 254/124/124 62/220/220
f 254/124/124 222/206/206 62/220/220
f 223/209/209 152/221/221 63/222/222
f 152/221/221 171/145/145 63/222/222
f 171/145/145 255/126/126 63/222/222
f 255/126/126 223/209/209 63/222/222
f 224/212/212 147/223/223 64/224/224
f 147/223/223 173/149/149 64/224/224
f 173/149/149 256/128/128 64/224/224
f 256/128/128 224/212/212 64/224/224
f 322/225/225 353/226/226 65/227/226
f 353/226/226 289/228/227 65/227/226
f 289/228/227 270/229/226 65/227/226
f 65/227/226 464/230/228 322/225/225
f 324/231/229 354/232/230 66/233/230
f 354/232/230 291/234/231 66/233/230
f 291/234/231 265/235/230 66/233/230
f 265/235/230 324/231/229 66/233/230
f 67/236/232 487/237/233 355/238/232
f 355/238/232 293/239/234 67/236/232
f 293/239/234 260/240/235 67/236/232
f 260/240/235 326/241/233 67/236/232
f 328/242/236 356/243/237 68/244/238
f 356/243/237 295/245/239 68/244/238
f 295/245/239 286/246/238 68/244/238
f 286/246/238 328/242/236 68/244/238
f 330/247/240 357/248/241 69/249/241
f 357/248/241 297/250/242 69/249/241
f 297/250/242 281/251/241 69/249/241
f 281/251/241 330/247/240 69/249/241
f 70/252/243 493/253/244 358/254/243
f 358/254/243 299/255/245 70/252/243
f 299/255/245 276/256/243 70/252/243
f 70/252/243 470/257/246 332/258/246
f 333/259/247 359/260/248 71/261/249
f 71/261/249 483/262/225 322/225/225
f 322/225/225 271/263/249 71/261/249
f 71/261/249 465/264/247 333/259/247
f 334/265/250 360/266/251 72/267/251
f 360/266/251 324/231/229 72/267/251
f 324/231/229 266/268/251 72/267/251
f 266/268/251 334/265/250 72/267/251
f 335/269/252 361/270/253 73/271/254
f 73/271/254 487/237/233 326/241/233
f 73/271/254 454/272/255 261/273/254
f 261/273/254 335/269/252 73/271/254
f 336/274/256 362/275/257 74/276/257
f 362/275/257 328/242/236 74/276/257
f 328/242/236 287/277/257 74/276/257
f 287/277/257 336/274/256 74/276/257
f 337/278/258 363/279/259 75/280/259
f 363/279/259 330/247/240 75/280/259
f 330/247/240 282/281/259 75/280/259
f 75/280/259 476/282/258 337/278/258
f 338/283/260 364/284/261 76/285/261
f 364/284/261 332/258/246 76/285/261
f 332/258/246 277/286/261 76/285/261
f 277/286/261 338/283/260 76/285/261
f 339/287/262 365/288/263 77/289/264
f 365/288/263 333/259/247 77/289/264
f 333/259/247 272/290/264 77/289/264
f 272/290/264 339/287/262 77/289/264
f 340/291/265 366/292/266 78/293/266
f 366/292/266 334/265/250 78/293/266
f 78/293/266 460/294/250 267/295/266
f 267/295/266 340/291/265 78/293/266
f 341/296/267 367/297/268 79/298/268
f 367/297/268 335/269/252 79/298/268
f 335/269/252 262/299/268 79/298/268
f 79/298/268 456/300/267 341/296/267
f 80/301/269 504/302/270 368/303/271
f 368/303/271 310/304/272 80/301/269
f 310/304/272 257/305/273 80/301/269
f 257/305/273 343/306/274 80/301/269
f 310/304/272 369/307/275 81/308/276
f 369/307/275 336/274/256 81/308/276
f 336/274/256 288/309/276 81/308/276
f 81/308/276 450/310/272 310/304/272
f 344/311/277 370/312/278 82/313/278
f 82/313/278 498/314/258 337/278/258
f 337/278/258 283/315/278 82/313/278
f 82/313/278 477/316/279 344/311/277
f 345/317/280 371/318/281 83/319/281
f 371/318/281 338/283/260 83/319/281
f 338/283/260 278/320/281 83/319/281
f 278/320/281 345/317/280 83/319/281
f 346/321/282 372/322/283 84/323/284
f 372/322/283 339/287/262 84/323/284
f 339/287/262 273/324/284 84/323/284
f 84/323/284 467/325/282 346/321/282
f 347/326/285 373/327/286 85/328/286
f 373/327/286 340/291/265 85/328/286
f 85/328/286 461/329/265 268/330/286
f 268/330/286 347/326/285 85/328/286
f 348/331/287 374/332/288 86/333/288
f 86/333/288 502/334/267 341/296/267
f 341/296/267 263/335/288 86/333/288
f 263/335/288 348/331/287 86/333/288
f 349/336/289 375/337/290 87/338/290
f 375/337/290 343/306/274 87/338/290
f 343/306/274 258/339/290 87/338/290
f 258/339/290 349/336/289 87/338/290
f 88/340/291 511/341/292 376/342/293
f 376/342/293 344/311/277 88/340/291
f 344/311/277 284/343/291 88/340/291
f 284/343/291 350/344/294 88/340/291
f 351/345/295 377/346/296 89/347/296
f 377/346/296 345/317/280 89/347/296
f 345/317/280 279/348/296 89/347/296
f 279/348/296 351/345/295 89/347/296
f 352/349/297 378/350/298 90/351/299
f 90/351/299 507/352/300 346/321/282
f 346/321/282 274/353/299 90/351/299
f 274/353/299 352/349/297 90/351/299
f 289/228/227 379/354/301 91/355/302
f 91/355/302 508/356/303 347/326/285
f 347/326/285 269/357/302 91/355/302
f 269/357/302 289/228/227 91/355/302
f 291/234/231 380/358/304 92/359/304
f 92/359/304 509/360/287 348/331/287
f 348/331/287 264/361/304 92/359/304
f 92/359/304 458/362/231 291/234/231
f 293/239/234 381/363/305 93/364/305
f 381/363/305 349/336/289 93/364/305
f 349/336/289 259/365/305 93/364/305
f 259/365/305 293/239/234 93/364/305
f 295/245/239 382/366/306 94/367/306
f 382/366/306 350/344/294 94/367/306
f 94/367/306 478/368/294 285/369/306
f 285/369/306 295/245/239 94/367/306
f 297/250/242 383/370/307 95/371/307
f 95/371/307 512/372/295 351/345/295
f 95/371/307 473/373/295 280/374/307
f 280/374/307 297/250/242 95/371/307
f 299/255/245 384/375/308 96/376/309
f 96/376/309 513/377/310 352/349/297
f 352/349/297 275/378/309 96/376/309
f 275/378/309 299/255/245 96/376/309
f 97/379/311 399/380/312 142/130/130
f 97/379/311 398/381/313 321/382/314
f 321/382/314 353/226/226 97/379/311
f 353/226/226 290/383/315 97/379/311
f 98/384/316 394/385/317 137/134/134
f 98/384/316 393/386/318 323/387/319
f 323/387/319 354/232/230 98/384/316
f 354/232/230 292/388/320 98/384/316
f 99/389/321 389/390/322 132/138/138
f 99/389/321 388/391/323 325/392/324
f 325/392/324 355/238/232 99/389/321
f 355/238/232 294/393/325 99/389/321
f 100/394/326 415/395/327 158/142/142
f 100/394/326 414/396/328 327/397/329
f 327/397/329 356/243/237 100/394/326
f 356/243/237 296/398/330 100/394/326
f 101/399/331 410/400/332 153/146/146
f 101/399/331 409/401/333 329/402/334
f 329/402/334 357/248/241 101/399/331
f 357/248/241 298/403/335 101/399/331
f 102/404/336 405/405/337 148/150/150
f 102/404/336 404/406/338 331/407/339
f 331/407/339 358/254/243 102/404/336
f 102/404/336 493/253/244 300/408/340
f 103/409/341 400/410/342 143/153/153
f 103/409/341 399/380/312 290/383/315
f 103/409/341 483/262/225 359/260/248
f 359/260/248 301/411/343 103/409/341
f 104/412/344 395/413/345 138/156/156
f 104/412/344 394/385/317 292/388/320
f 292/388/320 360/266/251 104/412/344
f 360/266/251 302/414/346 104/412/344
f 105/415/347 390/416/348 133/159/159
f 105/415/347 389/417/322 294/393/325
f 294/393/325 361/270/253 105/415/347
f 361/270/253 303/418/349 105/415/347
f 106/419/350 416/420/351 159/162/162
f 106/419/350 415/395/327 296/398/330
f 296/398/330 362/275/257 106/419/350
f 362/275/257 304/421/352 106/419/350
f 107/422/353 411/423/354 154/165/165
f 107/422/353 410/400/332 298/403/335
f 298/403/335 363/279/259 107/422/353
f 363/279/259 305/424/355 107/422/353
f 108/425/356 406/426/357 149/168/168
f 108/425/356 405/427/337 300/408/340
f 300/408/340 364/284/261 108/425/356
f 364/284/261 306/428/358 108/425/356
f 109/429/359 401/430/360 144/171/171
f 109/429/359 400/410/342 301/411/343
f 301/411/343 365/288/263 109/429/359
f 365/288/263 307/431/361 109/429/359
f 110/432/362 396/433/363 139/174/174
f 110/432/362 395/413/345 302/414/346
f 302/414/346 366/292/266 110/432/362
f 366/292/266 308/434/364 110/432/362
f 111/435/365 391/436/366 134/177/177
f 111/435/365 390/416/348 303/418/349
f 303/418/349 367/297/268 111/435/365
f 367/297/268 309/437/367 111/435/365
f 112/438/368 386/439/369 129/181/181
f 112/438/368 385/440/370 342/441/371
f 342/441/371 368/303/271 112/438/368
f 368/303/271 311/442/372 112/438/368
f 113/443/373 385/440/370 160/184/184
f 113/443/373 416/420/351 304/421/352
f 113/443/373 497/444/374 369/307/275
f 369/307/275 342/441/371 113/443/373
f 114/445/375 412/446/376 155/186/186
f 114/445/375 411/423/354 305/424/355
f 114/445/375 498/314/258 370/312/278
f 114/445/375 505/447/277 312/448/377
f 115/449/378 407/450/379 150/189/189
f 115/449/378 406/426/357 306/428/358
f 306/428/358 371/318/281 115/449/378
f 371/318/281 313/451/380 115/449/378
f 116/452/381 402/453/382 145/192/192
f 116/452/381 401/430/360 307/431/361
f 307/431/361 372/322/283 116/452/381
f 372/322/283 314/454/383 116/452/381
f 117/455/384 397/456/385 140/195/195
f 117/455/384 396/433/363 308/434/364
f 308/434/364 373/327/286 117/455/384
f 373/327/286 315/457/386 117/455/384
f 118/458/387 392/459/388 135/198/198
f 118/458/387 391/436/366 309/437/367
f 118/458/387 502/334/267 374/332/288
f 374/332/288 316/460/389 118/458/387
f 119/461/390 387/462/391 130/201/201
f 119/461/390 386/439/369 311/442/372
f 311/442/372 375/337/290 119/461/390
f 375/337/290 317/463/392 119/461/390
f 120/464/393 413/465/394 156/204/204
f 120/464/393 412/446/376 312/448/377
f 312/448/377 376/342/293 120/464/393
f 120/464/393 511/341/292 318/466/395
f 121/467/396 408/468/397 151/207/207
f 121/467/396 407/450/379 313/451/380
f 313/451/380 377/346/296 121/467/396
f 377/346/296 319/469/398 121/467/396
f 122/470/399 403/471/400 146/210/210
f 122/470/399 402/453/382 314/454/383
f 122/470/399 507/352/300 378/350/298
f 378/350/298 320/472/401 122/470/399
f 123/473/402 398/381/313 141/213/213
f 123/473/402 397/456/385 315/457/386
f 315/457/386 379/354/301 123/473/402
f 379/354/301 321/382/314 123/473/402
f 124/474/403 393/386/318 136/215/215
f 124/474/403 392/459/388 316/460/389
f 316/460/389 380/358/304 124/474/403
f 380/358/304 323/387/319 124/474/403
f 125/475/404 388/391/323 131/217/217
f 125/475/404 387/462/391 317/463/392
f 317/463/392 381/363/305 125/475/404
f 381/363/305 325/392/324 125/475/404
f 126/476/405 414/396/328 157/219/219
f 126/476/405 413/465/394 318/466/395
f 318/466/395 382/366/306 126/476/405
f 382/366/306 327/397/329 126/476/405
f 127/477/406 409/401/333 152/221/221
f 127/477/406 408/468/397 319/469/398
f 127/477/406 512/372/295 383/370/307
f 383/370/307 329/402/334 127/477/406
f 128/478/407 404/406/338 147/223/223
f 128/478/407 403/471/400 320/472/401
f 320/472/401 384/375/308 128/478/407
f 384/375/308 331/407/339 128/478/407
f 1/1/1 195/6/6 420/2/2
f 1/1/1 225/3/3 419/4/4
f 162/5/5 417/479/408 195/6/6
f 2/7/7 197/12/12 422/8/8
f 2/7/7 226/9/9 421/10/10
f 164/11/11 417/479/408 197/12/12
f 3/13/13 199/18/18 424/14/14
f 3/13/13 227/15/15 423/16/16
f 166/17/17 417/479/408 199/18/18
f 4/19/19 201/24/24 426/20/20
f 4/19/19 228/21/21 425/22/22
f 168/23/23 417/479/408 201/24/24
f 5/25/25 203/30/30 428/26/26
f 5/25/25 229/27/27 427/28/28
f 170/29/29 417/479/408 203/30/30
f 6/31/31 205/36/36 430/32/32
f 6/31/31 230/33/33 429/34/34
f 172/35/35 417/479/408 205/36/36
f 7/37/37 162/5/5 419/4/4
f 7/37/37 231/38/38 431/39/39
f 174/40/40 417/479/408 162/5/5
f 8/41/41 164/11/11 421/10/10
f 8/41/41 232/42/42 432/43/43
f 175/44/44 417/479/408 164/11/11
f 9/45/45 166/17/17 423/16/16
f 9/45/45 233/46/46 433/47/47
f 176/48/48 417/479/408 166/17/17
f 10/49/49 168/23/23 425/22/22
f 10/49/49 234/50/50 434/51/51
f 177/52/52 417/479/408 168/23/23
f 11/53/53 170/29/29 427/28/28
f 11/53/53 235/54/54 435/55/55
f 178/56/56 417/479/408 170/29/29
f 12/57/57 172/35/35 429/34/34
f 12/57/57 236/58/58 436/59/59
f 179/60/60 417/479/408 172/35/35
f 13/61/61 174/40/40 431/39/39
f 13/61/61 237/62/62 437/63/63
f 180/64/64 417/479/408 174/40/40
f 14/65/65 175/44/44 432/43/43
f 14/65/65 238/66/66 438/67/67
f 181/68/68 417/479/408 175/44/44
f 15/69/69 176/48/48 433/47/47
f 15/69/69 239/70/70 439/71/71
f 182/72/72 417/479/408 176/48/48
f 16/73/73 193/78/78 418/74/74
f 16/73/73 240/75/75 440/76/76
f 183/77/77 417/479/408 193/78/78
f 17/79/79 177/52/52 434/51/51
f 17/79/79 241/80/80 418/74/74
f 193/78/78 417/479/408 177/52/52
f 18/81/81 178/56/56 435/55/55
f 18/81/81 242/82/82 441/83/83
f 184/84/84 417/479/408 178/56/56
f 19/85/85 179/60/60 436/59/59
f 19/85/85 243/86/86 442/87/87
f 185/88/88 417/479/408 179/60/60
f 20/89/89 180/64/64 437/63/63
f 20/89/89 244/90/90 443/91/91
f 186/92/92 417/479/408 180/64/64
f 21/93/93 181/68/68 438/67/67
f 21/93/93 245/94/94 444/95/95
f 187/96/96 417/479/408 181/68/68
f 22/97/97 182/72/72 439/71/71
f 22/97/97 246/98/98 445/99/99
f 188/100/100 417/479/408 182/72/72
f 23/101/101 183/77/77 440/76/76
f 23/101/101 247/102/102 446/103/103
f 189/104/104 417/479/408 183/77/77
f 24/105/105 184/84/84 441/83/83
f 24/105/105 248/106/106 447/107/107
f 190/108/108 417/479/408 184/84/84
f 25/109/109 185/88/88 442/87/87
f 25/109/109 249/110/110 448/111/111
f 191/112/112 417/479/408 185/88/88
f 26/113/113 186/92/92 443/91/91
f 26/113/113 250/114/114 449/115/115
f 192/116/116 417/479/408 186/92/92
f 27/117/117 187/96/96 444/95/95
f 27/117/117 251/118/118 420/2/2
f 195/6/6 417/479/408 187/96/96
f 28/119/119 188/100/100 445/99/99
f 28/119/119 252/120/120 422/8/8
f 197/12/12 417/479/408 188/100/100
f 29/121/121 189/104/104 446/103/103
f 29/121/121 253/122/122 424/14/14
f 199/18/18 417/479/408 189/104/104
f 30/123/123 190/108/108 447/107/107
f 30/123/123 254/124/124 426/20/20
f 201/24/24 417/479/408 190/108/108
f 31/125/125 191/112/112 448/111/111
f 31/125/125 255/126/126 428/26/26
f 203/30/30 417/479/408 191/112/112
f 32/127/127 192/116/116 449/115/115
f 32/127/127 256/128/128 430/32/32
f 205/36/36 417/479/408 192/116/116
f 163/129/129 398/381/313 142/130/130
f 142/130/130 399/380/312 194/132/132
f 194/132/132 419/4/4 225/3/3
f 225/3/3 420/2/2 163/129/129
f 165/133/133 393/386/318 137/134/134
f 137/134/134 394/385/317 196/136/136
f 196/136/136 421/10/10 226/9/9
f 226/9/9 422/8/8 165/133/133
f 167/137/137 388/391/323 132/138/138
f 132/138/138 389/417/322 198/140/140
f 198/140/140 423/16/16 227/15/15
f 227/15/15 424/14/14 167/137/137
f 169/141/141 414/396/328 158/142/142
f 158/142/142 415/395/327 200/144/144
f 200/144/144 425/22/22 228/21/21
f 228/21/21 426/20/20 169/141/141
f 171/145/145 409/401/333 153/146/146
f 153/146/146 410/400/332 202/148/148
f 202/148/148 427/28/28 229/27/27
f 229/27/27 428/26/26 171/145/145
f 173/149/149 404/406/338 148/150/150
f 148/150/150 405/405/337 204/152/152
f 204/152/152 429/34/34 230/33/33
f 230/33/33 430/32/32 173/149/149
f 194/132/132 399/380/312 143/153/153
f 143/153/153 400/410/342 206/155/155
f 206/155/155 431/39/39 231/38/38
f 231/38/38 419/4/4 194/132/132
f 196/136/136 394/385/317 138/156/156
f 138/156/156 395/413/345 207/158/158
f 207/158/158 432/43/43 232/42/42
f 232/42/42 421/10/10 196/136/136
f 198/140/140 389/417/322 133/159/159
f 133/159/159 390/416/348 208/161/161
f 208/161/161 433/47/47 233/46/46
f 233/46/46 423/16/16 198/140/140
f 200/144/144 415/395/327 159/162/162
f 159/162/162 416/420/351 209/164/164
f 209/164/164 434/51/51 234/50/50
f 234/50/50 425/22/22 200/144/144
f 202/148/148 410/400/332 154/165/165
f 154/165/165 411/423/354 210/167/167
f 210/167/167 435/55/55 235/54/54
f 235/54/54 427/28/28 202/148/148
f 204/152/152 405/405/337 149/168/168
f 149/168/168 406/426/357 211/170/170
f 211/170/170 436/59/59 236/58/58
f 236/58/58 429/34/34 204/152/152
f 206/155/155 400/410/342 144/171/171
f 144/171/171 401/430/360 212/173/173
f 212/173/173 437/63/63 237/62/62
f 237/62/62 431/39/39 206/155/155
f 207/158/158 395/413/345 139/174/174
f 139/174/174 396/433/363 213/176/176
f 213/176/176 438/67/67 238/66/66
f 238/66/66 432/43/43 207/158/158
f 208/161/161 390/416/348 134/177/177
f 134/177/177 391/436/366 214/179/179
f 214/179/179 439/71/71 239/70/70
f 239/70/70 433/47/47 208/161/161
f 161/180/180 385/440/370 129/181/181
f 129/181/181 386/439/369 215/183/183
f 215/183/183 440/76/76 240/75/75
f 240/75/75 418/74/74 161/180/180
f 209/164/164 416/420/351 160/184/184
f 160/184/184 385/440/370 161/180/180
f 161/180/180 418/74/74 241/80/80
f 241/80/80 434/51/51 209/164/164
f 210/167/167 411/423/354 155/186/186
f 155/186/186 412/446/376 216/188/188
f 216/188/188 441/83/83 242/82/82
f 242/82/82 435/55/55 210/167/167
f 211/170/170 406/426/357 150/189/189
f 150/189/189 407/450/379 217/191/191
f 217/191/191 442/87/87 243/86/86
f 243/86/86 436/59/59 211/170/170
f 212/173/173 401/430/360 145/192/192
f 145/192/192 402/453/382 218/194/194
f 218/194/194 443/91/91 244/90/90
f 244/90/90 437/63/63 212/173/173
f 213/176/176 396/433/363 140/195/195
f 140/195/195 397/456/385 219/197/197
f 219/197/197 444/95/95 245/94/94
f 245/94/94 438/67/67 213/176/176
f 214/179/179 391/436/366 135/198/198
f 135/198/198 392/459/388 220/200/200
f 220/200/200 445/99/99 246/98/98
f 246/98/98 439/71/71 214/179/179
f 215/183/183 386/439/369 130/201/201
f 130/201/201 387/462/391 221/203/203
f 221/203/203 446/103/103 247/102/102
f 247/102/102 440/76/76 215/183/183
f 216/188/188 412/446/376 156/204/204
f 156/204/204 413/465/394 222/206/206
f 222/206/206 447/107/107 248/106/106
f 248/106/106 441/83/83 216/188/188
f 217/191/191 407/450/379 151/207/207
f 151/207/207 408/468/397 223/209/209
f 223/209/209 448/111/111 249/110/110
f 249/110/110 442/87/87 217/191/191
f 218/194/194 402/453/382 146/210/210
f 146/210/210 403/471/400 224/212/212
f 224/212/212 449/115/115 250/114/114
f 250/114/114 443/91/91 218/194/194
f 219/197/197 397/456/385 141/213/213
f 141/213/213 398/381/313 163/129/129
f 163/129/129 420/2/2 251/118/118
f 251/118/118 444/95/95 219/197/197
f 220/200/200 392/459/388 136/215/215
f 136/215/215 393/386/318 165/133/133
f 165/133/133 422/8/8 252/120/120
f 252/120/120 445/99/99 220/200/200
f 221/203/203 387/462/391 131/217/217
f 131/217/217 388/391/323 167/137/137
f 167/137/137 424/14/14 253/122/122
f 253/122/122 446/103/103 221/203/203
f 222/206/206 413/465/394 157/219/219
f 157/219/219 414/396/328 169/141/141
f 169/141/141 426/20/20 254/124/124
f 254/124/124 447/107/107 222/206/206
f 223/209/209 408/468/397 152/221/221
f 152/221/221 409/401/333 171/145/145
f 171/145/145 428/26/26 255/126/126
f 255/126/126 448/111/111 223/209/209
f 224/212/212 403/471/400 147/223/223
f 147/223/223 404/406/338 173/149/149
f 173/149/149 430/32/32 256/128/128
f 256/128/128 449/115/115 224/212/212
f 322/225/225 483/262/225 353/226/226
f 353/226/226 482/480/227 289/228/227
f 289/228/227 463/481/227 270/229/226
f 65/227/226 270/229/226 464/230/228
f 324/231/229 485/482/229 354/232/230
f 354/232/230 484/483/231 291/234/231
f 291/234/231 458/362/231 265/235/230
f 265/235/230 459/484/229 324/231/229
f 67/236/232 326/241/233 487/237/233
f 355/238/232 486/485/409 293/239/234
f 293/239/234 453/486/410 260/240/235
f 260/240/235 454/272/255 326/241/233
f 328/242/236 489/487/411 356/243/237
f 356/243/237 488/488/412 295/245/239
f 295/245/239 479/489/413 286/246/238
f 286/246/238 480/490/236 328/242/236
f 330/247/240 491/491/240 357/248/241
f 357/248/241 490/492/242 297/250/242
f 297/250/242 474/493/242 281/251/241
f 281/251/241 475/494/414 330/247/240
f 70/252/243 332/258/246 493/253/244
f 358/254/243 492/495/245 299/255/245
f 299/255/245 469/496/245 276/256/243
f 70/252/243 276/256/243 470/257/246
f 333/259/247 494/497/415 359/260/248
f 71/261/249 359/260/248 483/262/225
f 322/225/225 464/230/228 271/263/249
f 71/261/249 271/263/249 465/264/247
f 334/265/250 495/498/250 360/266/251
f 360/266/251 485/482/229 324/231/229
f 324/231/229 459/484/229 266/268/251
f 266/268/251 460/294/250 334/265/250
f 335/269/252 496/499/252 361/270/253
f 73/271/254 361/270/253 487/237/233
f 73/271/254 326/241/233 454/272/255
f 261/273/254 455/500/416 335/269/252
f 336/274/256 497/444/374 362/275/257
f 362/275/257 489/487/411 328/242/236
f 328/242/236 480/490/236 287/277/257
f 287/277/257 481/501/256 336/274/256
f 337/278/258 498/314/258 363/279/259
f 363/279/259 491/491/240 330/247/240
f 330/247/240 475/494/414 282/281/259
f 75/280/259 282/281/259 476/282/258
f 338/283/260 499/502/260 364/284/261
f 364/284/261 493/253/244 332/258/246
f 332/258/246 470/257/246 277/286/261
f 277/286/261 471/503/260 338/283/260
f 339/287/262 500/504/417 365/288/263
f 365/288/263 494/497/415 333/259/247
f 333/259/247 465/264/247 272/290/264
f 272/290/264 466/505/262 339/287/262
f 340/291/265 501/506/265 366/292/266
f 366/292/266 495/498/250 334/265/250
f 78/293/266 334/265/250 460/294/250
f 267/295/266 461/329/265 340/291/265
f 341/296/267 502/334/267 367/297/268
f 367/297/268 496/499/252 335/269/252
f 335/269/252 455/500/416 262/299/268
f 79/298/268 262/299/268 456/300/267
f 80/301/269 343/306/274 504/302/270
f 368/303/271 503/507/418 310/304/272
f 310/304/272 450/310/272 257/305/273
f 257/305/273 451/508/419 343/306/274
f 310/304/272 503/507/418 369/307/275
f 369/307/275 497/444/374 336/274/256
f 336/274/256 481/501/256 288/309/276
f 81/308/276 288/309/276 450/310/272
f 344/311/277 505/447/277 370/312/278
f 82/313/278 370/312/278 498/314/258
f 337/278/258 476/282/258 283/315/278
f 82/313/278 283/315/278 477/316/279
f 345/317/280 506/509/420 371/318/281
f 371/318/281 499/502/260 338/283/260
f 338/283/260 471/503/260 278/320/281
f 278/320/281 472/510/280 345/317/280
f 346/321/282 507/352/300 372/322/283
f 372/322/283 500/504/417 339/287/262
f 339/287/262 466/505/262 273/324/284
f 84/323/284 273/324/284 467/325/282
f 347/326/285 508/356/303 373/327/286
f 373/327/286 501/506/265 340/291/265
f 85/328/286 340/291/265 461/329/265
f 268/330/286 462/511/285 347/326/285
f 348/331/287 509/360/287 374/332/288
f 86/333/288 374/332/288 502/334/267
f 341/296/267 456/300/267 263/335/288
f 263/335/288 457/512/287 348/331/287
f 349/336/289 510/513/421 375/337/290
f 375/337/290 504/302/270 343/306/274
f 343/306/274 451/508/419 258/339/290
f 258/339/290 452/514/289 349/336/289
f 88/340/291 350/344/294 511/341/292
f 376/342/293 505/447/277 344/311/277
f 344/311/277 477/316/279 284/343/291
f 284/343/291 478/368/294 350/344/294
f 351/345/295 512/372/295 377/346/296
f 377/346/296 506/509/420 345/317/280
f 345/317/280 472/510/280 279/348/296
f 279/348/296 473/373/295 351/345/295
f 352/349/297 513/377/310 378/350/298
f 90/351/299 378/350/298 507/352/300
f 346/321/282 467/325/282 274/353/299
f 274/353/299 468/515/422 352/349/297
f 289/228/227 482/480/227 379/354/301
f 91/355/302 379/354/301 508/356/303
f 347/326/285 462/511/285 269/357/302
f 269/357/302 463/481/227 289/228/227
f 291/234/231 484/483/231 380/358/304
f 92/359/304 380/358/304 509/360/287
f 348/331/287 457/512/287 264/361/304
f 92/359/304 264/361/304 458/362/231
f 293/239/234 486/485/409 381/363/305
f 381/363/305 510/513/421 349/336/289
f 349/336/289 452/514/289 259/365/305
f 259/365/305 453/486/410 293/239/234
f 295/245/239 488/488/412 382/366/306
f 382/366/306 511/341/292 350/344/294
f 94/367/306 350/344/294 478/368/294
f 285/369/306 479/489/413 295/245/239
f 297/250/242 490/492/242 383/370/307
f 95/371/307 383/370/307 512/372/295
f 95/371/307 351/345/295 473/373/295
f 280/374/307 474/493/242 297/250/242
f 299/255/245 492/495/245 384/375/308
f 96/376/309 384/375/308 513/377/310
f 352/349/297 468/515/422 275/378/309
f 275/378/309 469/496/245 299/255/245
f 97/379/311 290/383/315 399/380/312
f 97/379/311 142/130/130 398/381/313
f 321/382/314 482/480/227 353/226/226
f 353/226/226 483/262/225 290/383/315
f 98/384/316 292/388/320 394/385/317
f 98/384/316 137/134/134 393/386/318
f 323/387/319 484/483/231 354/232/230
f 354/232/230 485/482/229 292/388/320
f 99/389/321 294/393/325 389/390/322
f 99/389/321 132/138/138 388/391/323
f 325/392/324 486/485/409 355/238/232
f 355/238/232 487/237/233 294/393/325
f 100/394/326 296/398/330 415/395/327
f 100/394/326 158/142/142 414/396/328
f 327/397/329 488/488/412 356/243/237
f 356/243/237 489/487/411 296/398/330
f 101/399/331 298/403/335 410/400/332
f 101/399/331 153/146/146 409/401/333
f 329/402/334 490/492/242 357/248/241
f 357/248/241 491/491/240 298/403/335
f 102/404/336 300/408/340 405/405/337
f 102/404/336 148/150/150 404/406/338
f 331/407/339 492/495/245 358/254/243
f 102/404/336 358/254/243 493/253/244
f 103/409/341 301/411/343 400/410/342
f 103/409/341 143/153/153 399/380/312
f 103/409/341 290/383/315 483/262/225
f 359/260/248 494/497/415 301/411/343
f 104/412/344 302/414/346 395/413/345
f 104/412/344 138/156/156 394/385/317
f 292/388/320 485/482/229 360/266/251
f 360/266/251 495/498/250 302/414/346
f 105/415/347 303/418/349 390/416/348
f 105/415/347 133/159/159 389/417/322
f 294/393/325 487/237/233 361/270/253
f 361/270/253 496/499/252 303/418/349
f 106/419/350 304/421/352 416/420/351
f 106/419/350 159/162/162 415/395/327
f 296/398/330 489/487/411 362/275/257
f 362/275/257 497/444/374 304/421/352
f 107/422/353 305/424/355 411/423/354
f 107/422/353 154/165/165 410/400/332
f 298/403/335 491/491/240 363/279/259
f 363/279/259 498/314/258 305/424/355
f 108/425/356 306/428/358 406/426/357
f 108/425/356 149/168/168 405/427/337
f 300/408/340 493/253/244 364/284/261
f 364/284/261 499/502/260 306/428/358
f 109/429/359 307/431/361 401/430/360
f 109/429/359 144/171/171 400/410/342
f 301/411/343 494/497/415 365/288/263
f 365/288/263 500/504/417 307/431/361
f 110/432/362 308/434/364 396/433/363
f 110/432/362 139/174/174 395/413/345
f 302/414/346 495/498/250 366/292/266
f 366/292/266 501/506/265 308/434/364
f 111/435/365 309/437/367 391/436/366
f 111/435/365 134/177/177 390/416/348
f 303/418/349 496/499/252 367/297/268
f 367/297/268 502/334/267 309/437/367
f 112/438/368 311/442/372 386/439/369
f 112/438/368 129/181/181 385/440/370
f 342/441/371 503/507/418 368/303/271
f 368/303/271 504/302/270 311/442/372
f 113/443/373 342/441/371 385/440/370
f 113/443/373 160/184/184 416/420/351
f 113/443/373 304/421/352 497/444/374
f 369/307/275 503/507/418 342/441/371
f 114/445/375 312/448/377 412/446/376
f 114/445/375 155/186/186 411/423/354
f 114/445/375 305/424/355 498/314/258
f 114/445/375 370/312/278 505/447/277
f 115/449/378 313/451/380 407/450/379
f 115/449/378 150/189/189 406/426/357
f 306/428/358 499/502/260 371/318/281
f 371/318/281 506/509/420 313/451/380
f 116/452/381 314/454/383 402/453/382
f 116/452/381 145/192/192 401/430/360
f 307/431/361 500/504/417 372/322/283
f 372/322/283 507/352/300 314/454/383
f 117/455/384 315/457/386 397/456/385
f 117/455/384 140/195/195 396/433/363
f 308/434/364 501/506/265 373/327/286
f 373/327/286 508/356/303 315/457/386
f 118/458/387 316/460/389 392/459/388
f 118/458/387 135/198/198 391/436/366
f 118/458/387 309/437/367 502/334/267
f 374/332/288 509/360/287 316/460/389
f 119/461/390 317/463/392 387/462/391
f 119/461/390 130/201/201 386/439/369
f 311/442/372 504/302/270 375/337/290
f 375/337/290 510/513/421 317/463/392
f 120/464/393 318/466/395 413/465/394
f 120/464/393 156/204/204 412/446/376
f 312/448/377 505/447/277 376/342/293
f 120/464/393 376/342/293 511/341/292
f 121/467/396 319/469/398 408/468/397
f 121/467/396 151/207/207 407/450/379
f 313/451/380 506/509/420 377/346/296
f 377/346/296 512/372/295 319/469/398
f 122/470/399 320/472/401 403/471/400
f 122/470/399 146/210/210 402/453/382
f 122/470/399 314/454/383 507/352/300
f 378/350/298 513/377/310 320/472/401
f 123/473/402 321/382/314 398/381/313
f 123/473/402 141/213/213 397/456/385
f 315/457/386 508/356/303 379/354/301
f 379/354/301 482/480/227 321/382/314
f 124/474/403 323/387/319 393/386/318
f 124/474/403 136/215/215 392/459/388
f 316/460/389 509/360/287 380/358/304
f 380/358/304 484/483/231 323/387/319
f 125/475/404 325/392/324 388/391/323
f 125/475/404 131/217/217 387/462/391
f 317/463/392 510/513/421 381/363/305
f 381/363/305 486/485/409 325/392/324
f 126/476/405 327/397/329 414/396/328
f 126/476/405 157/219/219 413/465/394
f 318/466/395 511/341/292 382/366/306
f 382/366/306 488/488/412 327/397/329
f 127/477/406 329/402/334 409/401/333
f 127/477/406 152/221/221 408/468/397
f 127/477/406 319/469/398 512/372/295
f 383/370/307 490/492/242 329/402/334
f 128/478/407 331/407/339 404/406/338
f 128/478/407 147/223/223 403/471/400
f 320/472/401 513/377/310 384/375/308
f 384/375/308 492/495/245 331/407/339
