# Blender v2.79 (sub 0) OBJ File: 'm3_interior_open.blend'
# www.blender.org
o Dash_Hood_Plane.052
v 1.461228 0.453383 1.383364
v 1.502982 0.385584 1.514153
v 1.480170 0.444211 1.370200
v 1.425165 0.511449 1.269477
v 1.430187 0.458325 1.393224
v 1.469808 0.390805 1.527051
v 1.521660 0.378142 1.493267
v 1.444937 0.499272 1.261356
v 1.395778 0.516650 1.277252
v 1.522291 0.371463 1.288852
v 1.548034 0.326636 1.326908
v 1.511255 0.384390 1.226168
v 1.508909 0.400083 1.316395
v 1.542482 0.345420 1.399824
v 1.545905 0.318622 1.245286
v 1.483784 0.437231 1.233102
v 1.483398 0.345764 1.253465
v 1.476988 0.358778 1.205142
v 1.507516 0.305479 1.284059
v 1.466035 0.370415 1.273409
v 1.447322 0.405135 1.208594
v 1.511237 0.300792 1.221873
v 1.493015 0.320890 1.338783
v 1.351400 0.551080 1.103748
v 1.351773 0.558169 1.096781
v 1.371418 0.535145 1.102309
v 1.353588 0.537502 1.124093
v 1.326295 0.556494 1.108389
v 1.326979 0.563585 1.101441
v 1.371551 0.541919 1.095477
v 1.374662 0.522146 1.122130
v 1.327135 0.543030 1.128759
v 1.465709 0.382108 1.110411
v 1.466801 0.384836 1.104907
v 1.510490 0.302711 1.116816
v 1.466685 0.377708 1.125616
v 1.426025 0.450724 1.105954
v 1.426533 0.455252 1.100135
v 1.512179 0.303586 1.110657
v 1.509784 0.302038 1.133704
v 1.428610 0.442510 1.122359
v 1.209783 0.475417 1.438055
v 1.229650 0.415666 1.575386
v 1.304649 0.468605 1.420599
v 1.192533 0.527009 1.319044
v 1.102078 0.480944 1.452089
v 1.112298 0.423706 1.590485
v 1.333015 0.405758 1.556594
v 1.280020 0.522881 1.302747
v 1.093204 0.530359 1.332155
v 1.152522 0.442295 1.351642
v 1.154629 0.487342 1.267654
v 1.226615 0.439513 1.340598
v 1.150143 0.390637 1.448535
v 1.071876 0.444030 1.360680
v 1.073278 0.488393 1.277738
v 1.228031 0.485656 1.255266
v 1.225058 0.386591 1.439042
v 1.070284 0.393160 1.456367
v 1.382605 0.423965 1.319207
v 1.369217 0.474301 1.231933
v 1.415114 0.412565 1.311145
v 1.398449 0.365716 1.419417
v 1.342034 0.431143 1.324558
v 1.335090 0.480583 1.236830
v 1.396335 0.461595 1.227036
v 1.437976 0.354355 1.406292
v 1.350164 0.374415 1.425763
v 1.158305 0.556832 1.144720
v 1.159005 0.563585 1.138095
v 1.230976 0.556747 1.130363
v 1.157483 0.544382 1.164205
v 1.075630 0.556884 1.156331
v 1.076010 0.563585 1.149786
v 1.231873 0.563585 1.123630
v 1.230157 0.544045 1.150160
v 1.075137 0.544592 1.175575
v 1.371496 0.593186 1.102716
v 1.380467 0.581438 1.128963
v 1.392923 0.575361 1.100498
v 1.367539 0.594853 1.094129
v 1.344484 0.599185 1.107920
v 1.353019 0.587329 1.134585
v 1.401685 0.564449 1.125795
v 1.388937 0.576857 1.092263
v 1.340792 0.600852 1.099171
v 1.489680 0.403194 1.104621
v 1.493726 0.400794 1.123616
v 1.535039 0.313824 1.109675
v 1.487087 0.402887 1.098672
v 1.449359 0.480439 1.101672
v 1.455413 0.474425 1.122265
v 1.537410 0.314875 1.130848
v 1.532973 0.312902 1.103082
v 1.446139 0.480873 1.095115
v 1.166880 0.599703 1.145241
v 1.171123 0.589401 1.172625
v 1.243374 0.599496 1.130639
v 1.165093 0.600852 1.136228
v 1.080010 0.599870 1.157003
v 1.082191 0.590071 1.184600
v 1.249442 0.588575 1.157754
v 1.240804 0.600852 1.121718
v 1.079095 0.600852 1.147919
v 1.359807 0.576864 1.095429
v 1.362957 0.584192 1.094900
v 1.380411 0.559724 1.093839
v 1.356625 0.569458 1.095965
v 1.334019 0.582578 1.100284
v 1.336778 0.590022 1.099830
v 1.383884 0.566703 1.093197
v 1.376901 0.552671 1.094488
v 1.331230 0.575054 1.100742
v 1.477139 0.394035 1.101730
v 1.481191 0.397641 1.100484
v 1.522776 0.308334 1.106797
v 1.473044 0.390391 1.102988
v 1.436525 0.468309 1.097576
v 1.440441 0.473427 1.096574
v 1.526930 0.310195 1.105283
v 1.518578 0.306453 1.108326
v 1.432567 0.463137 1.098590
v 1.162107 0.582578 1.137143
v 1.163323 0.590022 1.136770
v 1.236424 0.582578 1.122656
v 1.160878 0.575054 1.137520
v 1.077582 0.582578 1.148834
v 1.078198 0.590022 1.148462
v 1.238208 0.590022 1.122274
v 1.234621 0.575054 1.123042
v 1.076959 0.575054 1.149211
v 0.514678 0.453383 1.383364
v 0.545719 0.458325 1.393224
v 0.550741 0.511449 1.269477
v 0.495736 0.444211 1.370200
v 0.472924 0.385584 1.514153
v 0.506098 0.390805 1.527051
v 0.580128 0.516650 1.277252
v 0.530969 0.499272 1.261356
v 0.454247 0.378142 1.493267
v 0.453615 0.371463 1.288852
v 0.466998 0.400083 1.316395
v 0.464651 0.384390 1.226168
v 0.427872 0.326636 1.326908
v 0.433424 0.345420 1.399824
v 0.492122 0.437231 1.233102
v 0.430001 0.318622 1.245286
v 0.492508 0.345764 1.253465
v 0.509871 0.370415 1.273409
v 0.468390 0.305479 1.284059
v 0.498918 0.358778 1.205142
v 0.528584 0.405135 1.208594
v 0.482892 0.320890 1.338783
v 0.464670 0.300792 1.221873
v 0.624506 0.551080 1.103748
v 0.649612 0.556494 1.108389
v 0.622318 0.537502 1.124093
v 0.604489 0.535145 1.102308
v 0.624133 0.558169 1.096781
v 0.648927 0.563585 1.101441
v 0.648771 0.543030 1.128759
v 0.601244 0.522146 1.122130
v 0.604356 0.541919 1.095477
v 0.510197 0.382108 1.110411
v 0.549881 0.450724 1.105954
v 0.509221 0.377708 1.125616
v 0.465416 0.302711 1.116816
v 0.509106 0.384836 1.104907
v 0.549373 0.455252 1.100135
v 0.547296 0.442510 1.122359
v 0.466123 0.302038 1.133704
v 0.463727 0.303586 1.110657
v 0.766123 0.475417 1.438055
v 0.873828 0.480944 1.452089
v 0.783373 0.527009 1.319044
v 0.671257 0.468605 1.420599
v 0.746256 0.415666 1.575386
v 0.863608 0.423706 1.590485
v 0.882702 0.530359 1.332155
v 0.695886 0.522881 1.302747
v 0.642892 0.405758 1.556594
v 0.823384 0.442295 1.351642
v 0.904030 0.444030 1.360680
v 0.825763 0.390637 1.448535
v 0.749291 0.439513 1.340598
v 0.821277 0.487342 1.267654
v 0.902628 0.488393 1.277738
v 0.905622 0.393160 1.456367
v 0.750849 0.386591 1.439042
v 0.747875 0.485656 1.255266
v 0.593301 0.423965 1.319207
v 0.633873 0.431143 1.324558
v 0.577457 0.365716 1.419417
v 0.560792 0.412565 1.311145
v 0.606690 0.474301 1.231933
v 0.640816 0.480583 1.236830
v 0.625742 0.374415 1.425763
v 0.537930 0.354355 1.406292
v 0.579571 0.461595 1.227036
v 0.817601 0.556832 1.144720
v 0.900276 0.556884 1.156331
v 0.818423 0.544382 1.164205
v 0.744930 0.556747 1.130363
v 0.816902 0.563585 1.138095
v 0.899896 0.563585 1.149786
v 0.900769 0.544592 1.175575
v 0.745749 0.544045 1.150160
v 0.744033 0.563585 1.123630
v 0.604410 0.593186 1.102716
v 0.631422 0.599185 1.107920
v 0.608367 0.594853 1.094129
v 0.582983 0.575361 1.100498
v 0.595439 0.581438 1.128963
v 0.622887 0.587329 1.134585
v 0.635114 0.600852 1.099171
v 0.586969 0.576857 1.092263
v 0.574222 0.564449 1.125795
v 0.486226 0.403194 1.104621
v 0.526547 0.480439 1.101672
v 0.488819 0.402887 1.098672
v 0.440867 0.313824 1.109675
v 0.482180 0.400794 1.123616
v 0.520493 0.474425 1.122265
v 0.529767 0.480873 1.095115
v 0.442933 0.312902 1.103082
v 0.438496 0.314875 1.130848
v 0.809026 0.599703 1.145241
v 0.895896 0.599870 1.157003
v 0.810814 0.600852 1.136228
v 0.732532 0.599496 1.130639
v 0.804783 0.589401 1.172625
v 0.893715 0.590071 1.184600
v 0.896812 0.600852 1.147919
v 0.735102 0.600852 1.121718
v 0.726464 0.588575 1.157754
v 0.616099 0.576864 1.095429
v 0.641887 0.582578 1.100284
v 0.619281 0.569458 1.095965
v 0.595495 0.559724 1.093839
v 0.612949 0.584192 1.094900
v 0.639128 0.590022 1.099830
v 0.644676 0.575054 1.100742
v 0.599005 0.552671 1.094488
v 0.592022 0.566703 1.093197
v 0.498767 0.394035 1.101730
v 0.539381 0.468309 1.097576
v 0.502862 0.390391 1.102988
v 0.453130 0.308334 1.106797
v 0.494715 0.397641 1.100484
v 0.535465 0.473427 1.096574
v 0.543339 0.463137 1.098590
v 0.457328 0.306453 1.108326
v 0.448976 0.310195 1.105283
v 0.813799 0.582578 1.137143
v 0.898324 0.582578 1.148834
v 0.815028 0.575054 1.137520
v 0.739482 0.582578 1.122656
v 0.812583 0.590022 1.136770
v 0.897708 0.590022 1.148462
v 0.898947 0.575054 1.149211
v 0.741285 0.575054 1.123042
v 0.737698 0.590022 1.122274
v 1.532580 0.365685 1.457466
v 1.493800 0.427535 1.349341
v 1.462132 0.475929 1.250146
v 1.512034 0.318688 1.669806
v 1.547580 0.312918 1.653392
v 1.566278 0.306569 1.623445
v 1.369187 0.561184 1.188063
v 1.397381 0.555546 1.181630
v 1.418072 0.540345 1.176600
v 0.987953 0.427258 1.597112
v 0.987953 0.483386 1.458251
v 0.987953 0.531839 1.337914
v 1.466242 0.460724 1.163781
v 1.500496 0.394817 1.162013
v 1.540797 0.316370 1.173689
v 1.580280 0.282000 1.483322
v 1.583110 0.264133 1.380144
v 1.584144 0.246389 1.277431
v 1.412600 0.540863 1.092836
v 1.416350 0.539761 1.100429
v 1.424168 0.530675 1.123943
v 1.560112 0.216919 1.116896
v 1.557821 0.217923 1.124195
v 1.555393 0.220933 1.144209
v 1.547777 0.236991 1.248697
v 1.539304 0.249756 1.326690
v 1.524127 0.263962 1.404437
v 0.987953 0.600852 1.153060
v 0.987953 0.599944 1.162174
v 0.987953 0.590367 1.189864
v 0.987953 0.394041 1.459869
v 0.987953 0.444635 1.364698
v 0.987953 0.488760 1.282203
v 1.289552 0.563585 1.110157
v 1.288640 0.556634 1.117004
v 1.288320 0.543591 1.137119
v 1.229235 0.521630 1.189602
v 1.156328 0.522473 1.203024
v 1.074397 0.522998 1.213912
v 1.363248 0.338626 1.701661
v 1.250826 0.351837 1.721878
v 1.123192 0.362555 1.738113
v 1.260995 0.564299 1.212108
v 1.179210 0.566363 1.227514
v 1.086351 0.568038 1.239915
v 1.292555 0.381144 1.430561
v 1.290878 0.435768 1.330565
v 1.289509 0.483386 1.243887
v 1.223430 0.330279 1.544042
v 1.147628 0.335673 1.551880
v 1.068598 0.339038 1.558426
v 1.435354 0.428137 1.154767
v 1.470266 0.370358 1.155525
v 1.510039 0.301441 1.166873
v 1.415398 0.396599 1.538890
v 1.380257 0.462308 1.404172
v 1.349742 0.519064 1.287427
v 1.420888 0.439522 1.219976
v 1.442084 0.395272 1.297002
v 1.469309 0.339643 1.381158
v 1.358888 0.314045 1.533707
v 1.415522 0.303509 1.526094
v 1.462879 0.291554 1.506959
v 1.329926 0.519093 1.169317
v 1.359229 0.513291 1.164570
v 1.382547 0.498953 1.161514
v 1.393931 0.509419 1.096828
v 1.393806 0.503442 1.103301
v 1.397341 0.492102 1.121881
v 1.581329 0.216919 1.107918
v 1.582917 0.218392 1.115781
v 1.583780 0.222813 1.141021
v 0.987953 0.563585 1.154938
v 0.987953 0.556903 1.161450
v 0.987953 0.544665 1.180591
v 1.301085 0.600852 1.108122
v 1.304305 0.599306 1.116948
v 1.311843 0.587812 1.143802
v 1.386874 0.572712 1.092644
v 1.365668 0.590501 1.094444
v 1.339154 0.596431 1.099440
v 1.530506 0.311797 1.103980
v 1.484680 0.400745 1.099412
v 1.443813 0.477834 1.095710
v 1.239744 0.596431 1.121945
v 1.164370 0.596431 1.136449
v 1.078729 0.596431 1.148140
v 1.566642 0.216919 1.114133
v 1.570925 0.216919 1.112320
v 1.575163 0.216919 1.110527
v 1.293101 0.575054 1.109531
v 1.295430 0.582578 1.109120
v 1.297733 0.590022 1.108713
v 1.399677 0.519096 1.095600
v 1.403445 0.525444 1.094794
v 1.407174 0.531724 1.093997
v 0.987953 0.575054 1.154360
v 0.987953 0.582578 1.153981
v 0.987953 0.590022 1.153606
v 1.373799 0.546438 1.095061
v 1.353812 0.562913 1.096438
v 1.328766 0.568405 1.101147
v 1.514868 0.304791 1.109677
v 1.469424 0.387170 1.104101
v 1.429069 0.458566 1.099485
v 1.233028 0.568405 1.123383
v 1.159792 0.568405 1.137853
v 1.076409 0.568405 1.149545
v 0.443326 0.365685 1.457466
v 0.482106 0.427535 1.349341
v 0.513774 0.475929 1.250146
v 0.463872 0.318688 1.669806
v 0.428326 0.312918 1.653392
v 0.409628 0.306569 1.623445
v 0.606719 0.561184 1.188063
v 0.578525 0.555546 1.181630
v 0.557834 0.540345 1.176600
v 0.509664 0.460724 1.163781
v 0.475411 0.394817 1.162013
v 0.435109 0.316370 1.173689
v 0.395626 0.282000 1.483322
v 0.392796 0.264133 1.380144
v 0.391762 0.246389 1.277431
v 0.563307 0.540863 1.092836
v 0.559556 0.539761 1.100429
v 0.551739 0.530675 1.123943
v 0.415794 0.216919 1.116896
v 0.418085 0.217923 1.124195
v 0.420513 0.220933 1.144209
v 0.428129 0.236991 1.248697
v 0.436602 0.249756 1.326690
v 0.451779 0.263962 1.404437
v 0.686354 0.563585 1.110157
v 0.687266 0.556634 1.117004
v 0.687587 0.543591 1.137119
v 0.746671 0.521630 1.189602
v 0.819578 0.522473 1.203024
v 0.901509 0.522998 1.213912
v 0.612658 0.338626 1.701661
v 0.725080 0.351837 1.721878
v 0.852714 0.362555 1.738113
v 0.714911 0.564299 1.212108
v 0.796696 0.566363 1.227514
v 0.889556 0.568038 1.239915
v 0.683351 0.381144 1.430561
v 0.685028 0.435768 1.330565
v 0.686397 0.483386 1.243887
v 0.752477 0.330279 1.544042
v 0.828278 0.335673 1.551880
v 0.907308 0.339038 1.558426
v 0.540552 0.428137 1.154767
v 0.505640 0.370358 1.155525
v 0.465867 0.301441 1.166873
v 0.560508 0.396599 1.538890
v 0.595649 0.462308 1.404172
v 0.626164 0.519064 1.287427
v 0.555018 0.439522 1.219976
v 0.533822 0.395272 1.297002
v 0.506597 0.339643 1.381158
v 0.617018 0.314045 1.533707
v 0.560385 0.303509 1.526094
v 0.513028 0.291554 1.506959
v 0.645980 0.519093 1.169317
v 0.616677 0.513291 1.164570
v 0.593359 0.498953 1.161514
v 0.581975 0.509419 1.096828
v 0.582100 0.503442 1.103301
v 0.578565 0.492102 1.121881
v 0.394577 0.216919 1.107918
v 0.392989 0.218392 1.115781
v 0.392126 0.222813 1.141021
v 0.674821 0.600852 1.108122
v 0.671602 0.599306 1.116948
v 0.664063 0.587812 1.143802
v 0.589032 0.572712 1.092644
v 0.610238 0.590501 1.094444
v 0.636753 0.596431 1.099440
v 0.445400 0.311797 1.103980
v 0.491226 0.400745 1.099412
v 0.532093 0.477834 1.095710
v 0.736162 0.596431 1.121945
v 0.811536 0.596431 1.136449
v 0.897177 0.596431 1.148140
v 0.409265 0.216919 1.114133
v 0.404981 0.216919 1.112320
v 0.400743 0.216919 1.110527
v 0.682805 0.575054 1.109531
v 0.680477 0.582578 1.109120
v 0.678173 0.590022 1.108713
v 0.576230 0.519096 1.095600
v 0.572461 0.525444 1.094794
v 0.568732 0.531724 1.093997
v 0.602107 0.546438 1.095061
v 0.622094 0.562913 1.096438
v 0.647140 0.568405 1.101147
v 0.461038 0.304791 1.109677
v 0.506482 0.387170 1.104101
v 0.546837 0.458566 1.099485
v 0.742878 0.568405 1.123383
v 0.816114 0.568405 1.137853
v 0.899497 0.568405 1.149545
v 1.574915 0.297108 1.570057
v 1.438584 0.510448 1.171231
v 1.584122 0.231654 1.192088
v 1.499550 0.278324 1.468880
v 1.546423 0.277898 1.533488
v 1.288605 0.520495 1.177185
v 1.552242 0.226955 1.183517
v 1.452853 0.326413 1.682593
v 1.326166 0.562391 1.197642
v 1.294388 0.323016 1.537216
v 1.405912 0.471947 1.158723
v 1.410385 0.537132 1.093310
v 1.578812 0.216919 1.108983
v 1.299717 0.596431 1.108363
v 1.562856 0.216919 1.115735
v 1.291044 0.568405 1.109894
v 1.396346 0.513486 1.096312
v 0.400991 0.297108 1.570057
v 0.537322 0.510448 1.171231
v 0.987953 0.367292 1.745235
v 0.987953 0.568778 1.245364
v 0.391785 0.231654 1.192088
v 0.476356 0.278324 1.468880
v 0.429483 0.277898 1.533488
v 0.687301 0.520495 1.177185
v 0.423664 0.226955 1.183517
v 0.987953 0.523182 1.218722
v 0.523054 0.326413 1.682593
v 0.649740 0.562391 1.197642
v 0.987953 0.340213 1.561377
v 0.681518 0.323016 1.537216
v 0.569995 0.471947 1.158723
v 0.565521 0.537132 1.093310
v 0.397094 0.216919 1.108983
v 0.987953 0.596431 1.153283
v 0.676189 0.596431 1.108363
v 0.413050 0.216919 1.115735
v 0.684862 0.568405 1.109894
v 0.579560 0.513486 1.096312
v 0.987953 0.568405 1.154695
vn 0.4135 0.8570 0.3075
vn 0.2342 0.8936 0.3829
vn 0.4348 0.8475 0.3044
vn 0.4274 0.8515 0.3037
vn 0.2115 0.8972 0.3875
vn 0.1834 0.9016 0.3916
vn 0.2011 0.8986 0.3898
vn 0.2561 0.8912 0.3744
vn 0.7036 0.6966 0.1401
vn 0.6880 0.7111 0.1443
vn 0.8417 0.5399 0.0098
vn 0.8343 0.5512 0.0114
vn 0.6689 0.7250 0.1640
vn 0.8349 0.5501 0.0169
vn 0.7033 0.7007 0.1196
vn 0.4240 0.8561 0.2953
vn 0.7285 0.6786 0.0936
vn 0.4471 0.8505 0.2770
vn 0.8479 0.5295 -0.0251
vn 0.1987 0.8995 0.3890
vn 0.1610 0.9035 0.3972
vn 0.1913 0.9025 0.3858
vn 0.1378 0.9054 0.4016
vn 0.8733 0.4856 -0.0394
vn 0.8891 0.4537 -0.0593
vn 0.8858 0.4602 -0.0594
vn 0.8777 0.4776 -0.0378
vn 0.8900 0.4522 -0.0579
vn 0.8768 0.4795 -0.0361
vn 0.8924 0.4455 -0.0719
vn 0.8864 0.4577 -0.0688
vn 0.8927 0.4432 -0.0815
vn 0.8872 0.4544 -0.0795
vn 0.8942 0.4420 -0.0711
vn 0.8945 0.4399 -0.0794
vn 0.8732 0.4844 -0.0535
vn 0.8385 0.5448 -0.0094
vn 0.8764 0.4772 -0.0644
vn -0.8047 -0.5863 -0.0928
vn -0.8520 -0.5233 -0.0170
vn -0.8430 -0.5366 -0.0366
vn -0.8235 -0.5636 -0.0646
vn -0.8595 -0.5108 -0.0158
vn -0.7010 -0.6830 -0.2052
vn -0.7485 -0.6426 -0.1636
vn -0.8417 -0.5368 -0.0582
vn -0.8639 -0.5036 -0.0006
vn -0.8503 -0.5247 -0.0403
vn -0.8675 -0.4974 0.0001
vn -0.8508 -0.5233 -0.0469
vn -0.8681 -0.4964 0.0045
vn -0.8707 -0.4917 0.0103
vn -0.8075 -0.5785 -0.1148
vn -0.7995 -0.5867 -0.1286
vn -0.6912 -0.6827 -0.2368
vn -0.4148 -0.6986 -0.5830
vn -0.2320 -0.3288 -0.9154
vn -0.2621 -0.3011 -0.9168
vn -0.2041 0.0158 -0.9788
vn -0.1400 -0.0119 -0.9901
vn -0.2108 -0.7477 -0.6297
vn -0.2117 -0.3580 -0.9094
vn -0.2260 0.0167 -0.9740
vn -0.3331 -0.3223 -0.8861
vn -0.6518 -0.6061 -0.4559
vn -0.4340 -0.3311 -0.8378
vn -0.7768 -0.5311 -0.3384
vn -0.0750 -0.0546 -0.9957
vn -0.0640 -0.0883 -0.9940
vn -0.4227 -0.7890 -0.4458
vn -0.6821 -0.6681 -0.2971
vn -0.3912 -0.8188 -0.4201
vn -0.8091 -0.5644 -0.1637
vn -0.6468 -0.7098 -0.2789
vn -0.1938 -0.8368 -0.5120
vn -0.1480 -0.7609 -0.6317
vn -0.1845 -0.8567 -0.4816
vn -0.1238 -0.8459 -0.5188
vn -0.8150 -0.5033 -0.2872
vn -0.5320 -0.3545 -0.7689
vn -0.8345 -0.4939 -0.2442
vn -0.4824 -0.3369 -0.8085
vn -0.1622 -0.1546 -0.9745
vn -0.0993 -0.1177 -0.9880
vn -0.6029 -0.3891 -0.6965
vn -0.8511 -0.4940 -0.1777
vn -0.8621 -0.4904 -0.1275
vn -0.2524 -0.2054 -0.9456
vn -0.6273 -0.3919 -0.6730
vn -0.8618 -0.5040 -0.0570
vn -0.8684 -0.4949 -0.0294
vn -0.8702 -0.4924 -0.0145
vn -0.8475 -0.5222 -0.0952
vn -0.7919 -0.5946 -0.1394
vn 0.1143 0.9176 0.3806
vn 0.0769 0.9229 0.3773
vn 0.1337 0.9153 0.3798
vn 0.0849 0.9221 0.3775
vn 0.1473 0.9128 0.3807
vn 0.0000 0.9268 0.3755
vn 0.0674 0.9243 0.3757
vn 0.0000 0.9265 0.3763
vn 0.1486 0.9094 0.3885
vn 0.1702 0.9074 0.3842
vn 0.1872 0.9042 0.3839
vn 0.1261 0.9114 0.3916
vn 0.0945 0.9187 0.3835
vn 0.1034 0.9153 0.3893
vn 0.0794 0.9221 0.3787
vn 0.1162 0.9083 0.4019
vn 0.0583 0.9246 0.3763
vn 0.0000 0.9276 0.3736
vn 0.0481 0.9271 0.3718
vn 0.0000 0.9297 0.3681
vn -0.0876 -0.8774 -0.4716
vn -0.0495 -0.8789 -0.4743
vn -0.0854 -0.8757 -0.4752
vn -0.0495 -0.8737 -0.4838
vn -0.0848 -0.8705 -0.4847
vn -0.0505 -0.8808 -0.4707
vn 0.0000 -0.8804 -0.4742
vn 0.0000 -0.8752 -0.4836
vn -0.1141 -0.8736 -0.4730
vn -0.1106 -0.8720 -0.4768
vn -0.1292 -0.8708 -0.4743
vn -0.1091 -0.8669 -0.4863
vn -0.1242 -0.8690 -0.4789
vn -0.1184 -0.8740 -0.4712
vn -0.0905 -0.8780 -0.4700
vn -0.1215 -0.8743 -0.4698
vn -0.0922 -0.8784 -0.4688
vn -0.1345 -0.8708 -0.4729
vn -0.1390 -0.8705 -0.4721
vn -0.0518 -0.8816 -0.4692
vn 0.0000 -0.8823 -0.4706
vn -0.0522 -0.8820 -0.4684
vn 0.0000 -0.8831 -0.4690
vn -0.1746 -0.8652 -0.4701
vn -0.3422 -0.8376 -0.4257
vn -0.3061 -0.8457 -0.4370
vn -0.1769 -0.8630 -0.4732
vn -0.1208 -0.8641 -0.4886
vn -0.5764 -0.7574 -0.3067
vn -0.5098 -0.7885 -0.3441
vn -0.2984 -0.8454 -0.4430
vn -0.4775 -0.7937 -0.3768
vn -0.3020 -0.8437 -0.4437
vn -0.4902 -0.7900 -0.3682
vn -0.6660 -0.6991 -0.2602
vn -0.1788 -0.8647 -0.4693
vn -0.1852 -0.8635 -0.4691
vn -0.1069 -0.7692 -0.6300
vn -0.0908 -0.3973 -0.9131
vn -0.1540 -0.3834 -0.9106
vn -0.0985 -0.0416 -0.9942
vn -0.1664 -0.0222 -0.9858
vn -0.0627 -0.7744 -0.6295
vn 0.0000 -0.4048 -0.9144
vn 0.0000 -0.0502 -0.9987
vn -0.1364 -0.7640 -0.6306
vn -0.1957 -0.3684 -0.9088
vn -0.2101 0.0002 -0.9777
vn -0.1133 -0.8487 -0.5166
vn -0.0885 -0.8524 -0.5153
vn -0.0518 -0.8559 -0.5145
vn 0.0000 -0.7773 -0.6290
vn 0.0000 -0.8576 -0.5142
vn 0.4597 0.8835 0.0897
vn 0.1836 0.9124 0.3656
vn 0.4606 0.8533 0.2444
vn 0.1614 0.9582 0.2360
vn 0.0980 0.9176 0.3851
vn 0.7379 0.6677 -0.0983
vn 0.7415 0.6686 0.0563
vn 0.8367 0.5076 -0.2056
vn 0.8512 0.5217 -0.0571
vn 0.4259 0.4486 -0.7857
vn 0.2050 0.6964 -0.6877
vn -0.1457 -0.0092 -0.9893
vn 0.4709 0.2720 -0.8392
vn -0.0885 -0.0474 -0.9949
vn -0.0510 0.7773 -0.6270
vn 0.0635 0.9619 0.2659
vn -0.2018 0.0150 -0.9793
vn -0.1403 0.7673 -0.6257
vn 0.8632 0.4337 -0.2586
vn 0.8761 0.4726 -0.0951
vn 0.8858 0.4513 -0.1082
vn 0.8550 0.4551 -0.2486
vn 0.8751 0.4291 -0.2238
vn 0.8912 0.4416 -0.1035
vn 0.8836 0.4301 -0.1848
vn 0.8935 0.4388 -0.0955
vn 0.4145 0.1616 -0.8955
vn 0.4280 0.1790 -0.8859
vn -0.1746 -0.1401 -0.9746
vn 0.5181 0.2148 -0.8279
vn -0.3776 -0.2369 -0.8951
vn -0.2617 -0.1859 -0.9471
vn 0.4528 0.2117 -0.8661
vn -0.1137 -0.1063 -0.9878
vn -0.0795 -0.0787 -0.9937
vn 0.0233 0.9742 0.2243
vn 0.0669 0.9297 0.3623
vn 0.0403 0.9707 0.2368
vn 0.0396 0.9356 0.3508
vn 0.0000 0.9757 0.2191
vn 0.0000 0.9380 0.3464
vn 0.0558 0.9662 0.2514
vn 0.0865 0.9232 0.3746
vn -0.1340 0.7601 -0.6358
vn -0.1089 0.7486 -0.6539
vn -0.2051 -0.0009 -0.9787
vn -0.1623 -0.0228 -0.9865
vn -0.2208 0.0151 -0.9752
vn 0.0000 0.7382 -0.6746
vn -0.0662 0.7395 -0.6699
vn -0.0960 -0.0418 -0.9945
vn -0.1432 -0.0105 -0.9896
vn -0.2022 0.0151 -0.9792
vn -0.1446 -0.0098 -0.9894
vn -0.2028 0.0153 -0.9791
vn -0.2220 0.0155 -0.9749
vn -0.0858 -0.0489 -0.9951
vn -0.0822 -0.0507 -0.9953
vn -0.0761 -0.0808 -0.9938
vn -0.0721 -0.0833 -0.9939
vn -0.1416 -0.0112 -0.9898
vn -0.0785 -0.0527 -0.9955
vn -0.0678 -0.0859 -0.9940
vn -0.2035 0.0155 -0.9789
vn -0.2233 0.0159 -0.9746
vn -0.2247 0.0163 -0.9743
vn -0.1068 -0.1118 -0.9880
vn -0.1719 -0.1433 -0.9746
vn -0.1686 -0.1471 -0.9746
vn -0.1105 -0.1088 -0.9879
vn -0.2595 -0.1906 -0.9467
vn -0.2570 -0.1959 -0.9463
vn -0.3758 -0.2473 -0.8931
vn -0.3768 -0.2412 -0.8943
vn -0.1652 -0.1510 -0.9746
vn -0.2545 -0.2011 -0.9459
vn -0.3750 -0.2543 -0.8914
vn -0.3745 -0.2614 -0.8896
vn -0.1028 -0.1149 -0.9880
vn -0.1643 -0.0225 -0.9861
vn -0.0966 -0.0417 -0.9944
vn -0.1632 -0.0226 -0.9863
vn -0.0973 -0.0417 -0.9944
vn -0.2075 -0.0004 -0.9782
vn -0.2062 -0.0007 -0.9785
vn -0.2089 -0.0001 -0.9779
vn -0.1654 -0.0223 -0.9860
vn -0.0980 -0.0416 -0.9943
vn -0.4135 0.8570 0.3075
vn -0.2342 0.8936 0.3829
vn -0.2115 0.8972 0.3875
vn -0.1834 0.9016 0.3916
vn -0.1610 0.9035 0.3972
vn -0.4274 0.8515 0.3037
vn -0.4348 0.8475 0.3044
vn -0.2011 0.8986 0.3898
vn -0.4240 0.8561 0.2953
vn -0.1987 0.8995 0.3890
vn -0.4471 0.8505 0.2770
vn -0.1378 0.9054 0.4016
vn -0.1913 0.9025 0.3858
vn -0.7033 0.7007 0.1196
vn -0.6880 0.7111 0.1443
vn -0.8343 0.5512 0.0114
vn -0.7285 0.6786 0.0936
vn -0.8479 0.5295 -0.0251
vn -0.8385 0.5448 -0.0094
vn -0.7035 0.6966 0.1401
vn -0.6689 0.7250 0.1640
vn -0.8417 0.5399 0.0098
vn -0.8349 0.5501 0.0169
vn -0.8891 0.4537 -0.0593
vn -0.8733 0.4856 -0.0394
vn -0.8858 0.4602 -0.0594
vn -0.8777 0.4776 -0.0378
vn -0.8900 0.4522 -0.0579
vn -0.8768 0.4795 -0.0361
vn -0.8732 0.4844 -0.0535
vn -0.8864 0.4577 -0.0688
vn -0.8872 0.4544 -0.0795
vn -0.8764 0.4772 -0.0644
vn -0.8924 0.4455 -0.0719
vn -0.8942 0.4420 -0.0711
vn -0.8927 0.4432 -0.0815
vn -0.8945 0.4399 -0.0794
vn 0.8520 -0.5233 -0.0170
vn 0.8047 -0.5863 -0.0928
vn 0.8430 -0.5366 -0.0366
vn 0.8235 -0.5636 -0.0646
vn 0.7010 -0.6830 -0.2052
vn 0.8595 -0.5108 -0.0158
vn 0.8417 -0.5368 -0.0582
vn 0.7485 -0.6426 -0.1636
vn 0.8503 -0.5247 -0.0403
vn 0.8075 -0.5785 -0.1148
vn 0.8508 -0.5233 -0.0469
vn 0.6912 -0.6827 -0.2368
vn 0.7995 -0.5867 -0.1286
vn 0.8639 -0.5036 -0.0006
vn 0.8681 -0.4964 0.0045
vn 0.8675 -0.4974 0.0001
vn 0.8707 -0.4917 0.0103
vn 0.4148 -0.6986 -0.5830
vn 0.2320 -0.3288 -0.9154
vn 0.2108 -0.7477 -0.6297
vn 0.2117 -0.3580 -0.9094
vn 0.1480 -0.7609 -0.6317
vn 0.2621 -0.3012 -0.9168
vn 0.2041 0.0158 -0.9788
vn 0.2260 0.0167 -0.9740
vn 0.1938 -0.8368 -0.5120
vn 0.4227 -0.7890 -0.4458
vn 0.1845 -0.8567 -0.4816
vn 0.3912 -0.8188 -0.4201
vn 0.1238 -0.8459 -0.5188
vn 0.6518 -0.6061 -0.4559
vn 0.6821 -0.6681 -0.2971
vn 0.7768 -0.5311 -0.3384
vn 0.6468 -0.7098 -0.2789
vn 0.8091 -0.5644 -0.1637
vn 0.3331 -0.3223 -0.8861
vn 0.0750 -0.0546 -0.9957
vn 0.1400 -0.0119 -0.9901
vn 0.4340 -0.3311 -0.8378
vn 0.0640 -0.0883 -0.9940
vn 0.5320 -0.3545 -0.7689
vn 0.8150 -0.5033 -0.2872
vn 0.8345 -0.4939 -0.2442
vn 0.4824 -0.3369 -0.8085
vn 0.1622 -0.1546 -0.9745
vn 0.0993 -0.1177 -0.9880
vn 0.8475 -0.5222 -0.0952
vn 0.8618 -0.5040 -0.0570
vn 0.7919 -0.5946 -0.1394
vn 0.8511 -0.4940 -0.1777
vn 0.8684 -0.4949 -0.0294
vn 0.8621 -0.4904 -0.1275
vn 0.8702 -0.4924 -0.0145
vn 0.6029 -0.3891 -0.6965
vn 0.2524 -0.2054 -0.9456
vn 0.6273 -0.3919 -0.6730
vn -0.1143 0.9176 0.3806
vn -0.0769 0.9229 0.3773
vn -0.0674 0.9243 0.3757
vn -0.1337 0.9153 0.3798
vn -0.0849 0.9221 0.3775
vn -0.0583 0.9246 0.3763
vn -0.0945 0.9187 0.3835
vn -0.0481 0.9271 0.3718
vn -0.0794 0.9221 0.3787
vn -0.1261 0.9114 0.3916
vn -0.1486 0.9094 0.3885
vn -0.1034 0.9153 0.3893
vn -0.1162 0.9083 0.4019
vn -0.1702 0.9074 0.3842
vn -0.1473 0.9128 0.3807
vn -0.1872 0.9042 0.3839
vn 0.0876 -0.8774 -0.4716
vn 0.0495 -0.8789 -0.4743
vn 0.0505 -0.8808 -0.4707
vn 0.0854 -0.8757 -0.4752
vn 0.0495 -0.8737 -0.4838
vn 0.0905 -0.8780 -0.4700
vn 0.0518 -0.8816 -0.4692
vn 0.0922 -0.8784 -0.4688
vn 0.0522 -0.8820 -0.4684
vn 0.1184 -0.8740 -0.4712
vn 0.1141 -0.8736 -0.4730
vn 0.1345 -0.8708 -0.4729
vn 0.1292 -0.8708 -0.4743
vn 0.1215 -0.8743 -0.4698
vn 0.1390 -0.8705 -0.4721
vn 0.1106 -0.8720 -0.4768
vn 0.0848 -0.8705 -0.4847
vn 0.1242 -0.8690 -0.4789
vn 0.1091 -0.8669 -0.4863
vn 0.3422 -0.8376 -0.4257
vn 0.1746 -0.8652 -0.4701
vn 0.3061 -0.8457 -0.4370
vn 0.1769 -0.8630 -0.4732
vn 0.1208 -0.8641 -0.4886
vn 0.1788 -0.8647 -0.4693
vn 0.2984 -0.8454 -0.4430
vn 0.1852 -0.8635 -0.4691
vn 0.3020 -0.8437 -0.4437
vn 0.5098 -0.7885 -0.3441
vn 0.4775 -0.7937 -0.3768
vn 0.4902 -0.7900 -0.3682
vn 0.6660 -0.6991 -0.2602
vn 0.5764 -0.7574 -0.3067
vn 0.1069 -0.7692 -0.6300
vn 0.0908 -0.3973 -0.9131
vn 0.0627 -0.7744 -0.6295
vn 0.1540 -0.3834 -0.9106
vn 0.0985 -0.0416 -0.9942
vn 0.0885 -0.8524 -0.5153
vn 0.0518 -0.8559 -0.5145
vn 0.1133 -0.8487 -0.5166
vn 0.1364 -0.7640 -0.6306
vn 0.1957 -0.3684 -0.9088
vn 0.1664 -0.0222 -0.9858
vn 0.2101 0.0002 -0.9777
vn -0.4597 0.8835 0.0897
vn -0.1836 0.9124 0.3656
vn -0.1614 0.9582 0.2360
vn -0.0980 0.9176 0.3851
vn -0.0635 0.9619 0.2659
vn -0.4606 0.8533 0.2444
vn -0.2050 0.6964 -0.6877
vn 0.0510 0.7773 -0.6270
vn 0.1457 -0.0092 -0.9893
vn 0.1403 0.7673 -0.6257
vn 0.2018 0.0150 -0.9793
vn -0.4259 0.4486 -0.7857
vn -0.7379 0.6677 -0.0983
vn -0.4709 0.2720 -0.8392
vn -0.8367 0.5076 -0.2056
vn 0.0885 -0.0474 -0.9949
vn -0.7415 0.6686 0.0563
vn -0.8512 0.5217 -0.0571
vn -0.8632 0.4337 -0.2586
vn -0.8761 0.4726 -0.0951
vn -0.8550 0.4551 -0.2486
vn -0.8858 0.4513 -0.1082
vn -0.4280 0.1790 -0.8859
vn 0.1137 -0.1063 -0.9878
vn 0.1746 -0.1401 -0.9746
vn -0.4528 0.2117 -0.8661
vn 0.0795 -0.0787 -0.9937
vn -0.4145 0.1616 -0.8955
vn -0.8751 0.4291 -0.2238
vn -0.5181 0.2148 -0.8279
vn -0.8836 0.4301 -0.1848
vn 0.3776 -0.2369 -0.8951
vn -0.8912 0.4416 -0.1035
vn -0.8935 0.4388 -0.0955
vn -0.0669 0.9297 0.3623
vn -0.0233 0.9742 0.2243
vn -0.0403 0.9707 0.2368
vn -0.0396 0.9356 0.3508
vn 0.1089 0.7486 -0.6539
vn 0.0662 0.7395 -0.6699
vn 0.1623 -0.0228 -0.9865
vn 0.0960 -0.0418 -0.9945
vn 0.1340 0.7601 -0.6358
vn -0.0558 0.9662 0.2514
vn 0.2051 -0.0009 -0.9787
vn 0.2208 0.0151 -0.9752
vn -0.0865 0.9232 0.3746
vn 0.1432 -0.0105 -0.9896
vn 0.2022 0.0151 -0.9792
vn 0.2028 0.0153 -0.9791
vn 0.2220 0.0155 -0.9749
vn 0.2233 0.0159 -0.9746
vn 0.1446 -0.0098 -0.9894
vn 0.1416 -0.0112 -0.9898
vn 0.2035 0.0155 -0.9789
vn 0.2247 0.0163 -0.9743
vn 0.0822 -0.0507 -0.9953
vn 0.0785 -0.0527 -0.9955
vn 0.0721 -0.0833 -0.9939
vn 0.0678 -0.0859 -0.9940
vn 0.0858 -0.0489 -0.9951
vn 0.0761 -0.0808 -0.9938
vn 0.1719 -0.1433 -0.9746
vn 0.1068 -0.1118 -0.9880
vn 0.1686 -0.1471 -0.9746
vn 0.1105 -0.1088 -0.9879
vn 0.1028 -0.1149 -0.9880
vn 0.1652 -0.1510 -0.9746
vn 0.2570 -0.1959 -0.9463
vn 0.3750 -0.2543 -0.8914
vn 0.3758 -0.2473 -0.8931
vn 0.2545 -0.2011 -0.9459
vn 0.3745 -0.2614 -0.8896
vn 0.2595 -0.1906 -0.9467
vn 0.2617 -0.1859 -0.9471
vn 0.3768 -0.2412 -0.8943
vn 0.1643 -0.0225 -0.9861
vn 0.0966 -0.0417 -0.9944
vn 0.0973 -0.0417 -0.9944
vn 0.1632 -0.0226 -0.9863
vn 0.1654 -0.0223 -0.9860
vn 0.0980 -0.0416 -0.9943
vn 0.2089 -0.0001 -0.9779
vn 0.2075 -0.0004 -0.9782
vn 0.2062 -0.0007 -0.9785
vn 0.0000 0.9269 0.3752
vn 0.0000 -0.8834 -0.4685
vn -0.2561 0.8912 0.3744
s 1
f 1//1 6//2 2//3
f 6//2 267//4 2//3
f 5//5 317//6 6//2
f 6//2 471//7 266//8
f 1//1 7//9 3//10
f 3//10 263//11 264//12
f 2//3 268//13 7//9
f 7//9 464//14 263//11
f 1//1 8//15 4//16
f 4//16 271//17 270//18
f 264//12 8//15 3//10
f 8//15 465//19 271//17
f 4//16 5//5 1//1
f 9//20 318//21 5//5
f 270//18 9//20 4//16
f 269//22 319//23 9//20
f 13//24 11//25 10//26
f 14//27 279//28 11//25
f 264//12 14//27 13//24
f 263//11 278//29 14//27
f 10//26 15//30 12//31
f 12//31 277//32 276//33
f 11//25 280//34 15//30
f 15//30 466//35 277//32
f 10//26 16//36 13//24
f 13//24 265//37 264//12
f 276//33 16//36 12//31
f 275//38 265//37 16//36
f 20//39 18//40 17//41
f 21//42 315//43 18//40
f 321//44 21//42 20//39
f 320//45 314//46 21//42
f 17//41 22//47 19//48
f 19//48 287//49 288//50
f 18//40 316//51 22//47
f 22//47 470//52 287//49
f 19//48 20//39 17//41
f 23//53 321//44 20//39
f 288//50 23//53 19//48
f 289//54 322//55 23//53
f 24//56 29//57 25//58
f 25//58 364//59 363//60
f 28//61 296//62 29//57
f 29//57 479//63 364//59
f 24//56 30//64 26//65
f 26//65 329//66 330//67
f 25//58 362//68 30//64
f 30//64 480//69 329//66
f 26//65 27//70 24//56
f 31//71 327//72 27//70
f 330//67 31//71 26//65
f 331//73 328//74 31//71
f 24//56 32//75 28//61
f 32//75 297//76 28//61
f 27//70 326//77 32//75
f 326//77 298//78 32//75
f 37//79 34//80 33//81
f 38//82 366//83 34//80
f 330//67 38//82 37//79
f 329//66 367//84 38//82
f 33//81 39//85 35//86
f 39//85 285//87 35//86
f 34//80 365//88 39//85
f 365//88 284//89 39//85
f 35//86 36//90 33//81
f 40//91 315//43 36//90
f 285//87 40//91 35//86
f 286//92 316//51 40//91
f 33//81 41//93 37//79
f 37//79 331//73 330//67
f 36//90 314//46 41//93
f 41//93 474//94 331//73
f 42//95 47//96 43//97
f 43//97 304//98 303//99
f 273//100 47//96 46//101
f 272//102 304//98 47//96
f 43//97 44//103 42//95
f 48//104 318//21 44//103
f 303//99 48//104 43//97
f 302//105 317//6 48//104
f 42//95 49//106 45//107
f 45//107 305//108 306//109
f 44//103 319//23 49//106
f 49//106 472//110 305//108
f 42//95 50//111 46//101
f 46//101 274//112 273//100
f 45//107 307//113 50//111
f 50//111 484//114 274//112
f 51//115 56//116 52//117
f 52//117 301//118 300//119
f 55//120 295//121 56//116
f 56//116 490//122 301//118
f 52//117 53//123 51//115
f 57//124 309//125 53//123
f 300//119 57//124 52//117
f 299//126 310//127 57//124
f 51//115 58//128 54//129
f 54//129 311//130 312//131
f 53//123 308//132 58//128
f 58//128 473//133 311//130
f 54//129 55//120 51//115
f 59//134 294//135 55//120
f 312//131 59//134 54//129
f 313//136 293//137 59//134
f 64//138 61//139 60//140
f 65//141 327//72 61//139
f 64//138 310//127 65//141
f 65//141 469//142 326//77
f 60//140 66//143 62//144
f 62//144 320//45 321//44
f 61//139 328//74 66//143
f 66//143 474//94 320//45
f 62//144 63//145 60//140
f 63//145 325//146 324//147
f 62//144 322//55 67//148
f 67//148 467//149 325//146
f 60//140 68//150 64//138
f 64//138 308//132 309//125
f 63//145 323//151 68//150
f 68//150 473//133 308//132
f 69//152 74//153 70//154
f 70//154 370//155 369//156
f 73//157 335//158 74//153
f 74//153 503//159 370//155
f 70//154 71//160 69//152
f 75//161 297//76 71//160
f 369//156 75//161 70//154
f 368//162 296//62 75//161
f 69//152 76//163 72//164
f 72//164 299//126 300//119
f 71//160 298//78 76//163
f 76//163 469//142 299//126
f 72//164 73//157 69//152
f 77//165 336//166 73//157
f 300//119 77//165 72//164
f 301//118 337//167 77//165
f 78//168 83//169 79//170
f 79//170 269//22 270//18
f 82//171 340//172 83//169
f 83//169 472//110 269//22
f 79//170 80//173 78//168
f 84//174 282//175 80//173
f 270//18 84//174 79//170
f 271//17 283//176 84//174
f 78//168 85//177 81//178
f 85//177 342//179 81//178
f 80//173 281//180 85//177
f 281//180 341//181 85//177
f 81//178 82//171 78//168
f 86//182 339//183 82//171
f 342//179 86//182 81//178
f 343//184 338//185 86//182
f 87//186 92//187 88//188
f 88//188 275//38 276//33
f 91//189 283//176 92//187
f 92//187 465//19 275//38
f 88//188 89//190 87//186
f 93//191 333//192 89//190
f 276//33 93//191 88//188
f 277//32 334//193 93//191
f 87//186 94//194 90//195
f 94//194 345//196 90//195
f 89//190 332//197 94//194
f 94//194 476//198 344//199
f 90//195 91//189 87//186
f 95//200 282//175 91//189
f 90//195 346//201 95//200
f 95//200 475//202 281//180
f 100//203 97//204 96//205
f 101//206 306//109 97//204
f 291//207 101//206 100//203
f 292//208 307//113 101//206
f 97//204 98//209 96//205
f 102//210 339//183 98//209
f 97//204 305//108 102//210
f 305//108 340//172 102//210
f 96//205 103//211 99//212
f 99//212 347//213 348//214
f 98//209 338//185 103//211
f 103//211 477//215 347//213
f 99//212 100//203 96//205
f 100//203 290//216 291//207
f 348//214 104//217 99//212
f 349//218 290//216 104//217
f 105//219 110//220 106//221
f 106//221 343//184 342//179
f 109//222 355//223 110//220
f 110//220 477//215 343//184
f 105//219 111//224 107//225
f 107//225 358//226 357//227
f 106//221 341//181 111//224
f 111//224 475//202 358//226
f 107//225 108//228 105//219
f 112//229 363//60 108//228
f 357//227 112//229 107//225
f 356//230 362//68 112//229
f 108//228 109//222 105//219
f 113//231 354//232 109//222
f 363//60 113//231 108//228
f 364//59 353//233 113//231
f 118//234 115//235 114//236
f 119//237 345//196 115//235
f 357//227 119//237 118//234
f 358//226 346//201 119//237
f 114//236 120//238 116//239
f 120//238 351//240 116//239
f 115//235 344//199 120//238
f 344//199 352//241 120//238
f 116//239 117//242 114//236
f 121//243 366//83 117//242
f 116//239 350//244 121//243
f 121//243 478//245 365//88
f 114//236 122//246 118//234
f 118//234 356//230 357//227
f 117//242 367//84 122//246
f 122//246 480//69 356//230
f 123//247 128//248 124//249
f 124//249 349//218 348//214
f 127//250 361//159 128//248
f 128//248 498//159 349//218
f 124//249 125//251 123//247
f 129//252 354//232 125//251
f 348//214 129//252 124//249
f 347//213 355//223 129//252
f 123//247 130//253 126//254
f 126//254 368//162 369//156
f 125//251 353//233 130//253
f 130//253 479//63 368//162
f 126//254 127//250 123//247
f 131//255 360//159 127//250
f 369//156 131//255 126//254
f 370//155 359//159 131//255
f 132//256 137//257 133//258
f 133//258 416//259 417//260
f 375//261 137//257 136//262
f 137//257 491//263 416//259
f 133//258 134//264 132//256
f 138//265 378//266 134//264
f 417//260 138//265 133//258
f 418//267 377//268 138//265
f 132//256 139//269 135//270
f 139//269 372//271 135//270
f 134//264 379//272 139//269
f 139//269 482//273 373//274
f 132//256 140//275 136//262
f 136//262 376//276 375//261
f 135//270 371//277 140//275
f 140//275 481//278 376//276
f 144//279 142//280 141//281
f 145//282 372//271 142//280
f 384//283 145//282 144//279
f 383//284 371//277 145//282
f 141//281 146//285 143//286
f 146//285 381//287 143//286
f 142//280 373//274 146//285
f 373//274 380//288 146//285
f 141//281 147//289 144//279
f 144//279 385//290 384//283
f 143//286 382//291 147//289
f 147//289 485//292 385//290
f 151//293 149//294 148//295
f 152//296 420//297 149//294
f 414//298 152//296 151//293
f 413//299 419//300 152//296
f 149//294 150//301 148//295
f 153//302 393//303 150//301
f 420//297 153//302 149//294
f 421//304 394//305 153//302
f 148//295 154//306 151//293
f 151//293 415//307 414//298
f 150//301 392//308 154//306
f 154//306 489//309 415//307
f 155//310 160//311 156//312
f 156//312 395//313 396//314
f 159//315 457//316 160//311
f 160//311 501//317 395//313
f 155//310 161//318 157//319
f 157//319 425//320 426//321
f 396//314 161//318 156//312
f 397//322 425//320 161//318
f 157//319 158//323 155//310
f 162//324 429//325 158//323
f 426//321 162//324 157//319
f 427//326 430//327 162//324
f 155//310 163//328 159//315
f 159//315 455//329 456//330
f 158//323 428//331 163//328
f 163//328 502//332 455//329
f 168//333 165//334 164//335
f 169//336 429//325 165//334
f 459//337 169//336 168//333
f 460//338 428//331 169//336
f 164//335 170//339 166//340
f 166//340 413//299 414//298
f 165//334 430//327 170//339
f 170//339 495//341 413//299
f 166//340 167//342 164//335
f 171//343 390//344 167//342
f 414//298 171//343 166//340
f 415//307 391//345 171//343
f 164//335 172//346 168//333
f 168//333 458//347 459//337
f 390//344 172//346 167//342
f 389//348 458//347 172//346
f 173//349 178//350 174//351
f 178//350 273//100 174//351
f 177//352 403//353 178//350
f 403//353 272//102 178//350
f 173//349 179//354 175//355
f 175//355 406//356 405//357
f 174//351 274//112 179//354
f 179//354 484//114 406//356
f 173//349 180//358 176//359
f 176//359 418//267 417//260
f 175//355 404//360 180//358
f 180//358 492//361 418//267
f 176//359 177//352 173//349
f 181//362 402//363 177//352
f 417//260 181//362 176//359
f 416//259 401//364 181//362
f 182//365 187//366 183//367
f 183//367 295//121 294//135
f 186//368 400//369 187//366
f 187//366 490//122 295//121
f 183//367 184//370 182//365
f 188//371 411//372 184//370
f 294//135 188//371 183//367
f 293//137 412//373 188//371
f 182//365 189//374 185//375
f 185//375 407//376 408//377
f 184//370 410//378 189//374
f 189//374 494//379 407//376
f 185//375 186//368 182//365
f 190//380 399//381 186//368
f 408//377 190//380 185//375
f 409//382 398//383 190//380
f 195//384 192//385 191//386
f 192//385 409//382 408//377
f 426//321 196//387 195//384
f 196//387 488//388 409//382
f 191//386 197//389 193//390
f 193//390 422//391 423//392
f 192//385 407//376 197//389
f 197//389 494//379 422//391
f 193//390 194//393 191//386
f 194//393 421//304 420//297
f 193//390 424//394 198//395
f 198//395 486//396 421//304
f 191//386 199//397 195//384
f 195//384 427//326 426//321
f 194//393 419//300 199//397
f 199//397 495//341 427//326
f 200//398 205//399 201//400
f 201//400 335//158 336//166
f 204//401 463//402 205//399
f 205//399 503//159 335//158
f 201//400 202//403 200//398
f 206//404 399//381 202//403
f 336//166 206//404 201//400
f 337//167 400//369 206//404
f 200//398 207//405 203//406
f 203//406 397//322 396//314
f 202//403 398//383 207//405
f 207//405 488//388 397//322
f 203//406 204//401 200//398
f 208//407 462//408 204//401
f 396//314 208//407 203//406
f 395//313 461//409 208//407
f 209//410 214//411 210//412
f 210//412 436//413 435//414
f 213//415 377//268 214//411
f 214//411 492//361 436//413
f 210//412 211//416 209//410
f 215//417 438//418 211//416
f 435//414 215//417 210//412
f 434//419 439//420 215//417
f 209//410 216//421 212//422
f 212//422 386//423 387//424
f 438//418 216//421 211//416
f 437//425 386//423 216//421
f 212//422 213//415 209//410
f 217//426 378//266 213//415
f 387//424 217//426 212//422
f 388//427 379//272 217//426
f 218//428 223//429 219//430
f 219//430 388//427 387//424
f 222//431 380//288 223//429
f 223//429 482//273 388//427
f 219//430 220//432 218//428
f 220//432 442//433 441//434
f 387//424 224//435 219//430
f 224//435 496//436 442//433
f 218//428 225//437 221//438
f 221//438 431//439 432//440
f 441//434 225//437 220//432
f 225//437 497//441 431//439
f 221//438 222//431 218//428
f 226//442 381//287 222//431
f 432//440 226//442 221//438
f 433//443 382//291 226//442
f 231//444 228//445 227//446
f 232//447 291//207 228//445
f 405//357 232//447 231//444
f 406//356 292//208 232//447
f 228//445 229//448 227//446
f 233//449 444//450 229//448
f 228//445 290//216 233//449
f 290//216 445//451 233//449
f 227//446 234//452 230//453
f 230//453 434//419 435//414
f 229//448 443//454 234//452
f 234//452 499//455 434//419
f 230//453 231//444 227//446
f 231//444 404//360 405//357
f 435//414 235//456 230//453
f 436//413 404//360 235//456
f 236//457 241//458 237//459
f 237//459 451//460 450//461
f 240//462 439//420 241//458
f 241//458 499//455 451//460
f 237//459 238//463 236//457
f 242//464 456//330 238//463
f 450//461 242//464 237//459
f 449//465 457//316 242//464
f 238//463 239//466 236//457
f 243//467 453//468 239//466
f 456//330 243//467 238//463
f 455//329 452//469 243//467
f 236//457 244//470 240//462
f 240//462 437//425 438//418
f 239//466 454//471 244//470
f 244//470 496//436 437//425
f 249//472 246//473 245//474
f 250//475 453//468 246//473
f 441//434 250//475 249//472
f 442//433 454//471 250//475
f 245//474 251//476 247//477
f 247//477 460//338 459//337
f 246//473 452//469 251//476
f 251//476 502//332 460//338
f 247//477 248//478 245//474
f 248//478 446//479 447//480
f 459//337 252//481 247//477
f 252//481 500//482 446//479
f 245//474 253//483 249//472
f 249//472 440//484 441//434
f 447//480 253//483 248//478
f 448//485 440//484 253//483
f 254//486 259//487 255//488
f 255//488 361//159 360//159
f 258//489 445//451 259//487
f 259//487 498//159 361//159
f 255//488 256//490 254//486
f 260//491 462//408 256//490
f 360//159 260//491 255//488
f 359//159 463//402 260//491
f 254//486 261//492 257//493
f 257//493 449//465 450//461
f 256//490 461//409 261//492
f 261//492 501//317 449//465
f 257//493 258//489 254//486
f 262//494 444//450 258//489
f 450//461 262//494 257//493
f 451//460 443//454 262//494
f 1//1 5//5 6//2
f 6//2 266//8 267//4
f 5//5 318//21 317//6
f 6//2 317//6 471//7
f 1//1 2//3 7//9
f 3//10 7//9 263//11
f 2//3 267//4 268//13
f 7//9 268//13 464//14
f 1//1 3//10 8//15
f 4//16 8//15 271//17
f 264//12 265//37 8//15
f 8//15 265//37 465//19
f 4//16 9//20 5//5
f 9//20 319//23 318//21
f 270//18 269//22 9//20
f 269//22 472//110 319//23
f 13//24 14//27 11//25
f 14//27 278//29 279//28
f 264//12 263//11 14//27
f 263//11 464//14 278//29
f 10//26 11//25 15//30
f 12//31 15//30 277//32
f 11//25 279//28 280//34
f 15//30 280//34 466//35
f 10//26 12//31 16//36
f 13//24 16//36 265//37
f 276//33 275//38 16//36
f 275//38 465//19 265//37
f 20//39 21//42 18//40
f 21//42 314//46 315//43
f 321//44 320//45 21//42
f 320//45 474//94 314//46
f 17//41 18//40 22//47
f 19//48 22//47 287//49
f 18//40 315//43 316//51
f 22//47 316//51 470//52
f 19//48 23//53 20//39
f 23//53 322//55 321//44
f 288//50 289//54 23//53
f 289//54 467//149 322//55
f 24//56 28//61 29//57
f 25//58 29//57 364//59
f 28//61 297//76 296//62
f 29//57 296//62 479//63
f 24//56 25//58 30//64
f 26//65 30//64 329//66
f 25//58 363//60 362//68
f 30//64 362//68 480//69
f 26//65 31//71 27//70
f 31//71 328//74 327//72
f 330//67 331//73 31//71
f 331//73 474//94 328//74
f 24//56 27//70 32//75
f 32//75 298//78 297//76
f 27//70 327//72 326//77
f 326//77 469//142 298//78
f 37//79 38//82 34//80
f 38//82 367//84 366//83
f 330//67 329//66 38//82
f 329//66 480//69 367//84
f 33//81 34//80 39//85
f 39//85 284//89 285//87
f 34//80 366//83 365//88
f 365//88 478//245 284//89
f 35//86 40//91 36//90
f 40//91 316//51 315//43
f 285//87 286//92 40//91
f 286//92 470//52 316//51
f 33//81 36//90 41//93
f 37//79 41//93 331//73
f 36//90 315//43 314//46
f 41//93 314//46 474//94
f 42//95 46//101 47//96
f 43//97 47//96 304//98
f 273//100 272//102 47//96
f 272//102 483//495 304//98
f 43//97 48//104 44//103
f 48//104 317//6 318//21
f 303//99 302//105 48//104
f 302//105 471//7 317//6
f 42//95 44//103 49//106
f 45//107 49//106 305//108
f 44//103 318//21 319//23
f 49//106 319//23 472//110
f 42//95 45//107 50//111
f 46//101 50//111 274//112
f 45//107 306//109 307//113
f 50//111 307//113 484//114
f 51//115 55//120 56//116
f 52//117 56//116 301//118
f 55//120 294//135 295//121
f 56//116 295//121 490//122
f 52//117 57//124 53//123
f 57//124 310//127 309//125
f 300//119 299//126 57//124
f 299//126 469//142 310//127
f 51//115 53//123 58//128
f 54//129 58//128 311//130
f 53//123 309//125 308//132
f 58//128 308//132 473//133
f 54//129 59//134 55//120
f 59//134 293//137 294//135
f 312//131 313//136 59//134
f 313//136 493//496 293//137
f 64//138 65//141 61//139
f 65//141 326//77 327//72
f 64//138 309//125 310//127
f 65//141 310//127 469//142
f 60//140 61//139 66//143
f 62//144 66//143 320//45
f 61//139 327//72 328//74
f 66//143 328//74 474//94
f 62//144 67//148 63//145
f 63//145 67//148 325//146
f 62//144 321//44 322//55
f 67//148 322//55 467//149
f 60//140 63//145 68//150
f 64//138 68//150 308//132
f 63//145 324//147 323//151
f 68//150 323//151 473//133
f 69//152 73//157 74//153
f 70//154 74//153 370//155
f 73//157 336//166 335//158
f 74//153 335//158 503//159
f 70//154 75//161 71//160
f 75//161 296//62 297//76
f 369//156 368//162 75//161
f 368//162 479//63 296//62
f 69//152 71//160 76//163
f 72//164 76//163 299//126
f 71//160 297//76 298//78
f 76//163 298//78 469//142
f 72//164 77//165 73//157
f 77//165 337//167 336//166
f 300//119 301//118 77//165
f 301//118 490//122 337//167
f 78//168 82//171 83//169
f 79//170 83//169 269//22
f 82//171 339//183 340//172
f 83//169 340//172 472//110
f 79//170 84//174 80//173
f 84//174 283//176 282//175
f 270//18 271//17 84//174
f 271//17 465//19 283//176
f 78//168 80//173 85//177
f 85//177 341//181 342//179
f 80//173 282//175 281//180
f 281//180 475//202 341//181
f 81//178 86//182 82//171
f 86//182 338//185 339//183
f 342//179 343//184 86//182
f 343//184 477//215 338//185
f 87//186 91//189 92//187
f 88//188 92//187 275//38
f 91//189 282//175 283//176
f 92//187 283//176 465//19
f 88//188 93//191 89//190
f 93//191 334//193 333//192
f 276//33 277//32 93//191
f 277//32 466//35 334//193
f 87//186 89//190 94//194
f 94//194 344//199 345//196
f 89//190 333//192 332//197
f 94//194 332//197 476//198
f 90//195 95//200 91//189
f 95//200 281//180 282//175
f 90//195 345//196 346//201
f 95//200 346//201 475//202
f 100//203 101//206 97//204
f 101//206 307//113 306//109
f 291//207 292//208 101//206
f 292//208 484//114 307//113
f 97//204 102//210 98//209
f 102//210 340//172 339//183
f 97//204 306//109 305//108
f 305//108 472//110 340//172
f 96//205 98//209 103//211
f 99//212 103//211 347//213
f 98//209 339//183 338//185
f 103//211 338//185 477//215
f 99//212 104//217 100//203
f 100//203 104//217 290//216
f 348//214 349//218 104//217
f 349//218 498//159 290//216
f 105//219 109//222 110//220
f 106//221 110//220 343//184
f 109//222 354//232 355//223
f 110//220 355//223 477//215
f 105//219 106//221 111//224
f 107//225 111//224 358//226
f 106//221 342//179 341//181
f 111//224 341//181 475//202
f 107//225 112//229 108//228
f 112//229 362//68 363//60
f 357//227 356//230 112//229
f 356//230 480//69 362//68
f 108//228 113//231 109//222
f 113//231 353//233 354//232
f 363//60 364//59 113//231
f 364//59 479//63 353//233
f 118//234 119//237 115//235
f 119//237 346//201 345//196
f 357//227 358//226 119//237
f 358//226 475//202 346//201
f 114//236 115//235 120//238
f 120//238 352//241 351//240
f 115//235 345//196 344//199
f 344//199 476//198 352//241
f 116//239 121//243 117//242
f 121//243 365//88 366//83
f 116//239 351//240 350//244
f 121//243 350//244 478//245
f 114//236 117//242 122//246
f 118//234 122//246 356//230
f 117//242 366//83 367//84
f 122//246 367//84 480//69
f 123//247 127//250 128//248
f 124//249 128//248 349//218
f 127//250 360//159 361//159
f 128//248 361//159 498//159
f 124//249 129//252 125//251
f 129//252 355//223 354//232
f 348//214 347//213 129//252
f 347//213 477//215 355//223
f 123//247 125//251 130//253
f 126//254 130//253 368//162
f 125//251 354//232 353//233
f 130//253 353//233 479//63
f 126//254 131//255 127//250
f 131//255 359//159 360//159
f 369//156 370//155 131//255
f 370//155 503//159 359//159
f 132//256 136//262 137//257
f 133//258 137//257 416//259
f 375//261 374//497 137//257
f 137//257 374//497 491//263
f 133//258 138//265 134//264
f 138//265 377//268 378//266
f 417//260 418//267 138//265
f 418//267 492//361 377//268
f 132//256 134//264 139//269
f 139//269 373//274 372//271
f 134//264 378//266 379//272
f 139//269 379//272 482//273
f 132//256 135//270 140//275
f 136//262 140//275 376//276
f 135//270 372//271 371//277
f 140//275 371//277 481//278
f 144//279 145//282 142//280
f 145//282 371//277 372//271
f 384//283 383//284 145//282
f 383//284 481//278 371//277
f 141//281 142//280 146//285
f 146//285 380//288 381//287
f 142//280 372//271 373//274
f 373//274 482//273 380//288
f 141//281 143//286 147//289
f 144//279 147//289 385//290
f 143//286 381//287 382//291
f 147//289 382//291 485//292
f 151//293 152//296 149//294
f 152//296 419//300 420//297
f 414//298 413//299 152//296
f 413//299 495//341 419//300
f 149//294 153//302 150//301
f 153//302 394//305 393//303
f 420//297 421//304 153//302
f 421//304 486//396 394//305
f 148//295 150//301 154//306
f 151//293 154//306 415//307
f 150//301 393//303 392//308
f 154//306 392//308 489//309
f 155//310 159//315 160//311
f 156//312 160//311 395//313
f 159//315 456//330 457//316
f 160//311 457//316 501//317
f 155//310 156//312 161//318
f 157//319 161//318 425//320
f 396//314 397//322 161//318
f 397//322 488//388 425//320
f 157//319 162//324 158//323
f 162//324 430//327 429//325
f 426//321 427//326 162//324
f 427//326 495//341 430//327
f 155//310 158//323 163//328
f 159//315 163//328 455//329
f 158//323 429//325 428//331
f 163//328 428//331 502//332
f 168//333 169//336 165//334
f 169//336 428//331 429//325
f 459//337 460//338 169//336
f 460//338 502//332 428//331
f 164//335 165//334 170//339
f 166//340 170//339 413//299
f 165//334 429//325 430//327
f 170//339 430//327 495//341
f 166//340 171//343 167//342
f 171//343 391//345 390//344
f 414//298 415//307 171//343
f 415//307 489//309 391//345
f 164//335 167//342 172//346
f 168//333 172//346 458//347
f 390//344 389//348 172//346
f 389//348 500//482 458//347
f 173//349 177//352 178//350
f 178//350 272//102 273//100
f 177//352 402//363 403//353
f 403//353 483//495 272//102
f 173//349 174//351 179//354
f 175//355 179//354 406//356
f 174//351 273//100 274//112
f 179//354 274//112 484//114
f 173//349 175//355 180//358
f 176//359 180//358 418//267
f 175//355 405//357 404//360
f 180//358 404//360 492//361
f 176//359 181//362 177//352
f 181//362 401//364 402//363
f 417//260 416//259 181//362
f 416//259 491//263 401//364
f 182//365 186//368 187//366
f 183//367 187//366 295//121
f 186//368 399//381 400//369
f 187//366 400//369 490//122
f 183//367 188//371 184//370
f 188//371 412//373 411//372
f 294//135 293//137 188//371
f 293//137 493//496 412//373
f 182//365 184//370 189//374
f 185//375 189//374 407//376
f 184//370 411//372 410//378
f 189//374 410//378 494//379
f 185//375 190//380 186//368
f 190//380 398//383 399//381
f 408//377 409//382 190//380
f 409//382 488//388 398//383
f 195//384 196//387 192//385
f 192//385 196//387 409//382
f 426//321 425//320 196//387
f 196//387 425//320 488//388
f 191//386 192//385 197//389
f 193//390 197//389 422//391
f 192//385 408//377 407//376
f 197//389 407//376 494//379
f 193//390 198//395 194//393
f 194//393 198//395 421//304
f 193//390 423//392 424//394
f 198//395 424//394 486//396
f 191//386 194//393 199//397
f 195//384 199//397 427//326
f 194//393 420//297 419//300
f 199//397 419//300 495//341
f 200//398 204//401 205//399
f 201//400 205//399 335//158
f 204//401 462//408 463//402
f 205//399 463//402 503//159
f 201//400 206//404 202//403
f 206//404 400//369 399//381
f 336//166 337//167 206//404
f 337//167 490//122 400//369
f 200//398 202//403 207//405
f 203//406 207//405 397//322
f 202//403 399//381 398//383
f 207//405 398//383 488//388
f 203//406 208//407 204//401
f 208//407 461//409 462//408
f 396//314 395//313 208//407
f 395//313 501//317 461//409
f 209//410 213//415 214//411
f 210//412 214//411 436//413
f 213//415 378//266 377//268
f 214//411 377//268 492//361
f 210//412 215//417 211//416
f 215//417 439//420 438//418
f 435//414 434//419 215//417
f 434//419 499//455 439//420
f 209//410 211//416 216//421
f 212//422 216//421 386//423
f 438//418 437//425 216//421
f 437//425 496//436 386//423
f 212//422 217//426 213//415
f 217//426 379//272 378//266
f 387//424 388//427 217//426
f 388//427 482//273 379//272
f 218//428 222//431 223//429
f 219//430 223//429 388//427
f 222//431 381//287 380//288
f 223//429 380//288 482//273
f 219//430 224//435 220//432
f 220//432 224//435 442//433
f 387//424 386//423 224//435
f 224//435 386//423 496//436
f 218//428 220//432 225//437
f 221//438 225//437 431//439
f 441//434 440//484 225//437
f 225//437 440//484 497//441
f 221//438 226//442 222//431
f 226//442 382//291 381//287
f 432//440 433//443 226//442
f 433//443 485//292 382//291
f 231//444 232//447 228//445
f 232//447 292//208 291//207
f 405//357 406//356 232//447
f 406//356 484//114 292//208
f 228//445 233//449 229//448
f 233//449 445//451 444//450
f 228//445 291//207 290//216
f 290//216 498//159 445//451
f 227//446 229//448 234//452
f 230//453 234//452 434//419
f 229//448 444//450 443//454
f 234//452 443//454 499//455
f 230//453 235//456 231//444
f 231//444 235//456 404//360
f 435//414 436//413 235//456
f 436//413 492//361 404//360
f 236//457 240//462 241//458
f 237//459 241//458 451//460
f 240//462 438//418 439//420
f 241//458 439//420 499//455
f 237//459 242//464 238//463
f 242//464 457//316 456//330
f 450//461 449//465 242//464
f 449//465 501//317 457//316
f 238//463 243//467 239//466
f 243//467 452//469 453//468
f 456//330 455//329 243//467
f 455//329 502//332 452//469
f 236//457 239//466 244//470
f 240//462 244//470 437//425
f 239//466 453//468 454//471
f 244//470 454//471 496//436
f 249//472 250//475 246//473
f 250//475 454//471 453//468
f 441//434 442//433 250//475
f 442//433 496//436 454//471
f 245//474 246//473 251//476
f 247//477 251//476 460//338
f 246//473 453//468 452//469
f 251//476 452//469 502//332
f 247//477 252//481 248//478
f 248//478 252//481 446//479
f 459//337 458//347 252//481
f 252//481 458//347 500//482
f 245//474 248//478 253//483
f 249//472 253//483 440//484
f 447//480 448//485 253//483
f 448//485 497//441 440//484
f 254//486 258//489 259//487
f 255//488 259//487 361//159
f 258//489 444//450 445//451
f 259//487 445//451 498//159
f 255//488 260//491 256//490
f 260//491 463//402 462//408
f 360//159 359//159 260//491
f 359//159 503//159 463//402
f 254//486 256//490 261//492
f 257//493 261//492 449//465
f 256//490 462//408 461//409
f 261//492 461//409 501//317
f 257//493 262//494 258//489
f 262//494 443//454 444//450
f 450//461 451//460 262//494
f 451//460 499//455 443//454
