# Blender v2.79 (sub 0) OBJ File: 'm3_interior_open.blend'
# www.blender.org
o front_wall_Plane.050
v 14.999999 -1.464137 -15.000001
v 15.000001 18.035862 -15.000001
v -15.000001 -1.464135 -14.999999
v -14.999999 18.035866 -14.999999
v -10.499998 6.000001 -15.000000
v -10.499999 1.000001 -15.000000
v -5.500000 1.000001 -15.000000
v -5.499999 6.000000 -15.000000
v -2.500001 6.000001 -15.000000
v -2.499998 1.000000 -15.000000
v 2.500003 1.000000 -15.000000
v 2.500001 6.000001 -15.000000
v 5.500001 6.000000 -15.000000
v 5.500000 1.000000 -15.000000
v 10.500001 1.000000 -15.000000
v 10.500002 5.999999 -15.000000
vt 0.999900 0.000100
vt 0.999900 0.999900
vt 0.382800 0.416683
vt 0.382800 0.849930
vt 0.000100 0.999900
vt 0.126441 0.583317
vt 0.382800 0.683297
vt 0.126441 0.683297
vt 0.382800 0.150070
vt 0.000100 0.000100
vt 0.126441 0.416683
vt 0.126441 0.316703
vt 0.126441 0.150070
vt 0.382800 0.583317
vt 0.382800 0.316703
vt 0.126441 0.849930
vn 0.0000 0.0000 1.0000
s off
f 2/1/1 4/2/1 12/3/1
f 5/4/1 4/2/1 3/5/1
f 10/6/1 8/7/1 7/8/1
f 2/1/1 16/9/1 1/10/1
f 11/11/1 1/10/1 14/12/1
f 1/10/1 15/13/1 14/12/1
f 4/2/1 9/14/1 12/3/1
f 12/3/1 11/11/1 13/15/1
f 11/11/1 14/12/1 13/15/1
f 13/15/1 2/1/1 12/3/1
f 3/5/1 7/8/1 6/16/1
f 6/16/1 5/4/1 3/5/1
f 9/14/1 4/2/1 8/7/1
f 4/2/1 5/4/1 8/7/1
f 1/10/1 11/11/1 10/6/1
f 10/6/1 9/14/1 8/7/1
f 7/8/1 3/5/1 10/6/1
f 3/5/1 1/10/1 10/6/1
f 2/1/1 13/15/1 16/9/1
f 16/9/1 15/13/1 1/10/1
