# Blender v2.79 (sub 0) OBJ File: 'm3_interior_open.blend'
# www.blender.org
o M3_Side_Logo_Plane.026
v 1.710917 -0.056898 2.099134
v 1.710917 -0.060073 2.273808
v 1.710917 -0.015238 2.100097
v 1.710917 -0.017984 2.251204
v 1.687480 -0.056898 2.099134
v 1.687480 -0.060073 2.273808
v 1.687480 -0.015238 2.100097
v 1.687480 -0.017984 2.251204
v -1.710917 -0.056899 2.099134
v -1.710917 -0.060074 2.273808
v -1.710917 -0.015238 2.100097
v -1.710917 -0.017985 2.251204
v -1.687480 -0.056899 2.099134
v -1.687480 -0.060074 2.273808
v -1.687480 -0.015238 2.100097
v -1.687480 -0.017985 2.251204
vt 0.241585 0.467296
vt 0.783069 0.352913
vt 0.165601 0.352913
vt 0.783069 0.352913
vt 0.241585 0.467296
vt 0.165601 0.352913
vt 0.783069 0.467296
vt 0.783069 0.467296
vt 0.783069 0.352913
vt 0.241585 0.467296
vt 0.165601 0.352913
vt 0.241585 0.467296
vt 0.783069 0.352913
vt 0.165601 0.352913
vt 0.783069 0.467296
vt 0.783069 0.467296
vn -1.0000 0.0000 0.0000
vn 1.0000 0.0000 0.0000
vn 0.0000 -0.9998 -0.0182
vn 0.0000 -0.0231 0.9997
vn 0.0000 -0.4731 -0.8810
vn 0.0000 0.9998 0.0182
s off
f 4/1/1 1/2/1 2/3/1
f 5/4/2 8/5/2 6/6/2
f 4/1/3 7/7/3 3/8/3
f 1/2/4 7/7/4 5/4/4
f 4/1/5 6/6/5 8/5/5
f 1/2/6 6/6/6 2/3/6
f 9/9/2 12/10/2 10/11/2
f 16/12/1 13/13/1 14/14/1
f 15/15/3 12/10/3 11/16/3
f 13/13/4 11/16/4 9/9/4
f 12/10/5 14/14/5 10/11/5
f 14/14/6 9/9/6 10/11/6
f 4/1/1 3/8/1 1/2/1
f 5/4/2 7/7/2 8/5/2
f 4/1/3 8/5/3 7/7/3
f 1/2/4 3/8/4 7/7/4
f 4/1/5 2/3/5 6/6/5
f 1/2/6 5/4/6 6/6/6
f 9/9/2 11/16/2 12/10/2
f 16/12/1 15/15/1 13/13/1
f 15/15/3 16/12/3 12/10/3
f 13/13/4 15/15/4 11/16/4
f 12/10/5 16/12/5 14/14/5
f 14/14/6 13/13/6 9/9/6
