# Blender v2.79 (sub 0) OBJ File: 'm3_interior_open.blend'
# www.blender.org
o Tailight_Glass_Plane.004
v 0.983693 0.063266 -4.416067
v 0.969476 0.063266 -4.418506
v 0.952884 -0.003606 -4.429146
v 0.990571 0.063266 -4.414927
v 1.014396 0.130138 -4.403005
v 1.000827 0.132295 -4.405360
v 0.938125 -0.005763 -4.431650
v 0.962445 0.002865 -4.426889
v 1.018270 0.123667 -4.403031
v 0.858038 0.063266 -4.438013
v 0.811467 0.063266 -4.446193
v 0.830258 -0.005763 -4.448157
v 0.904772 0.063266 -4.429810
v 0.885818 0.132295 -4.427870
v 0.837729 0.132295 -4.437317
v 0.785206 -0.005763 -4.455069
v 0.875472 -0.005763 -4.441224
v 0.934073 0.132295 -4.418395
v 0.734896 0.063266 -4.459576
v 0.729183 0.063266 -4.460537
v 0.711839 -0.003606 -4.466188
v 0.748072 0.063266 -4.457296
v 0.758020 0.130138 -4.452952
v 0.750045 0.123667 -4.454652
v 0.708585 0.002865 -4.466382
v 0.723848 -0.005763 -4.464462
v 0.772295 0.132295 -4.450131
v 1.423778 -0.011737 -4.296731
v 1.423425 -0.044813 -4.300684
v 1.387131 -0.011784 -4.322863
v 1.423586 0.021885 -4.292991
v 1.457047 -0.011596 -4.262360
v 1.457099 -0.044608 -4.264966
v 1.386265 -0.044881 -4.327971
v 1.387617 0.021856 -4.317960
v 1.456273 0.021970 -4.260034
v 1.078985 -0.011104 -4.413280
v 1.039924 -0.010843 -4.418457
v 1.089697 0.022745 -4.407395
v 1.123323 -0.011360 -4.406560
v 1.068054 -0.044514 -4.419150
v 1.027443 -0.044374 -4.424529
v 1.052283 0.023086 -4.412388
v 1.132223 0.022410 -4.400805
v 1.114123 -0.044653 -4.412293
v 1.261709 -0.011763 -4.375600
v 1.216365 -0.011699 -4.387938
v 1.265525 0.021884 -4.369572
v 1.305613 -0.011784 -4.360842
v 1.257615 -0.044869 -4.381738
v 1.210680 -0.044835 -4.393863
v 1.221726 0.021967 -4.382060
v 1.308078 0.021856 -4.354819
v 1.302900 -0.044881 -4.367034
v 1.533206 -0.010001 -4.090331
v 1.534358 -0.041693 -4.091121
v 1.511547 -0.010845 -4.158459
v 1.530702 0.022795 -4.092085
v 1.552343 -0.008596 -4.016768
v 1.552620 -0.037865 -4.022302
v 1.512575 -0.043515 -4.158449
v 1.509561 0.022425 -4.159263
v 1.549642 0.023222 -4.018191
v 1.394758 0.279754 -4.277449
v 1.401698 0.241349 -4.278594
v 1.370587 0.279940 -4.293756
v 1.387325 0.318347 -4.276487
v 1.416215 0.279194 -4.257380
v 1.425233 0.241010 -4.256439
v 1.375298 0.241462 -4.296211
v 1.365457 0.318619 -4.291471
v 1.406651 0.317533 -4.258541
v 1.467160 0.273570 -4.162443
v 1.480019 0.237731 -4.148307
v 1.452004 0.276209 -4.199789
v 1.453760 0.308813 -4.177145
v 1.481246 0.270134 -4.121686
v 1.494667 0.236035 -4.101327
v 1.464016 0.239201 -4.191186
v 1.439408 0.313191 -4.208797
v 1.467410 0.302192 -4.142814
v 1.274150 0.128326 -4.352653
v 1.234604 0.128372 -4.364952
v 1.276168 0.165517 -4.347504
v 1.312896 0.128310 -4.338521
v 1.271767 0.091877 -4.358061
v 1.230836 0.091950 -4.370529
v 1.238091 0.165535 -4.359570
v 1.313562 0.165512 -4.333748
v 1.311772 0.091853 -4.343619
v 1.417313 0.128306 -4.283997
v 1.420477 0.091859 -4.286577
v 1.385056 0.128310 -4.305391
v 1.413112 0.165489 -4.281816
v 1.446460 0.128293 -4.255975
v 1.451116 0.091876 -4.256785
v 1.386684 0.091853 -4.309182
v 1.382628 0.165512 -4.301978
v 1.440536 0.165421 -4.255667
v 1.280942 0.279935 -4.333718
v 1.279495 0.241457 -4.338063
v 1.248470 0.279918 -4.344985
v 1.282302 0.318615 -4.329522
v 1.313082 0.279940 -4.321250
v 1.313593 0.241462 -4.325154
v 1.244943 0.241440 -4.349597
v 1.252038 0.318605 -4.340523
v 1.312361 0.318619 -4.317502
v 1.512418 0.128171 -4.112075
v 1.520362 0.092041 -4.103142
v 1.493729 0.128226 -4.169824
v 1.502906 0.164765 -4.122812
v 1.529129 0.128107 -4.048456
v 1.537816 0.092126 -4.035148
v 1.500798 0.091967 -4.164844
v 1.485118 0.165059 -4.176004
v 1.518892 0.164426 -4.064276
v 1.108500 0.279261 -4.381942
v 1.089981 0.241090 -4.385874
v 1.104780 0.278332 -4.382887
v 1.127218 0.317175 -4.378388
v 1.114827 0.279591 -4.380424
v 1.096881 0.241114 -4.384452
v 1.086394 0.241076 -4.386712
v 1.122503 0.313508 -4.379577
v 1.133261 0.318409 -4.376718
v 1.119824 0.128810 -4.389690
v 1.088365 0.129001 -4.394334
v 1.129766 0.165698 -4.384048
v 1.156050 0.128621 -4.383419
v 1.110026 0.092633 -4.395543
v 1.076395 0.092933 -4.400260
v 1.100645 0.165770 -4.388676
v 1.163552 0.165628 -4.377818
v 1.148518 0.092339 -4.389188
v 0.977599 -0.010113 -4.426214
v 0.971905 -0.009270 -4.426954
v 0.992564 0.023696 -4.419828
v 0.989099 -0.010468 -4.424726
v 0.963002 -0.043071 -4.432532
v 0.958371 -0.039889 -4.432811
v 0.986730 0.023767 -4.420695
v 1.003675 0.023575 -4.418357
v 0.974552 -0.044172 -4.431130
v 1.162894 0.279759 -4.369351
v 1.151247 0.241283 -4.373874
v 1.141634 0.279690 -4.374353
v 1.174906 0.318510 -4.365054
v 1.188322 0.279828 -4.362870
v 1.179613 0.241350 -4.367538
v 1.127250 0.241213 -4.378686
v 1.156452 0.318469 -4.370287
v 1.197303 0.318551 -4.358391
v 1.038819 0.129344 -4.401129
v 1.034126 0.129384 -4.401921
v 1.055054 0.165898 -4.395467
v 1.047946 0.129276 -4.399785
v 1.023129 0.093468 -4.407174
v 1.018027 0.093531 -4.407980
v 1.050766 0.165913 -4.396258
v 1.063433 0.165872 -4.394123
v 1.032977 0.093362 -4.405806
v -0.990838 0.063266 -4.416067
v -1.021540 0.130138 -4.403005
v -0.997716 0.063266 -4.414927
v -0.960028 -0.003606 -4.429146
v -0.976620 0.063266 -4.418506
v -1.007971 0.132295 -4.405360
v -1.025414 0.123667 -4.403031
v -0.969590 0.002865 -4.426889
v -0.945269 -0.005763 -4.431651
v -0.865183 0.063266 -4.438014
v -0.892963 0.132295 -4.427870
v -0.911917 0.063266 -4.429810
v -0.837403 -0.005763 -4.448157
v -0.818612 0.063266 -4.446193
v -0.844873 0.132295 -4.437317
v -0.941217 0.132295 -4.418395
v -0.882617 -0.005763 -4.441224
v -0.792350 -0.005763 -4.455069
v -0.742041 0.063266 -4.459576
v -0.765164 0.130138 -4.452952
v -0.755216 0.063266 -4.457296
v -0.718984 -0.003606 -4.466189
v -0.736327 0.063266 -4.460537
v -0.757190 0.123667 -4.454652
v -0.779440 0.132295 -4.450131
v -0.730993 -0.005763 -4.464462
v -0.715729 0.002865 -4.466382
v -1.430922 -0.011737 -4.296731
v -1.464191 -0.011596 -4.262359
v -1.430730 0.021885 -4.292991
v -1.394276 -0.011784 -4.322863
v -1.430570 -0.044813 -4.300684
v -1.464244 -0.044608 -4.264966
v -1.463417 0.021970 -4.260034
v -1.394762 0.021856 -4.317960
v -1.393409 -0.044881 -4.327971
v -1.086129 -0.011104 -4.413280
v -1.075198 -0.044514 -4.419151
v -1.130468 -0.011360 -4.406561
v -1.096841 0.022745 -4.407395
v -1.047068 -0.010843 -4.418458
v -1.034587 -0.044374 -4.424529
v -1.121267 -0.044653 -4.412294
v -1.139367 0.022410 -4.400805
v -1.059427 0.023086 -4.412388
v -1.268853 -0.011763 -4.375600
v -1.264760 -0.044869 -4.381738
v -1.312757 -0.011784 -4.360842
v -1.272669 0.021884 -4.369572
v -1.223509 -0.011699 -4.387938
v -1.217825 -0.044835 -4.393863
v -1.310045 -0.044881 -4.367034
v -1.315222 0.021856 -4.354819
v -1.228871 0.021967 -4.382060
v -1.540350 -0.010001 -4.090331
v -1.559488 -0.008596 -4.016768
v -1.537846 0.022795 -4.092085
v -1.518691 -0.010845 -4.158459
v -1.541503 -0.041693 -4.091122
v -1.559765 -0.037865 -4.022302
v -1.556786 0.023222 -4.018191
v -1.516705 0.022425 -4.159262
v -1.519719 -0.043515 -4.158450
v -1.401902 0.279754 -4.277449
v -1.423360 0.279194 -4.257380
v -1.394469 0.318347 -4.276487
v -1.377731 0.279940 -4.293755
v -1.408842 0.241349 -4.278594
v -1.432378 0.241010 -4.256439
v -1.413795 0.317533 -4.258540
v -1.372601 0.318619 -4.291471
v -1.382442 0.241462 -4.296210
v -1.474304 0.273570 -4.162443
v -1.488390 0.270134 -4.121686
v -1.460905 0.308813 -4.177145
v -1.459149 0.276209 -4.199789
v -1.487164 0.237731 -4.148307
v -1.501811 0.236035 -4.101327
v -1.474555 0.302192 -4.142814
v -1.446553 0.313191 -4.208797
v -1.471161 0.239201 -4.191186
v -1.281294 0.128326 -4.352653
v -1.278911 0.091877 -4.358061
v -1.320040 0.128310 -4.338521
v -1.283313 0.165517 -4.347504
v -1.241749 0.128372 -4.364952
v -1.237980 0.091950 -4.370529
v -1.318916 0.091853 -4.343619
v -1.320706 0.165512 -4.333748
v -1.245235 0.165535 -4.359570
v -1.424458 0.128306 -4.283997
v -1.453604 0.128293 -4.255975
v -1.420256 0.165489 -4.281816
v -1.392200 0.128310 -4.305391
v -1.427621 0.091859 -4.286577
v -1.458260 0.091876 -4.256785
v -1.447680 0.165421 -4.255667
v -1.389772 0.165512 -4.301978
v -1.393828 0.091853 -4.309182
v -1.288086 0.279935 -4.333717
v -1.320227 0.279940 -4.321249
v -1.289446 0.318615 -4.329522
v -1.255615 0.279918 -4.344984
v -1.286639 0.241457 -4.338063
v -1.320738 0.241462 -4.325154
v -1.319505 0.318619 -4.317501
v -1.259182 0.318605 -4.340522
v -1.252087 0.241440 -4.349597
v -1.519563 0.128171 -4.112075
v -1.536274 0.128107 -4.048455
v -1.510050 0.164765 -4.122812
v -1.500874 0.128226 -4.169825
v -1.527507 0.092041 -4.103142
v -1.544961 0.092126 -4.035147
v -1.526037 0.164426 -4.064276
v -1.492263 0.165059 -4.176004
v -1.507942 0.091967 -4.164844
v -1.115644 0.279261 -4.381942
v -1.121972 0.279591 -4.380424
v -1.134362 0.317175 -4.378388
v -1.111925 0.278332 -4.382887
v -1.097125 0.241090 -4.385874
v -1.104026 0.241114 -4.384452
v -1.140406 0.318409 -4.376718
v -1.129647 0.313508 -4.379577
v -1.093539 0.241076 -4.386712
v -1.126968 0.128810 -4.389690
v -1.117170 0.092633 -4.395543
v -1.163194 0.128621 -4.383419
v -1.136910 0.165698 -4.384048
v -1.095509 0.129001 -4.394334
v -1.083540 0.092933 -4.400260
v -1.155663 0.092339 -4.389188
v -1.170696 0.165628 -4.377819
v -1.107790 0.165770 -4.388676
v -0.984744 -0.010113 -4.426214
v -0.970146 -0.043071 -4.432532
v -0.996243 -0.010468 -4.424726
v -0.999708 0.023696 -4.419829
v -0.979050 -0.009270 -4.426955
v -0.965515 -0.039889 -4.432811
v -0.981696 -0.044172 -4.431130
v -1.010820 0.023575 -4.418357
v -0.993874 0.023767 -4.420696
v -1.170039 0.279759 -4.369350
v -1.195467 0.279828 -4.362870
v -1.182050 0.318510 -4.365053
v -1.148779 0.279690 -4.374354
v -1.158391 0.241283 -4.373874
v -1.186757 0.241350 -4.367538
v -1.204447 0.318551 -4.358390
v -1.163596 0.318469 -4.370287
v -1.134395 0.241214 -4.378686
v -1.045964 0.129344 -4.401129
v -1.030274 0.093468 -4.407173
v -1.055090 0.129276 -4.399785
v -1.062199 0.165898 -4.395467
v -1.041270 0.129384 -4.401920
v -1.025172 0.093531 -4.407979
v -1.040121 0.093362 -4.405807
v -1.070578 0.165872 -4.394123
v -1.057910 0.165913 -4.396258
v 0.906774 -0.074793 -4.444796
v 0.922021 -0.070479 -4.442233
v 0.934105 -0.057536 -4.438885
v 1.032178 0.201325 -4.392216
v 1.045045 0.197010 -4.389952
v 1.045754 0.184067 -4.391168
v 0.745221 0.115038 -4.455791
v 0.727200 0.063266 -4.460840
v 0.709708 0.011494 -4.465809
v 0.969408 0.011494 -4.424758
v 0.993780 0.063266 -4.414437
v 1.017297 0.115038 -4.404248
v 0.699625 -0.074793 -4.471627
v 0.688815 -0.070479 -4.472796
v 0.688119 -0.057536 -4.472207
v 0.796519 0.201325 -4.442966
v 0.781176 0.197010 -4.446324
v 0.771040 0.184067 -4.448747
v 0.913783 -0.005763 -4.435358
v 0.944356 0.063266 -4.422875
v 0.974930 0.132295 -4.410393
v 0.758945 -0.074793 -4.463944
v 0.802478 -0.074793 -4.458302
v 0.846172 -0.074793 -4.452639
v 0.863990 0.201325 -4.428441
v 0.913598 0.201325 -4.417726
v 0.963373 0.201325 -4.406981
v 0.747381 -0.005763 -4.460867
v 0.772374 0.063266 -4.453052
v 0.797367 0.132295 -4.445237
v 1.513124 -0.075885 -4.158838
v 1.534835 -0.072832 -4.093184
v 1.551685 -0.065858 -4.031316
v 1.385208 -0.077706 -4.333180
v 1.422800 -0.077615 -4.304744
v 1.456791 -0.077342 -4.267714
v 1.300065 -0.077706 -4.373310
v 1.253382 -0.077706 -4.387930
v 1.204835 -0.077706 -4.399809
v 1.475152 0.202155 -4.183190
v 1.492036 0.201420 -4.135006
v 1.507330 0.200572 -4.082077
v 1.379381 0.203286 -4.298923
v 1.407898 0.203230 -4.280019
v 1.433431 0.203060 -4.255832
v 1.313788 0.203286 -4.329294
v 1.277918 0.203284 -4.342633
v 1.241476 0.203277 -4.354433
v 1.445980 0.240332 -4.227913
v 1.435212 0.278074 -4.232007
v 1.423867 0.315905 -4.236390
v 1.485118 0.022141 -4.216365
v 1.486462 -0.011315 -4.217138
v 1.486934 -0.044198 -4.218370
v 1.211221 0.241406 -4.359506
v 1.217115 0.279884 -4.354790
v 1.223171 0.318585 -4.350234
v 1.567482 0.023677 -3.940940
v 1.570220 -0.006910 -3.940486
v 1.569121 -0.033033 -3.952737
v 1.348928 0.021856 -4.337662
v 1.347584 -0.011784 -4.343364
v 1.345972 -0.044881 -4.349272
v 1.177140 0.022133 -4.392425
v 1.170072 -0.011572 -4.398158
v 1.162662 -0.044767 -4.403888
v 1.387532 0.056311 -4.313365
v 1.422576 0.056325 -4.289571
v 1.454416 0.056368 -4.258128
v 1.310172 0.056311 -4.349051
v 1.268924 0.056340 -4.363708
v 1.226604 0.056428 -4.376250
v 1.506137 0.056596 -4.161258
v 1.526527 0.056781 -4.096363
v 1.544729 0.056994 -4.024882
v 1.014902 -0.077706 -4.430602
v 1.057013 -0.077706 -4.425013
v 1.104772 -0.077706 -4.418017
v 1.064460 0.057612 -4.406322
v 1.100080 0.057251 -4.401485
v 1.140671 0.056897 -4.395018
v 0.957199 -0.035666 -4.432529
v 0.969114 -0.008184 -4.427321
v 0.983534 0.023814 -4.421261
v 1.340613 0.318619 -4.304729
v 1.343446 0.279940 -4.307841
v 1.345955 0.241462 -4.311120
v 1.311534 0.357398 -4.313832
v 1.283619 0.357398 -4.325401
v 1.255626 0.357398 -4.336135
v 1.480709 0.294450 -4.107143
v 1.494798 0.266299 -4.079223
v 1.508637 0.234225 -4.052297
v 1.360118 0.357398 -4.289271
v 1.379645 0.357036 -4.275620
v 1.396813 0.355950 -4.259813
v 1.426520 0.350161 -4.218009
v 1.440092 0.343757 -4.192127
v 1.453367 0.333229 -4.164325
v 1.200246 0.165570 -4.369741
v 1.194993 0.128466 -4.375260
v 1.189560 0.092096 -4.380936
v 1.464628 0.165285 -4.221180
v 1.472073 0.128268 -4.218769
v 1.478067 0.091910 -4.217107
v 1.533978 0.164064 -4.003067
v 1.544851 0.128039 -3.981902
v 1.554215 0.092217 -3.964007
v 1.349354 0.165512 -4.318505
v 1.350109 0.128310 -4.322714
v 1.350271 0.091853 -4.327296
v 1.151940 0.357398 -4.373173
v 1.146035 0.354959 -4.375025
v 1.139894 0.347643 -4.376524
v 1.048522 0.165922 -4.396774
v 1.031649 0.129410 -4.402436
v 1.015298 0.093571 -4.408504
v 1.084464 0.241066 -4.387258
v 1.102364 0.277104 -4.383546
v 1.118452 0.308625 -4.380524
v 1.113515 0.203190 -4.383415
v 1.140143 0.203216 -4.378735
v 1.171311 0.203243 -4.372490
v 0.960020 -0.077706 -4.437554
v 0.948588 -0.075604 -4.438816
v 0.945482 -0.069298 -4.438466
v 1.018296 0.058129 -4.412045
v 1.007779 0.058257 -4.413455
v 1.002289 0.058332 -4.414287
v 1.171485 0.357398 -4.366352
v 1.187098 0.357398 -4.360869
v 1.206419 0.357398 -4.354005
v 1.079669 0.203151 -4.388966
v 1.072040 0.203142 -4.390334
v 1.068128 0.203136 -4.391140
v 1.022702 0.023380 -4.415977
v 1.009006 -0.010618 -4.422227
v 0.995279 -0.044252 -4.428499
v 1.108752 0.241154 -4.382154
v 1.125344 0.279630 -4.378004
v 1.142413 0.318433 -4.374154
v 1.077949 0.165831 -4.391952
v 1.063722 0.129167 -4.397612
v 1.049941 0.093191 -4.403595
v -0.913918 -0.074793 -4.444796
v -0.929165 -0.070479 -4.442233
v -0.941250 -0.057536 -4.438885
v -1.039322 0.201325 -4.392216
v -1.052189 0.197010 -4.389952
v -1.052899 0.184067 -4.391168
v -0.752366 0.115038 -4.455791
v -0.734345 0.063266 -4.460840
v -0.716852 0.011494 -4.465809
v -0.976553 0.011494 -4.424758
v -1.000925 0.063266 -4.414437
v -1.024441 0.115038 -4.404248
v -0.706769 -0.074793 -4.471627
v -0.695959 -0.070479 -4.472796
v -0.695263 -0.057536 -4.472207
v -0.803663 0.201325 -4.442966
v -0.788321 0.197010 -4.446324
v -0.778185 0.184067 -4.448747
v -0.920927 -0.005763 -4.435358
v -0.951501 0.063266 -4.422875
v -0.982074 0.132295 -4.410392
v -0.766089 -0.074793 -4.463944
v -0.809622 -0.074793 -4.458302
v -0.853316 -0.074793 -4.452639
v -0.871134 0.201325 -4.428441
v -0.920743 0.201325 -4.417726
v -0.970518 0.201325 -4.406981
v -0.754525 -0.005763 -4.460867
v -0.779518 0.063266 -4.453052
v -0.804511 0.132295 -4.445237
v -1.520269 -0.075885 -4.158838
v -1.541980 -0.072832 -4.093184
v -1.558829 -0.065858 -4.031316
v -1.392352 -0.077706 -4.333180
v -1.429944 -0.077615 -4.304744
v -1.463936 -0.077342 -4.267714
v -1.307209 -0.077706 -4.373310
v -1.260527 -0.077706 -4.387930
v -1.211979 -0.077706 -4.399809
v -1.482296 0.202155 -4.183190
v -1.499180 0.201420 -4.135006
v -1.514475 0.200572 -4.082077
v -1.386526 0.203286 -4.298923
v -1.415043 0.203230 -4.280019
v -1.440575 0.203060 -4.255832
v -1.320932 0.203286 -4.329294
v -1.285062 0.203284 -4.342633
v -1.248621 0.203277 -4.354433
v -1.453125 0.240332 -4.227913
v -1.442357 0.278074 -4.232007
v -1.431012 0.315905 -4.236390
v -1.492262 0.022141 -4.216365
v -1.493606 -0.011315 -4.217138
v -1.494078 -0.044198 -4.218370
v -1.218366 0.241406 -4.359505
v -1.224259 0.279884 -4.354789
v -1.230315 0.318585 -4.350234
v -1.574626 0.023677 -3.940940
v -1.577365 -0.006910 -3.940486
v -1.576265 -0.033033 -3.952737
v -1.356072 0.021856 -4.337662
v -1.354729 -0.011784 -4.343364
v -1.353116 -0.044881 -4.349272
v -1.184284 0.022133 -4.392425
v -1.177217 -0.011572 -4.398158
v -1.169806 -0.044767 -4.403888
v -1.394676 0.056311 -4.313366
v -1.429721 0.056325 -4.289571
v -1.461560 0.056368 -4.258128
v -1.317317 0.056311 -4.349051
v -1.276068 0.056340 -4.363708
v -1.233748 0.056428 -4.376250
v -1.513282 0.056596 -4.161258
v -1.533671 0.056781 -4.096363
v -1.551873 0.056994 -4.024882
v -1.022046 -0.077706 -4.430602
v -1.064157 -0.077706 -4.425013
v -1.111917 -0.077706 -4.418017
v -1.071605 0.057612 -4.406322
v -1.107225 0.057251 -4.401485
v -1.147816 0.056897 -4.395018
v -0.964344 -0.035666 -4.432529
v -0.976258 -0.008184 -4.427321
v -0.990678 0.023814 -4.421261
v -1.347758 0.318619 -4.304729
v -1.350591 0.279940 -4.307841
v -1.353100 0.241462 -4.311120
v -1.318679 0.357398 -4.313832
v -1.290764 0.357398 -4.325401
v -1.262770 0.357398 -4.336135
v -1.487854 0.294450 -4.107143
v -1.501942 0.266299 -4.079223
v -1.515781 0.234225 -4.052297
v -1.367262 0.357398 -4.289271
v -1.386789 0.357036 -4.275620
v -1.403957 0.355950 -4.259813
v -1.433665 0.350161 -4.218009
v -1.447236 0.343757 -4.192127
v -1.460512 0.333229 -4.164325
v -1.207391 0.165570 -4.369742
v -1.202138 0.128466 -4.375260
v -1.196704 0.092096 -4.380936
v -1.471773 0.165285 -4.221180
v -1.479217 0.128268 -4.218769
v -1.485212 0.091910 -4.217107
v -1.541123 0.164064 -4.003067
v -1.551996 0.128039 -3.981902
v -1.561359 0.092217 -3.964007
v -1.356498 0.165512 -4.318505
v -1.357253 0.128310 -4.322714
v -1.357415 0.091853 -4.327296
v -1.159084 0.357398 -4.373173
v -1.153180 0.354959 -4.375025
v -1.147038 0.347643 -4.376524
v -1.055667 0.165922 -4.396774
v -1.038793 0.129410 -4.402436
v -1.022442 0.093571 -4.408504
v -1.091608 0.241066 -4.387258
v -1.109509 0.277104 -4.383546
v -1.125597 0.308625 -4.380524
v -1.120659 0.203190 -4.383415
v -1.147287 0.203216 -4.378735
v -1.178455 0.203243 -4.372490
v -0.967164 -0.077706 -4.437554
v -0.955733 -0.075604 -4.438816
v -0.952626 -0.069298 -4.438466
v -1.025441 0.058129 -4.412045
v -1.014924 0.058257 -4.413455
v -1.009433 0.058332 -4.414287
v -1.178630 0.357398 -4.366352
v -1.194243 0.357398 -4.360869
v -1.213564 0.357398 -4.354005
v -1.086813 0.203151 -4.388966
v -1.079184 0.203142 -4.390334
v -1.075272 0.203136 -4.391140
v -1.029846 0.023380 -4.415977
v -1.016150 -0.010618 -4.422227
v -1.002424 -0.044252 -4.428499
v -1.115897 0.241154 -4.382154
v -1.132489 0.279630 -4.378004
v -1.149557 0.318433 -4.374154
v -1.085093 0.165831 -4.391952
v -1.070866 0.129167 -4.397612
v -1.057085 0.093191 -4.403595
v 0.948183 -0.031650 -4.433482
v 1.035955 0.158181 -4.395916
v 0.695696 -0.031650 -4.469872
v 0.760819 0.158181 -4.451486
v 0.883209 -0.074793 -4.447842
v 1.005503 0.201325 -4.397910
v 0.722388 -0.074793 -4.468681
v 0.822360 0.201325 -4.437423
v 1.563253 -0.053185 -3.981683
v 1.486970 -0.076796 -4.219831
v 1.155079 -0.077706 -4.409615
v 1.344225 -0.077706 -4.355283
v 1.521829 0.199668 -4.026774
v 1.455881 0.202721 -4.224256
v 1.205571 0.203264 -4.364463
v 1.347978 0.203286 -4.314647
v 1.349868 0.056311 -4.332272
v 1.482465 0.056453 -4.216277
v 1.183693 0.056604 -4.386684
v 1.561836 0.057222 -3.950110
v 0.948939 -0.056686 -4.436404
v 1.066075 0.203133 -4.391665
v 0.999311 0.058381 -4.414827
v 1.412234 0.353779 -4.240919
v 1.466767 0.317239 -4.135647
v 1.229308 0.357398 -4.345759
v 1.337618 0.357398 -4.301698
v 1.131404 0.333012 -4.378185
v 0.981537 -0.077706 -4.434783
v 1.036352 0.057923 -4.409763
v 1.159719 0.357398 -4.370454
v 1.092874 0.203167 -4.386753
v -0.955327 -0.031650 -4.433482
v -1.043100 0.158181 -4.395916
v -0.702841 -0.031650 -4.469872
v -0.767963 0.158181 -4.451486
v -0.890354 -0.074793 -4.447842
v -1.012648 0.201325 -4.397910
v -0.729532 -0.074793 -4.468681
v -0.829504 0.201325 -4.437423
v -1.570397 -0.053185 -3.981683
v -1.494114 -0.076796 -4.219831
v -1.162224 -0.077706 -4.409615
v -1.351370 -0.077706 -4.355283
v -1.528973 0.199668 -4.026774
v -1.463026 0.202721 -4.224256
v -1.212716 0.203264 -4.364463
v -1.355123 0.203286 -4.314647
v -1.357013 0.056311 -4.332272
v -1.489609 0.056453 -4.216277
v -1.190837 0.056604 -4.386684
v -1.568981 0.057222 -3.950110
v -0.956083 -0.056686 -4.436404
v -1.073220 0.203133 -4.391665
v -1.006456 0.058381 -4.414827
v -1.419378 0.353779 -4.240919
v -1.473911 0.317239 -4.135647
v -1.236453 0.357398 -4.345759
v -1.344763 0.357398 -4.301698
v -1.138548 0.333012 -4.378185
v -0.988682 -0.077706 -4.434783
v -1.043496 0.057923 -4.409763
v -1.166864 0.357398 -4.370454
v -1.100019 0.203167 -4.386753
vn -0.1680 -0.1102 0.9796
vn -0.1705 -0.1017 0.9801
vn -0.1858 -0.1017 0.9773
vn -0.1899 -0.0926 0.9774
vn -0.1680 -0.1141 0.9792
vn -0.1484 -0.1235 0.9812
vn -0.1704 -0.1091 0.9793
vn -0.1495 -0.1190 0.9816
vn -0.1622 -0.1184 0.9796
vn -0.1499 -0.1250 0.9808
vn -0.1460 -0.1263 0.9812
vn -0.1395 -0.1298 0.9817
vn -0.1768 -0.1099 0.9781
vn -0.1926 -0.1022 0.9759
vn -0.1585 -0.1203 0.9800
vn -0.1664 -0.1167 0.9791
vn -0.1727 -0.0607 0.9831
vn -0.1726 -0.0489 0.9838
vn -0.1925 -0.0528 0.9799
vn -0.1924 -0.0413 0.9804
vn -0.1725 -0.0749 0.9822
vn -0.1511 -0.0839 0.9849
vn -0.1725 -0.0608 0.9831
vn -0.1512 -0.0693 0.9861
vn -0.1722 -0.0891 0.9810
vn -0.1717 -0.1012 0.9799
vn -0.1508 -0.0986 0.9836
vn -0.1504 -0.1110 0.9824
vn -0.1724 -0.0749 0.9822
vn -0.1922 -0.0665 0.9791
vn -0.1718 -0.0893 0.9811
vn -0.1916 -0.0804 0.9782
vn -0.1659 -0.0387 0.9854
vn -0.1511 -0.0437 0.9876
vn -0.1831 -0.0324 0.9826
vn -0.1615 -0.0402 0.9861
vn -0.1500 -0.0459 0.9876
vn -0.1324 -0.0522 0.9898
vn -0.1423 -0.0472 0.9887
vn -0.1346 -0.0500 0.9896
vn -0.1703 -0.0424 0.9845
vn -0.1719 -0.0492 0.9839
vn -0.1507 -0.0496 0.9873
vn -0.1508 -0.0571 0.9869
vn -0.1703 -0.0386 0.9846
vn -0.1891 -0.0318 0.9814
vn -0.1719 -0.0418 0.9842
vn -0.1915 -0.0346 0.9809
vn 0.1863 -0.1053 0.9768
vn 0.2038 -0.0967 0.9742
vn 0.1898 -0.0998 0.9767
vn 0.2079 -0.0910 0.9739
vn 0.1623 -0.1185 0.9796
vn 0.1499 -0.1250 0.9808
vn 0.1783 -0.1109 0.9777
vn 0.1597 -0.1202 0.9798
vn 0.1478 -0.1238 0.9812
vn 0.1310 -0.1318 0.9826
vn 0.1411 -0.1288 0.9816
vn 0.1331 -0.1326 0.9822
vn 0.1680 -0.1141 0.9792
vn 0.1704 -0.1091 0.9793
vn 0.1485 -0.1235 0.9812
vn 0.1495 -0.1190 0.9816
vn 0.1923 -0.0665 0.9791
vn 0.2108 -0.0586 0.9758
vn 0.1923 -0.0528 0.9799
vn 0.2107 -0.0454 0.9765
vn 0.1724 -0.0749 0.9822
vn 0.1718 -0.0893 0.9811
vn 0.1922 -0.0665 0.9791
vn 0.1916 -0.0804 0.9782
vn 0.1510 -0.0839 0.9850
vn 0.1280 -0.0936 0.9874
vn 0.1506 -0.0987 0.9836
vn 0.1277 -0.1088 0.9858
vn 0.1725 -0.0749 0.9822
vn 0.1725 -0.0608 0.9831
vn 0.1511 -0.0839 0.9849
vn 0.1512 -0.0693 0.9861
vn 0.1813 -0.0346 0.9828
vn 0.1975 -0.0287 0.9799
vn 0.1600 -0.0409 0.9863
vn 0.1671 -0.0381 0.9852
vn 0.1703 -0.0386 0.9846
vn 0.1719 -0.0418 0.9842
vn 0.1892 -0.0318 0.9814
vn 0.1915 -0.0346 0.9809
vn 0.1503 -0.0459 0.9876
vn 0.1285 -0.0536 0.9903
vn 0.1508 -0.0496 0.9873
vn 0.1281 -0.0578 0.9901
vn 0.1658 -0.0388 0.9854
vn 0.1511 -0.0437 0.9876
vn 0.1480 -0.0451 0.9880
vn 0.1411 -0.0473 0.9889
vn -0.1863 -0.1053 0.9768
vn -0.1898 -0.0998 0.9767
vn -0.2038 -0.0967 0.9742
vn -0.2079 -0.0910 0.9739
vn -0.1492 -0.1192 0.9816
vn -0.1289 -0.1287 0.9833
vn -0.1496 -0.1114 0.9824
vn -0.1273 -0.1217 0.9844
vn -0.1477 -0.1238 0.9812
vn -0.1411 -0.1288 0.9816
vn -0.1310 -0.1318 0.9826
vn -0.1331 -0.1326 0.9822
vn -0.1623 -0.1185 0.9796
vn -0.1784 -0.1109 0.9777
vn -0.1597 -0.1202 0.9798
vn -0.1923 -0.0665 0.9791
vn -0.1923 -0.0528 0.9799
vn -0.2108 -0.0586 0.9758
vn -0.2107 -0.0454 0.9765
vn -0.1513 -0.0692 0.9861
vn -0.1281 -0.0784 0.9887
vn -0.1513 -0.0570 0.9868
vn -0.1282 -0.0656 0.9896
vn -0.1510 -0.0840 0.9850
vn -0.1506 -0.0987 0.9836
vn -0.1280 -0.0936 0.9874
vn -0.1277 -0.1088 0.9858
vn -0.1921 -0.0802 0.9781
vn -0.2105 -0.0719 0.9750
vn -0.1914 -0.0919 0.9772
vn -0.2097 -0.0833 0.9742
vn -0.1813 -0.0346 0.9828
vn -0.1597 -0.0409 0.9863
vn -0.1975 -0.0287 0.9799
vn -0.1671 -0.0381 0.9852
vn -0.1658 -0.0388 0.9854
vn -0.1482 -0.0450 0.9879
vn -0.1411 -0.0473 0.9889
vn -0.1502 -0.0459 0.9876
vn -0.1508 -0.0496 0.9873
vn -0.1286 -0.0536 0.9903
vn -0.1281 -0.0578 0.9901
vn -0.1886 -0.0357 0.9814
vn -0.2058 -0.0293 0.9781
vn -0.1914 -0.0417 0.9806
vn -0.2097 -0.0347 0.9772
vn 0.1680 -0.1102 0.9796
vn 0.1858 -0.1017 0.9773
vn 0.1705 -0.1017 0.9801
vn 0.1899 -0.0926 0.9774
vn 0.1767 -0.1099 0.9781
vn 0.1585 -0.1203 0.9800
vn 0.1926 -0.1022 0.9759
vn 0.1664 -0.1167 0.9791
vn 0.1622 -0.1184 0.9796
vn 0.1460 -0.1263 0.9812
vn 0.1395 -0.1298 0.9817
vn 0.1492 -0.1192 0.9816
vn 0.1496 -0.1114 0.9825
vn 0.1289 -0.1287 0.9833
vn 0.1273 -0.1217 0.9844
vn 0.1727 -0.0607 0.9831
vn 0.1925 -0.0528 0.9799
vn 0.1726 -0.0489 0.9838
vn 0.1924 -0.0413 0.9804
vn 0.1921 -0.0802 0.9781
vn 0.1914 -0.0919 0.9772
vn 0.2105 -0.0719 0.9750
vn 0.2097 -0.0833 0.9742
vn 0.1722 -0.0891 0.9810
vn 0.1508 -0.0986 0.9836
vn 0.1717 -0.1012 0.9799
vn 0.1504 -0.1110 0.9824
vn 0.1513 -0.0692 0.9861
vn 0.1513 -0.0570 0.9868
vn 0.1281 -0.0784 0.9887
vn 0.1282 -0.0656 0.9896
vn 0.1658 -0.0387 0.9854
vn 0.1831 -0.0324 0.9826
vn 0.1514 -0.0437 0.9875
vn 0.1615 -0.0402 0.9861
vn 0.1886 -0.0357 0.9814
vn 0.1914 -0.0417 0.9806
vn 0.2058 -0.0293 0.9782
vn 0.2097 -0.0347 0.9772
vn 0.1703 -0.0424 0.9845
vn 0.1509 -0.0495 0.9873
vn 0.1719 -0.0492 0.9839
vn 0.1508 -0.0571 0.9869
vn 0.1499 -0.0460 0.9876
vn 0.1422 -0.0472 0.9887
vn 0.1324 -0.0522 0.9898
vn 0.1346 -0.0500 0.9896
vn 0.6504 0.0852 -0.7548
vn 0.7870 0.0478 -0.6151
vn 0.6605 0.0809 -0.7465
vn 0.7880 0.0480 -0.6138
vn 0.6625 0.0837 -0.7443
vn 0.7807 0.0563 -0.6224
vn 0.8829 0.0272 -0.4688
vn 0.8825 0.0241 -0.4696
vn 0.5195 0.1154 -0.8466
vn 0.5286 0.1152 -0.8410
vn 0.4205 0.1358 -0.8970
vn 0.5299 0.1186 -0.8397
vn 0.4225 0.1386 -0.8957
vn 0.5112 0.1147 -0.8518
vn 0.6410 0.0910 -0.7621
vn 0.5044 0.1131 -0.8560
vn 0.6323 0.0968 -0.7687
vn 0.4187 0.1310 -0.8986
vn 0.4171 0.1244 -0.9003
vn 0.7738 0.0684 -0.6297
vn 0.8811 0.0392 -0.4713
vn 0.8760 0.0836 -0.4750
vn 0.8791 0.0574 -0.4730
vn 0.1381 0.1278 -0.9821
vn 0.1259 0.1307 -0.9834
vn 0.1399 0.1269 -0.9820
vn 0.1261 0.1316 -0.9832
vn 0.1228 0.1321 -0.9836
vn 0.1357 0.1283 -0.9824
vn 0.1256 0.1323 -0.9832
vn 0.1237 0.1333 -0.9833
vn 0.1265 0.1290 -0.9835
vn 0.1424 0.1256 -0.9818
vn 0.1284 0.1264 -0.9836
vn 0.1459 0.1241 -0.9815
vn 0.1227 0.1298 -0.9839
vn 0.1240 0.1260 -0.9843
vn 0.1622 0.1244 -0.9789
vn 0.1674 0.1233 -0.9781
vn 0.1943 0.1254 -0.9729
vn 0.1732 0.1223 -0.9773
vn 0.2033 0.1235 -0.9713
vn 0.1574 0.1257 -0.9795
vn 0.1527 0.1256 -0.9802
vn 0.1853 0.1275 -0.9743
vn 0.1776 0.1267 -0.9759
vn 0.2772 0.1423 -0.9502
vn 0.2370 0.1312 -0.9626
vn 0.2883 0.1383 -0.9475
vn 0.2251 0.1344 -0.9650
vn 0.2666 0.1414 -0.9533
vn 0.2146 0.1332 -0.9675
vn 0.2484 0.1278 -0.9602
vn 0.2987 0.1333 -0.9450
vn 0.2584 0.1246 -0.9579
vn 0.3073 0.1278 -0.9430
vn 0.2119 0.1221 -0.9696
vn 0.3492 0.1416 -0.9263
vn 0.3551 0.1357 -0.9249
vn 0.3598 0.1285 -0.9241
vn 0.3427 0.1457 -0.9281
vn 0.3348 0.1459 -0.9309
vn 0.4199 0.1408 -0.8965
vn 0.9593 0.0518 -0.2775
vn 0.9681 0.0506 -0.2453
vn 0.9581 0.0381 -0.2837
vn 0.9664 0.0457 -0.2527
vn 0.9565 0.0316 -0.2901
vn 0.9686 0.0647 -0.2401
vn 0.9710 0.0617 -0.2308
vn 0.9707 0.0514 -0.2347
vn 0.9365 0.0397 -0.3484
vn 0.9355 0.0257 -0.3522
vn 0.9345 0.0199 -0.3554
vn 0.9592 0.0709 -0.2736
vn 0.9362 0.0607 -0.3461
vn 0.9572 0.0988 -0.2721
vn 0.9339 0.0895 -0.3460
vn 0.9682 0.0827 -0.2361
vn 0.9698 0.0901 -0.2264
vn 0.9704 0.0764 -0.2291
vn 0.9662 0.1075 -0.2342
vn 0.9687 0.1091 -0.2230
vn 0.3135 0.1218 -0.9417
vn 0.2731 0.1151 -0.9550
vn 0.3182 0.1156 -0.9409
vn 0.2664 0.1206 -0.9563
vn 0.2276 0.1140 -0.9670
vn 0.2197 0.1195 -0.9682
vn 0.2799 0.1077 -0.9539
vn 0.3223 0.1090 -0.9403
vn 0.2880 0.0983 -0.9526
vn 0.3273 0.1017 -0.9394
vn 0.2367 0.1053 -0.9658
vn 0.2484 0.0931 -0.9642
vn 0.3649 0.1147 -0.9239
vn 0.3669 0.1090 -0.9239
vn 0.4155 0.1126 -0.9026
vn 0.3698 0.1039 -0.9233
vn 0.4166 0.1092 -0.9025
vn 0.3628 0.1211 -0.9239
vn 0.4159 0.1177 -0.9017
vn 0.7574 0.1185 -0.6420
vn 0.6258 0.1048 -0.7729
vn 0.6221 0.1123 -0.7748
vn 0.7627 0.1035 -0.6383
vn 0.8656 0.1312 -0.4833
vn 0.8711 0.1092 -0.4787
vn 0.7679 0.0851 -0.6349
vn 0.4993 0.1111 -0.8592
vn 0.4967 0.1113 -0.8607
vn 0.6194 0.1188 -0.7760
vn 0.4966 0.1120 -0.8607
vn 0.6180 0.1255 -0.7761
vn 0.4982 0.1133 -0.8596
vn 0.7525 0.1319 -0.6453
vn 0.8593 0.1501 -0.4889
vn 0.7476 0.1439 -0.6483
vn 0.8522 0.1662 -0.4960
vn 0.9586 0.1537 -0.2394
vn 0.9533 0.1276 -0.2735
vn 0.9485 0.1519 -0.2779
vn 0.9629 0.1325 -0.2351
vn 0.9631 0.1476 -0.2249
vn 0.9663 0.1295 -0.2222
vn 0.9298 0.1189 -0.3483
vn 0.9245 0.1439 -0.3529
vn 0.9427 0.1722 -0.2855
vn 0.9182 0.1650 -0.3600
vn 0.9361 0.1893 -0.2964
vn 0.9109 0.1827 -0.3699
vn 0.9537 0.1713 -0.2472
vn 0.9591 0.1633 -0.2311
vn 0.9479 0.1859 -0.2586
vn 0.9543 0.1766 -0.2412
vn 0.1508 0.1200 -0.9812
vn 0.1388 0.1100 -0.9842
vn 0.1581 0.1114 -0.9811
vn 0.1322 0.1208 -0.9838
vn 0.1340 0.1061 -0.9853
vn 0.1274 0.1188 -0.9847
vn 0.1495 0.0938 -0.9843
vn 0.1688 0.0978 -0.9808
vn 0.1658 0.0713 -0.9836
vn 0.1844 0.0787 -0.9797
vn 0.1449 0.0875 -0.9856
vn 0.1617 0.0621 -0.9849
vn 0.1874 0.1127 -0.9758
vn 0.1977 0.1018 -0.9749
vn 0.2120 0.0862 -0.9734
vn 0.1795 0.1194 -0.9765
vn 0.1382 0.1277 -0.9821
vn 0.1585 0.1160 -0.9805
vn 0.1385 0.1255 -0.9824
vn 0.1702 0.1124 -0.9790
vn 0.1713 0.1097 -0.9791
vn 0.1462 0.1248 -0.9814
vn 0.1581 0.1186 -0.9803
vn 0.1718 0.1129 -0.9786
vn 0.1611 0.1114 -0.9806
vn 0.1395 0.1217 -0.9827
vn 0.1648 0.1047 -0.9807
vn 0.1419 0.1160 -0.9830
vn 0.1747 0.1054 -0.9789
vn 0.1791 0.0985 -0.9789
vn 0.1279 0.1302 -0.9832
vn 0.1281 0.1272 -0.9836
vn 0.1296 0.1224 -0.9839
vn 0.1286 0.1318 -0.9829
vn 0.1301 0.1320 -0.9827
vn 0.1372 0.1289 -0.9821
vn 0.1251 0.1336 -0.9831
vn 0.1472 0.1062 -0.9834
vn 0.1851 0.0750 -0.9798
vn 0.1560 0.0903 -0.9836
vn 0.1727 0.0932 -0.9805
vn 0.2033 0.0678 -0.9767
vn 0.1886 0.0867 -0.9782
vn 0.2029 0.0497 -0.9779
vn 0.1697 0.0677 -0.9832
vn 0.2245 0.0176 -0.9743
vn 0.1888 0.0379 -0.9813
vn 0.2239 0.0415 -0.9737
vn 0.2470 0.0090 -0.9689
vn 0.1410 0.0995 -0.9850
vn 0.1527 0.0789 -0.9851
vn 0.1703 0.0512 -0.9840
vn 0.1337 0.1138 -0.9844
vn -0.6504 0.0852 -0.7548
vn -0.7870 0.0478 -0.6151
vn -0.7807 0.0563 -0.6224
vn -0.8829 0.0272 -0.4688
vn -0.8811 0.0392 -0.4713
vn -0.6605 0.0809 -0.7465
vn -0.7880 0.0480 -0.6138
vn -0.8825 0.0241 -0.4696
vn -0.6410 0.0910 -0.7621
vn -0.7738 0.0684 -0.6297
vn -0.6323 0.0968 -0.7687
vn -0.8760 0.0836 -0.4750
vn -0.7679 0.0851 -0.6349
vn -0.5112 0.1147 -0.8518
vn -0.5195 0.1154 -0.8466
vn -0.4187 0.1310 -0.8986
vn -0.4205 0.1358 -0.8970
vn -0.5044 0.1131 -0.8560
vn -0.4171 0.1244 -0.9003
vn -0.5286 0.1152 -0.8410
vn -0.6625 0.0837 -0.7443
vn -0.4225 0.1386 -0.8957
vn -0.5299 0.1186 -0.8397
vn -0.1259 0.1307 -0.9834
vn -0.1381 0.1278 -0.9821
vn -0.1399 0.1269 -0.9820
vn -0.1261 0.1316 -0.9832
vn -0.1357 0.1283 -0.9824
vn -0.1228 0.1321 -0.9836
vn -0.1237 0.1333 -0.9833
vn -0.1256 0.1323 -0.9832
vn -0.1574 0.1257 -0.9795
vn -0.1622 0.1244 -0.9789
vn -0.1853 0.1275 -0.9743
vn -0.1943 0.1254 -0.9729
vn -0.1527 0.1256 -0.9802
vn -0.1776 0.1267 -0.9759
vn -0.1424 0.1257 -0.9818
vn -0.1674 0.1233 -0.9781
vn -0.1459 0.1241 -0.9815
vn -0.2033 0.1235 -0.9713
vn -0.1732 0.1223 -0.9773
vn -0.1265 0.1290 -0.9835
vn -0.1227 0.1298 -0.9839
vn -0.1284 0.1264 -0.9836
vn -0.1239 0.1260 -0.9843
vn -0.2370 0.1312 -0.9626
vn -0.2772 0.1423 -0.9502
vn -0.2883 0.1383 -0.9475
vn -0.2251 0.1344 -0.9650
vn -0.2666 0.1414 -0.9533
vn -0.2146 0.1332 -0.9675
vn -0.3427 0.1457 -0.9281
vn -0.3492 0.1416 -0.9263
vn -0.3348 0.1459 -0.9309
vn -0.4199 0.1408 -0.8965
vn -0.2987 0.1333 -0.9450
vn -0.3551 0.1357 -0.9249
vn -0.3073 0.1278 -0.9430
vn -0.3598 0.1285 -0.9241
vn -0.2484 0.1278 -0.9602
vn -0.2584 0.1246 -0.9579
vn -0.2119 0.1221 -0.9696
vn -0.9593 0.0518 -0.2775
vn -0.9681 0.0506 -0.2453
vn -0.9686 0.0647 -0.2401
vn -0.9710 0.0617 -0.2308
vn -0.9704 0.0764 -0.2291
vn -0.9581 0.0381 -0.2837
vn -0.9664 0.0457 -0.2527
vn -0.9707 0.0514 -0.2347
vn -0.9682 0.0827 -0.2361
vn -0.9592 0.0709 -0.2736
vn -0.9662 0.1075 -0.2342
vn -0.9572 0.0988 -0.2721
vn -0.9698 0.0901 -0.2264
vn -0.9687 0.1091 -0.2230
vn -0.9365 0.0397 -0.3484
vn -0.9362 0.0607 -0.3461
vn -0.9339 0.0895 -0.3460
vn -0.8791 0.0574 -0.4730
vn -0.9355 0.0257 -0.3522
vn -0.9565 0.0316 -0.2901
vn -0.9345 0.0199 -0.3554
vn -0.2731 0.1151 -0.9550
vn -0.3135 0.1218 -0.9417
vn -0.3182 0.1156 -0.9409
vn -0.2664 0.1206 -0.9563
vn -0.2276 0.1140 -0.9670
vn -0.2197 0.1195 -0.9682
vn -0.3628 0.1211 -0.9239
vn -0.3649 0.1147 -0.9239
vn -0.4159 0.1177 -0.9017
vn -0.4155 0.1126 -0.9026
vn -0.3223 0.1090 -0.9403
vn -0.3669 0.1090 -0.9239
vn -0.3273 0.1017 -0.9394
vn -0.4166 0.1092 -0.9025
vn -0.3698 0.1039 -0.9233
vn -0.2799 0.1078 -0.9539
vn -0.2367 0.1053 -0.9658
vn -0.2879 0.0983 -0.9526
vn -0.2484 0.0931 -0.9642
vn -0.6258 0.1048 -0.7729
vn -0.7574 0.1185 -0.6420
vn -0.6221 0.1123 -0.7748
vn -0.7627 0.1035 -0.6383
vn -0.8656 0.1312 -0.4833
vn -0.8711 0.1092 -0.4787
vn -0.7525 0.1318 -0.6453
vn -0.6194 0.1188 -0.7760
vn -0.7476 0.1439 -0.6483
vn -0.6180 0.1255 -0.7761
vn -0.8593 0.1501 -0.4889
vn -0.8522 0.1662 -0.4960
vn -0.4967 0.1113 -0.8607
vn -0.4966 0.1120 -0.8607
vn -0.4982 0.1133 -0.8596
vn -0.4993 0.1111 -0.8592
vn -0.9534 0.1276 -0.2735
vn -0.9586 0.1537 -0.2394
vn -0.9485 0.1519 -0.2779
vn -0.9629 0.1325 -0.2351
vn -0.9631 0.1476 -0.2249
vn -0.9663 0.1295 -0.2222
vn -0.9537 0.1713 -0.2472
vn -0.9427 0.1722 -0.2855
vn -0.9479 0.1859 -0.2586
vn -0.9361 0.1893 -0.2964
vn -0.9591 0.1632 -0.2311
vn -0.9543 0.1766 -0.2412
vn -0.9245 0.1439 -0.3529
vn -0.9182 0.1650 -0.3600
vn -0.9109 0.1827 -0.3699
vn -0.9298 0.1189 -0.3483
vn -0.1389 0.1100 -0.9842
vn -0.1508 0.1200 -0.9812
vn -0.1581 0.1114 -0.9811
vn -0.1322 0.1208 -0.9838
vn -0.1341 0.1061 -0.9853
vn -0.1275 0.1188 -0.9847
vn -0.1795 0.1194 -0.9765
vn -0.1874 0.1127 -0.9758
vn -0.1688 0.0978 -0.9808
vn -0.1977 0.1018 -0.9749
vn -0.1844 0.0787 -0.9797
vn -0.2120 0.0862 -0.9734
vn -0.1495 0.0938 -0.9843
vn -0.1449 0.0875 -0.9856
vn -0.1658 0.0713 -0.9836
vn -0.1617 0.0621 -0.9849
vn -0.1584 0.1161 -0.9805
vn -0.1382 0.1277 -0.9821
vn -0.1385 0.1255 -0.9824
vn -0.1461 0.1248 -0.9814
vn -0.1372 0.1289 -0.9821
vn -0.1702 0.1124 -0.9790
vn -0.1581 0.1186 -0.9803
vn -0.1718 0.1129 -0.9786
vn -0.1286 0.1318 -0.9829
vn -0.1279 0.1302 -0.9832
vn -0.1301 0.1320 -0.9827
vn -0.1251 0.1336 -0.9831
vn -0.1396 0.1217 -0.9827
vn -0.1281 0.1271 -0.9836
vn -0.1419 0.1161 -0.9830
vn -0.1296 0.1224 -0.9840
vn -0.1609 0.1114 -0.9807
vn -0.1743 0.1055 -0.9790
vn -0.1711 0.1099 -0.9791
vn -0.1648 0.1047 -0.9807
vn -0.1792 0.0985 -0.9789
vn -0.1853 0.0749 -0.9798
vn -0.1471 0.1063 -0.9834
vn -0.1560 0.0903 -0.9836
vn -0.1729 0.0932 -0.9805
vn -0.2038 0.0676 -0.9767
vn -0.1890 0.0866 -0.9781
vn -0.1336 0.1139 -0.9844
vn -0.1410 0.0995 -0.9850
vn -0.1696 0.0677 -0.9832
vn -0.1527 0.0789 -0.9851
vn -0.1888 0.0379 -0.9813
vn -0.1703 0.0512 -0.9840
vn -0.2027 0.0497 -0.9780
vn -0.2236 0.0415 -0.9738
vn -0.2246 0.0176 -0.9743
vn -0.2473 0.0090 -0.9689
vn 0.4198 0.1066 -0.9013
vn -0.4198 0.1066 -0.9013
vn 0.7373 0.1596 -0.6564
vn 0.6175 0.1314 -0.7754
vn 0.6183 0.1357 -0.7741
vn 0.7425 0.1536 -0.6519
vn 0.8354 0.1844 -0.5178
vn 0.8443 0.1782 -0.5054
vn 0.5018 0.1153 -0.8572
vn 0.5075 0.1170 -0.8536
vn 0.4248 0.1052 -0.8991
vn 0.4312 0.1053 -0.8961
vn 0.6200 0.1384 -0.7722
vn 0.5154 0.1185 -0.8487
vn 0.6166 0.1374 -0.7752
vn 0.4396 0.1043 -0.8921
vn 0.5209 0.1163 -0.8456
vn 0.7316 0.1620 -0.6622
vn 0.8246 0.1846 -0.5347
vn 0.7177 0.1618 -0.6773
vn 0.8044 0.1848 -0.5646
vn 0.9348 0.2008 -0.2930
vn 0.9288 0.2013 -0.3110
vn 0.9213 0.2062 -0.3297
vn 0.9415 0.1962 -0.2739
vn 0.9423 0.1929 -0.2735
vn 0.9486 0.1870 -0.2553
vn 0.9027 0.1953 -0.3832
vn 0.8938 0.2008 -0.4009
vn 0.9130 0.2010 -0.3551
vn 0.8831 0.1978 -0.4254
vn 0.8984 0.1999 -0.3909
vn 0.8644 0.1981 -0.4621
vn 0.9281 0.1979 -0.3154
vn 0.9355 0.1945 -0.2950
vn 0.9184 0.1964 -0.3435
vn 0.9291 0.1906 -0.3168
vn 0.3440 0.0902 -0.9346
vn 0.3746 0.0998 -0.9218
vn 0.3345 0.0952 -0.9376
vn 0.3823 0.0978 -0.9188
vn 0.3129 0.0814 -0.9463
vn 0.2989 0.0889 -0.9501
vn 0.2846 0.0692 -0.9561
vn 0.2641 0.0802 -0.9611
vn 0.3301 0.0758 -0.9409
vn 0.3558 0.0868 -0.9305
vn 0.3464 0.0781 -0.9348
vn 0.3669 0.0890 -0.9260
vn 0.3103 0.0599 -0.9487
vn 0.3351 0.0621 -0.9401
vn 0.3922 0.0952 -0.9149
vn 0.4478 0.1015 -0.8883
vn 0.2434 -0.0230 -0.9696
vn 0.1953 0.0205 -0.9805
vn 0.2143 0.0059 -0.9767
vn 0.2285 -0.0091 -0.9735
vn 0.1863 0.0337 -0.9819
vn 0.2698 -0.0396 -0.9621
vn 0.2497 -0.0148 -0.9682
vn 0.2834 -0.0439 -0.9580
vn 0.2718 -0.0246 -0.9620
vn 0.2951 -0.0614 -0.9535
vn 0.2803 -0.0508 -0.9586
vn 0.3196 -0.0753 -0.9445
vn 0.3219 -0.0694 -0.9442
vn 0.2939 -0.0587 -0.9540
vn 0.3211 -0.0792 -0.9437
vn 0.2716 -0.0388 -0.9616
vn 0.2205 0.0058 -0.9753
vn 0.3236 -0.0591 -0.9443
vn 0.2665 -0.0228 -0.9636
vn 0.2378 0.0371 -0.9706
vn 0.2320 0.0692 -0.9702
vn 0.2070 0.0574 -0.9767
vn 0.2587 0.0537 -0.9644
vn 0.2232 0.0214 -0.9745
vn 0.1898 0.0461 -0.9807
vn 0.2685 -0.0038 -0.9633
vn 0.2788 0.0171 -0.9602
vn 0.3217 -0.0143 -0.9467
vn 0.3242 0.0132 -0.9459
vn 0.3222 -0.0403 -0.9458
vn 0.2932 0.0393 -0.9552
vn 0.3288 0.0397 -0.9435
vn -0.6175 0.1314 -0.7754
vn -0.7373 0.1596 -0.6564
vn -0.6182 0.1357 -0.7741
vn -0.7425 0.1536 -0.6519
vn -0.8354 0.1844 -0.5178
vn -0.8443 0.1782 -0.5054
vn -0.7316 0.1620 -0.6622
vn -0.6201 0.1384 -0.7722
vn -0.7177 0.1618 -0.6773
vn -0.6166 0.1374 -0.7752
vn -0.8245 0.1846 -0.5347
vn -0.8044 0.1848 -0.5646
vn -0.5076 0.1170 -0.8536
vn -0.5154 0.1185 -0.8487
vn -0.4312 0.1053 -0.8961
vn -0.5209 0.1163 -0.8456
vn -0.4395 0.1043 -0.8921
vn -0.5018 0.1153 -0.8572
vn -0.4249 0.1052 -0.8991
vn -0.9288 0.2013 -0.3110
vn -0.9348 0.2008 -0.2930
vn -0.9213 0.2062 -0.3297
vn -0.9415 0.1962 -0.2739
vn -0.9423 0.1929 -0.2735
vn -0.9486 0.1870 -0.2553
vn -0.9281 0.1979 -0.3154
vn -0.9130 0.2010 -0.3551
vn -0.9184 0.1964 -0.3435
vn -0.8984 0.1999 -0.3909
vn -0.9355 0.1945 -0.2950
vn -0.9291 0.1906 -0.3168
vn -0.8938 0.2008 -0.4009
vn -0.8831 0.1978 -0.4254
vn -0.8644 0.1981 -0.4621
vn -0.9027 0.1953 -0.3832
vn -0.3440 0.0902 -0.9346
vn -0.3746 0.0998 -0.9218
vn -0.3823 0.0978 -0.9188
vn -0.3345 0.0952 -0.9376
vn -0.3557 0.0868 -0.9305
vn -0.3922 0.0952 -0.9149
vn -0.3669 0.0890 -0.9260
vn -0.4478 0.1015 -0.8883
vn -0.4008 0.0947 -0.9112
vn -0.3301 0.0758 -0.9409
vn -0.3129 0.0814 -0.9463
vn -0.3103 0.0599 -0.9487
vn -0.2846 0.0692 -0.9561
vn -0.3464 0.0781 -0.9348
vn -0.3352 0.0621 -0.9401
vn -0.2989 0.0889 -0.9501
vn -0.2642 0.0803 -0.9611
vn -0.2434 -0.0230 -0.9696
vn -0.1953 0.0205 -0.9805
vn -0.2285 -0.0091 -0.9735
vn -0.1863 0.0337 -0.9819
vn -0.2205 0.0058 -0.9754
vn -0.2142 0.0059 -0.9767
vn -0.2803 -0.0508 -0.9586
vn -0.2716 -0.0388 -0.9616
vn -0.3219 -0.0695 -0.9442
vn -0.2665 -0.0228 -0.9636
vn -0.3235 -0.0591 -0.9443
vn -0.2951 -0.0614 -0.9535
vn -0.2698 -0.0396 -0.9621
vn -0.2939 -0.0587 -0.9540
vn -0.2834 -0.0439 -0.9580
vn -0.3196 -0.0753 -0.9445
vn -0.3211 -0.0792 -0.9437
vn -0.2496 -0.0148 -0.9682
vn -0.2716 -0.0246 -0.9621
vn -0.2378 0.0371 -0.9706
vn -0.2320 0.0692 -0.9702
vn -0.2587 0.0537 -0.9644
vn -0.2070 0.0574 -0.9767
vn -0.2788 0.0171 -0.9602
vn -0.2932 0.0393 -0.9552
vn -0.3242 0.0132 -0.9459
vn -0.3288 0.0397 -0.9435
vn -0.2685 -0.0038 -0.9633
vn -0.2232 0.0214 -0.9745
vn -0.3218 -0.0143 -0.9467
vn -0.3222 -0.0403 -0.9458
vn -0.1898 0.0461 -0.9807
vn 0.4008 0.0948 -0.9112
s off
f 1//1 6//1 2//1
f 2//2 345//2 344//2
f 5//3 328//3 6//3
f 6//4 618//4 345//4
f 2//5 3//5 1//5
f 7//6 326//6 3//6
f 344//7 7//7 2//7
f 343//8 325//8 7//8
f 1//9 8//9 4//9
f 4//10 334//10 335//10
f 3//11 327//11 8//11
f 8//12 613//12 334//12
f 1//13 9//13 5//13
f 5//14 330//14 329//14
f 4//15 336//15 9//15
f 9//16 614//16 330//16
f 10//17 15//17 11//17
f 11//18 354//18 353//18
f 14//19 349//19 15//19
f 15//20 620//20 354//20
f 11//21 12//21 10//21
f 16//22 347//22 12//22
f 353//23 16//23 11//23
f 352//24 346//24 16//24
f 10//25 17//25 13//25
f 13//26 343//26 344//26
f 12//27 348//27 17//27
f 17//28 617//28 343//28
f 13//29 14//29 10//29
f 18//30 350//30 14//30
f 344//31 18//31 13//31
f 345//32 351//32 18//32
f 19//33 24//33 20//33
f 20//34 331//34 332//34
f 23//35 342//35 24//35
f 24//36 616//36 331//36
f 19//37 25//37 21//37
f 21//38 339//38 338//38
f 20//39 333//39 25//39
f 25//40 615//40 339//40
f 19//41 26//41 22//41
f 22//42 352//42 353//42
f 21//43 337//43 26//43
f 26//44 619//44 352//44
f 22//45 23//45 19//45
f 27//46 341//46 23//46
f 353//47 27//47 22//47
f 354//48 340//48 27//48
f 163//49 168//49 164//49
f 164//50 472//50 473//50
f 167//51 489//51 168//51
f 168//52 650//52 472//52
f 163//53 169//53 165//53
f 165//54 480//54 479//54
f 164//55 474//55 169//55
f 169//56 646//56 480//56
f 163//57 170//57 166//57
f 166//58 471//58 470//58
f 165//59 478//59 170//59
f 170//60 645//60 471//60
f 166//61 167//61 163//61
f 171//62 488//62 167//62
f 470//63 171//63 166//63
f 469//64 487//64 171//64
f 172//65 177//65 173//65
f 173//66 493//66 494//66
f 176//67 498//67 177//67
f 177//68 652//68 493//68
f 173//69 174//69 172//69
f 178//70 488//70 174//70
f 494//71 178//71 173//71
f 495//72 489//72 178//72
f 172//73 179//73 175//73
f 175//74 492//74 491//74
f 174//75 487//75 179//75
f 179//76 649//76 492//76
f 175//77 176//77 172//77
f 180//78 497//78 176//78
f 491//79 180//79 175//79
f 490//80 496//80 180//80
f 181//81 186//81 182//81
f 182//82 486//82 485//82
f 185//83 475//83 186//83
f 186//84 648//84 486//84
f 182//85 183//85 181//85
f 187//86 497//86 183//86
f 485//87 187//87 182//87
f 484//88 498//88 187//88
f 181//89 188//89 184//89
f 184//90 481//90 482//90
f 183//91 496//91 188//91
f 188//92 651//92 481//92
f 181//93 189//93 185//93
f 185//94 477//94 476//94
f 184//95 483//95 189//95
f 189//96 647//96 477//96
f 1//97 5//97 6//97
f 2//98 6//98 345//98
f 5//99 329//99 328//99
f 6//100 328//100 618//100
f 2//101 7//101 3//101
f 7//102 325//102 326//102
f 344//103 343//103 7//103
f 343//104 617//104 325//104
f 1//105 3//105 8//105
f 4//106 8//106 334//106
f 3//107 326//107 327//107
f 8//108 327//108 613//108
f 1//109 4//109 9//109
f 5//110 9//110 330//110
f 4//10 335//10 336//10
f 9//111 336//111 614//111
f 10//112 14//112 15//112
f 11//113 15//113 354//113
f 14//114 350//114 349//114
f 15//115 349//115 620//115
f 11//116 16//116 12//116
f 16//117 346//117 347//117
f 353//118 352//118 16//118
f 352//119 619//119 346//119
f 10//120 12//120 17//120
f 13//121 17//121 343//121
f 12//122 347//122 348//122
f 17//123 348//123 617//123
f 13//124 18//124 14//124
f 18//125 351//125 350//125
f 344//126 345//126 18//126
f 345//127 618//127 351//127
f 19//128 23//128 24//128
f 20//129 24//129 331//129
f 23//130 341//130 342//130
f 24//131 342//131 616//131
f 19//132 20//132 25//132
f 21//133 25//133 339//133
f 20//34 332//34 333//34
f 25//134 333//134 615//134
f 19//135 21//135 26//135
f 22//136 26//136 352//136
f 21//137 338//137 337//137
f 26//138 337//138 619//138
f 22//139 27//139 23//139
f 27//140 340//140 341//140
f 353//141 354//141 27//141
f 354//142 620//142 340//142
f 163//143 167//143 168//143
f 164//144 168//144 472//144
f 167//145 488//145 489//145
f 168//146 489//146 650//146
f 163//147 164//147 169//147
f 165//148 169//148 480//148
f 164//149 473//149 474//149
f 169//150 474//150 646//150
f 163//151 165//151 170//151
f 166//152 170//152 471//152
f 165//54 479//54 478//54
f 170//153 478//153 645//153
f 166//154 171//154 167//154
f 171//155 487//155 488//155
f 470//156 469//156 171//156
f 469//157 649//157 487//157
f 172//158 176//158 177//158
f 173//159 177//159 493//159
f 176//160 497//160 498//160
f 177//161 498//161 652//161
f 173//162 178//162 174//162
f 178//163 489//163 488//163
f 494//164 495//164 178//164
f 495//165 650//165 489//165
f 172//166 174//166 179//166
f 175//167 179//167 492//167
f 174//168 488//168 487//168
f 179//169 487//169 649//169
f 175//170 180//170 176//170
f 180//171 496//171 497//171
f 491//172 490//172 180//172
f 490//173 651//173 496//173
f 181//174 185//174 186//174
f 182//175 186//175 486//175
f 185//176 476//176 475//176
f 186//177 475//177 648//177
f 182//178 187//178 183//178
f 187//179 498//179 497//179
f 485//180 484//180 187//180
f 484//181 652//181 498//181
f 181//182 183//182 188//182
f 184//183 188//183 481//183
f 183//184 497//184 496//184
f 188//185 496//185 651//185
f 181//186 184//186 189//186
f 185//187 189//187 477//187
f 184//188 482//188 483//188
f 189//189 483//189 647//189
s 1
f 28//190 33//191 29//192
f 29//192 360//193 359//194
f 32//195 378//196 33//191
f 33//191 622//197 360//193
f 29//192 30//198 28//190
f 34//199 386//200 30//198
f 359//194 34//199 29//192
f 358//201 387//202 34//199
f 28//190 35//203 31//204
f 31//204 391//205 392//206
f 30//198 385//207 35//203
f 35//203 629//208 391//205
f 31//204 32//195 28//190
f 36//209 377//210 32//195
f 392//206 36//209 31//204
f 36//209 630//211 376//212
f 41//213 38//214 37//215
f 42//216 461//217 38//214
f 401//218 42//216 41//213
f 400//219 462//220 42//216
f 37//215 43//221 39//222
f 39//222 403//223 404//224
f 38//214 460//225 43//221
f 43//221 642//226 403//223
f 39//222 40//227 37//215
f 44//228 389//229 40//227
f 404//224 44//228 39//222
f 405//230 388//231 44//228
f 37//215 45//232 41//213
f 41//213 402//233 401//218
f 40//227 390//234 45//232
f 45//232 623//235 402//233
f 50//236 47//237 46//238
f 51//239 389//229 47//237
f 362//240 51//239 50//236
f 363//241 390//234 51//239
f 46//238 52//242 48//243
f 48//243 396//244 395//245
f 47//237 388//231 52//242
f 52//242 631//246 396//244
f 48//243 49//247 46//238
f 53//248 386//200 49//247
f 395//245 53//248 48//243
f 394//249 385//207 53//248
f 46//238 54//250 50//236
f 50//236 361//251 362//240
f 49//247 387//202 54//250
f 54//250 624//252 361//251
f 55//253 60//254 56//255
f 56//255 357//256 356//257
f 59//258 384//259 60//254
f 60//254 621//260 357//256
f 56//255 57//261 55//253
f 61//262 377//210 57//261
f 356//257 61//262 56//255
f 355//263 378//196 61//262
f 57//261 58//264 55//253
f 62//265 398//266 58//264
f 377//210 62//265 57//261
f 376//212 397//267 62//265
f 55//253 63//268 59//258
f 59//258 382//269 383//270
f 58//264 399//271 63//268
f 63//268 632//272 382//269
f 86//273 83//274 82//275
f 87//276 425//277 83//274
f 395//245 87//276 86//273
f 396//244 426//278 87//276
f 82//275 88//279 84//280
f 84//280 372//281 371//282
f 83//274 424//283 88//279
f 88//279 627//284 372//281
f 84//280 85//285 82//275
f 89//286 434//287 85//285
f 371//282 89//286 84//280
f 370//288 433//289 89//286
f 82//275 90//290 86//273
f 86//273 394//249 395//245
f 85//285 435//291 90//290
f 90//290 629//208 394//249
f 95//292 92//293 91//294
f 96//295 392//206 92//293
f 428//296 96//295 95//292
f 429//297 393//298 96//295
f 91//294 97//299 93//300
f 97//299 434//287 93//300
f 392//206 97//299 92//293
f 391//205 435//291 97//299
f 93//300 94//301 91//294
f 98//302 368//303 94//301
f 93//300 433//289 98//302
f 433//289 367//304 98//302
f 91//294 99//305 95//292
f 95//292 427//306 428//296
f 94//301 369//307 99//305
f 99//305 626//308 427//306
f 113//309 110//310 109//311
f 114//312 398//266 110//310
f 431//313 114//312 113//309
f 432//314 399//271 114//312
f 109//311 115//315 111//316
f 111//316 429//297 428//296
f 110//310 397//267 115//315
f 115//315 630//211 429//297
f 111//316 112//317 109//311
f 116//318 365//319 112//317
f 428//296 116//318 111//316
f 427//306 364//320 116//318
f 109//311 117//321 113//309
f 113//309 430//322 431//313
f 112//317 366//323 117//321
f 117//321 625//324 430//322
f 131//325 128//326 127//327
f 132//328 467//329 128//326
f 404//224 132//328 131//325
f 403//223 468//330 132//328
f 127//327 133//331 129//332
f 129//332 445//333 446//334
f 128//326 466//335 133//331
f 133//331 644//336 445//333
f 129//332 130//337 127//327
f 134//338 425//277 130//337
f 446//334 134//338 129//332
f 447//339 424//283 134//338
f 127//327 135//340 131//325
f 131//325 405//230 404//224
f 130//337 426//278 135//340
f 135//340 631//246 405//230
f 140//341 137//342 136//343
f 137//342 406//344 407//345
f 140//341 450//346 141//347
f 141//347 633//348 406//344
f 136//343 142//349 138//350
f 138//350 453//351 452//352
f 137//342 408//353 142//349
f 142//349 635//354 453//351
f 138//350 139//355 136//343
f 143//356 461//217 139//355
f 452//352 143//356 138//350
f 451//357 460//225 143//356
f 136//343 144//358 140//341
f 140//341 448//359 449//360
f 139//355 462//220 144//358
f 144//358 641//361 448//359
f 158//362 155//363 154//364
f 159//365 440//366 155//363
f 452//352 159//365 158//362
f 453//351 441//367 159//365
f 154//364 160//368 156//369
f 156//369 459//370 458//371
f 155//363 439//372 160//368
f 160//368 634//373 459//370
f 156//369 157//374 154//364
f 161//375 467//329 157//374
f 458//371 161//375 156//369
f 457//376 466//335 161//375
f 154//364 162//377 158//362
f 158//362 451//357 452//352
f 157//374 468//330 162//377
f 162//377 642//226 451//357
f 190//378 195//379 191//380
f 191//380 522//381 521//382
f 194//383 504//384 195//379
f 195//379 654//385 522//381
f 191//380 192//386 190//378
f 196//387 536//388 192//386
f 521//382 196//387 191//380
f 196//387 662//389 537//390
f 190//378 197//391 193//392
f 193//392 529//393 530//394
f 192//386 535//395 197//391
f 197//391 661//396 529//393
f 193//392 194//383 190//378
f 198//397 503//398 194//383
f 530//394 198//397 193//392
f 531//399 502//400 198//397
f 203//401 200//402 199//403
f 204//404 545//405 200//402
f 605//406 204//404 203//401
f 606//407 544//408 204//404
f 199//403 205//409 201//410
f 201//410 534//411 533//412
f 200//402 546//413 205//409
f 205//409 655//414 534//411
f 201//410 202//415 199//403
f 206//416 548//417 202//415
f 533//412 206//416 201//410
f 532//418 549//419 206//416
f 199//403 207//420 203//401
f 203//401 604//421 605//406
f 202//415 547//422 207//420
f 207//420 674//423 604//421
f 212//424 209//425 208//426
f 213//427 506//428 209//425
f 533//412 213//427 212//424
f 534//411 507//429 213//427
f 208//426 214//430 210//431
f 210//431 531//399 530//394
f 209//425 505//432 214//430
f 214//430 656//433 531//399
f 210//431 211//434 208//426
f 215//435 539//436 211//434
f 530//394 215//435 210//431
f 529//393 538//437 215//435
f 208//426 216//438 212//424
f 212//424 532//418 533//412
f 211//434 540//439 216//438
f 216//438 663//440 532//418
f 217//441 222//442 218//443
f 218//443 528//444 527//445
f 221//446 501//447 222//442
f 222//442 653//448 528//444
f 217//441 223//449 219//450
f 219//450 543//451 542//452
f 218//443 526//453 223//449
f 223//449 664//454 543//451
f 219//450 220//455 217//441
f 224//456 521//382 220//455
f 542//452 224//456 219//450
f 541//457 520//458 224//456
f 220//455 221//446 217//441
f 225//459 500//460 221//446
f 521//382 225//459 220//455
f 522//381 499//461 225//459
f 248//462 245//463 244//464
f 249//465 539//436 245//463
f 569//466 249//465 248//462
f 570//467 540//439 249//465
f 244//464 250//468 246//469
f 246//469 579//470 578//471
f 245//463 538//437 250//468
f 250//468 661//396 579//470
f 246//469 247//472 244//464
f 251//473 515//474 247//472
f 578//471 251//473 246//469
f 577//475 514//476 251//473
f 244//464 252//477 248//462
f 248//462 568//478 569//466
f 247//472 516//479 252//477
f 252//477 659//480 568//478
f 257//481 254//482 253//483
f 258//484 572//485 254//482
f 536//388 258//484 257//481
f 537//390 573//486 258//484
f 253//483 259//487 255//488
f 255//488 513//489 512//490
f 254//482 571//491 259//487
f 259//487 658//492 513//489
f 255//488 256//493 253//483
f 256//493 577//475 578//471
f 512//490 260//494 255//488
f 511//495 577//475 260//494
f 253//483 261//496 257//481
f 261//496 536//388 257//481
f 578//471 261//496 256//493
f 579//470 535//395 261//496
f 275//497 272//498 271//499
f 276//500 575//501 272//498
f 542//452 276//500 275//497
f 543//451 576//502 276//500
f 271//499 277//503 273//504
f 273//504 510//505 509//506
f 272//498 574//507 277//503
f 277//503 657//508 510//505
f 273//504 274//509 271//499
f 278//510 572//485 274//509
f 509//506 278//510 273//504
f 508//511 571//491 278//510
f 271//499 279//512 275//497
f 275//497 541//457 542//452
f 274//509 573//486 279//512
f 279//512 662//389 541//457
f 293//513 290//514 289//515
f 294//516 548//417 290//514
f 611//517 294//516 293//513
f 612//518 547//422 294//516
f 289//515 295//519 291//520
f 291//520 570//467 569//466
f 290//514 549//419 295//519
f 295//519 663//440 570//467
f 291//520 292//521 289//515
f 296//522 590//523 292//521
f 569//466 296//522 291//520
f 568//478 591//524 296//522
f 289//515 297//525 293//513
f 293//513 610//526 611//517
f 292//521 589//527 297//525
f 297//525 676//528 610//526
f 302//529 299//530 298//531
f 299//530 594//532 593//533
f 302//529 550//534 303//535
f 303//535 665//536 594//532
f 298//531 304//537 300//538
f 300//538 606//407 605//406
f 299//530 592//539 304//537
f 304//537 673//540 606//407
f 300//538 301//541 298//531
f 305//542 596//543 301//541
f 605//406 305//542 300//538
f 604//421 595//544 305//542
f 298//531 306//545 302//529
f 302//529 552//546 551//547
f 301//541 597//548 306//545
f 306//545 667//549 552//546
f 320//550 317//551 316//552
f 321//553 596//543 317//551
f 584//554 321//553 320//550
f 585//555 597//548 321//553
f 316//552 322//556 318//557
f 318//557 612//518 611//517
f 317//551 595//544 322//556
f 322//556 674//423 612//518
f 318//557 319//558 316//552
f 323//559 602//560 319//558
f 611//517 323//559 318//557
f 610//526 601//561 323//559
f 316//552 324//562 320//550
f 320//550 583//563 584//554
f 319//558 603//564 324//562
f 324//562 666//565 583//563
f 28//190 32//195 33//191
f 29//192 33//191 360//193
f 32//195 377//210 378//196
f 33//191 378//196 622//197
f 29//192 34//199 30//198
f 34//199 387//202 386//200
f 359//194 358//201 34//199
f 358//201 624//252 387//202
f 28//190 30//198 35//203
f 31//204 35//203 391//205
f 30//198 386//200 385//207
f 35//203 385//207 629//208
f 31//204 36//209 32//195
f 36//209 376//212 377//210
f 392//206 393//298 36//209
f 36//209 393//298 630//211
f 41//213 42//216 38//214
f 42//216 462//220 461//217
f 401//218 400//219 42//216
f 400//219 641//361 462//220
f 37//215 38//214 43//221
f 39//222 43//221 403//223
f 38//214 461//217 460//225
f 43//221 460//225 642//226
f 39//222 44//228 40//227
f 44//228 388//231 389//229
f 404//224 405//230 44//228
f 405//230 631//246 388//231
f 37//215 40//227 45//232
f 41//213 45//232 402//233
f 40//227 389//229 390//234
f 45//232 390//234 623//235
f 50//236 51//239 47//237
f 51//239 390//234 389//229
f 362//240 363//241 51//239
f 363//241 623//235 390//234
f 46//238 47//237 52//242
f 48//243 52//242 396//244
f 47//237 389//229 388//231
f 52//242 388//231 631//246
f 48//243 53//248 49//247
f 53//248 385//207 386//200
f 395//245 394//249 53//248
f 394//249 629//208 385//207
f 46//238 49//247 54//250
f 50//236 54//250 361//251
f 49//247 386//200 387//202
f 54//250 387//202 624//252
f 55//253 59//258 60//254
f 56//255 60//254 357//256
f 59//258 383//270 384//259
f 60//254 384//259 621//260
f 56//255 61//262 57//261
f 61//262 378//196 377//210
f 356//257 355//263 61//262
f 355//263 622//197 378//196
f 57//261 62//265 58//264
f 62//265 397//267 398//266
f 377//210 376//212 62//265
f 376//212 630//211 397//267
f 55//253 58//264 63//268
f 59//258 63//268 382//269
f 58//264 398//266 399//271
f 63//268 399//271 632//272
f 86//273 87//276 83//274
f 87//276 426//278 425//277
f 395//245 396//244 87//276
f 396//244 631//246 426//278
f 82//275 83//274 88//279
f 84//280 88//279 372//281
f 83//274 425//277 424//283
f 88//279 424//283 627//284
f 84//280 89//286 85//285
f 89//286 433//289 434//287
f 371//282 370//288 89//286
f 370//288 628//566 433//289
f 82//275 85//285 90//290
f 86//273 90//290 394//249
f 85//285 434//287 435//291
f 90//290 435//291 629//208
f 95//292 96//295 92//293
f 96//295 393//298 392//206
f 428//296 429//297 96//295
f 429//297 630//211 393//298
f 91//294 92//293 97//299
f 97//299 435//291 434//287
f 392//206 391//205 97//299
f 391//205 629//208 435//291
f 93//300 98//302 94//301
f 98//302 367//304 368//303
f 93//300 434//287 433//289
f 433//289 628//566 367//304
f 91//294 94//301 99//305
f 95//292 99//305 427//306
f 94//301 368//303 369//307
f 99//305 369//307 626//308
f 113//309 114//312 110//310
f 114//312 399//271 398//266
f 431//313 432//314 114//312
f 432//314 632//272 399//271
f 109//311 110//310 115//315
f 111//316 115//315 429//297
f 110//310 398//266 397//267
f 115//315 397//267 630//211
f 111//316 116//318 112//317
f 116//318 364//320 365//319
f 428//296 427//306 116//318
f 427//306 626//308 364//320
f 109//311 112//317 117//321
f 113//309 117//321 430//322
f 112//317 365//319 366//323
f 117//321 366//323 625//324
f 131//325 132//328 128//326
f 132//328 468//330 467//329
f 404//224 403//223 132//328
f 403//223 642//226 468//330
f 127//327 128//326 133//331
f 129//332 133//331 445//333
f 128//326 467//329 466//335
f 133//331 466//335 644//336
f 129//332 134//338 130//337
f 134//338 424//283 425//277
f 446//334 447//339 134//338
f 447//339 627//284 424//283
f 127//327 130//337 135//340
f 131//325 135//340 405//230
f 130//337 425//277 426//278
f 135//340 426//278 631//246
f 140//341 141//347 137//342
f 137//342 141//347 406//344
f 140//341 449//360 450//346
f 141//347 450//346 633//348
f 136//343 137//342 142//349
f 138//350 142//349 453//351
f 137//342 407//345 408//353
f 142//349 408//353 635//354
f 138//350 143//356 139//355
f 143//356 460//225 461//217
f 452//352 451//357 143//356
f 451//357 642//226 460//225
f 136//343 139//355 144//358
f 140//341 144//358 448//359
f 139//355 461//217 462//220
f 144//358 462//220 641//361
f 158//362 159//365 155//363
f 159//365 441//367 440//366
f 452//352 453//351 159//365
f 453//351 635//354 441//367
f 154//364 155//363 160//368
f 156//369 160//368 459//370
f 155//363 440//366 439//372
f 160//368 439//372 634//373
f 156//369 161//375 157//374
f 161//375 466//335 467//329
f 458//371 457//376 161//375
f 457//376 644//336 466//335
f 154//364 157//374 162//377
f 158//362 162//377 451//357
f 157//374 467//329 468//330
f 162//377 468//330 642//226
f 190//378 194//383 195//379
f 191//380 195//379 522//381
f 194//383 503//398 504//384
f 195//379 504//384 654//385
f 191//380 196//387 192//386
f 196//387 537//390 536//388
f 521//382 520//458 196//387
f 196//387 520//458 662//389
f 190//378 192//386 197//391
f 193//392 197//391 529//393
f 192//386 536//388 535//395
f 197//391 535//395 661//396
f 193//392 198//397 194//383
f 198//397 502//400 503//398
f 530//394 531//399 198//397
f 531//399 656//433 502//400
f 203//401 204//404 200//402
f 204//404 544//408 545//405
f 605//406 606//407 204//404
f 606//407 673//540 544//408
f 199//403 200//402 205//409
f 201//410 205//409 534//411
f 200//402 545//405 546//413
f 205//409 546//413 655//414
f 201//410 206//416 202//415
f 206//416 549//419 548//417
f 533//412 532//418 206//416
f 532//418 663//440 549//419
f 199//403 202//415 207//420
f 203//401 207//420 604//421
f 202//415 548//417 547//422
f 207//420 547//422 674//423
f 212//424 213//427 209//425
f 213//427 507//429 506//428
f 533//412 534//411 213//427
f 534//411 655//414 507//429
f 208//426 209//425 214//430
f 210//431 214//430 531//399
f 209//425 506//428 505//432
f 214//430 505//432 656//433
f 210//431 215//435 211//434
f 215//435 538//437 539//436
f 530//394 529//393 215//435
f 529//393 661//396 538//437
f 208//426 211//434 216//438
f 212//424 216//438 532//418
f 211//434 539//436 540//439
f 216//438 540//439 663//440
f 217//441 221//446 222//442
f 218//443 222//442 528//444
f 221//446 500//460 501//447
f 222//442 501//447 653//448
f 217//441 218//443 223//449
f 219//450 223//449 543//451
f 218//443 527//445 526//453
f 223//449 526//453 664//454
f 219//450 224//456 220//455
f 224//456 520//458 521//382
f 542//452 541//457 224//456
f 541//457 662//389 520//458
f 220//455 225//459 221//446
f 225//459 499//461 500//460
f 521//382 522//381 225//459
f 522//381 654//385 499//461
f 248//462 249//465 245//463
f 249//465 540//439 539//436
f 569//466 570//467 249//465
f 570//467 663//440 540//439
f 244//464 245//463 250//468
f 246//469 250//468 579//470
f 245//463 539//436 538//437
f 250//468 538//437 661//396
f 246//469 251//473 247//472
f 251//473 514//476 515//474
f 578//471 577//475 251//473
f 577//475 660//567 514//476
f 244//464 247//472 252//477
f 248//462 252//477 568//478
f 247//472 515//474 516//479
f 252//477 516//479 659//480
f 257//481 258//484 254//482
f 258//484 573//486 572//485
f 536//388 537//390 258//484
f 537//390 662//389 573//486
f 253//483 254//482 259//487
f 255//488 259//487 513//489
f 254//482 572//485 571//491
f 259//487 571//491 658//492
f 255//488 260//494 256//493
f 256//493 260//494 577//475
f 512//490 511//495 260//494
f 511//495 660//567 577//475
f 253//483 256//493 261//496
f 261//496 535//395 536//388
f 578//471 579//470 261//496
f 579//470 661//396 535//395
f 275//497 276//500 272//498
f 276//500 576//502 575//501
f 542//452 543//451 276//500
f 543//451 664//454 576//502
f 271//499 272//498 277//503
f 273//504 277//503 510//505
f 272//498 575//501 574//507
f 277//503 574//507 657//508
f 273//504 278//510 274//509
f 278//510 571//491 572//485
f 509//506 508//511 278//510
f 508//511 658//492 571//491
f 271//499 274//509 279//512
f 275//497 279//512 541//457
f 274//509 572//485 573//486
f 279//512 573//486 662//389
f 293//513 294//516 290//514
f 294//516 547//422 548//417
f 611//517 612//518 294//516
f 612//518 674//423 547//422
f 289//515 290//514 295//519
f 291//520 295//519 570//467
f 290//514 548//417 549//419
f 295//519 549//419 663//440
f 291//520 296//522 292//521
f 296//522 591//524 590//523
f 569//466 568//478 296//522
f 568//478 659//480 591//524
f 289//515 292//521 297//525
f 293//513 297//525 610//526
f 292//521 590//523 589//527
f 297//525 589//527 676//528
f 302//529 303//535 299//530
f 299//530 303//535 594//532
f 302//529 551//547 550//534
f 303//535 550//534 665//536
f 298//531 299//530 304//537
f 300//538 304//537 606//407
f 299//530 593//533 592//539
f 304//537 592//539 673//540
f 300//538 305//542 301//541
f 305//542 595//544 596//543
f 605//406 604//421 305//542
f 604//421 674//423 595//544
f 298//531 301//541 306//545
f 302//529 306//545 552//546
f 301//541 596//543 597//548
f 306//545 597//548 667//549
f 320//550 321//553 317//551
f 321//553 597//548 596//543
f 584//554 585//555 321//553
f 585//555 667//549 597//548
f 316//552 317//551 322//556
f 318//557 322//556 612//518
f 317//551 596//543 595//544
f 322//556 595//544 674//423
f 318//557 323//559 319//558
f 323//559 601//561 602//560
f 611//517 610//526 323//559
f 610//526 676//528 601//561
f 316//552 319//558 324//562
f 320//550 324//562 583//563
f 319//558 602//560 603//564
f 324//562 603//564 666//565
f 68//568 65//569 64//570
f 69//571 368//303 65//569
f 374//572 69//571 68//568
f 373//573 369//307 69//571
f 64//570 70//574 66//575
f 66//575 411//576 410//577
f 65//569 367//304 70//574
f 70//574 628//566 411//576
f 66//575 67//578 64//570
f 71//579 419//580 67//578
f 410//577 71//579 66//575
f 409//581 418//582 71//579
f 64//570 72//583 68//568
f 68//568 375//584 374//572
f 67//578 420//585 72//583
f 72//583 636//586 375//584
f 77//587 74//588 73//589
f 78//590 365//319 74//588
f 416//591 78//590 77//587
f 417//592 366//323 78//590
f 73//589 79//593 75//594
f 75//594 373//573 374//572
f 74//588 364//320 79//593
f 79//593 626//308 373//573
f 75//594 76//595 73//589
f 80//596 422//597 76//595
f 374//572 80//596 75//594
f 375//584 421//598 80//596
f 73//589 81//599 77//587
f 77//587 415//600 416//591
f 76//595 423//601 81//599
f 81//599 637//602 415//600
f 100//603 105//604 101//605
f 101//605 370//288 371//282
f 104//606 411//576 105//604
f 105//604 628//566 370//288
f 101//605 102//607 100//603
f 106//608 380//609 102//607
f 371//282 106//608 101//605
f 372//281 379//610 106//608
f 100//603 107//611 103//612
f 103//612 414//613 413//614
f 102//607 381//615 107//611
f 107//611 638//616 414//613
f 103//612 104//606 100//603
f 104//606 409//581 410//577
f 413//614 108//617 103//612
f 108//617 639//618 409//581
f 118//619 123//620 119//621
f 119//621 457//376 458//371
f 122//622 463//623 123//620
f 123//620 644//336 457//376
f 119//621 120//624 118//619
f 124//625 443//626 120//624
f 458//371 124//625 119//621
f 459//370 442//627 124//625
f 118//619 125//628 121//629
f 121//629 438//630 437//631
f 120//624 444//632 125//628
f 125//628 640//633 438//630
f 121//629 122//622 118//619
f 126//634 464//635 122//622
f 437//631 126//634 121//629
f 436//636 465//637 126//634
f 145//638 150//639 146//640
f 146//640 447//339 446//334
f 149//641 379//610 150//639
f 150//639 627//284 447//339
f 146//640 147//642 145//638
f 151//643 464//635 147//642
f 446//334 151//643 146//640
f 445//333 463//623 151//643
f 145//638 152//644 148//645
f 148//645 454//646 455//647
f 147//642 465//637 152//644
f 152//644 643//648 454//646
f 148//645 149//641 145//638
f 153//649 380//609 149//641
f 455//647 153//649 148//645
f 456//650 381//615 153//649
f 230//651 227//652 226//653
f 231//654 518//655 227//652
f 512//490 231//654 230//651
f 513//489 517//656 231//654
f 226//653 232//657 228//658
f 228//658 564//659 563//660
f 227//652 519//661 232//657
f 232//657 668//662 564//659
f 228//658 229//663 226//653
f 233//664 554//665 229//663
f 563//660 233//664 228//658
f 562//666 553//667 233//664
f 226//653 234//668 230//651
f 230//651 511//495 512//490
f 229//663 555//669 234//668
f 234//668 660//567 511//495
f 239//670 236//671 235//672
f 240//673 560//674 236//671
f 509//506 240//673 239//670
f 510//505 561//675 240//673
f 235//672 241//676 237//677
f 237//677 567//678 566//679
f 236//671 559//680 241//676
f 241//676 669//681 567//678
f 237//677 238//682 235//672
f 242//683 518//655 238//682
f 566//679 242//683 237//677
f 565//684 519//661 242//683
f 235//672 243//685 239//670
f 239//670 508//511 509//506
f 238//682 517//656 243//685
f 243//685 658//492 508//511
f 262//686 267//687 263//688
f 263//688 555//669 554//665
f 266//689 514//476 267//687
f 267//687 660//567 555//669
f 263//688 264//690 262//686
f 268//691 557//692 264//690
f 263//688 553//667 268//691
f 268//691 671//693 556//694
f 262//686 269//695 265//696
f 265//696 525//697 524//698
f 264//690 558//699 269//695
f 269//695 670//700 525//697
f 265//696 266//689 262//686
f 270//701 515//474 266//689
f 524//698 270//701 265//696
f 523//702 516//479 270//701
f 280//703 285//704 281//705
f 281//705 607//706 608//707
f 284//708 601//561 285//704
f 285//704 676//528 607//706
f 281//705 282//709 280//703
f 286//710 581//711 282//709
f 608//707 286//710 281//705
f 609//712 580//713 286//710
f 280//703 287//714 283//715
f 283//715 588//716 587//717
f 282//709 582//718 287//714
f 287//714 672//719 588//716
f 283//715 284//708 280//703
f 288//720 602//560 284//708
f 587//717 288//720 283//715
f 586//721 603//564 288//720
f 307//722 312//723 308//724
f 308//724 523//702 524//698
f 311//725 591//524 312//723
f 312//723 659//480 523//702
f 308//724 309//726 307//722
f 313//727 599//728 309//726
f 524//698 313//727 308//724
f 525//697 600//729 313//727
f 307//722 314//730 310//731
f 310//731 609//712 608//707
f 309//726 598//732 314//730
f 314//730 675//733 609//712
f 310//731 311//725 307//722
f 315//734 590//523 311//725
f 608//707 315//734 310//731
f 607//706 589//527 315//734
f 68//568 69//571 65//569
f 69//571 369//307 368//303
f 374//572 373//573 69//571
f 373//573 626//308 369//307
f 64//570 65//569 70//574
f 66//575 70//574 411//576
f 65//569 368//303 367//304
f 70//574 367//304 628//566
f 66//575 71//579 67//578
f 71//579 418//582 419//580
f 410//577 409//581 71//579
f 409//581 639//618 418//582
f 64//570 67//578 72//583
f 68//568 72//583 375//584
f 67//578 419//580 420//585
f 72//583 420//585 636//586
f 77//587 78//590 74//588
f 78//590 366//323 365//319
f 416//591 417//592 78//590
f 417//592 625//324 366//323
f 73//589 74//588 79//593
f 75//594 79//593 373//573
f 74//588 365//319 364//320
f 79//593 364//320 626//308
f 75//594 80//596 76//595
f 80//596 421//598 422//597
f 374//572 375//584 80//596
f 375//584 636//586 421//598
f 73//589 76//595 81//599
f 77//587 81//599 415//600
f 76//595 422//597 423//601
f 81//599 423//601 637//602
f 100//603 104//606 105//604
f 101//605 105//604 370//288
f 104//606 410//577 411//576
f 105//604 411//576 628//566
f 101//605 106//608 102//607
f 106//608 379//610 380//609
f 371//282 372//281 106//608
f 372//281 627//284 379//610
f 100//603 102//607 107//611
f 103//612 107//611 414//613
f 102//607 380//609 381//615
f 107//611 381//615 638//616
f 103//612 108//617 104//606
f 104//606 108//617 409//581
f 413//614 412//735 108//617
f 108//617 412//735 639//618
f 118//619 122//622 123//620
f 119//621 123//620 457//376
f 122//622 464//635 463//623
f 123//620 463//623 644//336
f 119//621 124//625 120//624
f 124//625 442//627 443//626
f 458//371 459//370 124//625
f 459//370 634//373 442//627
f 118//619 120//624 125//628
f 121//629 125//628 438//630
f 120//624 443//626 444//632
f 125//628 444//632 640//633
f 121//629 126//634 122//622
f 126//634 465//637 464//635
f 437//631 436//636 126//634
f 436//636 643//648 465//637
f 145//638 149//641 150//639
f 146//640 150//639 447//339
f 149//641 380//609 379//610
f 150//639 379//610 627//284
f 146//640 151//643 147//642
f 151//643 463//623 464//635
f 446//334 445//333 151//643
f 445//333 644//336 463//623
f 145//638 147//642 152//644
f 148//645 152//644 454//646
f 147//642 464//635 465//637
f 152//644 465//637 643//648
f 148//645 153//649 149//641
f 153//649 381//615 380//609
f 455//647 456//650 153//649
f 456//650 638//616 381//615
f 230//651 231//654 227//652
f 231//654 517//656 518//655
f 512//490 513//489 231//654
f 513//489 658//492 517//656
f 226//653 227//652 232//657
f 228//658 232//657 564//659
f 227//652 518//655 519//661
f 232//657 519//661 668//662
f 228//658 233//664 229//663
f 233//664 553//667 554//665
f 563//660 562//666 233//664
f 562//666 671//693 553//667
f 226//653 229//663 234//668
f 230//651 234//668 511//495
f 229//663 554//665 555//669
f 234//668 555//669 660//567
f 239//670 240//673 236//671
f 240//673 561//675 560//674
f 509//506 510//505 240//673
f 510//505 657//508 561//675
f 235//672 236//671 241//676
f 237//677 241//676 567//678
f 236//671 560//674 559//680
f 241//676 559//680 669//681
f 237//677 242//683 238//682
f 242//683 519//661 518//655
f 566//679 565//684 242//683
f 565//684 668//662 519//661
f 235//672 238//682 243//685
f 239//670 243//685 508//511
f 238//682 518//655 517//656
f 243//685 517//656 658//492
f 262//686 266//689 267//687
f 263//688 267//687 555//669
f 266//689 515//474 514//476
f 267//687 514//476 660//567
f 263//688 268//691 264//690
f 268//691 556//694 557//692
f 263//688 554//665 553//667
f 268//691 553//667 671//693
f 262//686 264//690 269//695
f 265//696 269//695 525//697
f 264//690 557//692 558//699
f 269//695 558//699 670//700
f 265//696 270//701 266//689
f 270//701 516//479 515//474
f 524//698 523//702 270//701
f 523//702 659//480 516//479
f 280//703 284//708 285//704
f 281//705 285//704 607//706
f 284//708 602//560 601//561
f 285//704 601//561 676//528
f 281//705 286//710 282//709
f 286//710 580//713 581//711
f 608//707 609//712 286//710
f 609//712 675//733 580//713
f 280//703 282//709 287//714
f 283//715 287//714 588//716
f 282//709 581//711 582//718
f 287//714 582//718 672//719
f 283//715 288//720 284//708
f 288//720 603//564 602//560
f 587//717 586//721 288//720
f 586//721 666//565 603//564
f 307//722 311//725 312//723
f 308//724 312//723 523//702
f 311//725 590//523 591//524
f 312//723 591//524 659//480
f 308//724 313//727 309//726
f 313//727 600//729 599//728
f 524//698 525//697 313//727
f 525//697 670//700 600//729
f 307//722 309//726 314//730
f 310//731 314//730 609//712
f 309//726 599//728 598//732
f 314//730 598//732 675//733
f 310//731 315//734 311//725
f 315//734 589//527 590//523
f 608//707 607//706 315//734
f 607//706 676//528 589//527
