# Blender v2.83.1 OBJ File: 'Cozy.blend'
# www.blender.org
o Support_axis_B_Cylinder.004
v 0.395709 1.041831 0.003044
v 0.327348 1.041831 -0.116227
v 0.395746 1.041400 0.003023
v 0.327385 1.041400 -0.116248
v 0.395855 1.040985 0.002961
v 0.327494 1.040985 -0.116310
v 0.396032 1.040603 0.002859
v 0.327671 1.040603 -0.116412
v 0.396271 1.040268 0.002723
v 0.327910 1.040268 -0.116549
v 0.396561 1.039993 0.002556
v 0.328200 1.039993 -0.116715
v 0.396893 1.039789 0.002366
v 0.328532 1.039789 -0.116905
v 0.397252 1.039663 0.002160
v 0.328892 1.039663 -0.117111
v 0.397626 1.039621 0.001946
v 0.329266 1.039621 -0.117326
v 0.398001 1.039663 0.001731
v 0.329640 1.039663 -0.117540
v 0.398360 1.039789 0.001525
v 0.329999 1.039789 -0.117746
v 0.398692 1.039993 0.001335
v 0.330331 1.039993 -0.117936
v 0.398982 1.040268 0.001169
v 0.330621 1.040268 -0.118103
v 0.399221 1.040603 0.001032
v 0.330860 1.040603 -0.118239
v 0.399398 1.040985 0.000930
v 0.331037 1.040985 -0.118341
v 0.399507 1.041400 0.000868
v 0.331146 1.041400 -0.118404
v 0.399544 1.041831 0.000847
v 0.331183 1.041831 -0.118425
v 0.399507 1.042262 0.000868
v 0.331146 1.042262 -0.118404
v 0.399398 1.042676 0.000930
v 0.331037 1.042676 -0.118341
v 0.399221 1.043059 0.001032
v 0.330860 1.043059 -0.118239
v 0.398982 1.043393 0.001169
v 0.330621 1.043393 -0.118103
v 0.398692 1.043668 0.001335
v 0.330331 1.043668 -0.117936
v 0.398360 1.043872 0.001525
v 0.329999 1.043872 -0.117746
v 0.398001 1.043998 0.001731
v 0.329640 1.043998 -0.117540
v 0.397626 1.044041 0.001946
v 0.329266 1.044041 -0.117326
v 0.397252 1.043998 0.002160
v 0.328892 1.043998 -0.117111
v 0.396893 1.043872 0.002366
v 0.328532 1.043872 -0.116905
v 0.396561 1.043668 0.002556
v 0.328200 1.043668 -0.116715
v 0.396271 1.043393 0.002723
v 0.327910 1.043393 -0.116549
v 0.396032 1.043059 0.002859
v 0.327671 1.043059 -0.116412
v 0.395855 1.042676 0.002961
v 0.327494 1.042676 -0.116310
v 0.395746 1.042262 0.003023
v 0.327385 1.042262 -0.116248
vt 1.000000 1.000000
vt 0.968750 0.500000
vt 1.000000 0.500000
vt 0.968750 1.000000
vt 0.937500 0.500000
vt 0.937500 1.000000
vt 0.906250 0.500000
vt 0.906250 1.000000
vt 0.875000 0.500000
vt 0.875000 1.000000
vt 0.843750 0.500000
vt 0.843750 1.000000
vt 0.812500 0.500000
vt 0.812500 1.000000
vt 0.781250 0.500000
vt 0.781250 1.000000
vt 0.750000 0.500000
vt 0.750000 1.000000
vt 0.718750 0.500000
vt 0.718750 1.000000
vt 0.687500 0.500000
vt 0.687500 1.000000
vt 0.656250 0.500000
vt 0.656250 1.000000
vt 0.625000 0.500000
vt 0.625000 1.000000
vt 0.593750 0.500000
vt 0.593750 1.000000
vt 0.562500 0.500000
vt 0.562500 1.000000
vt 0.531250 0.500000
vt 0.531250 1.000000
vt 0.500000 0.500000
vt 0.500000 1.000000
vt 0.468750 0.500000
vt 0.468750 1.000000
vt 0.437500 0.500000
vt 0.437500 1.000000
vt 0.406250 0.500000
vt 0.406250 1.000000
vt 0.375000 0.500000
vt 0.375000 1.000000
vt 0.343750 0.500000
vt 0.343750 1.000000
vt 0.312500 0.500000
vt 0.312500 1.000000
vt 0.281250 0.500000
vt 0.281250 1.000000
vt 0.250000 0.500000
vt 0.250000 1.000000
vt 0.218750 0.500000
vt 0.218750 1.000000
vt 0.187500 0.500000
vt 0.187500 1.000000
vt 0.156250 0.500000
vt 0.156250 1.000000
vt 0.125000 0.500000
vt 0.125000 1.000000
vt 0.093750 0.500000
vt 0.093750 1.000000
vt 0.062500 0.500000
vt 0.158156 0.028269
vt 0.471731 0.158156
vt 0.341844 0.471731
vt 0.062500 1.000000
vt 0.031250 0.500000
vt 0.031250 1.000000
vt 0.000000 0.500000
vt 0.796822 0.014612
vt 0.514611 0.203179
vt 0.703179 0.485389
vt 0.296822 0.485388
vt 0.250000 0.490000
vt 0.203179 0.485389
vt 0.158156 0.471731
vt 0.116663 0.449553
vt 0.080295 0.419706
vt 0.050447 0.383337
vt 0.028269 0.341844
vt 0.014612 0.296822
vt 0.010000 0.250000
vt 0.014611 0.203179
vt 0.028269 0.158156
vt 0.050447 0.116663
vt 0.080294 0.080294
vt 0.116663 0.050447
vt 0.203178 0.014612
vt 0.250000 0.010000
vt 0.296822 0.014612
vt 0.341844 0.028269
vt 0.383337 0.050447
vt 0.419706 0.080294
vt 0.449553 0.116663
vt 0.485388 0.203178
vt 0.490000 0.250000
vt 0.485388 0.296822
vt 0.471731 0.341844
vt 0.449553 0.383337
vt 0.419706 0.419706
vt 0.383337 0.449553
vt 0.000000 1.000000
vt 0.750000 0.490000
vt 0.796822 0.485388
vt 0.841844 0.471731
vt 0.883337 0.449553
vt 0.919706 0.419706
vt 0.985388 0.296822
vt 0.949553 0.383337
vt 0.971731 0.341844
vt 0.990000 0.250000
vt 0.985388 0.203178
vt 0.971731 0.158156
vt 0.949553 0.116663
vt 0.919706 0.080294
vt 0.883337 0.050447
vt 0.841844 0.028269
vt 0.750000 0.010000
vt 0.703178 0.014612
vt 0.658156 0.028269
vt 0.616663 0.050447
vt 0.580294 0.080294
vt 0.550447 0.116663
vt 0.528269 0.158156
vt 0.510000 0.250000
vt 0.514612 0.296822
vt 0.528269 0.341844
vt 0.550447 0.383337
vt 0.580295 0.419706
vt 0.616663 0.449553
vt 0.658156 0.471731
vn -0.8635 -0.0979 0.4948
vn -0.8301 -0.2904 0.4760
vn -0.7652 -0.4714 0.4384
vn -0.6708 -0.6343 0.3843
vn -0.5503 -0.7730 0.3157
vn -0.4090 -0.8819 0.2344
vn -0.2519 -0.9569 0.1443
vn -0.0850 -0.9952 0.0486
vn 0.0850 -0.9952 -0.0487
vn 0.2519 -0.9569 -0.1444
vn 0.4089 -0.8819 -0.2345
vn 0.5503 -0.7733 -0.3150
vn 0.6708 -0.6342 -0.3845
vn 0.7650 -0.4715 -0.4387
vn 0.8303 -0.2903 -0.4757
vn 0.8634 -0.0981 -0.4949
vn 0.8635 0.0981 -0.4947
vn 0.8302 0.2903 -0.4759
vn 0.7652 0.4714 -0.4385
vn 0.6708 0.6343 -0.3844
vn 0.5503 0.7731 -0.3156
vn 0.4091 0.8819 -0.2343
vn 0.2519 0.9569 -0.1444
vn 0.0850 0.9952 -0.0486
vn -0.0850 0.9952 0.0486
vn -0.2518 0.9569 0.1446
vn -0.4089 0.8819 0.2346
vn -0.5504 0.7732 0.3152
vn -0.6709 0.6343 0.3842
vn -0.7651 0.4714 0.4387
vn -0.4973 -0.0000 -0.8676
vn -0.8303 0.2904 0.4757
vn -0.8633 0.0979 0.4951
vn 0.4973 -0.0000 0.8676
vn -0.8634 -0.0981 0.4949
vn -0.8303 -0.2903 0.4758
vn -0.7650 -0.4714 0.4388
vn -0.6707 -0.6343 0.3845
vn -0.5504 -0.7732 0.3150
vn -0.4090 -0.8819 0.2345
vn -0.2519 -0.9569 0.1444
vn -0.0850 -0.9952 0.0488
vn 0.0850 -0.9952 -0.0485
vn 0.4090 -0.8819 -0.2345
vn 0.5503 -0.7730 -0.3157
vn 0.6708 -0.6343 -0.3843
vn 0.7652 -0.4714 -0.4384
vn 0.8302 -0.2903 -0.4759
vn 0.8633 0.0981 -0.4950
vn 0.8303 0.2903 -0.4758
vn 0.7650 0.4715 -0.4387
vn 0.6708 0.6342 -0.3845
vn 0.5504 0.7732 -0.3150
vn 0.4089 0.8819 -0.2346
vn 0.0850 0.9952 -0.0488
vn -0.0850 0.9952 0.0488
vn -0.2519 0.9570 0.1441
vn -0.4091 0.8819 0.2342
vn -0.5504 0.7728 0.3159
vn -0.6707 0.6344 0.3843
vn -0.7651 0.4715 0.4386
vn -0.4970 -0.0000 -0.8677
vn -0.4972 0.0000 -0.8676
vn -0.4988 0.0008 -0.8667
vn -0.4965 -0.0004 -0.8680
vn -0.4973 0.0003 -0.8676
vn -0.4976 0.0000 -0.8674
vn -0.4969 0.0002 -0.8678
vn -0.4983 0.0000 -0.8670
vn -0.4970 -0.0000 -0.8678
vn -0.4971 0.0000 -0.8677
vn -0.4969 0.0000 -0.8678
vn -0.4973 -0.0004 -0.8676
vn -0.4977 -0.0006 -0.8673
vn -0.4981 0.0002 -0.8671
vn -0.4970 -0.0001 -0.8677
vn -0.4972 0.0000 -0.8677
vn -0.8302 0.2903 0.4759
vn -0.8635 0.0981 0.4947
vn 0.4974 0.0000 0.8675
vn 0.4971 0.0000 0.8677
vn 0.4968 -0.0001 0.8679
vn 0.4976 -0.0003 0.8674
vn 0.4977 0.0008 0.8674
vn 0.4976 0.0000 0.8674
vn 0.4974 0.0005 0.8675
vn 0.4975 0.0000 0.8675
vn 0.4972 -0.0001 0.8677
vn 0.4972 0.0001 0.8677
vn 0.4962 0.0000 0.8682
vn 0.4979 0.0003 0.8672
vn 0.4984 -0.0004 0.8670
vn 0.4974 -0.0001 0.8675
vn 0.4976 0.0002 0.8674
vn 0.4972 0.0000 0.8676
s off
f 2/1/1 3/2/1 1/3/1
f 4/4/2 5/5/2 3/2/2
f 6/6/3 7/7/3 5/5/3
f 8/8/4 9/9/4 7/7/4
f 10/10/5 11/11/5 9/9/5
f 12/12/6 13/13/6 11/11/6
f 14/14/7 15/15/7 13/13/7
f 16/16/8 17/17/8 15/15/8
f 18/18/9 19/19/9 17/17/9
f 20/20/10 21/21/10 19/19/10
f 22/22/11 23/23/11 21/21/11
f 24/24/12 25/25/12 23/23/12
f 26/26/13 27/27/13 25/25/13
f 28/28/14 29/29/14 27/27/14
f 30/30/15 31/31/15 29/29/15
f 32/32/16 33/33/16 31/31/16
f 34/34/17 35/35/17 33/33/17
f 36/36/18 37/37/18 35/35/18
f 38/38/19 39/39/19 37/37/19
f 40/40/20 41/41/20 39/39/20
f 42/42/21 43/43/21 41/41/21
f 44/44/22 45/45/22 43/43/22
f 46/46/23 47/47/23 45/45/23
f 48/48/24 49/49/24 47/47/24
f 50/50/25 51/51/25 49/49/25
f 52/52/26 53/53/26 51/51/26
f 54/54/27 55/55/27 53/53/27
f 56/56/28 57/57/28 55/55/28
f 58/58/29 59/59/29 57/57/29
f 60/60/30 61/61/30 59/59/30
f 38/62/31 22/63/31 6/64/31
f 62/65/32 63/66/32 61/61/32
f 64/67/33 1/68/33 63/66/33
f 31/69/34 47/70/34 63/71/34
f 2/1/35 4/4/35 3/2/35
f 4/4/36 6/6/36 5/5/36
f 6/6/37 8/8/37 7/7/37
f 8/8/38 10/10/38 9/9/38
f 10/10/39 12/12/39 11/11/39
f 12/12/40 14/14/40 13/13/40
f 14/14/41 16/16/41 15/15/41
f 16/16/42 18/18/42 17/17/42
f 18/18/43 20/20/43 19/19/43
f 20/20/10 22/22/10 21/21/10
f 22/22/44 24/24/44 23/23/44
f 24/24/45 26/26/45 25/25/45
f 26/26/46 28/28/46 27/27/46
f 28/28/47 30/30/47 29/29/47
f 30/30/48 32/32/48 31/31/48
f 32/32/16 34/34/16 33/33/16
f 34/34/49 36/36/49 35/35/49
f 36/36/50 38/38/50 37/37/50
f 38/38/51 40/40/51 39/39/51
f 40/40/52 42/42/52 41/41/52
f 42/42/53 44/44/53 43/43/53
f 44/44/54 46/46/54 45/45/54
f 46/46/23 48/48/23 47/47/23
f 48/48/55 50/50/55 49/49/55
f 50/50/56 52/52/56 51/51/56
f 52/52/57 54/54/57 53/53/57
f 54/54/58 56/56/58 55/55/58
f 56/56/59 58/58/59 57/57/59
f 58/58/60 60/60/60 59/59/60
f 60/60/61 62/65/61 61/61/61
f 6/64/62 4/72/62 2/73/62
f 2/73/31 64/74/31 6/64/31
f 64/74/63 62/75/63 6/64/63
f 62/75/62 60/76/62 58/77/62
f 58/77/64 56/78/64 54/79/64
f 54/79/65 52/80/65 50/81/65
f 50/81/66 48/82/66 54/79/66
f 48/82/67 46/83/67 54/79/67
f 46/83/68 44/84/68 42/85/68
f 42/85/69 40/86/69 38/62/69
f 38/62/70 36/87/70 34/88/70
f 34/88/71 32/89/71 38/62/71
f 32/89/63 30/90/63 38/62/63
f 30/90/67 28/91/67 26/92/67
f 26/92/72 24/93/72 22/63/72
f 22/63/73 20/94/73 18/95/73
f 18/95/63 16/96/63 22/63/63
f 16/96/67 14/97/67 22/63/67
f 14/97/74 12/98/74 10/99/74
f 10/99/75 8/100/75 6/64/75
f 62/75/63 58/77/63 6/64/63
f 58/77/31 54/79/31 6/64/31
f 46/83/72 42/85/72 38/62/72
f 30/90/31 26/92/31 38/62/31
f 26/92/63 22/63/63 38/62/63
f 14/97/76 10/99/76 6/64/76
f 54/79/31 46/83/31 6/64/31
f 46/83/31 38/62/31 6/64/31
f 22/63/77 14/97/77 6/64/77
f 62/65/78 64/67/78 63/66/78
f 64/67/79 2/101/79 1/68/79
f 63/71/80 1/102/80 3/103/80
f 3/103/81 5/104/81 63/71/81
f 5/104/34 7/105/34 63/71/34
f 7/105/82 9/106/82 15/107/82
f 9/106/83 11/108/83 15/107/83
f 11/108/84 13/109/84 15/107/84
f 15/107/85 17/110/85 19/111/85
f 19/111/86 21/112/86 15/107/86
f 21/112/87 23/113/87 15/107/87
f 23/113/88 25/114/88 31/69/88
f 25/114/89 27/115/89 31/69/89
f 27/115/34 29/116/34 31/69/34
f 31/69/81 33/117/81 35/118/81
f 35/118/81 37/119/81 31/69/81
f 37/119/34 39/120/34 31/69/34
f 39/120/90 41/121/90 43/122/90
f 43/122/91 45/123/91 39/120/91
f 45/123/81 47/70/81 39/120/81
f 47/70/85 49/124/85 51/125/85
f 51/125/92 53/126/92 55/127/92
f 55/127/93 57/128/93 63/71/93
f 57/128/93 59/129/93 63/71/93
f 59/129/94 61/130/94 63/71/94
f 47/70/95 51/125/95 63/71/95
f 51/125/80 55/127/80 63/71/80
f 63/71/34 7/105/34 31/69/34
f 7/105/34 15/107/34 31/69/34
f 15/107/34 23/113/34 31/69/34
f 31/69/34 39/120/34 47/70/34
