ply
format ascii 1.0
comment Created by Blender 2.79 (sub 0) - www.blender.org, source file: 'm3_v2.blend'
element vertex 1012
property float x
property float y
property float z
property float nx
property float ny
property float nz
element face 256
property list uchar uint vertex_indices
end_header
1.583383 0.365814 1.075914 -0.914164 -0.404922 -0.018495
1.581267 0.370591 1.075884 -0.914164 -0.404922 -0.018495
1.582088 0.373140 0.979504 -0.914164 -0.404922 -0.018495
1.584272 0.368209 0.979504 -0.914164 -0.404922 -0.018495
1.584272 0.368209 0.979504 -0.914156 -0.404940 -0.018524
1.582088 0.373140 0.979504 -0.914156 -0.404940 -0.018524
1.583858 0.377883 0.788502 -0.914156 -0.404940 -0.018524
1.586042 0.372951 0.788502 -0.914156 -0.404940 -0.018524
1.581267 0.370591 1.075884 -0.914152 -0.404949 -0.018496
1.579151 0.375370 1.075826 -0.914152 -0.404949 -0.018496
1.579904 0.378071 0.979504 -0.914152 -0.404949 -0.018496
1.582088 0.373140 0.979504 -0.914152 -0.404949 -0.018496
1.582088 0.373140 0.979504 -0.914159 -0.404931 -0.018524
1.579904 0.378071 0.979504 -0.914159 -0.404931 -0.018524
1.581673 0.382814 0.788502 -0.914159 -0.404931 -0.018524
1.583858 0.377883 0.788502 -0.914159 -0.404931 -0.018524
1.583383 0.365814 1.075914 -0.914171 -0.404907 -0.018496
1.584272 0.368209 0.979504 -0.914171 -0.404907 -0.018496
1.586457 0.363277 0.979504 -0.914171 -0.404907 -0.018496
1.585499 0.361037 1.075884 -0.914171 -0.404907 -0.018496
1.585499 0.361037 1.075884 -0.914176 -0.404895 -0.018498
1.586457 0.363277 0.979504 -0.914176 -0.404895 -0.018498
1.588641 0.358345 0.979504 -0.914176 -0.404895 -0.018498
1.587615 0.356261 1.075826 -0.914176 -0.404895 -0.018498
1.584272 0.368209 0.979504 -0.914168 -0.404911 -0.018524
1.586042 0.372951 0.788502 -0.914168 -0.404911 -0.018524
1.588226 0.368020 0.788502 -0.914168 -0.404911 -0.018524
1.586457 0.363277 0.979504 -0.914168 -0.404911 -0.018524
1.586457 0.363277 0.979504 -0.914169 -0.404909 -0.018523
1.588226 0.368020 0.788502 -0.914169 -0.404909 -0.018523
1.590411 0.363088 0.788502 -0.914169 -0.404909 -0.018523
1.588641 0.358345 0.979504 -0.914169 -0.404909 -0.018523
1.583383 0.365814 1.075914 -0.914186 -0.404877 -0.018395
1.585499 0.361037 1.075884 -0.914186 -0.404877 -0.018395
1.584991 0.360673 1.109118 -0.914186 -0.404877 -0.018395
1.583079 0.364985 1.109235 -0.914186 -0.404877 -0.018395
1.583079 0.364985 1.109235 -0.914204 -0.404957 -0.015490
1.584991 0.360673 1.109118 -0.914204 -0.404957 -0.015490
1.584709 0.361247 1.110771 -0.914204 -0.404957 -0.015490
1.583069 0.364940 1.111005 -0.914204 -0.404957 -0.015490
1.585499 0.361037 1.075884 -0.914203 -0.404839 -0.018404
1.587615 0.356261 1.075826 -0.914203 -0.404839 -0.018404
1.586904 0.356364 1.108884 -0.914203 -0.404839 -0.018404
1.584991 0.360673 1.109118 -0.914203 -0.404839 -0.018404
1.584991 0.360673 1.109118 -0.914207 -0.404952 -0.015469
1.586904 0.356364 1.108884 -0.914207 -0.404952 -0.015469
1.586078 0.358183 1.110069 -0.914207 -0.404952 -0.015469
1.584709 0.361247 1.110771 -0.914207 -0.404952 -0.015469
1.583383 0.365814 1.075914 -0.914157 -0.404944 -0.018398
1.583079 0.364985 1.109235 -0.914157 -0.404944 -0.018398
1.581169 0.369303 1.109118 -0.914157 -0.404944 -0.018398
1.581267 0.370591 1.075884 -0.914157 -0.404944 -0.018398
1.581267 0.370591 1.075884 -0.914128 -0.405007 -0.018412
1.581169 0.369303 1.109118 -0.914128 -0.405007 -0.018412
1.579259 0.373624 1.108884 -0.914128 -0.405007 -0.018412
1.579151 0.375370 1.075826 -0.914128 -0.405007 -0.018412
1.583079 0.364985 1.109235 -0.914203 -0.404955 -0.015614
1.583069 0.364940 1.111005 -0.914203 -0.404955 -0.015614
1.581432 0.368645 1.110771 -0.914203 -0.404955 -0.015614
1.581169 0.369303 1.109118 -0.914203 -0.404955 -0.015614
1.581169 0.369303 1.109118 -0.914229 -0.404900 -0.015527
1.581432 0.368645 1.110771 -0.914229 -0.404900 -0.015527
1.580071 0.371745 1.110069 -0.914229 -0.404900 -0.015527
1.579259 0.373624 1.108884 -0.914229 -0.404900 -0.015527
1.592513 0.390263 0.091192 -0.914173 -0.404900 -0.018535
1.590329 0.395194 0.091192 -0.914173 -0.404900 -0.018535
1.593859 0.404638 -0.289204 -0.914173 -0.404900 -0.018535
1.596043 0.399706 -0.289204 -0.914173 -0.404900 -0.018535
1.596043 0.399706 -0.289204 -0.914169 -0.404910 -0.018529
1.593859 0.404638 -0.289204 -0.914169 -0.404910 -0.018529
1.596804 0.412522 -0.606820 -0.914169 -0.404910 -0.018529
1.598989 0.407591 -0.606820 -0.914169 -0.404910 -0.018529
1.590329 0.395194 0.091192 -0.914168 -0.404911 -0.018535
1.588145 0.400126 0.091193 -0.914168 -0.404911 -0.018535
1.591675 0.409569 -0.289204 -0.914168 -0.404911 -0.018535
1.593859 0.404638 -0.289204 -0.914168 -0.404911 -0.018535
1.593859 0.404638 -0.289204 -0.914164 -0.404920 -0.018529
1.591675 0.409569 -0.289204 -0.914164 -0.404920 -0.018529
1.594620 0.417454 -0.606820 -0.914164 -0.404920 -0.018529
1.596804 0.412522 -0.606820 -0.914164 -0.404920 -0.018529
1.592513 0.390263 0.091192 -0.914156 -0.404939 -0.018536
1.596043 0.399706 -0.289204 -0.914156 -0.404939 -0.018536
1.598228 0.394774 -0.289204 -0.914156 -0.404939 -0.018536
1.594698 0.385331 0.091192 -0.914156 -0.404939 -0.018536
1.594698 0.385331 0.091192 -0.914164 -0.404921 -0.018536
1.598228 0.394774 -0.289204 -0.914164 -0.404921 -0.018536
1.600412 0.389843 -0.289204 -0.914164 -0.404921 -0.018536
1.596882 0.380399 0.091193 -0.914164 -0.404921 -0.018536
1.596043 0.399706 -0.289204 -0.914152 -0.404948 -0.018530
1.598989 0.407591 -0.606820 -0.914152 -0.404948 -0.018530
1.601173 0.402659 -0.606820 -0.914152 -0.404948 -0.018530
1.598228 0.394774 -0.289204 -0.914152 -0.404948 -0.018530
1.598228 0.394774 -0.289204 -0.914164 -0.404920 -0.018529
1.601173 0.402659 -0.606820 -0.914164 -0.404920 -0.018529
1.603358 0.397728 -0.606820 -0.914164 -0.404920 -0.018529
1.600412 0.389843 -0.289204 -0.914164 -0.404920 -0.018529
1.592513 0.390263 0.091192 -0.914160 -0.404929 -0.018538
1.594698 0.385331 0.091192 -0.914160 -0.404929 -0.018538
1.591169 0.375892 0.471413 -0.914160 -0.404929 -0.018538
1.588984 0.380823 0.471413 -0.914160 -0.404929 -0.018538
1.588984 0.380823 0.471413 -0.914168 -0.404911 -0.018535
1.591169 0.375892 0.471413 -0.914168 -0.404911 -0.018535
1.588226 0.368020 0.788502 -0.914168 -0.404911 -0.018535
1.586042 0.372951 0.788502 -0.914168 -0.404911 -0.018535
1.594698 0.385331 0.091192 -0.914160 -0.404930 -0.018538
1.596882 0.380399 0.091193 -0.914160 -0.404930 -0.018538
1.593353 0.370960 0.471413 -0.914160 -0.404930 -0.018538
1.591169 0.375892 0.471413 -0.914160 -0.404930 -0.018538
1.591169 0.375892 0.471413 -0.914165 -0.404918 -0.018535
1.593353 0.370960 0.471413 -0.914165 -0.404918 -0.018535
1.590411 0.363088 0.788502 -0.914165 -0.404918 -0.018535
1.588226 0.368020 0.788502 -0.914165 -0.404918 -0.018535
1.592513 0.390263 0.091192 -0.914169 -0.404909 -0.018538
1.588984 0.380823 0.471413 -0.914169 -0.404909 -0.018538
1.586800 0.385755 0.471412 -0.914169 -0.404909 -0.018538
1.590329 0.395194 0.091192 -0.914169 -0.404909 -0.018538
1.590329 0.395194 0.091192 -0.914173 -0.404901 -0.018538
1.586800 0.385755 0.471412 -0.914173 -0.404901 -0.018538
1.584615 0.390687 0.471413 -0.914173 -0.404901 -0.018538
1.588145 0.400126 0.091193 -0.914173 -0.404901 -0.018538
1.588984 0.380823 0.471413 -0.914156 -0.404938 -0.018535
1.586042 0.372951 0.788502 -0.914156 -0.404938 -0.018535
1.583858 0.377883 0.788502 -0.914156 -0.404938 -0.018535
1.586800 0.385755 0.471412 -0.914156 -0.404938 -0.018535
1.586800 0.385755 0.471412 -0.914168 -0.404913 -0.018535
1.583858 0.377883 0.788502 -0.914168 -0.404913 -0.018535
1.581673 0.382814 0.788502 -0.914168 -0.404913 -0.018535
1.584615 0.390687 0.471413 -0.914168 -0.404913 -0.018535
1.601659 0.414775 -0.896233 -0.914198 -0.404856 -0.018261
1.599543 0.419553 -0.896182 -0.914198 -0.404856 -0.018261
1.600056 0.419944 -0.930573 -0.914198 -0.404856 -0.018261
1.601969 0.415633 -0.930778 -0.914198 -0.404856 -0.018261
1.601969 0.415633 -0.930778 -0.914208 -0.404962 -0.015151
1.600056 0.419944 -0.930573 -0.914208 -0.404962 -0.015151
1.600346 0.419398 -0.933429 -0.914208 -0.404962 -0.015151
1.601986 0.415710 -0.933839 -0.914208 -0.404962 -0.015151
1.599543 0.419553 -0.896182 -0.914242 -0.404755 -0.018281
1.597426 0.424327 -0.896079 -0.914242 -0.404755 -0.018281
1.598143 0.424249 -0.930163 -0.914242 -0.404755 -0.018281
1.600056 0.419944 -0.930573 -0.914242 -0.404755 -0.018281
1.600056 0.419944 -0.930573 -0.914229 -0.404914 -0.015177
1.598143 0.424249 -0.930163 -0.914229 -0.404914 -0.015177
1.598974 0.422450 -0.932199 -0.914229 -0.404914 -0.015177
1.600346 0.419398 -0.933429 -0.914229 -0.404914 -0.015177
1.601659 0.414775 -0.896233 -0.914138 -0.404991 -0.018268
1.601969 0.415633 -0.930778 -0.914138 -0.404991 -0.018268
1.603880 0.411313 -0.930573 -0.914138 -0.404991 -0.018268
1.603776 0.409996 -0.896182 -0.914138 -0.404991 -0.018268
1.603776 0.409996 -0.896182 -0.914090 -0.405098 -0.018289
1.603880 0.411313 -0.930573 -0.914090 -0.405098 -0.018289
1.605789 0.406987 -0.930163 -0.914090 -0.405098 -0.018289
1.605892 0.405216 -0.896080 -0.914090 -0.405098 -0.018289
1.601969 0.415633 -0.930778 -0.914217 -0.404942 -0.015125
1.601986 0.415710 -0.933839 -0.914217 -0.404942 -0.015125
1.603622 0.412001 -0.933429 -0.914217 -0.404942 -0.015125
1.603880 0.411313 -0.930573 -0.914217 -0.404942 -0.015125
1.603880 0.411313 -0.930573 -0.914229 -0.404917 -0.015100
1.603622 0.412001 -0.933429 -0.914229 -0.404917 -0.015100
1.604980 0.408888 -0.932198 -0.914229 -0.404917 -0.015100
1.605789 0.406987 -0.930163 -0.914229 -0.404917 -0.015100
1.601659 0.414775 -0.896233 -0.914161 -0.404932 -0.018454
1.603776 0.409996 -0.896182 -0.914161 -0.404932 -0.018454
1.602948 0.407423 -0.798703 -0.914161 -0.404932 -0.018454
1.600763 0.412354 -0.798703 -0.914161 -0.404932 -0.018454
1.600763 0.412354 -0.798703 -0.914157 -0.404938 -0.018506
1.602948 0.407423 -0.798703 -0.914157 -0.404938 -0.018506
1.601173 0.402659 -0.606820 -0.914157 -0.404938 -0.018506
1.598989 0.407591 -0.606820 -0.914157 -0.404938 -0.018506
1.603776 0.409996 -0.896182 -0.914127 -0.405008 -0.018458
1.605892 0.405216 -0.896080 -0.914127 -0.405008 -0.018458
1.605132 0.402491 -0.798703 -0.914127 -0.405008 -0.018458
1.602948 0.407423 -0.798703 -0.914127 -0.405008 -0.018458
1.602948 0.407423 -0.798703 -0.914153 -0.404947 -0.018507
1.605132 0.402491 -0.798703 -0.914153 -0.404947 -0.018507
1.603358 0.397728 -0.606820 -0.914153 -0.404947 -0.018507
1.601173 0.402659 -0.606820 -0.914153 -0.404947 -0.018507
1.601659 0.414775 -0.896233 -0.914181 -0.404885 -0.018453
1.600763 0.412354 -0.798703 -0.914181 -0.404885 -0.018453
1.598579 0.417286 -0.798703 -0.914181 -0.404885 -0.018453
1.599543 0.419553 -0.896182 -0.914181 -0.404885 -0.018453
1.599543 0.419553 -0.896182 -0.914179 -0.404891 -0.018456
1.598579 0.417286 -0.798703 -0.914179 -0.404891 -0.018456
1.596394 0.422218 -0.798703 -0.914179 -0.404891 -0.018456
1.597426 0.424327 -0.896079 -0.914179 -0.404891 -0.018456
1.600763 0.412354 -0.798703 -0.914169 -0.404910 -0.018507
1.598989 0.407591 -0.606820 -0.914169 -0.404910 -0.018507
1.596804 0.412522 -0.606820 -0.914169 -0.404910 -0.018507
1.598579 0.417286 -0.798703 -0.914169 -0.404910 -0.018507
1.598579 0.417286 -0.798703 -0.914165 -0.404920 -0.018507
1.596804 0.412522 -0.606820 -0.914165 -0.404920 -0.018507
1.594620 0.417454 -0.606820 -0.914165 -0.404920 -0.018507
1.596394 0.422218 -0.798703 -0.914165 -0.404920 -0.018507
-1.590527 0.365813 1.075914 0.914169 -0.404911 -0.018494
-1.591417 0.368208 0.979504 0.914169 -0.404911 -0.018494
-1.589232 0.373140 0.979504 0.914169 -0.404911 -0.018494
-1.588411 0.370591 1.075884 0.914169 -0.404911 -0.018494
-1.588411 0.370591 1.075884 0.914157 -0.404938 -0.018495
-1.589232 0.373140 0.979504 0.914157 -0.404938 -0.018495
-1.587048 0.378071 0.979504 0.914157 -0.404938 -0.018495
-1.586296 0.375370 1.075826 0.914157 -0.404938 -0.018495
-1.591417 0.368208 0.979504 0.914160 -0.404930 -0.018524
-1.593186 0.372951 0.788502 0.914160 -0.404930 -0.018524
-1.591002 0.377883 0.788502 0.914160 -0.404930 -0.018524
-1.589232 0.373140 0.979504 0.914160 -0.404930 -0.018524
-1.589232 0.373140 0.979504 0.914164 -0.404921 -0.018524
-1.591002 0.377883 0.788502 0.914164 -0.404921 -0.018524
-1.588818 0.382814 0.788502 0.914164 -0.404921 -0.018524
-1.587048 0.378071 0.979504 0.914164 -0.404921 -0.018524
-1.590527 0.365813 1.075914 0.914161 -0.404933 -0.018395
-1.588411 0.370591 1.075884 0.914161 -0.404933 -0.018395
-1.588313 0.369303 1.109118 0.914161 -0.404933 -0.018395
-1.590224 0.364985 1.109235 0.914161 -0.404933 -0.018395
-1.590224 0.364985 1.109235 0.914216 -0.404923 -0.015705
-1.588313 0.369303 1.109118 0.914216 -0.404923 -0.015705
-1.588576 0.368645 1.110771 0.914216 -0.404923 -0.015705
-1.590213 0.364940 1.111005 0.914216 -0.404923 -0.015705
-1.588411 0.370591 1.075884 0.914128 -0.405007 -0.018412
-1.586296 0.375370 1.075826 0.914128 -0.405007 -0.018412
-1.586403 0.373624 1.108884 0.914128 -0.405007 -0.018412
-1.588313 0.369303 1.109118 0.914128 -0.405007 -0.018412
-1.588313 0.369303 1.109118 0.914228 -0.404902 -0.015532
-1.586403 0.373624 1.108884 0.914228 -0.404902 -0.015532
-1.587216 0.371745 1.110069 0.914228 -0.404902 -0.015532
-1.588576 0.368645 1.110771 0.914228 -0.404902 -0.015532
-1.590527 0.365813 1.075914 0.914180 -0.404891 -0.018394
-1.590224 0.364985 1.109235 0.914180 -0.404891 -0.018394
-1.592136 0.360673 1.109118 0.914180 -0.404891 -0.018394
-1.592643 0.361037 1.075884 0.914180 -0.404891 -0.018394
-1.592643 0.361037 1.075884 0.914204 -0.404836 -0.018404
-1.592136 0.360673 1.109118 0.914204 -0.404836 -0.018404
-1.594048 0.356364 1.108884 0.914204 -0.404836 -0.018404
-1.594759 0.356261 1.075826 0.914204 -0.404836 -0.018404
-1.590224 0.364985 1.109235 0.914189 -0.404988 -0.015580
-1.590213 0.364940 1.111005 0.914189 -0.404988 -0.015580
-1.591853 0.361247 1.110771 0.914189 -0.404988 -0.015580
-1.592136 0.360673 1.109118 0.914189 -0.404988 -0.015580
-1.592136 0.360673 1.109118 0.914207 -0.404951 -0.015470
-1.591853 0.361247 1.110771 0.914207 -0.404951 -0.015470
-1.593222 0.358183 1.110069 0.914207 -0.404951 -0.015470
-1.594048 0.356364 1.108884 0.914207 -0.404951 -0.015470
-1.590527 0.365813 1.075914 0.914157 -0.404939 -0.018497
-1.592643 0.361037 1.075884 0.914157 -0.404939 -0.018497
-1.593601 0.363277 0.979504 0.914157 -0.404939 -0.018497
-1.591417 0.368208 0.979504 0.914157 -0.404939 -0.018497
-1.591417 0.368208 0.979504 0.914155 -0.404942 -0.018524
-1.593601 0.363277 0.979504 0.914155 -0.404942 -0.018524
-1.595371 0.368020 0.788502 0.914155 -0.404942 -0.018524
-1.593186 0.372951 0.788502 0.914155 -0.404942 -0.018524
-1.592643 0.361037 1.075884 0.914181 -0.404884 -0.018498
-1.594759 0.356261 1.075826 0.914181 -0.404884 -0.018498
-1.595786 0.358345 0.979504 0.914181 -0.404884 -0.018498
-1.593601 0.363277 0.979504 0.914181 -0.404884 -0.018498
-1.593601 0.363277 0.979504 0.914169 -0.404909 -0.018523
-1.595786 0.358345 0.979504 0.914169 -0.404909 -0.018523
-1.597555 0.363088 0.788502 0.914169 -0.404909 -0.018523
-1.595371 0.368020 0.788502 0.914169 -0.404909 -0.018523
-1.599658 0.390263 0.091193 0.914159 -0.404931 -0.018536
-1.603188 0.399706 -0.289204 0.914159 -0.404931 -0.018536
-1.601004 0.404638 -0.289204 0.914159 -0.404931 -0.018536
-1.597474 0.395194 0.091193 0.914159 -0.404931 -0.018536
-1.597474 0.395194 0.091193 0.914160 -0.404929 -0.018536
-1.601004 0.404638 -0.289204 0.914160 -0.404929 -0.018536
-1.598819 0.409569 -0.289204 0.914160 -0.404929 -0.018536
-1.595289 0.400126 0.091193 0.914160 -0.404929 -0.018536
-1.603188 0.399706 -0.289204 0.914164 -0.404921 -0.018529
-1.606133 0.407591 -0.606820 0.914164 -0.404921 -0.018529
-1.603949 0.412522 -0.606820 0.914164 -0.404921 -0.018529
-1.601004 0.404638 -0.289204 0.914164 -0.404921 -0.018529
-1.601004 0.404638 -0.289204 0.914152 -0.404948 -0.018530
-1.603949 0.412522 -0.606820 0.914152 -0.404948 -0.018530
-1.601764 0.417454 -0.606820 0.914152 -0.404948 -0.018530
-1.598819 0.409569 -0.289204 0.914152 -0.404948 -0.018530
-1.599658 0.390263 0.091193 0.914156 -0.404940 -0.018538
-1.597474 0.395194 0.091193 0.914156 -0.404940 -0.018538
-1.593944 0.385755 0.471413 0.914156 -0.404940 -0.018538
-1.596129 0.380823 0.471413 0.914156 -0.404940 -0.018538
-1.596129 0.380823 0.471413 0.914156 -0.404939 -0.018536
-1.593944 0.385755 0.471413 0.914156 -0.404939 -0.018536
-1.591002 0.377883 0.788502 0.914156 -0.404939 -0.018536
-1.593186 0.372951 0.788502 0.914156 -0.404939 -0.018536
-1.597474 0.395194 0.091193 0.914164 -0.404920 -0.018538
-1.595289 0.400126 0.091193 0.914164 -0.404920 -0.018538
-1.591760 0.390686 0.471413 0.914164 -0.404920 -0.018538
-1.593944 0.385755 0.471413 0.914164 -0.404920 -0.018538
-1.593944 0.385755 0.471413 0.914164 -0.404921 -0.018535
-1.591760 0.390686 0.471413 0.914164 -0.404921 -0.018535
-1.588818 0.382814 0.788502 0.914164 -0.404921 -0.018535
-1.591002 0.377883 0.788502 0.914164 -0.404921 -0.018535
-1.599658 0.390263 0.091193 0.914168 -0.404912 -0.018537
-1.596129 0.380823 0.471413 0.914168 -0.404912 -0.018537
-1.598313 0.375892 0.471413 0.914168 -0.404912 -0.018537
-1.601842 0.385331 0.091193 0.914168 -0.404912 -0.018537
-1.601842 0.385331 0.091193 0.914165 -0.404918 -0.018537
-1.598313 0.375892 0.471413 0.914165 -0.404918 -0.018537
-1.600497 0.370960 0.471413 0.914165 -0.404918 -0.018537
-1.604027 0.380399 0.091193 0.914165 -0.404918 -0.018537
-1.596129 0.380823 0.471413 0.914158 -0.404933 -0.018536
-1.593186 0.372951 0.788502 0.914158 -0.404933 -0.018536
-1.595371 0.368020 0.788502 0.914158 -0.404933 -0.018536
-1.598313 0.375892 0.471413 0.914158 -0.404933 -0.018536
-1.598313 0.375892 0.471413 0.914170 -0.404907 -0.018535
-1.595371 0.368020 0.788502 0.914170 -0.404907 -0.018535
-1.597555 0.363088 0.788502 0.914170 -0.404907 -0.018535
-1.600497 0.370960 0.471413 0.914170 -0.404907 -0.018535
-1.599658 0.390263 0.091193 0.914177 -0.404891 -0.018535
-1.601842 0.385331 0.091193 0.914177 -0.404891 -0.018535
-1.605372 0.394774 -0.289204 0.914177 -0.404891 -0.018535
-1.603188 0.399706 -0.289204 0.914177 -0.404891 -0.018535
-1.603188 0.399706 -0.289204 0.914169 -0.404910 -0.018529
-1.605372 0.394774 -0.289204 0.914169 -0.404910 -0.018529
-1.608318 0.402659 -0.606820 0.914169 -0.404910 -0.018529
-1.606133 0.407591 -0.606820 0.914169 -0.404910 -0.018529
-1.601842 0.385331 0.091193 0.914156 -0.404939 -0.018536
-1.604027 0.380399 0.091193 0.914156 -0.404939 -0.018536
-1.607557 0.389843 -0.289204 0.914156 -0.404939 -0.018536
-1.605372 0.394774 -0.289204 0.914156 -0.404939 -0.018536
-1.605372 0.394774 -0.289204 0.914160 -0.404929 -0.018530
-1.607557 0.389843 -0.289204 0.914160 -0.404929 -0.018530
-1.610502 0.397728 -0.606820 0.914160 -0.404929 -0.018530
-1.608318 0.402659 -0.606820 0.914160 -0.404929 -0.018530
-1.608804 0.414775 -0.896233 0.914198 -0.404857 -0.018264
-1.609114 0.415633 -0.930778 0.914198 -0.404857 -0.018264
-1.607201 0.419944 -0.930573 0.914198 -0.404857 -0.018264
-1.606687 0.419552 -0.896182 0.914198 -0.404857 -0.018264
-1.606687 0.419552 -0.896182 0.914233 -0.404775 -0.018284
-1.607201 0.419944 -0.930573 0.914233 -0.404775 -0.018284
-1.605287 0.424249 -0.930163 0.914233 -0.404775 -0.018284
-1.604571 0.424327 -0.896079 0.914233 -0.404775 -0.018284
-1.609114 0.415633 -0.930778 0.914218 -0.404941 -0.015117
-1.609131 0.415710 -0.933839 0.914218 -0.404941 -0.015117
-1.607490 0.419398 -0.933429 0.914218 -0.404941 -0.015117
-1.607201 0.419944 -0.930573 0.914218 -0.404941 -0.015117
-1.607201 0.419944 -0.930573 0.914222 -0.404928 -0.015190
-1.607490 0.419398 -0.933429 0.914222 -0.404928 -0.015190
-1.606118 0.422450 -0.932198 0.914222 -0.404928 -0.015190
-1.605287 0.424249 -0.930163 0.914222 -0.404928 -0.015190
-1.608804 0.414775 -0.896233 0.914172 -0.404906 -0.018453
-1.606687 0.419552 -0.896182 0.914172 -0.404906 -0.018453
-1.605723 0.417286 -0.798703 0.914172 -0.404906 -0.018453
-1.607908 0.412354 -0.798703 0.914172 -0.404906 -0.018453
-1.607908 0.412354 -0.798703 0.914169 -0.404910 -0.018505
-1.605723 0.417286 -0.798703 0.914169 -0.404910 -0.018505
-1.603949 0.412522 -0.606820 0.914169 -0.404910 -0.018505
-1.606133 0.407591 -0.606820 0.914169 -0.404910 -0.018505
-1.606687 0.419552 -0.896182 0.914184 -0.404880 -0.018455
-1.604571 0.424327 -0.896079 0.914184 -0.404880 -0.018455
-1.603539 0.422218 -0.798703 0.914184 -0.404880 -0.018455
-1.605723 0.417286 -0.798703 0.914184 -0.404880 -0.018455
-1.605723 0.417286 -0.798703 0.914156 -0.404939 -0.018507
-1.603539 0.422218 -0.798703 0.914156 -0.404939 -0.018507
-1.601764 0.417454 -0.606820 0.914156 -0.404939 -0.018507
-1.603949 0.412522 -0.606820 0.914156 -0.404939 -0.018507
-1.608804 0.414775 -0.896233 0.914152 -0.404950 -0.018455
-1.607908 0.412354 -0.798703 0.914152 -0.404950 -0.018455
-1.610092 0.407423 -0.798703 0.914152 -0.404950 -0.018455
-1.610920 0.409996 -0.896182 0.914152 -0.404950 -0.018455
-1.610920 0.409996 -0.896182 0.914155 -0.404945 -0.018457
-1.610092 0.407423 -0.798703 0.914155 -0.404945 -0.018457
-1.612277 0.402491 -0.798703 0.914155 -0.404945 -0.018457
-1.613036 0.405216 -0.896079 0.914155 -0.404945 -0.018457
-1.607908 0.412354 -0.798703 0.914161 -0.404930 -0.018506
-1.606133 0.407591 -0.606820 0.914161 -0.404930 -0.018506
-1.608318 0.402659 -0.606820 0.914161 -0.404930 -0.018506
-1.610092 0.407423 -0.798703 0.914161 -0.404930 -0.018506
-1.610092 0.407423 -0.798703 0.914165 -0.404920 -0.018506
-1.608318 0.402659 -0.606820 0.914165 -0.404920 -0.018506
-1.610502 0.397728 -0.606820 0.914165 -0.404920 -0.018506
-1.612277 0.402491 -0.798703 0.914165 -0.404920 -0.018506
-1.608804 0.414775 -0.896233 0.914135 -0.404999 -0.018263
-1.610920 0.409996 -0.896182 0.914135 -0.404999 -0.018263
-1.611024 0.411313 -0.930573 0.914135 -0.404999 -0.018263
-1.609114 0.415633 -0.930778 0.914135 -0.404999 -0.018263
-1.609114 0.415633 -0.930778 0.914218 -0.404940 -0.015126
-1.611024 0.411313 -0.930573 0.914218 -0.404940 -0.015126
-1.610767 0.412001 -0.933429 0.914218 -0.404940 -0.015126
-1.609131 0.415710 -0.933839 0.914218 -0.404940 -0.015126
-1.610920 0.409996 -0.896182 0.914107 -0.405061 -0.018287
-1.613036 0.405216 -0.896079 0.914107 -0.405061 -0.018287
-1.612933 0.406987 -0.930163 0.914107 -0.405061 -0.018287
-1.611024 0.411313 -0.930573 0.914107 -0.405061 -0.018287
-1.611024 0.411313 -0.930573 0.914228 -0.404920 -0.015103
-1.612933 0.406987 -0.930163 0.914228 -0.404920 -0.015103
-1.612125 0.408888 -0.932198 0.914228 -0.404920 -0.015103
-1.610767 0.412001 -0.933429 0.914228 -0.404920 -0.015103
1.592524 0.369863 1.076098 0.914166 0.404918 0.018496
1.593414 0.372257 0.979689 0.914166 0.404918 0.018496
1.591230 0.377189 0.979689 0.914166 0.404918 0.018496
1.590408 0.374641 1.076069 0.914166 0.404918 0.018496
1.593414 0.372257 0.979689 0.914165 0.404919 0.018524
1.595184 0.377000 0.788687 0.914165 0.404919 0.018524
1.592999 0.381932 0.788687 0.914165 0.404919 0.018524
1.591230 0.377189 0.979689 0.914165 0.404919 0.018524
1.590408 0.374641 1.076069 0.914152 0.404949 0.018498
1.591230 0.377189 0.979689 0.914152 0.404949 0.018498
1.589045 0.382121 0.979689 0.914152 0.404949 0.018498
1.588292 0.379420 1.076010 0.914152 0.404949 0.018498
1.591230 0.377189 0.979689 0.914159 0.404931 0.018524
1.592999 0.381932 0.788687 0.914159 0.404931 0.018524
1.590815 0.386863 0.788687 0.914159 0.404931 0.018524
1.589045 0.382121 0.979689 0.914159 0.404931 0.018524
1.592524 0.369863 1.076098 0.914167 0.404915 0.018495
1.594640 0.365086 1.076069 0.914167 0.404915 0.018495
1.595598 0.367326 0.979689 0.914167 0.404915 0.018495
1.593414 0.372257 0.979689 0.914167 0.404915 0.018495
1.594640 0.365086 1.076069 0.914176 0.404895 0.018497
1.596757 0.360310 1.076010 0.914176 0.404895 0.018497
1.597783 0.362394 0.979689 0.914176 0.404895 0.018497
1.595598 0.367326 0.979689 0.914176 0.404895 0.018497
1.593414 0.372257 0.979689 0.914168 0.404911 0.018524
1.595598 0.367326 0.979689 0.914168 0.404911 0.018524
1.597368 0.372069 0.788687 0.914168 0.404911 0.018524
1.595184 0.377000 0.788687 0.914168 0.404911 0.018524
1.595598 0.367326 0.979689 0.914165 0.404919 0.018524
1.597783 0.362394 0.979689 0.914165 0.404919 0.018524
1.599552 0.367137 0.788687 0.914165 0.404919 0.018524
1.597368 0.372069 0.788687 0.914165 0.404919 0.018524
1.592524 0.369863 1.076098 0.914187 0.404875 0.018396
1.592221 0.369034 1.109405 0.914187 0.404875 0.018396
1.594133 0.364722 1.109288 0.914187 0.404875 0.018396
1.594640 0.365086 1.076069 0.914187 0.404875 0.018396
1.592221 0.369034 1.109405 0.914210 0.404940 0.015584
1.592211 0.368989 1.111161 0.914210 0.404940 0.015584
1.593851 0.365296 1.110927 0.914210 0.404940 0.015584
1.594133 0.364722 1.109288 0.914210 0.404940 0.015584
1.594640 0.365086 1.076069 0.914203 0.404839 0.018408
1.594133 0.364722 1.109288 0.914203 0.404839 0.018408
1.596046 0.360413 1.109054 0.914203 0.404839 0.018408
1.596757 0.360310 1.076010 0.914203 0.404839 0.018408
1.594133 0.364722 1.109288 0.914210 0.404942 0.015548
1.593851 0.365296 1.110927 0.914210 0.404942 0.015548
1.595220 0.362232 1.110224 0.914210 0.404942 0.015548
1.596046 0.360413 1.109054 0.914210 0.404942 0.015548
1.592524 0.369863 1.076098 0.914150 0.404958 0.018396
1.590408 0.374641 1.076069 0.914150 0.404958 0.018396
1.590310 0.373352 1.109288 0.914150 0.404958 0.018396
1.592221 0.369034 1.109405 0.914150 0.404958 0.018396
1.590408 0.374641 1.076069 0.914128 0.405007 0.018411
1.588292 0.379420 1.076010 0.914128 0.405007 0.018411
1.588400 0.377674 1.109054 0.914128 0.405007 0.018411
1.590310 0.373352 1.109288 0.914128 0.405007 0.018411
1.592221 0.369034 1.109405 0.914214 0.404930 0.015614
1.590310 0.373352 1.109288 0.914214 0.404930 0.015614
1.590574 0.372694 1.110927 0.914214 0.404930 0.015614
1.592211 0.368989 1.111161 0.914214 0.404930 0.015614
1.590310 0.373352 1.109288 0.914211 0.404940 0.015549
1.588400 0.377674 1.109054 0.914211 0.404940 0.015549
1.589213 0.375794 1.110224 0.914211 0.404940 0.015549
1.590574 0.372694 1.110927 0.914211 0.404940 0.015549
1.601655 0.394312 0.091378 0.914164 0.404920 0.018536
1.605185 0.403755 -0.289018 0.914164 0.404920 0.018536
1.603001 0.408687 -0.289018 0.914164 0.404920 0.018536
1.599470 0.399243 0.091378 0.914164 0.404920 0.018536
1.605185 0.403755 -0.289018 0.914164 0.404920 0.018529
1.608130 0.411640 -0.606635 0.914164 0.404920 0.018529
1.605946 0.416571 -0.606635 0.914164 0.404920 0.018529
1.603001 0.408687 -0.289018 0.914164 0.404920 0.018529
1.599470 0.399243 0.091378 0.914168 0.404911 0.018535
1.603001 0.408687 -0.289018 0.914168 0.404911 0.018535
1.600816 0.413618 -0.289018 0.914168 0.404911 0.018535
1.597286 0.404175 0.091378 0.914168 0.404911 0.018535
1.603761 0.421503 -0.606635 0.914164 0.404920 0.018529
1.600816 0.413618 -0.289018 0.914164 0.404920 0.018529
1.601655 0.394312 0.091378 0.914156 0.404939 0.018536
1.603839 0.389380 0.091378 0.914156 0.404939 0.018536
1.607370 0.398824 -0.289018 0.914156 0.404939 0.018536
1.605185 0.403755 -0.289018 0.914156 0.404939 0.018536
1.603839 0.389380 0.091378 0.914164 0.404921 0.018536
1.606024 0.384449 0.091378 0.914164 0.404921 0.018536
1.609554 0.393892 -0.289018 0.914164 0.404921 0.018536
1.607370 0.398824 -0.289018 0.914164 0.404921 0.018536
1.605185 0.403755 -0.289018 0.914152 0.404948 0.018530
1.607370 0.398824 -0.289018 0.914152 0.404948 0.018530
1.610315 0.406708 -0.606635 0.914152 0.404948 0.018530
1.608130 0.411640 -0.606635 0.914152 0.404948 0.018530
1.607370 0.398824 -0.289018 0.914164 0.404920 0.018529
1.609554 0.393892 -0.289018 0.914164 0.404920 0.018529
1.612499 0.401777 -0.606635 0.914164 0.404920 0.018529
1.610315 0.406708 -0.606635 0.914164 0.404920 0.018529
1.601655 0.394312 0.091378 0.914160 0.404929 0.018538
1.598126 0.384872 0.471598 0.914160 0.404929 0.018538
1.600310 0.379941 0.471598 0.914160 0.404929 0.018538
1.603839 0.389380 0.091378 0.914160 0.404929 0.018538
1.598126 0.384872 0.471598 0.914168 0.404911 0.018535
1.595184 0.377000 0.788687 0.914168 0.404911 0.018535
1.597368 0.372069 0.788687 0.914168 0.404911 0.018535
1.600310 0.379941 0.471598 0.914168 0.404911 0.018535
1.603839 0.389380 0.091378 0.914160 0.404930 0.018538
1.600310 0.379941 0.471598 0.914160 0.404930 0.018538
1.602495 0.375009 0.471598 0.914160 0.404930 0.018538
1.606024 0.384449 0.091378 0.914160 0.404930 0.018538
1.600310 0.379941 0.471598 0.914160 0.404928 0.018536
1.597368 0.372069 0.788687 0.914160 0.404928 0.018536
1.599552 0.367137 0.788687 0.914160 0.404928 0.018536
1.602495 0.375009 0.471598 0.914160 0.404928 0.018536
1.601655 0.394312 0.091378 0.914164 0.404920 0.018538
1.599470 0.399243 0.091378 0.914164 0.404920 0.018538
1.595941 0.389804 0.471598 0.914164 0.404920 0.018538
1.598126 0.384872 0.471598 0.914164 0.404920 0.018538
1.599470 0.399243 0.091378 0.914168 0.404911 0.018538
1.597286 0.404175 0.091378 0.914168 0.404911 0.018538
1.593757 0.394736 0.471598 0.914168 0.404911 0.018538
1.595941 0.389804 0.471598 0.914168 0.404911 0.018538
1.598126 0.384872 0.471598 0.914161 0.404928 0.018535
1.595941 0.389804 0.471598 0.914161 0.404928 0.018535
1.592999 0.381932 0.788687 0.914161 0.404928 0.018535
1.595184 0.377000 0.788687 0.914161 0.404928 0.018535
1.595941 0.389804 0.471598 0.914163 0.404923 0.018535
1.593757 0.394736 0.471598 0.914163 0.404923 0.018535
1.590815 0.386863 0.788687 0.914163 0.404923 0.018535
1.592999 0.381932 0.788687 0.914163 0.404923 0.018535
1.610801 0.418825 -0.896049 0.914196 0.404861 0.018262
1.611111 0.419683 -0.930611 0.914196 0.404861 0.018262
1.609199 0.423993 -0.930406 0.914196 0.404861 0.018262
1.608685 0.423601 -0.895998 0.914196 0.404861 0.018262
1.611111 0.419683 -0.930611 0.914212 0.404951 0.015169
1.611128 0.419759 -0.933688 0.914212 0.404951 0.015169
1.609488 0.423447 -0.933278 0.914212 0.404951 0.015169
1.609199 0.423993 -0.930406 0.914212 0.404951 0.015169
1.608685 0.423601 -0.895998 0.914237 0.404766 0.018284
1.609199 0.423993 -0.930406 0.914237 0.404766 0.018284
1.607285 0.428298 -0.929996 0.914237 0.404766 0.018284
1.606568 0.428376 -0.895896 0.914237 0.404766 0.018284
1.609199 0.423993 -0.930406 0.914224 0.404924 0.015198
1.609488 0.423447 -0.933278 0.914224 0.404924 0.015198
1.608116 0.426499 -0.932047 0.914224 0.404924 0.015198
1.607285 0.428298 -0.929996 0.914224 0.404924 0.015198
1.610801 0.418825 -0.896049 0.914140 0.404987 0.018267
1.612917 0.414046 -0.895998 0.914140 0.404987 0.018267
1.613021 0.415362 -0.930406 0.914140 0.404987 0.018267
1.611111 0.419683 -0.930611 0.914140 0.404987 0.018267
1.612917 0.414046 -0.895998 0.914098 0.405080 0.018292
1.615032 0.409266 -0.895896 0.914098 0.405080 0.018292
1.614930 0.411037 -0.929996 0.914098 0.405080 0.018292
1.613021 0.415362 -0.930406 0.914098 0.405080 0.018292
1.611111 0.419683 -0.930611 0.914215 0.404947 0.015150
1.613021 0.415362 -0.930406 0.914215 0.404947 0.015150
1.612764 0.416050 -0.933278 0.914215 0.404947 0.015150
1.611128 0.419759 -0.933688 0.914215 0.404947 0.015150
1.613021 0.415362 -0.930406 0.914226 0.404922 0.015124
1.614930 0.411037 -0.929996 0.914226 0.404922 0.015124
1.614123 0.412937 -0.932047 0.914226 0.404922 0.015124
1.612764 0.416050 -0.933278 0.914226 0.404922 0.015124
1.610801 0.418825 -0.896049 0.914164 0.404925 0.018453
1.609905 0.416403 -0.798518 0.914164 0.404925 0.018453
1.612089 0.411472 -0.798518 0.914164 0.404925 0.018453
1.612917 0.414046 -0.895998 0.914164 0.404925 0.018453
1.609905 0.416403 -0.798518 0.914157 0.404938 0.018506
1.608130 0.411640 -0.606635 0.914157 0.404938 0.018506
1.610315 0.406708 -0.606635 0.914157 0.404938 0.018506
1.612089 0.411472 -0.798518 0.914157 0.404938 0.018506
1.612917 0.414046 -0.895998 0.914142 0.404974 0.018456
1.612089 0.411472 -0.798518 0.914142 0.404974 0.018456
1.614274 0.406540 -0.798518 0.914142 0.404974 0.018456
1.615032 0.409266 -0.895896 0.914142 0.404974 0.018456
1.612089 0.411472 -0.798518 0.914160 0.404931 0.018506
1.610315 0.406708 -0.606635 0.914160 0.404931 0.018506
1.612499 0.401777 -0.606635 0.914160 0.404931 0.018506
1.614274 0.406540 -0.798518 0.914160 0.404931 0.018506
1.610801 0.418825 -0.896049 0.914171 0.404908 0.018453
1.608685 0.423601 -0.895998 0.914171 0.404908 0.018453
1.607720 0.421335 -0.798518 0.914171 0.404908 0.018453
1.609905 0.416403 -0.798518 0.914171 0.404908 0.018453
1.608685 0.423601 -0.895998 0.914179 0.404891 0.018455
1.606568 0.428376 -0.895896 0.914179 0.404891 0.018455
1.605536 0.426267 -0.798518 0.914179 0.404891 0.018455
1.607720 0.421335 -0.798518 0.914179 0.404891 0.018455
1.609905 0.416403 -0.798518 0.914165 0.404920 0.018506
1.607720 0.421335 -0.798518 0.914165 0.404920 0.018506
1.605946 0.416571 -0.606635 0.914165 0.404920 0.018506
1.608130 0.411640 -0.606635 0.914165 0.404920 0.018506
1.605536 0.426267 -0.798518 0.914165 0.404920 0.018506
1.603761 0.421503 -0.606635 0.914165 0.404920 0.018506
-1.599669 0.369863 1.076098 -0.914162 0.404928 0.018496
-1.597553 0.374641 1.076069 -0.914162 0.404928 0.018496
-1.598374 0.377189 0.979689 -0.914162 0.404928 0.018496
-1.600558 0.372257 0.979689 -0.914162 0.404928 0.018496
-1.597553 0.374641 1.076069 -0.914157 0.404938 0.018497
-1.595437 0.379420 1.076010 -0.914157 0.404938 0.018497
-1.596190 0.382121 0.979689 -0.914157 0.404938 0.018497
-1.598374 0.377189 0.979689 -0.914157 0.404938 0.018497
-1.600558 0.372257 0.979689 -0.914160 0.404930 0.018524
-1.598374 0.377189 0.979689 -0.914160 0.404930 0.018524
-1.600144 0.381932 0.788687 -0.914160 0.404930 0.018524
-1.602328 0.377000 0.788687 -0.914160 0.404930 0.018524
-1.598374 0.377189 0.979689 -0.914164 0.404921 0.018524
-1.596190 0.382121 0.979689 -0.914164 0.404921 0.018524
-1.597959 0.386863 0.788687 -0.914164 0.404921 0.018524
-1.600144 0.381932 0.788687 -0.914164 0.404921 0.018524
-1.599669 0.369863 1.076098 -0.914150 0.404958 0.018396
-1.599365 0.369034 1.109405 -0.914150 0.404958 0.018396
-1.597455 0.373352 1.109288 -0.914150 0.404958 0.018396
-1.597553 0.374641 1.076069 -0.914150 0.404958 0.018396
-1.599365 0.369034 1.109405 -0.914215 0.404929 0.015617
-1.599355 0.368989 1.111161 -0.914215 0.404929 0.015617
-1.597719 0.372694 1.110927 -0.914215 0.404929 0.015617
-1.597455 0.373352 1.109288 -0.914215 0.404929 0.015617
-1.597553 0.374641 1.076069 -0.914128 0.405007 0.018410
-1.597455 0.373352 1.109288 -0.914128 0.405007 0.018410
-1.595545 0.377674 1.109054 -0.914128 0.405007 0.018410
-1.595437 0.379420 1.076010 -0.914128 0.405007 0.018410
-1.597455 0.373352 1.109288 -0.914210 0.404941 0.015554
-1.597719 0.372694 1.110927 -0.914210 0.404941 0.015554
-1.596357 0.375794 1.110224 -0.914210 0.404941 0.015554
-1.595545 0.377674 1.109054 -0.914210 0.404941 0.015554
-1.599669 0.369863 1.076098 -0.914186 0.404878 0.018397
-1.601785 0.365086 1.076069 -0.914186 0.404878 0.018397
-1.601277 0.364722 1.109288 -0.914186 0.404878 0.018397
-1.599365 0.369034 1.109405 -0.914186 0.404878 0.018397
-1.601785 0.365086 1.076069 -0.914204 0.404836 0.018408
-1.603901 0.360310 1.076010 -0.914204 0.404836 0.018408
-1.603190 0.360413 1.109054 -0.914204 0.404836 0.018408
-1.601277 0.364722 1.109288 -0.914204 0.404836 0.018408
-1.599365 0.369034 1.109405 -0.914210 0.404941 0.015584
-1.601277 0.364722 1.109288 -0.914210 0.404941 0.015584
-1.600995 0.365296 1.110927 -0.914210 0.404941 0.015584
-1.599355 0.368989 1.111161 -0.914210 0.404941 0.015584
-1.601277 0.364722 1.109288 -0.914210 0.404942 0.015549
-1.603190 0.360413 1.109054 -0.914210 0.404942 0.015549
-1.602364 0.362232 1.110224 -0.914210 0.404942 0.015549
-1.600995 0.365296 1.110927 -0.914210 0.404942 0.015549
-1.599669 0.369863 1.076098 -0.914162 0.404926 0.018496
-1.600558 0.372257 0.979689 -0.914162 0.404926 0.018496
-1.602743 0.367326 0.979689 -0.914162 0.404926 0.018496
-1.601785 0.365086 1.076069 -0.914162 0.404926 0.018496
-1.600558 0.372257 0.979689 -0.914164 0.404921 0.018524
-1.602328 0.377000 0.788687 -0.914164 0.404921 0.018524
-1.604512 0.372069 0.788687 -0.914164 0.404921 0.018524
-1.602743 0.367326 0.979689 -0.914164 0.404921 0.018524
-1.601785 0.365086 1.076069 -0.914181 0.404884 0.018497
-1.602743 0.367326 0.979689 -0.914181 0.404884 0.018497
-1.604927 0.362394 0.979689 -0.914181 0.404884 0.018497
-1.603901 0.360310 1.076010 -0.914181 0.404884 0.018497
-1.602743 0.367326 0.979689 -0.914169 0.404909 0.018523
-1.604512 0.372069 0.788687 -0.914169 0.404909 0.018523
-1.606697 0.367137 0.788687 -0.914169 0.404909 0.018523
-1.604927 0.362394 0.979689 -0.914169 0.404909 0.018523
-1.608799 0.394312 0.091378 -0.914168 0.404911 0.018535
-1.606615 0.399243 0.091378 -0.914168 0.404911 0.018535
-1.610145 0.408687 -0.289018 -0.914168 0.404911 0.018535
-1.612329 0.403755 -0.289018 -0.914168 0.404911 0.018535
-1.606615 0.399243 0.091378 -0.914160 0.404929 0.018536
-1.604431 0.404175 0.091378 -0.914160 0.404929 0.018536
-1.607961 0.413618 -0.289018 -0.914160 0.404929 0.018536
-1.610145 0.408687 -0.289018 -0.914160 0.404929 0.018536
-1.612329 0.403755 -0.289018 -0.914168 0.404911 0.018529
-1.610145 0.408687 -0.289018 -0.914168 0.404911 0.018529
-1.613091 0.416571 -0.606635 -0.914168 0.404911 0.018529
-1.615275 0.411640 -0.606635 -0.914168 0.404911 0.018529
-1.610145 0.408687 -0.289018 -0.914152 0.404948 0.018530
-1.607961 0.413618 -0.289018 -0.914152 0.404948 0.018530
-1.610906 0.421503 -0.606635 -0.914152 0.404948 0.018530
-1.613091 0.416571 -0.606635 -0.914152 0.404948 0.018530
-1.608799 0.394312 0.091378 -0.914160 0.404929 0.018538
-1.605270 0.384872 0.471598 -0.914160 0.404929 0.018538
-1.603086 0.389804 0.471598 -0.914160 0.404929 0.018538
-1.606615 0.399243 0.091378 -0.914160 0.404929 0.018538
-1.605270 0.384872 0.471598 -0.914156 0.404939 0.018536
-1.602328 0.377000 0.788687 -0.914156 0.404939 0.018536
-1.600144 0.381932 0.788687 -0.914156 0.404939 0.018536
-1.603086 0.389804 0.471598 -0.914156 0.404939 0.018536
-1.606615 0.399243 0.091378 -0.914164 0.404920 0.018538
-1.603086 0.389804 0.471598 -0.914164 0.404920 0.018538
-1.600901 0.394736 0.471598 -0.914164 0.404920 0.018538
-1.604431 0.404175 0.091378 -0.914164 0.404920 0.018538
-1.603086 0.389804 0.471598 -0.914164 0.404921 0.018535
-1.600144 0.381932 0.788687 -0.914164 0.404921 0.018535
-1.597959 0.386863 0.788687 -0.914164 0.404921 0.018535
-1.600901 0.394736 0.471598 -0.914164 0.404921 0.018535
-1.608799 0.394312 0.091378 -0.914168 0.404912 0.018537
-1.610984 0.389380 0.091378 -0.914168 0.404912 0.018537
-1.607455 0.379941 0.471598 -0.914168 0.404912 0.018537
-1.605270 0.384872 0.471598 -0.914168 0.404912 0.018537
-1.610984 0.389380 0.091378 -0.914160 0.404928 0.018538
-1.613168 0.384449 0.091378 -0.914160 0.404928 0.018538
-1.609639 0.375009 0.471598 -0.914160 0.404928 0.018538
-1.607455 0.379941 0.471598 -0.914160 0.404928 0.018538
-1.605270 0.384872 0.471598 -0.914167 0.404913 0.018535
-1.607455 0.379941 0.471598 -0.914167 0.404913 0.018535
-1.604512 0.372069 0.788687 -0.914167 0.404913 0.018535
-1.602328 0.377000 0.788687 -0.914167 0.404913 0.018535
-1.607455 0.379941 0.471598 -0.914165 0.404917 0.018536
-1.609639 0.375009 0.471598 -0.914165 0.404917 0.018536
-1.606697 0.367137 0.788687 -0.914165 0.404917 0.018536
-1.604512 0.372069 0.788687 -0.914165 0.404917 0.018536
-1.614514 0.398824 -0.289018 -0.914168 0.404911 0.018535
-1.610984 0.389380 0.091378 -0.914168 0.404911 0.018535
-1.612329 0.403755 -0.289018 -0.914164 0.404920 0.018530
-1.615275 0.411640 -0.606635 -0.914164 0.404920 0.018530
-1.617459 0.406708 -0.606635 -0.914164 0.404920 0.018530
-1.614514 0.398824 -0.289018 -0.914164 0.404920 0.018530
-1.610984 0.389380 0.091378 -0.914156 0.404939 0.018536
-1.614514 0.398824 -0.289018 -0.914156 0.404939 0.018536
-1.616698 0.393892 -0.289018 -0.914156 0.404939 0.018536
-1.613168 0.384449 0.091378 -0.914156 0.404939 0.018536
-1.614514 0.398824 -0.289018 -0.914160 0.404930 0.018530
-1.617459 0.406708 -0.606635 -0.914160 0.404930 0.018530
-1.619644 0.401777 -0.606635 -0.914160 0.404930 0.018530
-1.616698 0.393892 -0.289018 -0.914160 0.404930 0.018530
-1.617946 0.418825 -0.896049 -0.914200 0.404852 0.018263
-1.615829 0.423601 -0.895998 -0.914200 0.404852 0.018263
-1.616343 0.423993 -0.930406 -0.914200 0.404852 0.018263
-1.618256 0.419683 -0.930611 -0.914200 0.404852 0.018263
-1.615829 0.423601 -0.895998 -0.914229 0.404786 0.018287
-1.613712 0.428376 -0.895896 -0.914229 0.404786 0.018287
-1.614429 0.428298 -0.929996 -0.914229 0.404786 0.018287
-1.616343 0.423993 -0.930406 -0.914229 0.404786 0.018287
-1.618256 0.419683 -0.930611 -0.914222 0.404931 0.015134
-1.616343 0.423993 -0.930406 -0.914222 0.404931 0.015134
-1.616632 0.423447 -0.933278 -0.914222 0.404931 0.015134
-1.618273 0.419759 -0.933688 -0.914222 0.404931 0.015134
-1.616343 0.423993 -0.930406 -0.914209 0.404961 0.015133
-1.614429 0.428298 -0.929996 -0.914209 0.404961 0.015133
-1.615260 0.426499 -0.932047 -0.914209 0.404961 0.015133
-1.616632 0.423447 -0.933278 -0.914209 0.404961 0.015133
-1.617946 0.418825 -0.896049 -0.914167 0.404918 0.018454
-1.617049 0.416403 -0.798518 -0.914167 0.404918 0.018454
-1.614865 0.421335 -0.798518 -0.914167 0.404918 0.018454
-1.615829 0.423601 -0.895998 -0.914167 0.404918 0.018454
-1.617049 0.416403 -0.798518 -0.914165 0.404920 0.018505
-1.615275 0.411640 -0.606635 -0.914165 0.404920 0.018505
-1.613091 0.416571 -0.606635 -0.914165 0.404920 0.018505
-1.614865 0.421335 -0.798518 -0.914165 0.404920 0.018505
-1.615829 0.423601 -0.895998 -0.914179 0.404891 0.018455
-1.614865 0.421335 -0.798518 -0.914179 0.404891 0.018455
-1.612680 0.426267 -0.798518 -0.914179 0.404891 0.018455
-1.613712 0.428376 -0.895896 -0.914179 0.404891 0.018455
-1.614865 0.421335 -0.798518 -0.914156 0.404939 0.018506
-1.613091 0.416571 -0.606635 -0.914156 0.404939 0.018506
-1.610906 0.421503 -0.606635 -0.914156 0.404939 0.018506
-1.612680 0.426267 -0.798518 -0.914156 0.404939 0.018506
-1.617946 0.418825 -0.896049 -0.914155 0.404944 0.018454
-1.620061 0.414046 -0.895998 -0.914155 0.404944 0.018454
-1.619234 0.411472 -0.798518 -0.914155 0.404944 0.018454
-1.617049 0.416403 -0.798518 -0.914155 0.404944 0.018454
-1.620061 0.414046 -0.895998 -0.914155 0.404945 0.018456
-1.622177 0.409266 -0.895896 -0.914155 0.404945 0.018456
-1.621418 0.406540 -0.798518 -0.914155 0.404945 0.018456
-1.619234 0.411472 -0.798518 -0.914155 0.404945 0.018456
-1.617049 0.416403 -0.798518 -0.914161 0.404930 0.018506
-1.619234 0.411472 -0.798518 -0.914161 0.404930 0.018506
-1.617459 0.406708 -0.606635 -0.914161 0.404930 0.018506
-1.615275 0.411640 -0.606635 -0.914161 0.404930 0.018506
-1.619234 0.411472 -0.798518 -0.914165 0.404920 0.018506
-1.621418 0.406540 -0.798518 -0.914165 0.404920 0.018506
-1.619644 0.401777 -0.606635 -0.914165 0.404920 0.018506
-1.617459 0.406708 -0.606635 -0.914165 0.404920 0.018506
-1.617946 0.418825 -0.896049 -0.914136 0.404995 0.018262
-1.618256 0.419683 -0.930611 -0.914136 0.404995 0.018262
-1.620166 0.415362 -0.930406 -0.914136 0.404995 0.018262
-1.620061 0.414046 -0.895998 -0.914136 0.404995 0.018262
-1.618256 0.419683 -0.930611 -0.914215 0.404945 0.015152
-1.618273 0.419759 -0.933688 -0.914215 0.404945 0.015152
-1.619909 0.416050 -0.933278 -0.914215 0.404945 0.015152
-1.620166 0.415362 -0.930406 -0.914215 0.404945 0.015152
-1.620061 0.414046 -0.895998 -0.914107 0.405061 0.018288
-1.620166 0.415362 -0.930406 -0.914107 0.405061 0.018288
-1.622075 0.411037 -0.929996 -0.914107 0.405061 0.018288
-1.622177 0.409266 -0.895896 -0.914107 0.405061 0.018288
-1.620166 0.415362 -0.930406 -0.914225 0.404924 0.015128
-1.619909 0.416050 -0.933278 -0.914225 0.404924 0.015128
-1.621267 0.412937 -0.932047 -0.914225 0.404924 0.015128
-1.622075 0.411037 -0.929996 -0.914225 0.404924 0.015128
1.604980 0.408888 -0.932198 0.150982 -0.305791 -0.940051
1.603622 0.412001 -0.933429 0.150982 -0.305791 -0.940051
1.612764 0.416050 -0.933278 0.150982 -0.305791 -0.940051
1.614123 0.412937 -0.932047 0.150982 -0.305791 -0.940051
1.603622 0.412001 -0.933429 0.054561 -0.086021 -0.994798
1.601986 0.415710 -0.933839 0.054561 -0.086021 -0.994798
1.611128 0.419759 -0.933688 0.054561 -0.086021 -0.994798
1.612764 0.416050 -0.933278 0.054561 -0.086021 -0.994798
1.601986 0.415710 -0.933839 -0.027162 0.098547 -0.994762
1.600346 0.419398 -0.933429 -0.027162 0.098547 -0.994762
1.609488 0.423447 -0.933278 -0.027162 0.098547 -0.994762
1.611128 0.419759 -0.933688 -0.027162 0.098547 -0.994762
1.600346 0.419398 -0.933429 -0.126803 0.321435 -0.938403
1.598974 0.422450 -0.932199 -0.126803 0.321435 -0.938403
1.608116 0.426499 -0.932047 -0.126803 0.321435 -0.938403
1.609488 0.423447 -0.933278 -0.126803 0.321435 -0.938403
1.584709 0.361247 1.110771 0.069032 -0.193438 0.978681
1.586078 0.358183 1.110069 0.069032 -0.193438 0.978681
1.595220 0.362232 1.110224 0.069032 -0.193438 0.978681
1.593851 0.365296 1.110927 0.069032 -0.193438 0.978681
1.583069 0.364940 1.111005 0.009197 -0.059174 0.998205
1.584709 0.361247 1.110771 0.009197 -0.059174 0.998205
1.593851 0.365296 1.110927 0.009197 -0.059174 0.998205
1.592211 0.368989 1.111161 0.009197 -0.059174 0.998205
1.581432 0.368645 1.110771 -0.037584 0.046444 0.998214
1.583069 0.364940 1.111005 -0.037584 0.046444 0.998214
1.592211 0.368989 1.111161 -0.037584 0.046444 0.998214
1.590574 0.372694 1.110927 -0.037584 0.046444 0.998214
1.580071 0.371745 1.110069 -0.096170 0.179526 0.979041
1.581432 0.368645 1.110771 -0.096170 0.179526 0.979041
1.590574 0.372694 1.110927 -0.096170 0.179526 0.979041
1.589213 0.375794 1.110224 -0.096170 0.179526 0.979041
1.588641 0.358345 0.979504 0.405226 -0.914020 -0.018941
1.590411 0.363088 0.788502 0.405226 -0.914020 -0.018941
1.599552 0.367137 0.788687 0.405226 -0.914020 -0.018941
1.597783 0.362394 0.979689 0.405226 -0.914020 -0.018941
1.587615 0.356261 1.075826 0.405162 -0.914114 -0.015463
1.588641 0.358345 0.979504 0.405162 -0.914114 -0.015463
1.597783 0.362394 0.979689 0.405162 -0.914114 -0.015463
1.596757 0.360310 1.076010 0.405162 -0.914114 -0.015463
1.586904 0.356364 1.108884 0.404731 -0.914363 0.011557
1.587615 0.356261 1.075826 0.404731 -0.914363 0.011557
1.596757 0.360310 1.076010 0.404731 -0.914363 0.011557
1.596046 0.360413 1.109054 0.404731 -0.914363 0.011557
1.586078 0.358183 1.110069 0.192902 -0.470090 0.861281
1.586904 0.356364 1.108884 0.192902 -0.470090 0.861281
1.596046 0.360413 1.109054 0.192902 -0.470090 0.861281
1.595220 0.362232 1.110224 0.192902 -0.470090 0.861281
1.596394 0.422218 -0.798703 -0.405226 0.914020 0.018944
1.594620 0.417454 -0.606820 -0.405226 0.914020 0.018944
1.603761 0.421503 -0.606635 -0.405226 0.914020 0.018944
1.605536 0.426267 -0.798518 -0.405226 0.914020 0.018944
1.597426 0.424327 -0.896079 -0.405149 0.914119 0.015509
1.596394 0.422218 -0.798703 -0.405149 0.914119 0.015509
1.605536 0.426267 -0.798518 -0.405149 0.914119 0.015509
1.606568 0.428376 -0.895896 -0.405149 0.914119 0.015509
1.598143 0.424249 -0.930163 -0.404708 0.914384 -0.010607
1.597426 0.424327 -0.896079 -0.404708 0.914384 -0.010607
1.606568 0.428376 -0.895896 -0.404708 0.914384 -0.010607
1.607285 0.428298 -0.929996 -0.404708 0.914384 -0.010607
1.598974 0.422450 -0.932199 -0.280594 0.660987 -0.695962
1.598143 0.424249 -0.930163 -0.280594 0.660987 -0.695962
1.607285 0.428298 -0.929996 -0.280594 0.660987 -0.695962
1.608116 0.426499 -0.932047 -0.280594 0.660987 -0.695962
1.603358 0.397728 -0.606820 0.405259 -0.914006 -0.018941
1.605132 0.402491 -0.798703 0.405259 -0.914006 -0.018941
1.614274 0.406540 -0.798518 0.405259 -0.914006 -0.018941
1.612499 0.401777 -0.606635 0.405259 -0.914006 -0.018941
1.605132 0.402491 -0.798703 0.405339 -0.913892 -0.022418
1.605892 0.405216 -0.896080 0.405339 -0.913892 -0.022418
1.615032 0.409266 -0.895896 0.405339 -0.913892 -0.022418
1.614274 0.406540 -0.798518 0.405339 -0.913892 -0.022418
1.605892 0.405216 -0.896080 0.405369 -0.912858 -0.048648
1.605789 0.406987 -0.930163 0.405369 -0.912858 -0.048648
1.614930 0.411037 -0.929996 0.405369 -0.912858 -0.048648
1.615032 0.409266 -0.895896 0.405369 -0.912858 -0.048648
1.605789 0.406987 -0.930163 0.295217 -0.638551 -0.710704
1.604980 0.408888 -0.932198 0.295217 -0.638551 -0.710704
1.614123 0.412937 -0.932047 0.295217 -0.638551 -0.710704
1.614930 0.411037 -0.929996 0.295217 -0.638551 -0.710704
1.581673 0.382814 0.788502 -0.405239 0.914015 0.018941
1.579904 0.378071 0.979504 -0.405239 0.914015 0.018941
1.589045 0.382121 0.979689 -0.405239 0.914015 0.018941
1.590815 0.386863 0.788687 -0.405239 0.914015 0.018941
1.579904 0.378071 0.979504 -0.405288 0.913913 0.022459
1.579151 0.375370 1.075826 -0.405288 0.913913 0.022459
1.588292 0.379420 1.076010 -0.405288 0.913913 0.022459
1.589045 0.382121 0.979689 -0.405288 0.913913 0.022459
1.579151 0.375370 1.075826 -0.405329 0.912827 0.049551
1.579259 0.373624 1.108884 -0.405329 0.912827 0.049551
1.588400 0.377674 1.109054 -0.405329 0.912827 0.049551
1.588292 0.379420 1.076010 -0.405329 0.912827 0.049551
1.579259 0.373624 1.108884 -0.214847 0.450258 0.866665
1.580071 0.371745 1.110069 -0.214847 0.450258 0.866665
1.589213 0.375794 1.110224 -0.214847 0.450258 0.866665
1.588400 0.377674 1.109054 -0.214847 0.450258 0.866665
1.594620 0.417454 -0.606820 -0.405226 0.914020 0.018932
1.591675 0.409569 -0.289204 -0.405226 0.914020 0.018932
1.600816 0.413618 -0.289018 -0.405226 0.914020 0.018932
1.603761 0.421503 -0.606635 -0.405226 0.914020 0.018932
1.591675 0.409569 -0.289204 -0.405214 0.914026 0.018931
1.588145 0.400126 0.091193 -0.405214 0.914026 0.018931
1.597286 0.404175 0.091378 -0.405214 0.914026 0.018931
1.600816 0.413618 -0.289018 -0.405214 0.914026 0.018931
1.588145 0.400126 0.091193 -0.405214 0.914026 0.018930
1.584615 0.390687 0.471413 -0.405214 0.914026 0.018930
1.593757 0.394736 0.471598 -0.405214 0.914026 0.018930
1.597286 0.404175 0.091378 -0.405214 0.914026 0.018930
1.584615 0.390687 0.471413 -0.405227 0.914020 0.018933
1.581673 0.382814 0.788502 -0.405227 0.914020 0.018933
1.590815 0.386863 0.788687 -0.405227 0.914020 0.018933
1.593757 0.394736 0.471598 -0.405227 0.914020 0.018933
1.600412 0.389843 -0.289204 0.405239 -0.914015 -0.018932
1.603358 0.397728 -0.606820 0.405239 -0.914015 -0.018932
1.612499 0.401777 -0.606635 0.405239 -0.914015 -0.018932
1.609554 0.393892 -0.289018 0.405239 -0.914015 -0.018932
1.596882 0.380399 0.091193 0.405239 -0.914015 -0.018930
1.600412 0.389843 -0.289204 0.405239 -0.914015 -0.018930
1.609554 0.393892 -0.289018 0.405239 -0.914015 -0.018930
1.606024 0.384449 0.091378 0.405239 -0.914015 -0.018930
1.593353 0.370960 0.471413 0.405239 -0.914015 -0.018930
1.602495 0.375009 0.471598 0.405239 -0.914015 -0.018930
1.590411 0.363088 0.788502 0.405239 -0.914015 -0.018932
1.593353 0.370960 0.471413 0.405239 -0.914015 -0.018932
1.602495 0.375009 0.471598 0.405239 -0.914015 -0.018932
1.599552 0.367137 0.788687 0.405239 -0.914015 -0.018932
-1.610767 0.412001 -0.933429 -0.151003 -0.305813 -0.940041
-1.612125 0.408888 -0.932198 -0.151003 -0.305813 -0.940041
-1.621267 0.412937 -0.932047 -0.151003 -0.305813 -0.940041
-1.619909 0.416050 -0.933278 -0.151003 -0.305813 -0.940041
-1.609131 0.415710 -0.933839 -0.054560 -0.085989 -0.994801
-1.610767 0.412001 -0.933429 -0.054560 -0.085989 -0.994801
-1.619909 0.416050 -0.933278 -0.054560 -0.085989 -0.994801
-1.618273 0.419759 -0.933688 -0.054560 -0.085989 -0.994801
-1.607490 0.419398 -0.933429 0.027207 0.098591 -0.994756
-1.609131 0.415710 -0.933839 0.027207 0.098591 -0.994756
-1.618273 0.419759 -0.933688 0.027207 0.098591 -0.994756
-1.616632 0.423447 -0.933278 0.027207 0.098591 -0.994756
-1.606118 0.422450 -0.932198 0.126859 0.321432 -0.938397
-1.607490 0.419398 -0.933429 0.126859 0.321432 -0.938397
-1.616632 0.423447 -0.933278 0.126859 0.321432 -0.938397
-1.615260 0.426499 -0.932047 0.126859 0.321432 -0.938397
-1.593222 0.358183 1.110069 -0.069032 -0.193438 0.978681
-1.591853 0.361247 1.110771 -0.069032 -0.193438 0.978681
-1.600995 0.365296 1.110927 -0.069032 -0.193438 0.978681
-1.602364 0.362232 1.110224 -0.069032 -0.193438 0.978681
-1.591853 0.361247 1.110771 -0.009197 -0.059174 0.998205
-1.590213 0.364940 1.111005 -0.009197 -0.059174 0.998205
-1.599355 0.368989 1.111161 -0.009197 -0.059174 0.998205
-1.600995 0.365296 1.110927 -0.009197 -0.059174 0.998205
-1.590213 0.364940 1.111005 0.037584 0.046446 0.998214
-1.588576 0.368645 1.110771 0.037584 0.046446 0.998214
-1.597719 0.372694 1.110927 0.037584 0.046446 0.998214
-1.599355 0.368989 1.111161 0.037584 0.046446 0.998214
-1.588576 0.368645 1.110771 0.096170 0.179526 0.979041
-1.587216 0.371745 1.110069 0.096170 0.179526 0.979041
-1.596357 0.375794 1.110224 0.096170 0.179526 0.979041
-1.597719 0.372694 1.110927 0.096170 0.179526 0.979041
-1.597555 0.363088 0.788502 -0.405214 -0.914026 -0.018942
-1.595786 0.358345 0.979504 -0.405214 -0.914026 -0.018942
-1.604927 0.362394 0.979689 -0.405214 -0.914026 -0.018942
-1.606697 0.367137 0.788687 -0.405214 -0.914026 -0.018942
-1.595786 0.358345 0.979504 -0.405162 -0.914114 -0.015463
-1.594759 0.356261 1.075826 -0.405162 -0.914114 -0.015463
-1.603901 0.360310 1.076010 -0.405162 -0.914114 -0.015463
-1.604927 0.362394 0.979689 -0.405162 -0.914114 -0.015463
-1.594759 0.356261 1.075826 -0.404731 -0.914363 0.011557
-1.594048 0.356364 1.108884 -0.404731 -0.914363 0.011557
-1.603190 0.360413 1.109054 -0.404731 -0.914363 0.011557
-1.603901 0.360310 1.076010 -0.404731 -0.914363 0.011557
-1.594048 0.356364 1.108884 -0.192902 -0.470090 0.861281
-1.593222 0.358183 1.110069 -0.192902 -0.470090 0.861281
-1.602364 0.362232 1.110224 -0.192902 -0.470090 0.861281
-1.603190 0.360413 1.109054 -0.192902 -0.470090 0.861281
-1.601764 0.417454 -0.606820 0.405226 0.914020 0.018944
-1.603539 0.422218 -0.798703 0.405226 0.914020 0.018944
-1.612680 0.426267 -0.798518 0.405226 0.914020 0.018944
-1.610906 0.421503 -0.606635 0.405226 0.914020 0.018944
-1.603539 0.422218 -0.798703 0.405149 0.914119 0.015509
-1.604571 0.424327 -0.896079 0.405149 0.914119 0.015509
-1.613712 0.428376 -0.895896 0.405149 0.914119 0.015509
-1.612680 0.426267 -0.798518 0.405149 0.914119 0.015509
-1.604571 0.424327 -0.896079 0.404720 0.914379 -0.010612
-1.605287 0.424249 -0.930163 0.404720 0.914379 -0.010612
-1.614429 0.428298 -0.929996 0.404720 0.914379 -0.010612
-1.613712 0.428376 -0.895896 0.404720 0.914379 -0.010612
-1.605287 0.424249 -0.930163 0.280626 0.660935 -0.695999
-1.606118 0.422450 -0.932198 0.280626 0.660935 -0.695999
-1.615260 0.426499 -0.932047 0.280626 0.660935 -0.695999
-1.614429 0.428298 -0.929996 0.280626 0.660935 -0.695999
-1.612277 0.402491 -0.798703 -0.405238 -0.914015 -0.018943
-1.610502 0.397728 -0.606820 -0.405238 -0.914015 -0.018943
-1.619644 0.401777 -0.606635 -0.405238 -0.914015 -0.018943
-1.621418 0.406540 -0.798518 -0.405238 -0.914015 -0.018943
-1.613036 0.405216 -0.896079 -0.405299 -0.913909 -0.022419
-1.612277 0.402491 -0.798703 -0.405299 -0.913909 -0.022419
-1.621418 0.406540 -0.798518 -0.405299 -0.913909 -0.022419
-1.622177 0.409266 -0.895896 -0.405299 -0.913909 -0.022419
-1.612933 0.406987 -0.930163 -0.405349 -0.912867 -0.048642
-1.613036 0.405216 -0.896079 -0.405349 -0.912867 -0.048642
-1.622177 0.409266 -0.895896 -0.405349 -0.912867 -0.048642
-1.622075 0.411037 -0.929996 -0.405349 -0.912867 -0.048642
-1.612125 0.408888 -0.932198 -0.295217 -0.638551 -0.710704
-1.612933 0.406987 -0.930163 -0.295217 -0.638551 -0.710704
-1.622075 0.411037 -0.929996 -0.295217 -0.638551 -0.710704
-1.621267 0.412937 -0.932047 -0.295217 -0.638551 -0.710704
-1.587048 0.378071 0.979504 0.405239 0.914015 0.018941
-1.588818 0.382814 0.788502 0.405239 0.914015 0.018941
-1.597959 0.386863 0.788687 0.405239 0.914015 0.018941
-1.596190 0.382121 0.979689 0.405239 0.914015 0.018941
-1.586296 0.375370 1.075826 0.405288 0.913913 0.022459
-1.587048 0.378071 0.979504 0.405288 0.913913 0.022459
-1.596190 0.382121 0.979689 0.405288 0.913913 0.022459
-1.595437 0.379420 1.076010 0.405288 0.913913 0.022459
-1.586403 0.373624 1.108884 0.405329 0.912827 0.049551
-1.586296 0.375370 1.075826 0.405329 0.912827 0.049551
-1.595437 0.379420 1.076010 0.405329 0.912827 0.049551
-1.595545 0.377674 1.109054 0.405329 0.912827 0.049551
-1.587216 0.371745 1.110069 0.214847 0.450258 0.866665
-1.586403 0.373624 1.108884 0.214847 0.450258 0.866665
-1.595545 0.377674 1.109054 0.214847 0.450258 0.866665
-1.596357 0.375794 1.110224 0.214847 0.450258 0.866665
-1.598819 0.409569 -0.289204 0.405239 0.914015 0.018933
-1.601764 0.417454 -0.606820 0.405239 0.914015 0.018933
-1.610906 0.421503 -0.606635 0.405239 0.914015 0.018933
-1.607961 0.413618 -0.289018 0.405239 0.914015 0.018933
-1.595289 0.400126 0.091193 0.405239 0.914015 0.018930
-1.598819 0.409569 -0.289204 0.405239 0.914015 0.018930
-1.607961 0.413618 -0.289018 0.405239 0.914015 0.018930
-1.604431 0.404175 0.091378 0.405239 0.914015 0.018930
-1.591760 0.390686 0.471413 0.405239 0.914015 0.018930
-1.600901 0.394736 0.471598 0.405239 0.914015 0.018930
-1.588818 0.382814 0.788502 0.405239 0.914015 0.018932
-1.591760 0.390686 0.471413 0.405239 0.914015 0.018932
-1.600901 0.394736 0.471598 0.405239 0.914015 0.018932
-1.597959 0.386863 0.788687 0.405239 0.914015 0.018932
-1.610502 0.397728 -0.606820 -0.405239 -0.914015 -0.018932
-1.607557 0.389843 -0.289204 -0.405239 -0.914015 -0.018932
-1.616698 0.393892 -0.289018 -0.405239 -0.914015 -0.018932
-1.619644 0.401777 -0.606635 -0.405239 -0.914015 -0.018932
-1.607557 0.389843 -0.289204 -0.405239 -0.914015 -0.018930
-1.604027 0.380399 0.091193 -0.405239 -0.914015 -0.018930
-1.613168 0.384449 0.091378 -0.405239 -0.914015 -0.018930
-1.616698 0.393892 -0.289018 -0.405239 -0.914015 -0.018930
-1.600497 0.370960 0.471413 -0.405239 -0.914015 -0.018930
-1.609639 0.375009 0.471598 -0.405239 -0.914015 -0.018930
-1.600497 0.370960 0.471413 -0.405227 -0.914020 -0.018932
-1.597555 0.363088 0.788502 -0.405227 -0.914020 -0.018932
-1.606697 0.367137 0.788687 -0.405227 -0.914020 -0.018932
-1.609639 0.375009 0.471598 -0.405227 -0.914020 -0.018932
4 0 1 2 3
4 4 5 6 7
4 8 9 10 11
4 12 13 14 15
4 16 17 18 19
4 20 21 22 23
4 24 25 26 27
4 28 29 30 31
4 32 33 34 35
4 36 37 38 39
4 40 41 42 43
4 44 45 46 47
4 48 49 50 51
4 52 53 54 55
4 56 57 58 59
4 60 61 62 63
4 64 65 66 67
4 68 69 70 71
4 72 73 74 75
4 76 77 78 79
4 80 81 82 83
4 84 85 86 87
4 88 89 90 91
4 92 93 94 95
4 96 97 98 99
4 100 101 102 103
4 104 105 106 107
4 108 109 110 111
4 112 113 114 115
4 116 117 118 119
4 120 121 122 123
4 124 125 126 127
4 128 129 130 131
4 132 133 134 135
4 136 137 138 139
4 140 141 142 143
4 144 145 146 147
4 148 149 150 151
4 152 153 154 155
4 156 157 158 159
4 160 161 162 163
4 164 165 166 167
4 168 169 170 171
4 172 173 174 175
4 176 177 178 179
4 180 181 182 183
4 184 185 186 187
4 188 189 190 191
4 192 193 194 195
4 196 197 198 199
4 200 201 202 203
4 204 205 206 207
4 208 209 210 211
4 212 213 214 215
4 216 217 218 219
4 220 221 222 223
4 224 225 226 227
4 228 229 230 231
4 232 233 234 235
4 236 237 238 239
4 240 241 242 243
4 244 245 246 247
4 248 249 250 251
4 252 253 254 255
4 256 257 258 259
4 260 261 262 263
4 264 265 266 267
4 268 269 270 271
4 272 273 274 275
4 276 277 278 279
4 280 281 282 283
4 284 285 286 287
4 288 289 290 291
4 292 293 294 295
4 296 297 298 299
4 300 301 302 303
4 304 305 306 307
4 308 309 310 311
4 312 313 314 315
4 316 317 318 319
4 320 321 322 323
4 324 325 326 327
4 328 329 330 331
4 332 333 334 335
4 336 337 338 339
4 340 341 342 343
4 344 345 346 347
4 348 349 350 351
4 352 353 354 355
4 356 357 358 359
4 360 361 362 363
4 364 365 366 367
4 368 369 370 371
4 372 373 374 375
4 376 377 378 379
4 380 381 382 383
4 384 385 386 387
4 388 389 390 391
4 392 393 394 395
4 396 397 398 399
4 400 401 402 403
4 404 405 406 407
4 408 409 410 411
4 412 413 414 415
4 416 417 418 419
4 420 421 422 423
4 424 425 426 427
4 428 429 430 431
4 432 433 434 435
4 436 437 438 439
4 440 441 442 443
4 444 445 446 447
4 448 449 450 451
4 452 453 454 455
4 456 457 458 459
4 455 454 460 461
4 462 463 464 465
4 466 467 468 469
4 470 471 472 473
4 474 475 476 477
4 478 479 480 481
4 482 483 484 485
4 486 487 488 489
4 490 491 492 493
4 494 495 496 497
4 498 499 500 501
4 502 503 504 505
4 506 507 508 509
4 510 511 512 513
4 514 515 516 517
4 518 519 520 521
4 522 523 524 525
4 526 527 528 529
4 530 531 532 533
4 534 535 536 537
4 538 539 540 541
4 542 543 544 545
4 546 547 548 549
4 550 551 552 553
4 554 555 556 557
4 558 559 560 561
4 562 563 564 565
4 566 567 568 569
4 567 570 571 568
4 572 573 574 575
4 576 577 578 579
4 580 581 582 583
4 584 585 586 587
4 588 589 590 591
4 592 593 594 595
4 596 597 598 599
4 600 601 602 603
4 604 605 606 607
4 608 609 610 611
4 612 613 614 615
4 616 617 618 619
4 620 621 622 623
4 624 625 626 627
4 628 629 630 631
4 632 633 634 635
4 636 637 638 639
4 640 641 642 643
4 644 645 646 647
4 648 649 650 651
4 652 653 654 655
4 656 657 658 659
4 660 661 662 663
4 664 665 666 667
4 668 669 670 671
4 672 673 674 675
4 676 677 678 679
4 680 681 682 683
4 636 639 684 685
4 686 687 688 689
4 690 691 692 693
4 694 695 696 697
4 698 699 700 701
4 702 703 704 705
4 706 707 708 709
4 710 711 712 713
4 714 715 716 717
4 718 719 720 721
4 722 723 724 725
4 726 727 728 729
4 730 731 732 733
4 734 735 736 737
4 738 739 740 741
4 742 743 744 745
4 746 747 748 749
4 750 751 752 753
4 754 755 756 757
4 758 759 760 761
4 762 763 764 765
4 766 767 768 769
4 770 771 772 773
4 774 775 776 777
4 778 779 780 781
4 782 783 784 785
4 786 787 788 789
4 790 791 792 793
4 794 795 796 797
4 798 799 800 801
4 802 803 804 805
4 806 807 808 809
4 810 811 812 813
4 814 815 816 817
4 818 819 820 821
4 822 823 824 825
4 826 827 828 829
4 830 831 832 833
4 834 835 836 837
4 838 839 840 841
4 842 843 844 845
4 846 847 848 849
4 850 851 852 853
4 854 855 856 857
4 858 859 860 861
4 862 863 864 865
4 866 867 868 869
4 870 871 872 873
4 874 875 876 877
4 878 879 880 881
4 882 878 881 883
4 884 885 886 887
4 888 889 890 891
4 892 893 894 895
4 896 897 898 899
4 900 901 902 903
4 904 905 906 907
4 908 909 910 911
4 912 913 914 915
4 916 917 918 919
4 920 921 922 923
4 924 925 926 927
4 928 929 930 931
4 932 933 934 935
4 936 937 938 939
4 940 941 942 943
4 944 945 946 947
4 948 949 950 951
4 952 953 954 955
4 956 957 958 959
4 960 961 962 963
4 964 965 966 967
4 968 969 970 971
4 972 973 974 975
4 976 977 978 979
4 980 981 982 983
4 984 985 986 987
4 988 989 990 991
4 992 988 991 993
4 994 995 996 997
4 998 999 1000 1001
4 1002 1003 1004 1005
4 1003 1006 1007 1004
4 1008 1009 1010 1011
