# Blender v2.79 (sub 0) OBJ File: 'm3_v2.blend'
# www.blender.org
o Front_Blickers_Soft_Glare_Plane.037
v 1.333986 -0.265293 3.910259
v 1.306566 -0.266025 3.925706
v 1.340553 -0.254372 3.908165
v 1.361405 -0.264562 3.894813
v 1.328294 -0.273638 3.911905
v 1.300035 -0.274035 3.927351
v 1.314047 -0.255325 3.923612
v 1.367060 -0.253420 3.892718
v 1.356554 -0.273242 3.896458
v 1.312582 -0.040786 3.897879
v 1.284954 -0.041384 3.912843
v 1.311413 -0.039518 3.897935
v 1.340231 -0.040212 3.882915
v 1.314764 -0.043084 3.897710
v 1.286437 -0.043613 3.913157
v 1.286380 -0.040131 3.911451
v 1.336534 -0.039006 3.884419
v 1.343092 -0.042555 3.882263
v 1.362007 -0.120668 3.893612
v 1.355255 -0.101693 3.893931
v 1.386432 -0.121722 3.878165
v 1.366712 -0.141220 3.893855
v 1.337581 -0.119614 3.909059
v 1.330111 -0.100832 3.909377
v 1.380398 -0.102554 3.878484
v 1.390574 -0.142322 3.878408
v 1.342849 -0.140117 3.909302
v 1.361649 -0.204644 3.899664
v 1.355049 -0.223784 3.902680
v 1.337541 -0.204709 3.915110
v 1.366467 -0.183982 3.896946
v 1.385756 -0.204578 3.884217
v 1.379821 -0.223185 3.887233
v 1.330277 -0.224383 3.918127
v 1.342784 -0.183483 3.912393
v 1.390149 -0.184481 3.881499
v 1.331196 -0.060859 3.896101
v 1.304048 -0.060819 3.911547
v 1.324113 -0.052738 3.896808
v 1.358343 -0.060899 3.880654
v 1.339125 -0.071542 3.895331
v 1.312559 -0.071231 3.910778
v 1.296476 -0.052941 3.912255
v 1.351750 -0.052535 3.881361
v 1.365692 -0.071853 3.879884
v 1.318969 -0.286012 3.914155
v 1.290238 -0.285715 3.929119
v 1.320811 -0.283619 3.913799
v 1.347723 -0.286282 3.899191
v 1.317906 -0.287344 3.914273
v 1.291870 -0.286976 3.927789
v 1.291408 -0.283457 3.929246
v 1.350214 -0.283781 3.898353
v 1.344031 -0.287605 3.900757
v -1.341130 -0.265293 3.910259
v -1.335439 -0.273638 3.911905
v -1.368550 -0.264562 3.894813
v -1.347698 -0.254372 3.908165
v -1.313710 -0.266025 3.925706
v -1.307179 -0.274035 3.927351
v -1.363698 -0.273242 3.896458
v -1.374204 -0.253420 3.892718
v -1.321192 -0.255325 3.923612
v -1.319726 -0.040786 3.897879
v -1.321909 -0.043084 3.897710
v -1.347375 -0.040212 3.882915
v -1.318557 -0.039518 3.897935
v -1.292099 -0.041384 3.912843
v -1.293581 -0.043613 3.913157
v -1.350237 -0.042555 3.882263
v -1.343678 -0.039006 3.884419
v -1.293524 -0.040131 3.911451
v -1.369151 -0.120668 3.893612
v -1.344726 -0.119614 3.909059
v -1.373856 -0.141220 3.893855
v -1.393577 -0.121722 3.878165
v -1.362399 -0.101693 3.893931
v -1.337255 -0.100832 3.909377
v -1.349994 -0.140117 3.909302
v -1.397719 -0.142322 3.878408
v -1.387543 -0.102554 3.878484
v -1.368793 -0.204644 3.899664
v -1.392901 -0.204578 3.884217
v -1.373611 -0.183982 3.896946
v -1.344686 -0.204709 3.915111
v -1.362194 -0.223784 3.902680
v -1.386966 -0.223185 3.887233
v -1.397293 -0.184481 3.881500
v -1.349929 -0.183483 3.912393
v -1.337422 -0.224383 3.918127
v -1.338340 -0.060859 3.896101
v -1.346270 -0.071542 3.895331
v -1.365488 -0.060899 3.880654
v -1.331258 -0.052738 3.896808
v -1.311192 -0.060819 3.911547
v -1.319703 -0.071231 3.910778
v -1.372836 -0.071853 3.879884
v -1.358895 -0.052535 3.881361
v -1.303620 -0.052941 3.912255
v -1.326114 -0.286012 3.914155
v -1.325050 -0.287344 3.914273
v -1.354868 -0.286282 3.899191
v -1.327955 -0.283619 3.913799
v -1.297382 -0.285715 3.929119
v -1.299014 -0.286976 3.927789
v -1.351176 -0.287605 3.900757
v -1.357358 -0.283781 3.898353
v -1.298552 -0.283457 3.929246
v 1.304967 -0.099970 3.924824
v 1.313156 -0.118560 3.924505
v 1.318987 -0.139014 3.924748
v 1.294903 -0.287739 3.925858
v 1.317231 -0.288147 3.914273
v 1.339739 -0.288340 3.902688
v 1.289260 -0.039367 3.909520
v 1.310751 -0.038767 3.897935
v 1.332418 -0.038368 3.886350
v 1.305506 -0.224981 3.933574
v 1.313434 -0.204775 3.930557
v 1.319102 -0.182984 3.927840
v 1.262005 -0.283294 3.944693
v 1.261517 -0.285404 3.944083
v 1.265879 -0.286555 3.941305
v 1.268839 -0.053144 3.927701
v 1.276900 -0.060779 3.926994
v 1.285992 -0.070920 3.926224
v 1.322083 -0.241566 3.921081
v 1.347680 -0.240620 3.905635
v 1.373278 -0.239674 3.890188
v 1.404593 -0.222586 3.871787
v 1.409864 -0.204513 3.868770
v 1.413831 -0.184980 3.866053
v 1.414437 -0.143425 3.862961
v 1.410858 -0.122776 3.862719
v 1.405542 -0.103415 3.863037
v 1.379387 -0.052332 3.865915
v 1.385491 -0.060939 3.865207
v 1.392259 -0.072164 3.864438
v 1.321437 -0.084470 3.910027
v 1.347335 -0.085061 3.894580
v 1.373232 -0.085653 3.879134
v 1.344917 -0.161640 3.910336
v 1.368492 -0.162580 3.894889
v 1.392066 -0.163520 3.879443
v 1.379617 -0.283943 3.882906
v 1.376489 -0.286539 3.884227
v 1.370202 -0.287813 3.887241
v 1.258109 -0.044142 3.928603
v 1.257338 -0.041994 3.927807
v 1.261391 -0.040794 3.924967
v 1.371420 -0.042026 3.866816
v 1.367891 -0.039652 3.867951
v 1.361699 -0.038544 3.870903
v 1.290415 -0.047304 3.912818
v 1.318447 -0.046905 3.897372
v 1.346478 -0.046506 3.881925
v 1.271775 -0.274431 3.942798
v 1.279146 -0.266756 3.941153
v 1.287541 -0.256277 3.939059
v 1.384813 -0.272846 3.881011
v 1.388825 -0.263830 3.879366
v 1.393566 -0.252467 3.877272
v 1.294850 -0.279723 3.928535
v 1.323797 -0.279662 3.913089
v 1.352744 -0.279601 3.897642
v -1.312112 -0.099970 3.924824
v -1.320300 -0.118560 3.924505
v -1.326132 -0.139014 3.924748
v -1.302048 -0.287739 3.925858
v -1.324376 -0.288147 3.914273
v -1.346883 -0.288340 3.902688
v -1.296404 -0.039367 3.909520
v -1.317895 -0.038767 3.897935
v -1.339563 -0.038368 3.886350
v -1.312650 -0.224981 3.933574
v -1.320578 -0.204775 3.930557
v -1.326246 -0.182984 3.927840
v -1.269149 -0.283294 3.944693
v -1.268661 -0.285404 3.944083
v -1.273023 -0.286555 3.941305
v -1.275983 -0.053144 3.927701
v -1.284045 -0.060779 3.926994
v -1.293137 -0.070920 3.926224
v -1.329227 -0.241566 3.921081
v -1.354825 -0.240620 3.905635
v -1.380422 -0.239674 3.890188
v -1.411738 -0.222586 3.871787
v -1.417008 -0.204513 3.868770
v -1.420976 -0.184980 3.866053
v -1.421581 -0.143425 3.862961
v -1.418002 -0.122776 3.862719
v -1.412687 -0.103415 3.863037
v -1.386532 -0.052332 3.865915
v -1.392635 -0.060939 3.865207
v -1.399403 -0.072164 3.864438
v -1.328581 -0.084470 3.910027
v -1.354479 -0.085061 3.894580
v -1.380376 -0.085653 3.879134
v -1.352061 -0.161640 3.910336
v -1.375636 -0.162580 3.894889
v -1.399211 -0.163520 3.879443
v -1.386761 -0.283943 3.882906
v -1.383633 -0.286539 3.884227
v -1.377347 -0.287813 3.887241
v -1.265254 -0.044142 3.928603
v -1.264482 -0.041994 3.927807
v -1.268536 -0.040794 3.924967
v -1.378564 -0.042026 3.866816
v -1.375036 -0.039652 3.867951
v -1.368843 -0.038544 3.870903
v -1.297559 -0.047304 3.912818
v -1.325591 -0.046905 3.897372
v -1.353623 -0.046506 3.881925
v -1.278920 -0.274431 3.942798
v -1.286290 -0.266756 3.941153
v -1.294685 -0.256277 3.939059
v -1.391958 -0.272846 3.881011
v -1.395970 -0.263830 3.879366
v -1.400710 -0.252467 3.877272
v -1.301995 -0.279723 3.928535
v -1.330941 -0.279662 3.913089
v -1.359888 -0.279601 3.897642
v 1.321342 -0.160700 3.925783
v 1.350616 -0.038262 3.876696
v 1.358654 -0.288251 3.893034
v 1.276528 -0.287186 3.935512
v 1.271591 -0.040073 3.919174
v 1.296485 -0.242513 3.936528
v 1.295540 -0.083879 3.925474
v 1.415641 -0.164460 3.863996
v 1.399130 -0.086244 3.863687
v 1.398875 -0.238728 3.874741
v 1.262383 -0.047703 3.928265
v 1.374510 -0.046107 3.866478
v 1.265904 -0.279784 3.943982
v 1.381690 -0.279541 3.882195
v -1.328487 -0.160700 3.925783
v -1.357761 -0.038262 3.876696
v -1.365798 -0.288251 3.893034
v -1.283673 -0.287186 3.935512
v -1.278736 -0.040073 3.919174
v -1.303630 -0.242513 3.936528
v -1.302684 -0.083879 3.925474
v -1.422785 -0.164460 3.863996
v -1.406274 -0.086244 3.863687
v -1.406020 -0.238728 3.874741
v -1.269528 -0.047703 3.928265
v -1.381655 -0.046107 3.866478
v -1.273048 -0.279784 3.943982
v -1.388835 -0.279541 3.882195
vn -0.4750 0.1696 -0.8635
vn -0.4851 0.1961 -0.8521
vn -0.4885 0.1461 -0.8602
vn -0.4698 0.2295 -0.8524
vn -0.4722 0.2481 -0.8459
vn -0.4639 0.1862 -0.8661
vn -0.4574 0.2502 -0.8533
vn -0.4542 0.2923 -0.8415
vn -0.5007 0.1592 -0.8508
vn -0.5026 0.1202 -0.8561
vn -0.5153 0.1216 -0.8483
vn -0.5162 0.0931 -0.8514
vn -0.4910 0.1988 -0.8482
vn -0.5084 0.1499 -0.8479
vn -0.4905 0.0982 -0.8659
vn -0.5037 0.0815 -0.8600
vn -0.4979 0.0590 -0.8652
vn -0.5167 0.0638 -0.8538
vn -0.5105 0.0502 -0.8584
vn -0.4783 0.1137 -0.8708
vn -0.4682 0.1270 -0.8744
vn -0.4857 0.0672 -0.8715
vn -0.4750 0.0758 -0.8767
vn -0.4380 -0.3621 -0.8228
vn -0.4339 -0.3992 -0.8077
vn -0.4284 -0.4069 -0.8068
vn -0.4215 -0.4397 -0.7931
vn -0.4188 -0.4459 -0.7911
vn -0.4425 -0.3572 -0.8225
vn -0.4393 -0.3963 -0.8061
vn -0.4271 -0.4316 -0.7945
vn -0.4225 -0.4234 -0.8014
vn -0.4331 -0.3722 -0.8209
vn -0.4202 -0.4319 -0.7981
vn -0.4308 -0.3795 -0.8188
vn -0.4163 -0.4553 -0.7870
vn -0.4085 -0.4761 -0.7787
vn -0.4439 -0.3212 -0.8365
vn -0.4466 -0.3166 -0.8368
vn -0.4532 -0.2740 -0.8482
vn -0.4559 -0.2751 -0.8464
vn -0.4424 -0.3276 -0.8348
vn -0.4502 -0.2800 -0.8479
vn -0.4501 -0.3156 -0.8353
vn -0.4474 -0.3575 -0.8197
vn -0.4590 -0.2796 -0.8433
vn -0.4544 -0.3194 -0.8315
vn -0.5311 -0.1706 -0.8299
vn -0.5181 -0.1915 -0.8336
vn -0.5322 -0.1525 -0.8327
vn -0.5161 -0.2151 -0.8291
vn -0.5021 -0.2323 -0.8330
vn -0.5260 -0.1891 -0.8291
vn -0.5087 -0.2385 -0.8272
vn -0.4990 -0.2593 -0.8268
vn -0.5198 -0.1683 -0.8375
vn -0.5331 -0.1345 -0.8353
vn -0.5257 -0.1486 -0.8375
vn -0.5375 -0.1194 -0.8348
vn -0.5047 -0.2057 -0.8384
vn -0.5120 -0.1814 -0.8396
vn -0.5428 -0.1086 -0.8328
vn -0.5431 -0.0978 -0.8339
vn -0.5477 -0.0569 -0.8347
vn -0.5455 -0.0884 -0.8334
vn -0.5477 -0.0552 -0.8348
vn -0.5424 -0.1194 -0.8315
vn -0.5399 -0.1310 -0.8314
vn -0.5477 -0.0585 -0.8346
vn -0.5469 -0.0599 -0.8350
vn -0.5385 0.0330 -0.8419
vn -0.5287 0.0438 -0.8477
vn -0.5284 0.0649 -0.8465
vn -0.5387 0.0186 -0.8423
vn -0.5334 0.0260 -0.8455
vn -0.5226 0.0401 -0.8516
vn -0.5383 0.0465 -0.8415
vn -0.5279 0.0851 -0.8450
vn -0.5353 0.0604 -0.8425
vn -0.5233 0.1044 -0.8457
vn -0.5455 -0.0001 -0.8381
vn -0.5455 -0.0070 -0.8380
vn -0.5441 0.0080 -0.8390
vn -0.5456 -0.0142 -0.8379
vn -0.5420 0.0058 -0.8404
vn -0.5472 -0.0213 -0.8367
vn -0.4701 -0.3137 -0.8249
vn -0.4815 -0.3042 -0.8219
vn -0.4645 -0.3462 -0.8151
vn -0.4707 -0.3359 -0.8158
vn -0.4522 -0.3813 -0.8062
vn -0.4858 -0.2746 -0.8298
vn -0.4898 -0.2873 -0.8231
vn -0.4563 -0.3454 -0.8201
vn -0.4494 -0.3809 -0.8081
vn -0.4361 -0.4183 -0.7967
vn -0.4624 -0.3106 -0.8305
vn -0.4750 -0.2819 -0.8336
vn -0.4718 -0.2782 -0.8366
vn -0.4841 -0.2516 -0.8381
vn -0.4630 -0.2880 -0.8382
vn -0.4895 -0.2456 -0.8367
vn -0.4977 -0.2182 -0.8394
vn -0.4457 0.2477 -0.8602
vn -0.4250 0.3663 -0.8278
vn -0.4381 0.3036 -0.8461
vn -0.4246 0.3771 -0.8231
vn -0.4306 0.3459 -0.8336
vn -0.4328 0.3164 -0.8441
vn -0.4172 0.4025 -0.8148
vn -0.4080 0.4426 -0.7985
vn -0.4482 0.2673 -0.8530
vn -0.4551 0.2053 -0.8664
vn -0.4345 0.3319 -0.8373
vn -0.4425 0.3127 -0.8404
vn -0.4520 0.1910 -0.8713
vn -0.4600 0.1467 -0.8757
vn -0.4611 0.1147 -0.8799
vn -0.4672 0.0891 -0.8796
vn -0.4411 0.2674 -0.8567
vn -0.4335 0.3151 -0.8442
vn -0.4250 0.3572 -0.8317
vn -0.4534 0.1705 -0.8748
vn -0.4391 0.2776 -0.8545
vn 0.4851 0.1961 -0.8521
vn 0.4750 0.1696 -0.8635
vn 0.4885 0.1461 -0.8602
vn 0.4698 0.2295 -0.8524
vn 0.4639 0.1862 -0.8661
vn 0.4722 0.2481 -0.8459
vn 0.4542 0.2923 -0.8415
vn 0.4574 0.2502 -0.8533
vn 0.4783 0.1137 -0.8708
vn 0.4905 0.0982 -0.8659
vn 0.4857 0.0672 -0.8715
vn 0.4978 0.0590 -0.8652
vn 0.4682 0.1270 -0.8744
vn 0.4750 0.0758 -0.8767
vn 0.5026 0.1202 -0.8561
vn 0.5037 0.0815 -0.8600
vn 0.5162 0.0931 -0.8514
vn 0.5105 0.0502 -0.8584
vn 0.5167 0.0638 -0.8538
vn 0.5007 0.1592 -0.8508
vn 0.4910 0.1988 -0.8482
vn 0.5153 0.1216 -0.8483
vn 0.5084 0.1499 -0.8479
vn 0.4380 -0.3621 -0.8228
vn 0.4339 -0.3991 -0.8077
vn 0.4425 -0.3572 -0.8225
vn 0.4393 -0.3963 -0.8061
vn 0.4474 -0.3576 -0.8197
vn 0.4284 -0.4069 -0.8068
vn 0.4215 -0.4398 -0.7931
vn 0.4271 -0.4316 -0.7945
vn 0.4466 -0.3166 -0.8368
vn 0.4501 -0.3156 -0.8353
vn 0.4560 -0.2751 -0.8464
vn 0.4544 -0.3195 -0.8315
vn 0.4590 -0.2796 -0.8433
vn 0.4439 -0.3212 -0.8365
vn 0.4331 -0.3722 -0.8209
vn 0.4424 -0.3276 -0.8348
vn 0.4308 -0.3795 -0.8188
vn 0.4532 -0.2740 -0.8482
vn 0.4502 -0.2800 -0.8479
vn 0.4225 -0.4234 -0.8013
vn 0.4163 -0.4553 -0.7870
vn 0.4188 -0.4459 -0.7911
vn 0.4202 -0.4320 -0.7980
vn 0.4086 -0.4760 -0.7787
vn 0.5181 -0.1915 -0.8336
vn 0.5311 -0.1706 -0.8299
vn 0.5322 -0.1525 -0.8327
vn 0.5161 -0.2151 -0.8291
vn 0.5260 -0.1891 -0.8291
vn 0.5021 -0.2323 -0.8330
vn 0.4990 -0.2593 -0.8268
vn 0.5087 -0.2385 -0.8272
vn 0.5424 -0.1194 -0.8315
vn 0.5428 -0.1086 -0.8328
vn 0.5477 -0.0585 -0.8346
vn 0.5477 -0.0569 -0.8347
vn 0.5399 -0.1310 -0.8314
vn 0.5469 -0.0599 -0.8350
vn 0.5331 -0.1345 -0.8353
vn 0.5431 -0.0979 -0.8339
vn 0.5375 -0.1194 -0.8348
vn 0.5477 -0.0552 -0.8348
vn 0.5455 -0.0884 -0.8334
vn 0.5198 -0.1683 -0.8375
vn 0.5047 -0.2057 -0.8384
vn 0.5257 -0.1486 -0.8375
vn 0.5120 -0.1814 -0.8396
vn 0.5385 0.0330 -0.8419
vn 0.5287 0.0438 -0.8477
vn 0.5387 0.0186 -0.8423
vn 0.5334 0.0260 -0.8455
vn 0.5420 0.0058 -0.8404
vn 0.5284 0.0649 -0.8465
vn 0.5226 0.0401 -0.8516
vn 0.5455 -0.0070 -0.8380
vn 0.5456 -0.0142 -0.8379
vn 0.5472 -0.0213 -0.8367
vn 0.5455 -0.0001 -0.8381
vn 0.5383 0.0465 -0.8415
vn 0.5441 0.0080 -0.8390
vn 0.5352 0.0604 -0.8425
vn 0.5279 0.0851 -0.8450
vn 0.5233 0.1044 -0.8457
vn 0.4701 -0.3137 -0.8249
vn 0.4815 -0.3042 -0.8219
vn 0.4858 -0.2746 -0.8298
vn 0.4645 -0.3462 -0.8151
vn 0.4707 -0.3359 -0.8158
vn 0.4898 -0.2873 -0.8231
vn 0.4750 -0.2819 -0.8336
vn 0.4895 -0.2456 -0.8367
vn 0.4841 -0.2516 -0.8381
vn 0.4977 -0.2181 -0.8394
vn 0.4624 -0.3106 -0.8305
vn 0.4563 -0.3454 -0.8201
vn 0.4718 -0.2781 -0.8366
vn 0.4631 -0.2880 -0.8382
vn 0.4493 -0.3809 -0.8081
vn 0.4522 -0.3813 -0.8062
vn 0.4361 -0.4183 -0.7967
vn 0.4457 0.2477 -0.8602
vn 0.4250 0.3663 -0.8278
vn 0.4328 0.3164 -0.8441
vn 0.4172 0.4025 -0.8148
vn 0.4250 0.3572 -0.8317
vn 0.4381 0.3036 -0.8461
vn 0.4246 0.3771 -0.8231
vn 0.4080 0.4424 -0.7986
vn 0.4411 0.2674 -0.8567
vn 0.4520 0.1910 -0.8713
vn 0.4534 0.1705 -0.8748
vn 0.4611 0.1146 -0.8799
vn 0.4335 0.3150 -0.8443
vn 0.4391 0.2775 -0.8545
vn 0.4551 0.2053 -0.8664
vn 0.4600 0.1467 -0.8757
vn 0.4672 0.0891 -0.8796
vn 0.4482 0.2673 -0.8530
vn 0.4345 0.3319 -0.8373
vn 0.4306 0.3459 -0.8336
vn 0.4425 0.3128 -0.8404
vn -0.5488 -0.0541 -0.8342
vn 0.5488 -0.0541 -0.8342
s 1
f 5//1 2//2 1//3
f 6//4 158//5 2//2
f 164//6 6//4 5//1
f 163//7 157//8 6//4
f 1//3 7//9 3//10
f 3//10 127//11 128//12
f 2//2 159//13 7//9
f 7//9 228//14 127//11
f 3//10 4//15 1//3
f 8//16 161//17 4//15
f 128//12 8//16 3//10
f 129//18 162//19 8//16
f 1//3 9//20 5//1
f 5//1 165//21 164//6
f 4//15 160//22 9//20
f 9//20 236//23 165//21
f 10//24 15//25 11//26
f 11//26 148//27 149//28
f 14//29 154//30 15//25
f 15//25 233//31 148//27
f 10//24 16//32 12//33
f 12//33 115//34 116//35
f 11//26 150//36 16//32
f 16//32 227//37 115//34
f 10//24 17//38 13//39
f 13//39 153//40 152//41
f 12//33 117//42 17//38
f 17//38 224//43 153//40
f 13//39 14//29 10//24
f 18//44 155//45 14//29
f 152//41 18//44 13//39
f 151//46 156//47 18//44
f 23//48 20//49 19//50
f 24//51 140//52 20//49
f 110//53 24//51 23//48
f 109//54 139//55 24//51
f 19//50 25//56 21//57
f 21//57 135//58 134//59
f 20//49 141//60 25//56
f 25//56 231//61 135//58
f 21//57 22//62 19//50
f 26//63 143//64 22//62
f 134//59 26//63 21//57
f 133//65 144//66 26//63
f 19//50 27//67 23//48
f 23//48 111//68 110//53
f 22//62 142//69 27//67
f 27//67 223//70 111//68
f 28//71 33//72 29//73
f 29//73 129//18 128//12
f 32//74 130//75 33//72
f 33//72 232//76 129//18
f 29//73 30//77 28//71
f 34//78 119//79 30//77
f 128//12 34//78 29//73
f 127//11 118//80 34//78
f 28//71 35//81 31//82
f 31//82 142//69 143//64
f 30//77 120//83 35//81
f 35//81 223//70 142//69
f 31//82 32//74 28//71
f 36//84 131//85 32//74
f 143//64 36//84 31//82
f 144//66 132//86 36//84
f 37//87 42//88 38//89
f 38//89 126//90 125//91
f 41//92 139//55 42//88
f 42//88 229//93 126//90
f 38//89 39//94 37//87
f 43//95 155//45 39//94
f 125//91 43//95 38//89
f 124//96 154//30 43//95
f 37//87 44//97 40//98
f 40//98 136//99 137//100
f 39//94 156//47 44//97
f 44//97 234//101 136//99
f 40//98 41//92 37//87
f 45//102 140//52 41//92
f 137//100 45//102 40//98
f 138//103 141//60 45//102
f 46//104 51//105 47//106
f 47//106 123//107 122//108
f 50//109 112//110 51//105
f 51//105 226//111 123//107
f 46//104 52//112 48//113
f 48//113 163//7 164//6
f 47//106 121//114 52//112
f 52//112 235//115 163//7
f 48//113 49//116 46//104
f 53//117 146//118 49//116
f 164//6 53//117 48//113
f 165//21 145//119 53//117
f 46//104 54//120 50//109
f 50//109 114//121 113//122
f 49//116 147//123 54//120
f 54//120 225//124 114//121
f 59//125 56//126 55//127
f 60//128 221//129 56//126
f 215//130 60//128 59//125
f 214//131 220//132 60//128
f 55//127 61//133 57//134
f 57//134 217//135 218//136
f 56//126 222//137 61//133
f 61//133 250//138 217//135
f 57//134 58//139 55//127
f 62//140 185//141 58//139
f 218//136 62//140 57//134
f 219//142 186//143 62//140
f 55//127 63//144 59//125
f 59//125 216//145 215//130
f 58//139 184//146 63//144
f 63//144 242//147 216//145
f 64//148 69//149 65//150
f 65//150 211//151 212//152
f 68//153 205//154 69//149
f 69//149 247//155 211//151
f 65//150 66//156 64//148
f 70//157 209//158 66//156
f 212//152 70//157 65//150
f 213//159 208//160 70//157
f 64//148 71//161 67//162
f 67//162 174//163 173//164
f 66//156 210//165 71//161
f 71//161 238//166 174//163
f 64//148 72//167 68//153
f 68//153 207//168 206//169
f 67//162 172//170 72//167
f 72//167 241//171 207//168
f 77//172 74//173 73//174
f 78//175 167//176 74//173
f 197//177 78//175 77//172
f 196//178 166//179 78//175
f 73//174 79//180 75//181
f 75//181 199//182 200//183
f 74//173 168//184 79//180
f 79//180 237//185 199//182
f 75//181 76//186 73//174
f 80//187 191//188 76//186
f 200//183 80//187 75//181
f 201//189 190//190 80//187
f 73//174 81//191 77//172
f 77//172 198//192 197//177
f 76//186 192//193 81//191
f 81//191 245//194 198//192
f 82//195 87//196 83//197
f 83//197 187//198 188//199
f 86//200 186//143 87//196
f 87//196 246//201 187//198
f 83//197 84//202 82//195
f 88//203 200//183 84//202
f 188//199 88//203 83//197
f 189//204 201//189 88//203
f 82//195 89//205 85//206
f 85//206 177//207 176//208
f 84//202 199//182 89//205
f 89//205 237//185 177//207
f 85//206 86//200 82//195
f 90//209 185//141 86//200
f 176//208 90//209 85//206
f 175//210 184//146 90//209
f 91//211 96//212 92//213
f 92//213 196//178 197//177
f 95//214 183//215 96//212
f 96//212 243//216 196//178
f 92//213 93//217 91//211
f 97//218 194//219 93//217
f 197//177 97//218 92//213
f 198//192 195//220 97//218
f 91//211 98//221 94//222
f 94//222 213//159 212//152
f 93//217 193//223 98//221
f 98//221 248//224 213//159
f 94//222 95//214 91//211
f 99//225 182//226 95//214
f 212//152 99//225 94//222
f 211//151 181//227 99//225
f 100//228 105//229 101//230
f 101//230 169//231 170//232
f 104//233 180//234 105//229
f 105//229 240//235 169//231
f 100//228 106//236 102//237
f 102//237 204//238 203//239
f 101//230 171//240 106//236
f 106//236 239//241 204//238
f 102//237 103//242 100//228
f 107//243 221//129 103//242
f 203//239 107//243 102//237
f 202//244 222//137 107//243
f 100//228 108//245 104//233
f 104//233 178//246 179//247
f 103//242 220//132 108//245
f 108//245 249//248 178//246
f 5//1 6//4 2//2
f 6//4 157//8 158//5
f 164//6 163//7 6//4
f 163//7 235//115 157//8
f 1//3 2//2 7//9
f 3//10 7//9 127//11
f 2//2 158//5 159//13
f 7//9 159//13 228//14
f 3//10 8//16 4//15
f 8//16 162//19 161//17
f 128//12 129//18 8//16
f 129//18 232//76 162//19
f 1//3 4//15 9//20
f 5//1 9//20 165//21
f 4//15 161//17 160//22
f 9//20 160//22 236//23
f 10//24 14//29 15//25
f 11//26 15//25 148//27
f 14//29 155//45 154//30
f 15//25 154//30 233//31
f 10//24 11//26 16//32
f 12//33 16//32 115//34
f 11//26 149//28 150//36
f 16//32 150//36 227//37
f 10//24 12//33 17//38
f 13//39 17//38 153//40
f 12//33 116//35 117//42
f 17//38 117//42 224//43
f 13//39 18//44 14//29
f 18//44 156//47 155//45
f 152//41 151//46 18//44
f 151//46 234//101 156//47
f 23//48 24//51 20//49
f 24//51 139//55 140//52
f 110//53 109//54 24//51
f 109//54 229//93 139//55
f 19//50 20//49 25//56
f 21//57 25//56 135//58
f 20//49 140//52 141//60
f 25//56 141//60 231//61
f 21//57 26//63 22//62
f 26//63 144//66 143//64
f 134//59 133//65 26//63
f 133//65 230//249 144//66
f 19//50 22//62 27//67
f 23//48 27//67 111//68
f 22//62 143//64 142//69
f 27//67 142//69 223//70
f 28//71 32//74 33//72
f 29//73 33//72 129//18
f 32//74 131//85 130//75
f 33//72 130//75 232//76
f 29//73 34//78 30//77
f 34//78 118//80 119//79
f 128//12 127//11 34//78
f 127//11 228//14 118//80
f 28//71 30//77 35//81
f 31//82 35//81 142//69
f 30//77 119//79 120//83
f 35//81 120//83 223//70
f 31//82 36//84 32//74
f 36//84 132//86 131//85
f 143//64 144//66 36//84
f 144//66 230//249 132//86
f 37//87 41//92 42//88
f 38//89 42//88 126//90
f 41//92 140//52 139//55
f 42//88 139//55 229//93
f 38//89 43//95 39//94
f 43//95 154//30 155//45
f 125//91 124//96 43//95
f 124//96 233//31 154//30
f 37//87 39//94 44//97
f 40//98 44//97 136//99
f 39//94 155//45 156//47
f 44//97 156//47 234//101
f 40//98 45//102 41//92
f 45//102 141//60 140//52
f 137//100 138//103 45//102
f 138//103 231//61 141//60
f 46//104 50//109 51//105
f 47//106 51//105 123//107
f 50//109 113//122 112//110
f 51//105 112//110 226//111
f 46//104 47//106 52//112
f 48//113 52//112 163//7
f 47//106 122//108 121//114
f 52//112 121//114 235//115
f 48//113 53//117 49//116
f 53//117 145//119 146//118
f 164//6 165//21 53//117
f 165//21 236//23 145//119
f 46//104 49//116 54//120
f 50//109 54//120 114//121
f 49//116 146//118 147//123
f 54//120 147//123 225//124
f 59//125 60//128 56//126
f 60//128 220//132 221//129
f 215//130 214//131 60//128
f 214//131 249//248 220//132
f 55//127 56//126 61//133
f 57//134 61//133 217//135
f 56//126 221//129 222//137
f 61//133 222//137 250//138
f 57//134 62//140 58//139
f 62//140 186//143 185//141
f 218//136 219//142 62//140
f 219//142 246//201 186//143
f 55//127 58//139 63//144
f 59//125 63//144 216//145
f 58//139 185//141 184//146
f 63//144 184//146 242//147
f 64//148 68//153 69//149
f 65//150 69//149 211//151
f 68//153 206//169 205//154
f 69//149 205//154 247//155
f 65//150 70//157 66//156
f 70//157 208//160 209//158
f 212//152 213//159 70//157
f 213//159 248//224 208//160
f 64//148 66//156 71//161
f 67//162 71//161 174//163
f 66//156 209//158 210//165
f 71//161 210//165 238//166
f 64//148 67//162 72//167
f 68//153 72//167 207//168
f 67//162 173//164 172//170
f 72//167 172//170 241//171
f 77//172 78//175 74//173
f 78//175 166//179 167//176
f 197//177 196//178 78//175
f 196//178 243//216 166//179
f 73//174 74//173 79//180
f 75//181 79//180 199//182
f 74//173 167//176 168//184
f 79//180 168//184 237//185
f 75//181 80//187 76//186
f 80//187 190//190 191//188
f 200//183 201//189 80//187
f 201//189 244//250 190//190
f 73//174 76//186 81//191
f 77//172 81//191 198//192
f 76//186 191//188 192//193
f 81//191 192//193 245//194
f 82//195 86//200 87//196
f 83//197 87//196 187//198
f 86//200 185//141 186//143
f 87//196 186//143 246//201
f 83//197 88//203 84//202
f 88//203 201//189 200//183
f 188//199 189//204 88//203
f 189//204 244//250 201//189
f 82//195 84//202 89//205
f 85//206 89//205 177//207
f 84//202 200//183 199//182
f 89//205 199//182 237//185
f 85//206 90//209 86//200
f 90//209 184//146 185//141
f 176//208 175//210 90//209
f 175//210 242//147 184//146
f 91//211 95//214 96//212
f 92//213 96//212 196//178
f 95//214 182//226 183//215
f 96//212 183//215 243//216
f 92//213 97//218 93//217
f 97//218 195//220 194//219
f 197//177 198//192 97//218
f 198//192 245//194 195//220
f 91//211 93//217 98//221
f 94//222 98//221 213//159
f 93//217 194//219 193//223
f 98//221 193//223 248//224
f 94//222 99//225 95//214
f 99//225 181//227 182//226
f 212//152 211//151 99//225
f 211//151 247//155 181//227
f 100//228 104//233 105//229
f 101//230 105//229 169//231
f 104//233 179//247 180//234
f 105//229 180//234 240//235
f 100//228 101//230 106//236
f 102//237 106//236 204//238
f 101//230 170//232 171//240
f 106//236 171//240 239//241
f 102//237 107//243 103//242
f 107//243 222//137 221//129
f 203//239 202//244 107//243
f 202//244 250//138 222//137
f 100//228 103//242 108//245
f 104//233 108//245 178//246
f 103//242 221//129 220//132
f 108//245 220//132 249//248
