ply
format ascii 1.0
comment Created by Blender 2.79 (sub 0) - www.blender.org, source file: 'm3_v2.blend'
element vertex 738
property float x
property float y
property float z
property float nx
property float ny
property float nz
element face 704
property list uchar uint vertex_indices
end_header
1.233522 -0.099653 4.072349 0.342906 0.827845 0.443861
1.233800 -0.098981 4.067533 0.381542 0.921140 0.076785
1.221479 -0.095202 4.067533 0.197455 0.977081 0.079287
1.221346 -0.095967 4.072357 0.174139 0.874752 0.452162
1.208691 -0.093878 4.067533 0.000000 0.996643 0.081790
1.208691 -0.094704 4.072365 0.000000 0.887814 0.460158
1.233800 -0.098981 4.058674 0.382672 0.923856 0.000000
1.221479 -0.095202 4.058674 0.199042 0.979980 0.000000
1.208691 -0.093878 4.058674 0.000000 1.000000 0.000000
1.220946 -0.098262 4.074635 0.097110 0.495285 0.863247
1.232687 -0.101668 4.074603 0.196631 0.474685 0.857875
1.220147 -0.102852 4.075855 0.043794 0.227821 0.972686
1.231018 -0.105698 4.075775 0.089877 0.217017 0.972015
1.208691 -0.097181 4.074667 0.000000 0.495926 0.868343
1.208691 -0.102137 4.075934 0.000000 0.229072 0.973388
1.243397 -0.107561 4.074635 0.281533 0.418897 0.863247
1.244737 -0.105656 4.072357 0.495407 0.741661 0.452162
1.252828 -0.115464 4.074667 0.350627 0.350688 0.868343
1.254580 -0.113711 4.072365 0.627735 0.627796 0.460189
1.240717 -0.111372 4.075855 0.130100 0.192083 0.972686
1.249324 -0.118968 4.075934 0.161992 0.161962 0.973388
1.245184 -0.105021 4.067533 0.551256 0.830531 0.079287
1.245184 -0.105021 4.058674 0.552171 0.833705 0.000000
1.255164 -0.113127 4.067533 0.704733 0.704733 0.081790
1.255164 -0.113127 4.058674 0.707083 0.707114 0.000000
1.268639 -0.134769 4.072349 0.827876 0.342906 0.443831
1.269310 -0.134491 4.067533 0.921140 0.381542 0.076815
1.263270 -0.123107 4.067533 0.830531 0.551256 0.079287
1.262635 -0.123554 4.072357 0.741661 0.495407 0.452162
1.269310 -0.134491 4.058674 0.923856 0.382672 0.000000
1.263270 -0.123107 4.058674 0.833705 0.552171 0.000000
1.260730 -0.124894 4.074635 0.418897 0.281533 0.863247
1.266624 -0.135604 4.074603 0.474746 0.196600 0.857845
1.256919 -0.127575 4.075855 0.192083 0.130100 0.972686
1.262594 -0.137273 4.075775 0.217017 0.089877 0.972015
1.270029 -0.147345 4.074635 0.495285 0.097110 0.863247
1.272324 -0.146945 4.072357 0.874752 0.174108 0.452162
1.271110 -0.159601 4.074667 0.495895 0.000000 0.868374
1.273588 -0.159601 4.072365 0.887783 0.000000 0.460189
1.265439 -0.148144 4.075855 0.227821 0.043825 0.972686
1.266154 -0.159601 4.075934 0.229102 0.000000 0.973388
1.273089 -0.146812 4.067533 0.977081 0.197455 0.079287
1.273089 -0.146812 4.058674 0.979980 0.199042 0.000000
1.274414 -0.159601 4.067533 0.996643 0.000000 0.081759
1.274414 -0.159601 4.058674 1.000000 0.000000 0.000000
1.268639 -0.184432 4.072349 0.827876 -0.342875 0.443831
1.269310 -0.184710 4.067533 0.921140 -0.381542 0.076785
1.273089 -0.172390 4.067533 0.977081 -0.197455 0.079287
1.272324 -0.172256 4.072357 0.874752 -0.174139 0.452162
1.269310 -0.184710 4.058674 0.923856 -0.382672 0.000000
1.273089 -0.172390 4.058674 0.979980 -0.199042 0.000000
1.270029 -0.171857 4.074635 0.495285 -0.097110 0.863277
1.266624 -0.183597 4.074603 0.474746 -0.196600 0.857845
1.265439 -0.171057 4.075855 0.227821 -0.043825 0.972686
1.262594 -0.181928 4.075775 0.217017 -0.089877 0.972015
1.260730 -0.194308 4.074635 0.418928 -0.281533 0.863247
1.262635 -0.195648 4.072357 0.741661 -0.495376 0.452162
1.252828 -0.203738 4.074667 0.350627 -0.350688 0.868343
1.254580 -0.205490 4.072365 0.627766 -0.627796 0.460158
1.256919 -0.191627 4.075855 0.192114 -0.130100 0.972686
1.249324 -0.200234 4.075934 0.161962 -0.161962 0.973388
1.263270 -0.196095 4.067533 0.830531 -0.551256 0.079287
1.263270 -0.196095 4.058674 0.833705 -0.552171 0.000000
1.255164 -0.206074 4.067533 0.704733 -0.704703 0.081759
1.255164 -0.206074 4.058674 0.707083 -0.707083 0.000000
1.233522 -0.219549 4.072349 0.342906 -0.827845 0.443861
1.233800 -0.220221 4.067533 0.381542 -0.921140 0.076785
1.245184 -0.214181 4.067533 0.551256 -0.830531 0.079287
1.244738 -0.213546 4.072357 0.495407 -0.741661 0.452162
1.233800 -0.220221 4.058674 0.382672 -0.923856 0.000000
1.245184 -0.214181 4.058674 0.552171 -0.833705 0.000000
1.243397 -0.211640 4.074635 0.281533 -0.418897 0.863247
1.232687 -0.217534 4.074603 0.196631 -0.474715 0.857875
1.240717 -0.207829 4.075855 0.130100 -0.192083 0.972686
1.231018 -0.213504 4.075775 0.089877 -0.217017 0.971984
1.220947 -0.220940 4.074635 0.097110 -0.495285 0.863247
1.221346 -0.223235 4.072357 0.174139 -0.874752 0.452162
1.208691 -0.222020 4.074667 0.000000 -0.495926 0.868343
1.208691 -0.224498 4.072365 0.000000 -0.887814 0.460158
1.220147 -0.216349 4.075855 0.043825 -0.227821 0.972686
1.208691 -0.217065 4.075934 0.000000 -0.229072 0.973388
1.221479 -0.224000 4.067533 0.197455 -0.977081 0.079287
1.221479 -0.224000 4.058674 0.199042 -0.979980 0.000000
1.208691 -0.225324 4.067533 0.000000 -0.996643 0.081790
1.208691 -0.225324 4.058674 0.000000 -1.000000 0.000000
1.183859 -0.219549 4.072349 -0.342906 -0.827845 0.443892
1.183581 -0.220221 4.067533 -0.381542 -0.921140 0.076785
1.195902 -0.224000 4.067533 -0.197455 -0.977081 0.079287
1.196035 -0.223235 4.072357 -0.174139 -0.874752 0.452162
1.183581 -0.220221 4.058674 -0.382672 -0.923856 0.000000
1.195902 -0.224000 4.058674 -0.199042 -0.979980 0.000000
1.196434 -0.220940 4.074635 -0.097110 -0.495285 0.863247
1.184694 -0.217534 4.074603 -0.196631 -0.474685 0.857875
1.197234 -0.216349 4.075855 -0.043825 -0.227821 0.972686
1.186363 -0.213504 4.075775 -0.089877 -0.217017 0.972015
1.173984 -0.211640 4.074635 -0.281533 -0.418897 0.863247
1.172644 -0.213546 4.072357 -0.495407 -0.741661 0.452162
1.164553 -0.203738 4.074667 -0.350627 -0.350688 0.868343
1.162801 -0.205490 4.072365 -0.627766 -0.627766 0.460158
1.176664 -0.207829 4.075855 -0.130100 -0.192083 0.972686
1.168057 -0.200234 4.075934 -0.161992 -0.161992 0.973388
1.172197 -0.214181 4.067533 -0.551256 -0.830531 0.079287
1.172197 -0.214181 4.058674 -0.552171 -0.833705 0.000000
1.162217 -0.206074 4.067533 -0.704733 -0.704703 0.081759
1.162217 -0.206074 4.058674 -0.707083 -0.707114 0.000000
1.148742 -0.184432 4.072349 -0.827876 -0.342906 0.443831
1.148071 -0.184710 4.067533 -0.921140 -0.381542 0.076815
1.154111 -0.196095 4.067533 -0.830531 -0.551256 0.079287
1.154746 -0.195648 4.072357 -0.741691 -0.495376 0.452162
1.148071 -0.184710 4.058674 -0.923856 -0.382672 0.000000
1.154111 -0.196095 4.058674 -0.833705 -0.552171 0.000000
1.156651 -0.194308 4.074635 -0.418928 -0.281533 0.863247
1.150757 -0.183597 4.074603 -0.474746 -0.196600 0.857845
1.160462 -0.191627 4.075855 -0.192083 -0.130100 0.972686
1.154787 -0.181928 4.075775 -0.217017 -0.089877 0.972015
1.147352 -0.171857 4.074635 -0.495315 -0.097110 0.863247
1.145057 -0.172256 4.072357 -0.874752 -0.174139 0.452162
1.146271 -0.159601 4.074667 -0.495895 0.000000 0.868374
1.143793 -0.159601 4.072365 -0.887783 0.000000 0.460189
1.151942 -0.171057 4.075855 -0.227821 -0.043825 0.972686
1.151227 -0.159601 4.075934 -0.229102 0.000000 0.973388
1.144292 -0.172390 4.067533 -0.977081 -0.197455 0.079287
1.144292 -0.172390 4.058674 -0.979980 -0.199042 0.000000
1.142967 -0.159601 4.067533 -0.996643 0.000000 0.081759
1.142967 -0.159601 4.058674 -1.000000 0.000000 0.000000
1.183859 -0.099653 4.072349 -0.342906 0.827845 0.443892
1.183581 -0.098981 4.067533 -0.381512 0.921140 0.076815
1.172197 -0.105021 4.067533 -0.551256 0.830531 0.079287
1.172644 -0.105656 4.072357 -0.495346 0.741691 0.452193
1.162217 -0.113127 4.067533 -0.704733 0.704703 0.081759
1.162801 -0.113712 4.072365 -0.627735 0.627796 0.460189
1.183581 -0.098981 4.058674 -0.382672 0.923856 0.000000
1.172197 -0.105021 4.058674 -0.552171 0.833705 0.000000
1.162217 -0.113127 4.058674 -0.707083 0.707083 0.000000
1.173984 -0.107561 4.074635 -0.281503 0.418897 0.863277
1.184694 -0.101668 4.074603 -0.196631 0.474685 0.857875
1.176664 -0.111372 4.075855 -0.130100 0.192083 0.972686
1.186363 -0.105698 4.075775 -0.089877 0.217017 0.971984
1.164553 -0.115464 4.074667 -0.350597 0.350688 0.868374
1.168057 -0.118968 4.075934 -0.161992 0.161992 0.973388
1.196434 -0.098262 4.074635 -0.097140 0.495285 0.863247
1.196035 -0.095967 4.072357 -0.174139 0.874752 0.452162
1.197234 -0.102852 4.075855 -0.043825 0.227821 0.972686
1.195902 -0.095202 4.067533 -0.197455 0.977081 0.079287
1.195902 -0.095202 4.058674 -0.199042 0.979980 0.000000
1.148742 -0.134769 4.072349 -0.827876 0.342875 0.443861
1.148071 -0.134491 4.067533 -0.921140 0.381542 0.076815
1.144292 -0.146812 4.067533 -0.977081 0.197455 0.079287
1.145057 -0.146945 4.072357 -0.874752 0.174139 0.452193
1.148071 -0.134491 4.058674 -0.923856 0.382672 0.000000
1.144292 -0.146812 4.058674 -0.979980 0.199042 0.000000
1.147352 -0.147345 4.074635 -0.495285 0.097110 0.863277
1.150757 -0.135604 4.074603 -0.474746 0.196600 0.857845
1.151942 -0.148144 4.075855 -0.227821 0.043825 0.972686
1.154787 -0.137273 4.075775 -0.217017 0.089877 0.972015
1.156651 -0.124894 4.074635 -0.418897 0.281533 0.863247
1.154746 -0.123554 4.072357 -0.741661 0.495376 0.452162
1.160462 -0.127575 4.075855 -0.192083 0.130100 0.972686
1.154111 -0.123107 4.067533 -0.830531 0.551256 0.079287
1.154111 -0.123107 4.058674 -0.833705 0.552202 0.000000
1.191943 -0.200033 4.078623 -0.062746 -0.151463 0.986450
1.187927 -0.193896 4.079251 -0.080203 -0.128788 0.988403
1.181132 -0.201478 4.077503 -0.106815 -0.156987 0.981780
1.189145 -0.206787 4.077344 -0.073977 -0.178625 0.981109
1.182023 -0.186269 4.079593 -0.102695 -0.102664 0.989380
1.173897 -0.194394 4.077662 -0.132023 -0.132023 0.982391
1.198566 -0.208699 4.077503 -0.035463 -0.186529 0.981780
1.199122 -0.198533 4.079251 -0.034333 -0.147771 0.988403
1.208691 -0.208806 4.077662 0.000000 -0.186712 0.982391
1.208691 -0.197315 4.079593 0.000000 -0.145207 0.989380
1.197592 -0.186396 4.080767 -0.045412 -0.109684 0.992920
1.192381 -0.175910 4.081468 -0.071505 -0.071505 0.994842
1.208691 -0.182666 4.081468 0.000000 -0.101108 0.994842
1.208691 -0.159601 4.083426 0.000000 0.000000 1.000000
1.225438 -0.200033 4.078623 0.062716 -0.151463 0.986450
1.218259 -0.198533 4.079251 0.034333 -0.147771 0.988403
1.218815 -0.208699 4.077503 0.035463 -0.186529 0.981780
1.228236 -0.206787 4.077344 0.073946 -0.178625 0.981109
1.236249 -0.201478 4.077503 0.106784 -0.156987 0.981780
1.229454 -0.193896 4.079251 0.080203 -0.128788 0.988403
1.243484 -0.194394 4.077662 0.132023 -0.132023 0.982391
1.235359 -0.186269 4.079593 0.102695 -0.102664 0.989380
1.219789 -0.186396 4.080767 0.045412 -0.109684 0.992920
1.225000 -0.175910 4.081468 0.071505 -0.071505 0.994842
1.225438 -0.119169 4.078623 0.062716 0.151463 0.986450
1.229454 -0.125305 4.079251 0.080203 0.128788 0.988403
1.236249 -0.117724 4.077503 0.106815 0.156987 0.981780
1.228236 -0.112414 4.077344 0.073946 0.178625 0.981109
1.235359 -0.132933 4.079593 0.102664 0.102664 0.989380
1.243484 -0.124808 4.077662 0.132023 0.132023 0.982391
1.218815 -0.110502 4.077503 0.035432 0.186529 0.981780
1.218259 -0.120668 4.079251 0.034303 0.147771 0.988403
1.208691 -0.110396 4.077662 0.000000 0.186712 0.982391
1.208691 -0.121886 4.079593 0.000000 0.145207 0.989380
1.219789 -0.132806 4.080767 0.045412 0.109684 0.992920
1.225000 -0.143291 4.081468 0.071505 0.071505 0.994873
1.208691 -0.136536 4.081468 0.000000 0.101108 0.994842
1.249123 -0.176348 4.078623 0.151433 -0.062716 0.986450
1.242986 -0.180364 4.079251 0.128788 -0.080172 0.988403
1.250568 -0.187159 4.077503 0.156987 -0.106815 0.981780
1.255877 -0.179146 4.077344 0.178594 -0.073977 0.981109
1.257789 -0.169725 4.077503 0.186529 -0.035463 0.981780
1.247623 -0.169170 4.079251 0.147771 -0.034364 0.988403
1.257895 -0.159601 4.077662 0.186712 0.000000 0.982391
1.246405 -0.159601 4.079593 0.145238 0.000000 0.989380
1.235486 -0.170700 4.080767 0.109684 -0.045412 0.992920
1.231755 -0.159601 4.081468 0.101138 0.000000 0.994842
1.249123 -0.142853 4.078623 0.151433 0.062716 0.986450
1.247623 -0.150032 4.079251 0.147771 0.034364 0.988403
1.257789 -0.149476 4.077503 0.186529 0.035463 0.981780
1.255877 -0.140055 4.077344 0.178594 0.073977 0.981109
1.250568 -0.132042 4.077503 0.156987 0.106815 0.981780
1.242986 -0.138838 4.079251 0.128758 0.080172 0.988403
1.235485 -0.148502 4.080767 0.109684 0.045412 0.992920
1.191943 -0.119169 4.078623 -0.062716 0.151463 0.986450
1.199122 -0.120668 4.079251 -0.034303 0.147771 0.988403
1.198566 -0.110502 4.077503 -0.035432 0.186529 0.981780
1.189145 -0.112414 4.077344 -0.073977 0.178625 0.981109
1.181132 -0.117724 4.077503 -0.106815 0.156987 0.981780
1.187927 -0.125305 4.079251 -0.080203 0.128788 0.988403
1.173897 -0.124808 4.077662 -0.132023 0.132023 0.982391
1.182023 -0.132933 4.079593 -0.102695 0.102664 0.989380
1.197592 -0.132806 4.080767 -0.045412 0.109684 0.992920
1.192381 -0.143291 4.081468 -0.071505 0.071505 0.994842
1.168259 -0.142853 4.078623 -0.151433 0.062716 0.986450
1.174395 -0.138838 4.079251 -0.128788 0.080172 0.988403
1.166814 -0.132042 4.077503 -0.156987 0.106815 0.981780
1.161504 -0.140055 4.077344 -0.178594 0.073977 0.981109
1.159592 -0.149476 4.077503 -0.186529 0.035463 0.981780
1.169758 -0.150032 4.079251 -0.147771 0.034333 0.988403
1.159486 -0.159601 4.077662 -0.186712 0.000000 0.982391
1.170976 -0.159601 4.079593 -0.145238 0.000000 0.989380
1.181896 -0.148502 4.080767 -0.109684 0.045412 0.992920
1.185626 -0.159601 4.081468 -0.101138 0.000000 0.994842
1.168259 -0.176348 4.078623 -0.151463 -0.062716 0.986450
1.169758 -0.169170 4.079251 -0.147771 -0.034333 0.988403
1.159592 -0.169725 4.077503 -0.186529 -0.035463 0.981780
1.161504 -0.179146 4.077344 -0.178594 -0.073977 0.981109
1.166814 -0.187159 4.077503 -0.156987 -0.106815 0.981780
1.174395 -0.180364 4.079251 -0.128788 -0.080172 0.988403
1.181896 -0.170700 4.080767 -0.109684 -0.045412 0.992920
1.233800 -0.098981 4.025776 0.382672 0.923856 0.000000
1.233800 -0.098981 4.004495 0.382672 0.923856 0.000000
1.221479 -0.095202 4.004495 0.199042 0.979980 0.000000
1.221479 -0.095202 4.025776 0.199042 0.979980 0.000000
1.208691 -0.093878 4.004495 0.000000 0.999969 0.000000
1.208691 -0.093878 4.025776 0.000000 0.999969 0.000000
1.233800 -0.098981 3.981835 0.382672 0.923856 0.000000
1.221479 -0.095202 3.981835 0.199042 0.979980 0.000000
1.208691 -0.093878 3.981835 0.000000 0.999969 0.000000
1.221479 -0.095202 4.044295 0.199042 0.979980 0.000000
1.233800 -0.098981 4.044295 0.382672 0.923856 0.000000
1.208691 -0.093878 4.044295 0.000000 1.000000 0.000000
1.245184 -0.105021 4.044295 0.552171 0.833705 0.000000
1.245184 -0.105021 4.025776 0.552171 0.833705 0.000000
1.255164 -0.113127 4.044295 0.707083 0.707083 0.000000
1.255164 -0.113127 4.025776 0.707083 0.707083 0.000000
1.245184 -0.105021 4.004495 0.552171 0.833705 0.000000
1.245184 -0.105021 3.981835 0.552171 0.833705 0.000000
1.255164 -0.113127 4.004495 0.707083 0.707083 0.000000
1.255164 -0.113127 3.981835 0.707083 0.707083 0.000000
1.269310 -0.134491 4.025776 0.923856 0.382672 0.000000
1.269310 -0.134491 4.004495 0.923856 0.382672 0.000000
1.263270 -0.123107 4.004495 0.833705 0.552171 0.000000
1.263270 -0.123107 4.025776 0.833705 0.552171 0.000000
1.269310 -0.134491 3.981835 0.923856 0.382672 0.000000
1.263270 -0.123107 3.981835 0.833705 0.552171 0.000000
1.263270 -0.123107 4.044295 0.833705 0.552171 0.000000
1.269310 -0.134491 4.044295 0.923856 0.382672 0.000000
1.273089 -0.146812 4.044295 0.979980 0.199042 0.000000
1.273089 -0.146812 4.025776 0.979980 0.199042 0.000000
1.274414 -0.159601 4.044295 1.000000 0.000000 0.000000
1.274414 -0.159601 4.025776 1.000000 0.000000 0.000000
1.273089 -0.146812 4.004495 0.979980 0.199042 0.000000
1.273089 -0.146812 3.981835 0.979980 0.199042 0.000000
1.274414 -0.159601 4.004495 1.000000 0.000000 0.000000
1.274414 -0.159601 3.981835 1.000000 0.000000 0.000000
1.269310 -0.184710 4.025776 0.923856 -0.382672 0.000000
1.269310 -0.184710 4.004495 0.923856 -0.382672 0.000000
1.273089 -0.172390 4.004495 0.979980 -0.199042 0.000000
1.273089 -0.172390 4.025776 0.979980 -0.199042 0.000000
1.269310 -0.184710 3.981835 0.923856 -0.382672 0.000000
1.273089 -0.172390 3.981835 0.979980 -0.199042 0.000000
1.273089 -0.172390 4.044295 0.979980 -0.199042 0.000000
1.269310 -0.184710 4.044295 0.923856 -0.382672 0.000000
1.263270 -0.196095 4.044295 0.833705 -0.552171 0.000000
1.263270 -0.196095 4.025776 0.833705 -0.552171 0.000000
1.255164 -0.206074 4.044295 0.707083 -0.707083 0.000000
1.255164 -0.206074 4.025776 0.707083 -0.707083 0.000000
1.263270 -0.196095 4.004495 0.833705 -0.552171 0.000000
1.263270 -0.196095 3.981835 0.833705 -0.552171 0.000000
1.255164 -0.206074 4.004495 0.707083 -0.707083 0.000000
1.255164 -0.206074 3.981835 0.707083 -0.707083 0.000000
1.233800 -0.220221 4.025776 0.382672 -0.923856 0.000000
1.233800 -0.220221 4.004495 0.382672 -0.923856 0.000000
1.245184 -0.214181 4.004495 0.552171 -0.833705 0.000000
1.245184 -0.214181 4.025776 0.552171 -0.833705 0.000000
1.233800 -0.220221 3.981835 0.382672 -0.923856 0.000000
1.245184 -0.214181 3.981835 0.552171 -0.833705 0.000000
1.245184 -0.214181 4.044295 0.552171 -0.833705 0.000000
1.233800 -0.220221 4.044295 0.382672 -0.923856 0.000000
1.221479 -0.224000 4.044295 0.199042 -0.979980 0.000000
1.221479 -0.224000 4.025776 0.199042 -0.979980 0.000000
1.208691 -0.225324 4.044295 0.000000 -1.000000 0.000000
1.208691 -0.225324 4.025776 0.000000 -0.999969 0.000000
1.221479 -0.224000 4.004495 0.199042 -0.979980 0.000000
1.221479 -0.224000 3.981835 0.199042 -0.979980 0.000000
1.208691 -0.225324 4.004495 0.000000 -1.000000 0.000000
1.208691 -0.225324 3.981835 0.000000 -0.999969 0.000000
1.183581 -0.220221 4.025776 -0.382672 -0.923856 0.000000
1.183581 -0.220221 4.004495 -0.382672 -0.923856 0.000000
1.195902 -0.224000 4.004495 -0.199042 -0.979980 0.000000
1.195902 -0.224000 4.025776 -0.199042 -0.979980 0.000000
1.183581 -0.220221 3.981835 -0.382672 -0.923856 0.000000
1.195902 -0.224000 3.981835 -0.199042 -0.979980 0.000000
1.195902 -0.224000 4.044295 -0.199042 -0.979980 0.000000
1.183581 -0.220221 4.044295 -0.382672 -0.923856 0.000000
1.172197 -0.214181 4.044295 -0.552171 -0.833705 0.000000
1.172197 -0.214181 4.025776 -0.552171 -0.833705 0.000000
1.162217 -0.206074 4.044295 -0.707083 -0.707083 0.000000
1.162217 -0.206074 4.025776 -0.707083 -0.707083 0.000000
1.172197 -0.214181 4.004495 -0.552171 -0.833705 0.000000
1.172197 -0.214181 3.981835 -0.552171 -0.833705 0.000000
1.162217 -0.206074 4.004495 -0.707083 -0.707083 0.000000
1.162217 -0.206074 3.981835 -0.707083 -0.707083 0.000000
1.148071 -0.184710 4.025776 -0.923856 -0.382672 0.000000
1.148071 -0.184710 4.004495 -0.923856 -0.382672 0.000000
1.154111 -0.196095 4.004495 -0.833705 -0.552171 0.000000
1.154111 -0.196095 4.025776 -0.833705 -0.552171 0.000000
1.148071 -0.184710 3.981835 -0.923856 -0.382672 0.000000
1.154111 -0.196095 3.981835 -0.833705 -0.552171 0.000000
1.154111 -0.196095 4.044295 -0.833705 -0.552171 0.000000
1.148071 -0.184710 4.044295 -0.923856 -0.382672 0.000000
1.144292 -0.172390 4.044295 -0.979980 -0.199042 0.000000
1.144292 -0.172390 4.025776 -0.979980 -0.199042 0.000000
1.142967 -0.159601 4.044295 -1.000000 0.000000 0.000000
1.142967 -0.159601 4.025776 -1.000000 0.000000 0.000000
1.144292 -0.172390 4.004495 -0.979980 -0.199042 0.000000
1.144292 -0.172390 3.981835 -0.979980 -0.199042 0.000000
1.142967 -0.159601 4.004495 -1.000000 0.000000 0.000000
1.142967 -0.159601 3.981835 -1.000000 0.000000 0.000000
1.183581 -0.098981 4.025776 -0.382672 0.923856 0.000000
1.183581 -0.098981 4.004495 -0.382672 0.923856 0.000000
1.172197 -0.105021 4.004495 -0.552171 0.833705 0.000000
1.172197 -0.105021 4.025776 -0.552171 0.833705 0.000000
1.162217 -0.113127 4.004495 -0.707083 0.707083 0.000000
1.162217 -0.113127 4.025776 -0.707083 0.707083 0.000000
1.183581 -0.098981 3.981835 -0.382672 0.923856 0.000000
1.172197 -0.105021 3.981835 -0.552171 0.833705 0.000000
1.162217 -0.113128 3.981835 -0.707083 0.707083 0.000000
1.172197 -0.105021 4.044295 -0.552171 0.833705 0.000000
1.183581 -0.098981 4.044295 -0.382672 0.923856 0.000000
1.162217 -0.113127 4.044295 -0.707083 0.707083 0.000000
1.195902 -0.095202 4.044295 -0.199042 0.979980 0.000000
1.195902 -0.095202 4.025776 -0.199042 0.979980 0.000000
1.195902 -0.095202 4.004495 -0.199042 0.979980 0.000000
1.195902 -0.095202 3.981835 -0.199042 0.979980 0.000000
1.148071 -0.134491 4.025776 -0.923856 0.382672 0.000000
1.148071 -0.134491 4.004495 -0.923856 0.382672 0.000000
1.144292 -0.146812 4.004495 -0.979980 0.199042 0.000000
1.144292 -0.146812 4.025776 -0.979980 0.199042 0.000000
1.148071 -0.134491 3.981835 -0.923856 0.382672 0.000000
1.144292 -0.146812 3.981835 -0.979980 0.199042 0.000000
1.144292 -0.146812 4.044295 -0.979980 0.199042 0.000000
1.148071 -0.134491 4.044295 -0.923856 0.382672 0.000000
1.154111 -0.123107 4.044295 -0.833705 0.552171 0.000000
1.154111 -0.123107 4.025776 -0.833705 0.552171 0.000000
1.154111 -0.123107 4.004495 -0.833705 0.552171 0.000000
1.154111 -0.123107 3.981835 -0.833705 0.552171 0.000000
-1.233522 -0.099653 4.072349 -0.342906 0.827845 0.443861
-1.221346 -0.095967 4.072357 -0.174139 0.874752 0.452162
-1.221479 -0.095202 4.067533 -0.197455 0.977081 0.079287
-1.233800 -0.098981 4.067533 -0.381542 0.921140 0.076785
-1.208691 -0.094704 4.072365 0.000000 0.887814 0.460158
-1.208691 -0.093878 4.067533 0.000000 0.996643 0.081790
-1.221479 -0.095202 4.058674 -0.199042 0.979980 0.000000
-1.233800 -0.098981 4.058674 -0.382672 0.923856 0.000000
-1.208691 -0.093878 4.058674 0.000000 1.000000 0.000000
-1.232687 -0.101668 4.074603 -0.196631 0.474685 0.857875
-1.220946 -0.098262 4.074635 -0.097110 0.495285 0.863247
-1.231018 -0.105698 4.075775 -0.089877 0.217017 0.972015
-1.220147 -0.102852 4.075855 -0.043825 0.227821 0.972686
-1.208691 -0.097181 4.074667 0.000000 0.495926 0.868343
-1.208691 -0.102137 4.075934 0.000000 0.229072 0.973388
-1.244737 -0.105656 4.072357 -0.495407 0.741661 0.452162
-1.243397 -0.107561 4.074635 -0.281564 0.418897 0.863247
-1.254580 -0.113711 4.072365 -0.627766 0.627796 0.460158
-1.252828 -0.115464 4.074667 -0.350627 0.350688 0.868343
-1.240717 -0.111372 4.075855 -0.130100 0.192083 0.972686
-1.249324 -0.118968 4.075934 -0.161992 0.161962 0.973388
-1.245184 -0.105021 4.067533 -0.551256 0.830531 0.079287
-1.245184 -0.105021 4.058674 -0.552171 0.833705 0.000000
-1.255164 -0.113127 4.067533 -0.704733 0.704733 0.081790
-1.255164 -0.113127 4.058674 -0.707083 0.707114 0.000000
-1.268639 -0.134769 4.072349 -0.827876 0.342906 0.443861
-1.262635 -0.123554 4.072357 -0.741661 0.495407 0.452162
-1.263270 -0.123107 4.067533 -0.830531 0.551256 0.079287
-1.269310 -0.134491 4.067533 -0.921140 0.381542 0.076815
-1.263270 -0.123107 4.058674 -0.833705 0.552171 0.000000
-1.269310 -0.134491 4.058674 -0.923856 0.382672 0.000000
-1.266624 -0.135604 4.074603 -0.474746 0.196600 0.857845
-1.260730 -0.124894 4.074635 -0.418897 0.281533 0.863247
-1.262594 -0.137273 4.075775 -0.217017 0.089877 0.972015
-1.256919 -0.127575 4.075855 -0.192114 0.130100 0.972686
-1.272324 -0.146945 4.072357 -0.874752 0.174139 0.452193
-1.270029 -0.147345 4.074635 -0.495285 0.097110 0.863277
-1.273588 -0.159601 4.072365 -0.887783 0.000000 0.460189
-1.271110 -0.159601 4.074667 -0.495895 0.000000 0.868374
-1.265439 -0.148144 4.075855 -0.227821 0.043825 0.972686
-1.266154 -0.159601 4.075934 -0.229102 0.000000 0.973388
-1.273089 -0.146812 4.067533 -0.977081 0.197455 0.079287
-1.273089 -0.146812 4.058674 -0.979980 0.199042 0.000000
-1.274414 -0.159601 4.067533 -0.996643 0.000000 0.081759
-1.274414 -0.159601 4.058674 -1.000000 0.000000 0.000000
-1.268639 -0.184432 4.072349 -0.827876 -0.342875 0.443831
-1.272324 -0.172256 4.072357 -0.874752 -0.174139 0.452162
-1.273089 -0.172390 4.067533 -0.977081 -0.197455 0.079287
-1.269310 -0.184710 4.067533 -0.921140 -0.381542 0.076785
-1.273089 -0.172390 4.058674 -0.979980 -0.199042 0.000000
-1.269310 -0.184710 4.058674 -0.923856 -0.382672 0.000000
-1.266624 -0.183597 4.074603 -0.474746 -0.196600 0.857845
-1.270029 -0.171857 4.074635 -0.495285 -0.097110 0.863277
-1.262594 -0.181928 4.075775 -0.217017 -0.089877 0.972015
-1.265439 -0.171057 4.075855 -0.227821 -0.043825 0.972686
-1.262635 -0.195648 4.072357 -0.741661 -0.495376 0.452162
-1.260730 -0.194308 4.074635 -0.418928 -0.281533 0.863247
-1.254580 -0.205490 4.072365 -0.627766 -0.627796 0.460158
-1.252828 -0.203738 4.074667 -0.350627 -0.350688 0.868343
-1.256919 -0.191627 4.075855 -0.192114 -0.130100 0.972686
-1.249324 -0.200234 4.075934 -0.161992 -0.161962 0.973388
-1.263270 -0.196095 4.067533 -0.830531 -0.551256 0.079287
-1.263270 -0.196095 4.058674 -0.833705 -0.552171 0.000000
-1.255164 -0.206074 4.067533 -0.704733 -0.704733 0.081759
-1.255164 -0.206074 4.058674 -0.707083 -0.707083 0.000000
-1.233522 -0.219549 4.072349 -0.342906 -0.827845 0.443861
-1.244738 -0.213546 4.072357 -0.495407 -0.741661 0.452162
-1.245184 -0.214181 4.067533 -0.551256 -0.830531 0.079287
-1.233800 -0.220221 4.067533 -0.381542 -0.921140 0.076785
-1.245184 -0.214181 4.058674 -0.552171 -0.833705 0.000000
-1.233800 -0.220221 4.058674 -0.382672 -0.923856 0.000000
-1.232687 -0.217534 4.074603 -0.196631 -0.474685 0.857875
-1.243397 -0.211640 4.074635 -0.281533 -0.418897 0.863247
-1.231018 -0.213504 4.075775 -0.089877 -0.217017 0.972015
-1.240717 -0.207829 4.075855 -0.130100 -0.192083 0.972686
-1.221346 -0.223235 4.072357 -0.174139 -0.874752 0.452162
-1.220947 -0.220940 4.074635 -0.097110 -0.495285 0.863247
-1.208691 -0.224498 4.072365 0.000000 -0.887814 0.460158
-1.208691 -0.222020 4.074667 0.000000 -0.495926 0.868343
-1.220147 -0.216349 4.075855 -0.043794 -0.227821 0.972686
-1.208691 -0.217065 4.075934 0.000000 -0.229072 0.973388
-1.221479 -0.224000 4.067533 -0.197455 -0.977081 0.079287
-1.221479 -0.224000 4.058674 -0.199042 -0.979980 0.000000
-1.208691 -0.225324 4.067533 0.000000 -0.996643 0.081790
-1.208691 -0.225324 4.058674 0.000000 -1.000000 0.000000
-1.183859 -0.219549 4.072349 0.342906 -0.827845 0.443892
-1.196035 -0.223235 4.072357 0.174139 -0.874752 0.452162
-1.195902 -0.224000 4.067533 0.197455 -0.977081 0.079287
-1.183581 -0.220221 4.067533 0.381542 -0.921140 0.076785
-1.195902 -0.224000 4.058674 0.199042 -0.979980 0.000000
-1.183581 -0.220221 4.058674 0.382672 -0.923856 0.000000
-1.184694 -0.217534 4.074603 0.196631 -0.474685 0.857875
-1.196434 -0.220940 4.074635 0.097110 -0.495285 0.863247
-1.186363 -0.213504 4.075775 0.089877 -0.217017 0.971984
-1.197234 -0.216349 4.075855 0.043825 -0.227821 0.972686
-1.172644 -0.213546 4.072357 0.495376 -0.741661 0.452193
-1.173984 -0.211640 4.074635 0.281503 -0.418897 0.863277
-1.162801 -0.205490 4.072365 0.627766 -0.627766 0.460158
-1.164553 -0.203738 4.074667 0.350627 -0.350688 0.868374
-1.176664 -0.207829 4.075855 0.130070 -0.192083 0.972686
-1.168057 -0.200234 4.075934 0.161962 -0.161992 0.973388
-1.172197 -0.214181 4.067533 0.551256 -0.830531 0.079287
-1.172197 -0.214181 4.058674 0.552171 -0.833705 0.000000
-1.162217 -0.206074 4.067533 0.704733 -0.704703 0.081759
-1.162217 -0.206074 4.058674 0.707083 -0.707114 0.000000
-1.148742 -0.184432 4.072349 0.827876 -0.342906 0.443861
-1.154746 -0.195648 4.072357 0.741691 -0.495376 0.452162
-1.154111 -0.196095 4.067533 0.830531 -0.551256 0.079287
-1.148071 -0.184710 4.067533 0.921140 -0.381542 0.076815
-1.154111 -0.196095 4.058674 0.833705 -0.552171 0.000000
-1.148071 -0.184710 4.058674 0.923856 -0.382672 0.000000
-1.150757 -0.183597 4.074603 0.474746 -0.196631 0.857845
-1.156651 -0.194308 4.074635 0.418928 -0.281533 0.863247
-1.154787 -0.181928 4.075775 0.216987 -0.089877 0.972015
-1.160462 -0.191627 4.075855 0.192083 -0.130100 0.972686
-1.145057 -0.172256 4.072357 0.874752 -0.174139 0.452193
-1.147352 -0.171857 4.074635 0.495285 -0.097110 0.863247
-1.143793 -0.159601 4.072365 0.887783 0.000000 0.460189
-1.146271 -0.159601 4.074667 0.495895 0.000000 0.868374
-1.151942 -0.171057 4.075855 0.227821 -0.043825 0.972686
-1.151227 -0.159601 4.075934 0.229102 0.000000 0.973388
-1.144292 -0.172390 4.067533 0.977081 -0.197455 0.079287
-1.144292 -0.172390 4.058674 0.979980 -0.199042 0.000000
-1.142967 -0.159601 4.067533 0.996643 0.000000 0.081759
-1.142967 -0.159601 4.058674 1.000000 0.000000 0.000000
-1.183859 -0.099653 4.072349 0.342906 0.827845 0.443892
-1.172644 -0.105656 4.072357 0.495376 0.741691 0.452193
-1.172197 -0.105021 4.067533 0.551256 0.830531 0.079287
-1.183581 -0.098981 4.067533 0.381542 0.921140 0.076815
-1.162801 -0.113712 4.072365 0.627735 0.627796 0.460189
-1.162217 -0.113127 4.067533 0.704733 0.704703 0.081759
-1.172197 -0.105021 4.058674 0.552171 0.833705 0.000000
-1.183581 -0.098981 4.058674 0.382672 0.923856 0.000000
-1.162217 -0.113127 4.058674 0.707083 0.707083 0.000000
-1.184694 -0.101668 4.074603 0.196631 0.474685 0.857875
-1.173984 -0.107561 4.074635 0.281503 0.418897 0.863277
-1.186363 -0.105698 4.075775 0.089877 0.217017 0.972015
-1.176664 -0.111372 4.075855 0.130100 0.192083 0.972686
-1.164553 -0.115464 4.074667 0.350597 0.350688 0.868374
-1.168057 -0.118968 4.075934 0.161992 0.161992 0.973388
-1.196035 -0.095967 4.072357 0.174139 0.874752 0.452162
-1.196434 -0.098262 4.074635 0.097110 0.495285 0.863247
-1.197234 -0.102852 4.075855 0.043794 0.227821 0.972686
-1.195902 -0.095202 4.067533 0.197455 0.977081 0.079287
-1.195902 -0.095202 4.058674 0.199042 0.979980 0.000000
-1.148742 -0.134769 4.072349 0.827876 0.342875 0.443831
-1.145057 -0.146945 4.072357 0.874752 0.174139 0.452162
-1.144292 -0.146812 4.067533 0.977081 0.197455 0.079287
-1.148071 -0.134491 4.067533 0.921140 0.381542 0.076815
-1.144292 -0.146812 4.058674 0.979980 0.199042 0.000000
-1.148071 -0.134491 4.058674 0.923856 0.382672 0.000000
-1.150757 -0.135604 4.074603 0.474746 0.196600 0.857845
-1.147352 -0.147345 4.074635 0.495285 0.097110 0.863247
-1.154787 -0.137273 4.075775 0.217017 0.089877 0.972015
-1.151942 -0.148144 4.075855 0.227821 0.043825 0.972686
-1.154746 -0.123554 4.072357 0.741661 0.495376 0.452162
-1.156651 -0.124894 4.074635 0.418897 0.281533 0.863247
-1.160462 -0.127575 4.075855 0.192083 0.130100 0.972686
-1.154111 -0.123107 4.067533 0.830531 0.551256 0.079287
-1.154111 -0.123107 4.058674 0.833705 0.552202 0.000000
-1.191943 -0.200033 4.078623 0.062746 -0.151463 0.986450
-1.189145 -0.206787 4.077344 0.073977 -0.178625 0.981109
-1.181132 -0.201478 4.077503 0.106815 -0.156987 0.981780
-1.187927 -0.193896 4.079251 0.080203 -0.128788 0.988403
-1.173897 -0.194394 4.077662 0.132023 -0.132023 0.982391
-1.182023 -0.186269 4.079593 0.102695 -0.102664 0.989380
-1.199122 -0.198533 4.079251 0.034333 -0.147771 0.988403
-1.198566 -0.208699 4.077503 0.035463 -0.186529 0.981780
-1.208691 -0.197315 4.079593 0.000000 -0.145207 0.989380
-1.208691 -0.208806 4.077662 0.000000 -0.186712 0.982391
-1.197592 -0.186396 4.080767 0.045412 -0.109684 0.992920
-1.192381 -0.175910 4.081468 0.071505 -0.071505 0.994842
-1.208691 -0.182666 4.081468 0.000000 -0.101108 0.994842
-1.208691 -0.159601 4.083426 0.000000 0.000000 1.000000
-1.225438 -0.200033 4.078623 -0.062716 -0.151463 0.986450
-1.228236 -0.206787 4.077344 -0.073946 -0.178625 0.981109
-1.218815 -0.208699 4.077503 -0.035463 -0.186529 0.981780
-1.218259 -0.198533 4.079251 -0.034333 -0.147771 0.988403
-1.229454 -0.193896 4.079251 -0.080203 -0.128788 0.988403
-1.236249 -0.201478 4.077503 -0.106784 -0.156987 0.981780
-1.235359 -0.186269 4.079593 -0.102695 -0.102664 0.989380
-1.243484 -0.194394 4.077662 -0.132023 -0.132023 0.982391
-1.219789 -0.186396 4.080767 -0.045412 -0.109684 0.992920
-1.225000 -0.175910 4.081468 -0.071505 -0.071505 0.994842
-1.225438 -0.119169 4.078623 -0.062716 0.151463 0.986450
-1.228236 -0.112414 4.077344 -0.073977 0.178625 0.981109
-1.236249 -0.117724 4.077503 -0.106815 0.156987 0.981780
-1.229454 -0.125305 4.079251 -0.080203 0.128788 0.988403
-1.243484 -0.124808 4.077662 -0.132023 0.132023 0.982391
-1.235359 -0.132933 4.079593 -0.102695 0.102664 0.989380
-1.218259 -0.120668 4.079251 -0.034303 0.147771 0.988403
-1.218815 -0.110502 4.077503 -0.035432 0.186529 0.981780
-1.208691 -0.121886 4.079593 0.000000 0.145207 0.989380
-1.208691 -0.110396 4.077662 0.000000 0.186712 0.982391
-1.219789 -0.132806 4.080767 -0.045412 0.109684 0.992920
-1.225000 -0.143291 4.081468 -0.071505 0.071505 0.994842
-1.208691 -0.136536 4.081468 0.000000 0.101108 0.994842
-1.249123 -0.176348 4.078623 -0.151433 -0.062716 0.986450
-1.255877 -0.179146 4.077344 -0.178594 -0.073977 0.981109
-1.250568 -0.187159 4.077503 -0.156987 -0.106815 0.981780
-1.242986 -0.180364 4.079251 -0.128788 -0.080172 0.988403
-1.247623 -0.169170 4.079251 -0.147771 -0.034364 0.988403
-1.257789 -0.169725 4.077503 -0.186529 -0.035463 0.981780
-1.246405 -0.159601 4.079593 -0.145238 0.000000 0.989380
-1.257895 -0.159601 4.077662 -0.186712 0.000000 0.982391
-1.235486 -0.170700 4.080767 -0.109684 -0.045412 0.992920
-1.231755 -0.159601 4.081468 -0.101138 0.000000 0.994842
-1.249123 -0.142853 4.078623 -0.151433 0.062716 0.986450
-1.255877 -0.140055 4.077344 -0.178594 0.073977 0.981109
-1.257789 -0.149476 4.077503 -0.186529 0.035463 0.981780
-1.247623 -0.150032 4.079251 -0.147771 0.034333 0.988403
-1.242986 -0.138838 4.079251 -0.128788 0.080172 0.988403
-1.250568 -0.132042 4.077503 -0.156987 0.106815 0.981780
-1.235485 -0.148502 4.080767 -0.109684 0.045412 0.992920
-1.191943 -0.119169 4.078623 0.062716 0.151463 0.986450
-1.189145 -0.112414 4.077344 0.073946 0.178625 0.981109
-1.198566 -0.110502 4.077503 0.035432 0.186529 0.981780
-1.199122 -0.120668 4.079251 0.034303 0.147771 0.988403
-1.187927 -0.125305 4.079251 0.080203 0.128788 0.988403
-1.181132 -0.117724 4.077503 0.106815 0.156987 0.981780
-1.182023 -0.132933 4.079593 0.102664 0.102664 0.989380
-1.173897 -0.124808 4.077662 0.132023 0.132023 0.982391
-1.197592 -0.132806 4.080767 0.045412 0.109684 0.992920
-1.192381 -0.143291 4.081468 0.071505 0.071505 0.994873
-1.168259 -0.142853 4.078623 0.151433 0.062716 0.986450
-1.161504 -0.140055 4.077344 0.178594 0.073977 0.981109
-1.166814 -0.132042 4.077503 0.156987 0.106815 0.981780
-1.174395 -0.138838 4.079251 0.128758 0.080172 0.988403
-1.169758 -0.150032 4.079251 0.147771 0.034333 0.988403
-1.159592 -0.149476 4.077503 0.186529 0.035463 0.981780
-1.170976 -0.159601 4.079593 0.145238 0.000000 0.989380
-1.159486 -0.159601 4.077662 0.186712 0.000000 0.982391
-1.181896 -0.148502 4.080767 0.109684 0.045412 0.992920
-1.185626 -0.159601 4.081468 0.101138 0.000000 0.994842
-1.168259 -0.176348 4.078623 0.151463 -0.062716 0.986450
-1.161504 -0.179146 4.077344 0.178594 -0.073977 0.981109
-1.159592 -0.169725 4.077503 0.186529 -0.035463 0.981780
-1.169758 -0.169170 4.079251 0.147771 -0.034333 0.988403
-1.174395 -0.180364 4.079251 0.128788 -0.080172 0.988403
-1.166814 -0.187159 4.077503 0.156987 -0.106815 0.981780
-1.181896 -0.170700 4.080767 0.109684 -0.045412 0.992920
-1.233800 -0.098981 4.025776 -0.382672 0.923856 0.000000
-1.221479 -0.095202 4.025776 -0.199042 0.979980 0.000000
-1.221479 -0.095202 4.004495 -0.199042 0.979980 0.000000
-1.233800 -0.098981 4.004495 -0.382672 0.923856 0.000000
-1.208691 -0.093878 4.025776 0.000000 1.000000 0.000000
-1.208691 -0.093878 4.004495 0.000000 1.000000 0.000000
-1.221479 -0.095202 3.981835 -0.199042 0.979980 0.000000
-1.233800 -0.098981 3.981835 -0.382672 0.923856 0.000000
-1.208691 -0.093878 3.981835 0.000000 1.000000 0.000000
-1.233800 -0.098981 4.044295 -0.382672 0.923856 0.000000
-1.221479 -0.095202 4.044295 -0.199042 0.979980 0.000000
-1.208691 -0.093878 4.044295 0.000000 1.000000 0.000000
-1.245184 -0.105021 4.025776 -0.552171 0.833705 0.000000
-1.245184 -0.105021 4.044295 -0.552171 0.833705 0.000000
-1.255164 -0.113127 4.025776 -0.707083 0.707083 0.000000
-1.255164 -0.113127 4.044295 -0.707083 0.707083 0.000000
-1.245184 -0.105021 4.004495 -0.552171 0.833705 0.000000
-1.245184 -0.105021 3.981835 -0.552171 0.833705 0.000000
-1.255164 -0.113127 4.004495 -0.707083 0.707083 0.000000
-1.255164 -0.113127 3.981835 -0.707083 0.707083 0.000000
-1.269310 -0.134491 4.025776 -0.923856 0.382672 0.000000
-1.263270 -0.123107 4.025776 -0.833705 0.552171 0.000000
-1.263270 -0.123107 4.004495 -0.833705 0.552171 0.000000
-1.269310 -0.134491 4.004495 -0.923856 0.382672 0.000000
-1.263270 -0.123107 3.981835 -0.833705 0.552171 0.000000
-1.269310 -0.134491 3.981835 -0.923856 0.382672 0.000000
-1.269310 -0.134491 4.044295 -0.923856 0.382672 0.000000
-1.263270 -0.123107 4.044295 -0.833705 0.552171 0.000000
-1.273089 -0.146812 4.025776 -0.979980 0.199042 0.000000
-1.273089 -0.146812 4.044295 -0.979980 0.199042 0.000000
-1.274414 -0.159601 4.025776 -1.000000 0.000000 0.000000
-1.274414 -0.159601 4.044295 -1.000000 0.000000 0.000000
-1.273089 -0.146812 4.004495 -0.979980 0.199042 0.000000
-1.273089 -0.146812 3.981835 -0.979980 0.199042 0.000000
-1.274414 -0.159601 4.004495 -1.000000 0.000000 0.000000
-1.274414 -0.159601 3.981835 -1.000000 0.000000 0.000000
-1.269310 -0.184710 4.025776 -0.923856 -0.382672 0.000000
-1.273089 -0.172390 4.025776 -0.979980 -0.199042 0.000000
-1.273089 -0.172390 4.004495 -0.979980 -0.199042 0.000000
-1.269310 -0.184710 4.004495 -0.923856 -0.382672 0.000000
-1.273089 -0.172390 3.981835 -0.979980 -0.199042 0.000000
-1.269310 -0.184710 3.981835 -0.923856 -0.382672 0.000000
-1.269310 -0.184710 4.044295 -0.923856 -0.382672 0.000000
-1.273089 -0.172390 4.044295 -0.979980 -0.199042 0.000000
-1.263270 -0.196095 4.025776 -0.833705 -0.552171 0.000000
-1.263270 -0.196095 4.044295 -0.833705 -0.552171 0.000000
-1.255164 -0.206074 4.025776 -0.707083 -0.707083 0.000000
-1.255164 -0.206074 4.044295 -0.707083 -0.707083 0.000000
-1.263270 -0.196095 4.004495 -0.833705 -0.552171 0.000000
-1.263270 -0.196095 3.981835 -0.833705 -0.552171 0.000000
-1.255164 -0.206074 4.004495 -0.707083 -0.707083 0.000000
-1.255164 -0.206074 3.981835 -0.707083 -0.707083 0.000000
-1.233800 -0.220221 4.025776 -0.382672 -0.923856 0.000000
-1.245184 -0.214181 4.025776 -0.552171 -0.833705 0.000000
-1.245184 -0.214181 4.004495 -0.552171 -0.833705 0.000000
-1.233800 -0.220221 4.004495 -0.382672 -0.923856 0.000000
-1.245184 -0.214181 3.981835 -0.552171 -0.833705 0.000000
-1.233800 -0.220221 3.981835 -0.382672 -0.923856 0.000000
-1.233800 -0.220221 4.044295 -0.382672 -0.923856 0.000000
-1.245184 -0.214181 4.044295 -0.552171 -0.833705 0.000000
-1.221479 -0.224000 4.025776 -0.199042 -0.979980 0.000000
-1.221479 -0.224000 4.044295 -0.199042 -0.979980 0.000000
-1.208691 -0.225324 4.025776 0.000000 -0.999969 0.000000
-1.208691 -0.225324 4.044295 0.000000 -1.000000 0.000000
-1.221479 -0.224000 4.004495 -0.199042 -0.979980 0.000000
-1.221479 -0.224000 3.981835 -0.199042 -0.979980 0.000000
-1.208691 -0.225324 4.004495 0.000000 -1.000000 0.000000
-1.208691 -0.225324 3.981835 0.000000 -0.999969 0.000000
-1.183581 -0.220221 4.025776 0.382672 -0.923856 0.000000
-1.195902 -0.224000 4.025776 0.199042 -0.979980 0.000000
-1.195902 -0.224000 4.004495 0.199042 -0.979980 0.000000
-1.183581 -0.220221 4.004495 0.382672 -0.923856 0.000000
-1.195902 -0.224000 3.981835 0.199042 -0.979980 0.000000
-1.183581 -0.220221 3.981835 0.382672 -0.923856 0.000000
-1.183581 -0.220221 4.044295 0.382672 -0.923856 0.000000
-1.195902 -0.224000 4.044295 0.199042 -0.979980 0.000000
-1.172197 -0.214181 4.025776 0.552171 -0.833705 0.000000
-1.172197 -0.214181 4.044295 0.552171 -0.833705 0.000000
-1.162217 -0.206074 4.025776 0.707083 -0.707083 0.000000
-1.162217 -0.206074 4.044295 0.707083 -0.707083 0.000000
-1.172197 -0.214181 4.004495 0.552171 -0.833705 0.000000
-1.172197 -0.214181 3.981835 0.552171 -0.833705 0.000000
-1.162217 -0.206074 4.004495 0.707083 -0.707083 0.000000
-1.162217 -0.206074 3.981835 0.707083 -0.707083 0.000000
-1.148071 -0.184710 4.025776 0.923856 -0.382672 0.000000
-1.154111 -0.196095 4.025776 0.833705 -0.552171 0.000000
-1.154111 -0.196095 4.004495 0.833705 -0.552171 0.000000
-1.148071 -0.184710 4.004495 0.923856 -0.382672 0.000000
-1.154111 -0.196095 3.981835 0.833705 -0.552171 0.000000
-1.148071 -0.184710 3.981835 0.923856 -0.382672 0.000000
-1.148071 -0.184710 4.044295 0.923856 -0.382672 0.000000
-1.154111 -0.196095 4.044295 0.833705 -0.552171 0.000000
-1.144292 -0.172390 4.025776 0.979980 -0.199042 0.000000
-1.144292 -0.172390 4.044295 0.979980 -0.199042 0.000000
-1.142967 -0.159601 4.025776 1.000000 0.000000 0.000000
-1.142967 -0.159601 4.044295 1.000000 0.000000 0.000000
-1.144292 -0.172390 4.004495 0.979980 -0.199042 0.000000
-1.144292 -0.172390 3.981835 0.979980 -0.199042 0.000000
-1.142967 -0.159601 4.004495 1.000000 0.000000 0.000000
-1.142967 -0.159601 3.981835 1.000000 0.000000 0.000000
-1.183581 -0.098981 4.025776 0.382672 0.923856 0.000000
-1.172197 -0.105021 4.025776 0.552171 0.833705 0.000000
-1.172197 -0.105021 4.004495 0.552171 0.833705 0.000000
-1.183581 -0.098981 4.004495 0.382672 0.923856 0.000000
-1.162217 -0.113127 4.025776 0.707083 0.707083 0.000000
-1.162217 -0.113127 4.004495 0.707083 0.707083 0.000000
-1.172197 -0.105021 3.981835 0.552171 0.833705 0.000000
-1.183581 -0.098981 3.981835 0.382672 0.923856 0.000000
-1.162217 -0.113128 3.981835 0.707083 0.707083 0.000000
-1.183581 -0.098981 4.044295 0.382672 0.923856 0.000000
-1.172197 -0.105021 4.044295 0.552171 0.833705 0.000000
-1.162217 -0.113127 4.044295 0.707083 0.707083 0.000000
-1.195902 -0.095202 4.025776 0.199042 0.979980 0.000000
-1.195902 -0.095202 4.044295 0.199042 0.979980 0.000000
-1.195902 -0.095202 4.004495 0.199042 0.979980 0.000000
-1.195902 -0.095202 3.981835 0.199042 0.979980 0.000000
-1.148071 -0.134491 4.025776 0.923856 0.382672 0.000000
-1.144292 -0.146812 4.025776 0.979980 0.199042 0.000000
-1.144292 -0.146812 4.004495 0.979980 0.199042 0.000000
-1.148071 -0.134491 4.004495 0.923856 0.382672 0.000000
-1.144292 -0.146812 3.981835 0.979980 0.199042 0.000000
-1.148071 -0.134491 3.981835 0.923856 0.382672 0.000000
-1.148071 -0.134491 4.044295 0.923856 0.382672 0.000000
-1.144292 -0.146812 4.044295 0.979980 0.199042 0.000000
-1.154111 -0.123107 4.025776 0.833705 0.552171 0.000000
-1.154111 -0.123107 4.044295 0.833705 0.552171 0.000000
-1.154111 -0.123107 4.004495 0.833705 0.552171 0.000000
-1.154111 -0.123107 3.981835 0.833705 0.552171 0.000000
4 0 1 2 3
4 3 2 4 5
4 1 6 7 2
4 2 7 8 4
4 0 3 9 10
4 10 9 11 12
4 3 5 13 9
4 9 13 14 11
4 0 10 15 16
4 16 15 17 18
4 10 12 19 15
4 15 19 20 17
4 0 16 21 1
4 1 21 22 6
4 16 18 23 21
4 21 23 24 22
4 25 26 27 28
4 28 27 23 18
4 26 29 30 27
4 27 30 24 23
4 25 28 31 32
4 32 31 33 34
4 28 18 17 31
4 31 17 20 33
4 25 32 35 36
4 36 35 37 38
4 32 34 39 35
4 35 39 40 37
4 25 36 41 26
4 26 41 42 29
4 36 38 43 41
4 41 43 44 42
4 45 46 47 48
4 48 47 43 38
4 46 49 50 47
4 47 50 44 43
4 45 48 51 52
4 52 51 53 54
4 48 38 37 51
4 51 37 40 53
4 45 52 55 56
4 56 55 57 58
4 52 54 59 55
4 55 59 60 57
4 45 56 61 46
4 46 61 62 49
4 56 58 63 61
4 61 63 64 62
4 65 66 67 68
4 68 67 63 58
4 66 69 70 67
4 67 70 64 63
4 65 68 71 72
4 72 71 73 74
4 68 58 57 71
4 71 57 60 73
4 65 72 75 76
4 76 75 77 78
4 72 74 79 75
4 75 79 80 77
4 65 76 81 66
4 66 81 82 69
4 76 78 83 81
4 81 83 84 82
4 85 86 87 88
4 88 87 83 78
4 86 89 90 87
4 87 90 84 83
4 85 88 91 92
4 92 91 93 94
4 88 78 77 91
4 91 77 80 93
4 85 92 95 96
4 96 95 97 98
4 92 94 99 95
4 95 99 100 97
4 85 96 101 86
4 86 101 102 89
4 96 98 103 101
4 101 103 104 102
4 105 106 107 108
4 108 107 103 98
4 106 109 110 107
4 107 110 104 103
4 105 108 111 112
4 112 111 113 114
4 108 98 97 111
4 111 97 100 113
4 105 112 115 116
4 116 115 117 118
4 112 114 119 115
4 115 119 120 117
4 105 116 121 106
4 106 121 122 109
4 116 118 123 121
4 121 123 124 122
4 125 126 127 128
4 128 127 129 130
4 126 131 132 127
4 127 132 133 129
4 125 128 134 135
4 135 134 136 137
4 128 130 138 134
4 134 138 139 136
4 125 135 140 141
4 141 140 13 5
4 135 137 142 140
4 140 142 14 13
4 125 141 143 126
4 126 143 144 131
4 141 5 4 143
4 143 4 8 144
4 145 146 147 148
4 148 147 123 118
4 146 149 150 147
4 147 150 124 123
4 145 148 151 152
4 152 151 153 154
4 148 118 117 151
4 151 117 120 153
4 145 152 155 156
4 156 155 138 130
4 152 154 157 155
4 155 157 139 138
4 145 156 158 146
4 146 158 159 149
4 156 130 129 158
4 158 129 133 159
4 160 161 162 163
4 163 162 99 94
4 161 164 165 162
4 162 165 100 99
4 160 163 166 167
4 167 166 168 169
4 163 94 93 166
4 166 93 80 168
4 160 167 170 161
4 161 170 171 164
4 167 169 172 170
4 170 172 173 171
4 174 175 176 177
4 177 176 79 74
4 175 169 168 176
4 176 168 80 79
4 174 177 178 179
4 179 178 180 181
4 177 74 73 178
4 178 73 60 180
4 174 179 182 175
4 175 182 172 169
4 179 181 183 182
4 182 183 173 172
4 184 185 186 187
4 187 186 19 12
4 185 188 189 186
4 186 189 20 19
4 184 187 190 191
4 191 190 192 193
4 187 12 11 190
4 190 11 14 192
4 184 191 194 185
4 185 194 195 188
4 191 193 196 194
4 194 196 173 195
4 197 198 199 200
4 200 199 59 54
4 198 181 180 199
4 199 180 60 59
4 197 200 201 202
4 202 201 203 204
4 200 54 53 201
4 201 53 40 203
4 197 202 205 198
4 198 205 183 181
4 202 204 206 205
4 205 206 173 183
4 207 208 209 210
4 210 209 39 34
4 208 204 203 209
4 209 203 40 39
4 207 210 211 212
4 212 211 189 188
4 210 34 33 211
4 211 33 20 189
4 207 212 213 208
4 208 213 206 204
4 212 188 195 213
4 213 195 173 206
4 214 215 216 217
4 217 216 142 137
4 215 193 192 216
4 216 192 14 142
4 214 217 218 219
4 219 218 220 221
4 217 137 136 218
4 218 136 139 220
4 214 219 222 215
4 215 222 196 193
4 219 221 223 222
4 222 223 173 196
4 224 225 226 227
4 227 226 157 154
4 225 221 220 226
4 226 220 139 157
4 224 227 228 229
4 229 228 230 231
4 227 154 153 228
4 228 153 120 230
4 224 229 232 225
4 225 232 223 221
4 229 231 233 232
4 232 233 173 223
4 234 235 236 237
4 237 236 119 114
4 235 231 230 236
4 236 230 120 119
4 234 237 238 239
4 239 238 165 164
4 237 114 113 238
4 238 113 100 165
4 234 239 240 235
4 235 240 233 231
4 239 164 171 240
4 240 171 173 233
4 241 242 243 244
4 244 243 245 246
4 242 247 248 243
4 243 248 249 245
4 241 244 250 251
4 251 250 7 6
4 244 246 252 250
4 250 252 8 7
4 241 251 253 254
4 254 253 255 256
4 251 6 22 253
4 253 22 24 255
4 241 254 257 242
4 242 257 258 247
4 254 256 259 257
4 257 259 260 258
4 261 262 263 264
4 264 263 259 256
4 262 265 266 263
4 263 266 260 259
4 261 264 267 268
4 268 267 30 29
4 264 256 255 267
4 267 255 24 30
4 261 268 269 270
4 270 269 271 272
4 268 29 42 269
4 269 42 44 271
4 261 270 273 262
4 262 273 274 265
4 270 272 275 273
4 273 275 276 274
4 277 278 279 280
4 280 279 275 272
4 278 281 282 279
4 279 282 276 275
4 277 280 283 284
4 284 283 50 49
4 280 272 271 283
4 283 271 44 50
4 277 284 285 286
4 286 285 287 288
4 284 49 62 285
4 285 62 64 287
4 277 286 289 278
4 278 289 290 281
4 286 288 291 289
4 289 291 292 290
4 293 294 295 296
4 296 295 291 288
4 294 297 298 295
4 295 298 292 291
4 293 296 299 300
4 300 299 70 69
4 296 288 287 299
4 299 287 64 70
4 293 300 301 302
4 302 301 303 304
4 300 69 82 301
4 301 82 84 303
4 293 302 305 294
4 294 305 306 297
4 302 304 307 305
4 305 307 308 306
4 309 310 311 312
4 312 311 307 304
4 310 313 314 311
4 311 314 308 307
4 309 312 315 316
4 316 315 90 89
4 312 304 303 315
4 315 303 84 90
4 309 316 317 318
4 318 317 319 320
4 316 89 102 317
4 317 102 104 319
4 309 318 321 310
4 310 321 322 313
4 318 320 323 321
4 321 323 324 322
4 325 326 327 328
4 328 327 323 320
4 326 329 330 327
4 327 330 324 323
4 325 328 331 332
4 332 331 110 109
4 328 320 319 331
4 331 319 104 110
4 325 332 333 334
4 334 333 335 336
4 332 109 122 333
4 333 122 124 335
4 325 334 337 326
4 326 337 338 329
4 334 336 339 337
4 337 339 340 338
4 341 342 343 344
4 344 343 345 346
4 342 347 348 343
4 343 348 349 345
4 341 344 350 351
4 351 350 132 131
4 344 346 352 350
4 350 352 133 132
4 341 351 353 354
4 354 353 252 246
4 351 131 144 353
4 353 144 8 252
4 341 354 355 342
4 342 355 356 347
4 354 246 245 355
4 355 245 249 356
4 357 358 359 360
4 360 359 339 336
4 358 361 362 359
4 359 362 340 339
4 357 360 363 364
4 364 363 150 149
4 360 336 335 363
4 363 335 124 150
4 357 364 365 366
4 366 365 352 346
4 364 149 159 365
4 365 159 133 352
4 357 366 367 358
4 358 367 368 361
4 366 346 345 367
4 367 345 349 368
4 369 370 371 372
4 370 373 374 371
4 372 371 375 376
4 371 374 377 375
4 369 378 379 370
4 378 380 381 379
4 370 379 382 373
4 379 381 383 382
4 369 384 385 378
4 384 386 387 385
4 378 385 388 380
4 385 387 389 388
4 369 372 390 384
4 372 376 391 390
4 384 390 392 386
4 390 391 393 392
4 394 395 396 397
4 395 386 392 396
4 397 396 398 399
4 396 392 393 398
4 394 400 401 395
4 400 402 403 401
4 395 401 387 386
4 401 403 389 387
4 394 404 405 400
4 404 406 407 405
4 400 405 408 402
4 405 407 409 408
4 394 397 410 404
4 397 399 411 410
4 404 410 412 406
4 410 411 413 412
4 414 415 416 417
4 415 406 412 416
4 417 416 418 419
4 416 412 413 418
4 414 420 421 415
4 420 422 423 421
4 415 421 407 406
4 421 423 409 407
4 414 424 425 420
4 424 426 427 425
4 420 425 428 422
4 425 427 429 428
4 414 417 430 424
4 417 419 431 430
4 424 430 432 426
4 430 431 433 432
4 434 435 436 437
4 435 426 432 436
4 437 436 438 439
4 436 432 433 438
4 434 440 441 435
4 440 442 443 441
4 435 441 427 426
4 441 443 429 427
4 434 444 445 440
4 444 446 447 445
4 440 445 448 442
4 445 447 449 448
4 434 437 450 444
4 437 439 451 450
4 444 450 452 446
4 450 451 453 452
4 454 455 456 457
4 455 446 452 456
4 457 456 458 459
4 456 452 453 458
4 454 460 461 455
4 460 462 463 461
4 455 461 447 446
4 461 463 449 447
4 454 464 465 460
4 464 466 467 465
4 460 465 468 462
4 465 467 469 468
4 454 457 470 464
4 457 459 471 470
4 464 470 472 466
4 470 471 473 472
4 474 475 476 477
4 475 466 472 476
4 477 476 478 479
4 476 472 473 478
4 474 480 481 475
4 480 482 483 481
4 475 481 467 466
4 481 483 469 467
4 474 484 485 480
4 484 486 487 485
4 480 485 488 482
4 485 487 489 488
4 474 477 490 484
4 477 479 491 490
4 484 490 492 486
4 490 491 493 492
4 494 495 496 497
4 495 498 499 496
4 497 496 500 501
4 496 499 502 500
4 494 503 504 495
4 503 505 506 504
4 495 504 507 498
4 504 506 508 507
4 494 509 510 503
4 509 373 382 510
4 503 510 511 505
4 510 382 383 511
4 494 497 512 509
4 497 501 513 512
4 509 512 374 373
4 512 513 377 374
4 514 515 516 517
4 515 486 492 516
4 517 516 518 519
4 516 492 493 518
4 514 520 521 515
4 520 522 523 521
4 515 521 487 486
4 521 523 489 487
4 514 524 525 520
4 524 498 507 525
4 520 525 526 522
4 525 507 508 526
4 514 517 527 524
4 517 519 528 527
4 524 527 499 498
4 527 528 502 499
4 529 530 531 532
4 530 462 468 531
4 532 531 533 534
4 531 468 469 533
4 529 535 536 530
4 535 537 538 536
4 530 536 463 462
4 536 538 449 463
4 529 532 539 535
4 532 534 540 539
4 535 539 541 537
4 539 540 542 541
4 543 544 545 546
4 544 442 448 545
4 546 545 538 537
4 545 448 449 538
4 543 547 548 544
4 547 549 550 548
4 544 548 443 442
4 548 550 429 443
4 543 546 551 547
4 546 537 541 551
4 547 551 552 549
4 551 541 542 552
4 553 554 555 556
4 554 380 388 555
4 556 555 557 558
4 555 388 389 557
4 553 559 560 554
4 559 561 562 560
4 554 560 381 380
4 560 562 383 381
4 553 556 563 559
4 556 558 564 563
4 559 563 565 561
4 563 564 542 565
4 566 567 568 569
4 567 422 428 568
4 569 568 550 549
4 568 428 429 550
4 566 570 571 567
4 570 572 573 571
4 567 571 423 422
4 571 573 409 423
4 566 569 574 570
4 569 549 552 574
4 570 574 575 572
4 574 552 542 575
4 576 577 578 579
4 577 402 408 578
4 579 578 573 572
4 578 408 409 573
4 576 580 581 577
4 580 558 557 581
4 577 581 403 402
4 581 557 389 403
4 576 579 582 580
4 579 572 575 582
4 580 582 564 558
4 582 575 542 564
4 583 584 585 586
4 584 505 511 585
4 586 585 562 561
4 585 511 383 562
4 583 587 588 584
4 587 589 590 588
4 584 588 506 505
4 588 590 508 506
4 583 586 591 587
4 586 561 565 591
4 587 591 592 589
4 591 565 542 592
4 593 594 595 596
4 594 522 526 595
4 596 595 590 589
4 595 526 508 590
4 593 597 598 594
4 597 599 600 598
4 594 598 523 522
4 598 600 489 523
4 593 596 601 597
4 596 589 592 601
4 597 601 602 599
4 601 592 542 602
4 603 604 605 606
4 604 482 488 605
4 606 605 600 599
4 605 488 489 600
4 603 607 608 604
4 607 534 533 608
4 604 608 483 482
4 608 533 469 483
4 603 606 609 607
4 606 599 602 609
4 607 609 540 534
4 609 602 542 540
4 610 611 612 613
4 611 614 615 612
4 613 612 616 617
4 612 615 618 616
4 610 619 620 611
4 619 376 375 620
4 611 620 621 614
4 620 375 377 621
4 610 622 623 619
4 622 624 625 623
4 619 623 391 376
4 623 625 393 391
4 610 613 626 622
4 613 617 627 626
4 622 626 628 624
4 626 627 629 628
4 630 631 632 633
4 631 624 628 632
4 633 632 634 635
4 632 628 629 634
4 630 636 637 631
4 636 399 398 637
4 631 637 625 624
4 637 398 393 625
4 630 638 639 636
4 638 640 641 639
4 636 639 411 399
4 639 641 413 411
4 630 633 642 638
4 633 635 643 642
4 638 642 644 640
4 642 643 645 644
4 646 647 648 649
4 647 640 644 648
4 649 648 650 651
4 648 644 645 650
4 646 652 653 647
4 652 419 418 653
4 647 653 641 640
4 653 418 413 641
4 646 654 655 652
4 654 656 657 655
4 652 655 431 419
4 655 657 433 431
4 646 649 658 654
4 649 651 659 658
4 654 658 660 656
4 658 659 661 660
4 662 663 664 665
4 663 656 660 664
4 665 664 666 667
4 664 660 661 666
4 662 668 669 663
4 668 439 438 669
4 663 669 657 656
4 669 438 433 657
4 662 670 671 668
4 670 672 673 671
4 668 671 451 439
4 671 673 453 451
4 662 665 674 670
4 665 667 675 674
4 670 674 676 672
4 674 675 677 676
4 678 679 680 681
4 679 672 676 680
4 681 680 682 683
4 680 676 677 682
4 678 684 685 679
4 684 459 458 685
4 679 685 673 672
4 685 458 453 673
4 678 686 687 684
4 686 688 689 687
4 684 687 471 459
4 687 689 473 471
4 678 681 690 686
4 681 683 691 690
4 686 690 692 688
4 690 691 693 692
4 694 695 696 697
4 695 688 692 696
4 697 696 698 699
4 696 692 693 698
4 694 700 701 695
4 700 479 478 701
4 695 701 689 688
4 701 478 473 689
4 694 702 703 700
4 702 704 705 703
4 700 703 491 479
4 703 705 493 491
4 694 697 706 702
4 697 699 707 706
4 702 706 708 704
4 706 707 709 708
4 710 711 712 713
4 711 714 715 712
4 713 712 716 717
4 712 715 718 716
4 710 719 720 711
4 719 501 500 720
4 711 720 721 714
4 720 500 502 721
4 710 722 723 719
4 722 614 621 723
4 719 723 513 501
4 723 621 377 513
4 710 713 724 722
4 713 717 725 724
4 722 724 615 614
4 724 725 618 615
4 726 727 728 729
4 727 704 708 728
4 729 728 730 731
4 728 708 709 730
4 726 732 733 727
4 732 519 518 733
4 727 733 705 704
4 733 518 493 705
4 726 734 735 732
4 734 714 721 735
4 732 735 528 519
4 735 721 502 528
4 726 729 736 734
4 729 731 737 736
4 734 736 715 714
4 736 737 718 715
