ply
format ascii 1.0
comment Created by Blender 2.79 (sub 0) - www.blender.org, source file: 'm3_v2.blend'
element vertex 1024
property float x
property float y
property float z
property float nx
property float ny
property float nz
element face 1024
property list uchar uint vertex_indices
end_header
1.276936 -0.131315 4.077881 0.676351 0.280129 0.681173
1.281166 -0.145105 4.077881 0.717338 0.145695 0.681295
1.282333 -0.144873 4.076120 0.898587 0.182470 0.398999
1.278035 -0.130859 4.076120 0.847163 0.350902 0.398877
1.282806 -0.144779 4.074109 0.979980 0.198981 0.000000
1.278480 -0.130675 4.074109 0.923856 0.382672 0.000000
1.282648 -0.159420 4.077881 0.731895 0.000000 0.681387
1.283840 -0.159420 4.076120 0.916898 0.000000 0.399091
1.284322 -0.159420 4.074109 0.999969 0.000000 0.000000
1.271165 -0.117911 4.076120 0.764428 0.506333 0.399030
1.270175 -0.118573 4.077881 0.610248 0.404157 0.681295
1.261944 -0.106560 4.076120 0.648335 0.648335 0.399091
1.261102 -0.107403 4.077881 0.517533 0.517533 0.681387
1.271566 -0.117643 4.074109 0.833674 0.552232 0.000000
1.262286 -0.106219 4.074109 0.707083 0.707083 0.000000
1.268808 -0.119487 4.079138 0.377636 0.250099 0.891507
1.275417 -0.131944 4.079138 0.418470 0.173345 0.891507
1.267275 -0.120512 4.079641 0.010498 0.006867 0.999908
1.273715 -0.132649 4.079641 0.011261 0.004669 0.999908
1.259938 -0.108567 4.079138 0.320444 0.320444 0.891385
1.258632 -0.109872 4.079641 0.009552 0.009613 0.999878
1.279552 -0.145426 4.079138 0.443892 0.090182 0.891507
1.281001 -0.159420 4.079138 0.453200 0.000000 0.891385
1.277744 -0.145785 4.079641 0.012299 0.002564 0.999908
1.279155 -0.159420 4.079641 0.013581 0.000000 0.999878
1.270647 -0.133920 4.077881 -0.692404 -0.286782 0.662038
1.274485 -0.146432 4.077881 -0.734153 -0.149144 0.662374
1.275989 -0.146133 4.079138 -0.443068 -0.089969 0.891934
1.272063 -0.133333 4.079138 -0.418043 -0.173162 0.891751
1.275830 -0.159420 4.077881 -0.748527 0.000000 0.663045
1.277365 -0.159420 4.079138 -0.451125 0.000000 0.892422
1.265788 -0.121506 4.079138 -0.376843 -0.249641 0.891995
1.264513 -0.122359 4.077881 -0.624592 -0.413648 0.662343
1.257366 -0.111138 4.079138 -0.319010 -0.318949 0.892453
1.256281 -0.112224 4.077881 -0.529313 -0.529283 0.663045
1.263616 -0.122959 4.076120 -0.773186 -0.512040 0.374126
1.269650 -0.134333 4.076120 -0.856868 -0.354900 0.373852
1.263261 -0.123196 4.074109 -0.833735 -0.552141 0.000000
1.269256 -0.134496 4.074109 -0.923856 -0.382672 0.000000
1.255516 -0.112988 4.076120 -0.655568 -0.655599 0.374676
1.255214 -0.113290 4.074109 -0.707083 -0.707114 0.000000
1.273425 -0.146642 4.076120 -0.908780 -0.184637 0.374157
1.274749 -0.159420 4.076120 -0.927122 0.000000 0.374706
1.273007 -0.146725 4.074109 -0.979949 -0.199103 0.000000
1.274322 -0.159420 4.074109 -1.000000 0.000000 0.000000
1.270647 -0.133920 4.070336 -0.692434 -0.286813 -0.662008
1.274485 -0.146432 4.070336 -0.734184 -0.149144 -0.662343
1.273426 -0.146642 4.072097 -0.908780 -0.184637 -0.374157
1.269650 -0.134333 4.072097 -0.856868 -0.354900 -0.373882
1.275830 -0.159420 4.070336 -0.748589 0.000000 -0.662984
1.274749 -0.159420 4.072097 -0.927122 0.000000 -0.374706
1.263615 -0.122959 4.072097 -0.773186 -0.512040 -0.374126
1.264513 -0.122359 4.070336 -0.624622 -0.413678 -0.662313
1.255516 -0.112988 4.072097 -0.655568 -0.655568 -0.374676
1.256281 -0.112224 4.070336 -0.529344 -0.529313 -0.662984
1.265788 -0.121506 4.069078 -0.376843 -0.249611 -0.891995
1.272063 -0.133333 4.069078 -0.417982 -0.173132 -0.891781
1.267275 -0.120512 4.068576 0.010529 0.006928 -0.999908
1.273715 -0.132649 4.068576 0.011322 0.004669 -0.999908
1.257366 -0.111138 4.069078 -0.318949 -0.318918 -0.892483
1.258632 -0.109872 4.068576 0.009613 0.009583 -0.999878
1.275989 -0.146133 4.069079 -0.442976 -0.089938 -0.891995
1.277365 -0.159420 4.069078 -0.451064 0.000000 -0.892483
1.277744 -0.145785 4.068576 0.012329 0.002564 -0.999908
1.279155 -0.159420 4.068576 0.013550 0.000000 -0.999878
1.276936 -0.131315 4.070336 0.676382 0.280160 -0.681143
1.278035 -0.130859 4.072097 0.847194 0.350902 -0.398877
1.282333 -0.144873 4.072097 0.898587 0.182501 -0.398999
1.281166 -0.145105 4.070336 0.717368 0.145726 -0.681234
1.283840 -0.159420 4.072097 0.916898 0.000000 -0.399060
1.282648 -0.159420 4.070336 0.731986 0.000000 -0.681295
1.279552 -0.145426 4.069078 0.443892 0.090182 -0.891507
1.275417 -0.131944 4.069078 0.418500 0.173345 -0.891507
1.281001 -0.159420 4.069078 0.453169 0.000000 -0.891415
1.268808 -0.119487 4.069079 0.377667 0.250069 -0.891507
1.270176 -0.118573 4.070336 0.610309 0.404187 -0.681234
1.259938 -0.108567 4.069078 0.320475 0.320444 -0.891385
1.261102 -0.107403 4.070336 0.517624 0.517563 -0.681295
1.271165 -0.117911 4.072097 0.764458 0.506333 -0.398999
1.261944 -0.106560 4.072097 0.648335 0.648335 -0.399091
1.237190 -0.091569 4.077881 0.280129 0.676351 0.681204
1.249932 -0.098329 4.077881 0.404157 0.610248 0.681326
1.250594 -0.097339 4.076120 0.506302 0.764458 0.399030
1.237645 -0.090469 4.076120 0.350902 0.847163 0.398877
1.250861 -0.096939 4.074109 0.552202 0.833674 0.000000
1.237829 -0.090025 4.074109 0.382672 0.923856 0.000000
1.223631 -0.086171 4.076120 0.182501 0.898587 0.398999
1.223399 -0.087339 4.077881 0.145695 0.717307 0.681326
1.209085 -0.084665 4.076120 0.000000 0.916898 0.399091
1.209085 -0.085857 4.077881 0.000000 0.731925 0.681356
1.223725 -0.085699 4.074109 0.198981 0.979980 0.000000
1.209085 -0.084183 4.074109 0.000000 0.999969 0.000000
1.223079 -0.088952 4.079138 0.090213 0.443892 0.891507
1.236561 -0.093087 4.079138 0.173315 0.418500 0.891507
1.222720 -0.090761 4.079641 0.002594 0.012329 0.999908
1.235855 -0.094790 4.079641 0.004700 0.011292 0.999908
1.209085 -0.087503 4.079138 0.000000 0.453200 0.891385
1.209085 -0.089349 4.079641 0.000000 0.013581 0.999878
1.249018 -0.099696 4.079138 0.250069 0.377667 0.891507
1.247993 -0.101229 4.079641 0.006867 0.010529 0.999908
1.234585 -0.097858 4.077881 -0.286813 -0.692373 0.662038
1.246146 -0.103991 4.077881 -0.413648 -0.624561 0.662374
1.246998 -0.102716 4.079138 -0.249672 -0.376873 0.891964
1.235171 -0.096441 4.079138 -0.173132 -0.418043 0.891751
1.222371 -0.092515 4.079138 -0.089938 -0.443007 0.891964
1.222072 -0.094020 4.077881 -0.149144 -0.734153 0.662374
1.209085 -0.091139 4.079138 0.000000 -0.451094 0.892453
1.209085 -0.092675 4.077881 0.000000 -0.748527 0.663045
1.221862 -0.095079 4.076120 -0.184637 -0.908780 0.374126
1.234172 -0.098855 4.076120 -0.354900 -0.856868 0.373852
1.221779 -0.095497 4.074109 -0.199103 -0.979949 0.000000
1.234009 -0.099248 4.074109 -0.382672 -0.923856 0.000000
1.209085 -0.093756 4.076120 0.000000 -0.927122 0.374676
1.209085 -0.094183 4.074109 0.000000 -1.000000 0.000000
1.245546 -0.104889 4.076120 -0.512009 -0.773186 0.374157
1.245309 -0.105243 4.074109 -0.552141 -0.833735 0.000000
1.234585 -0.097858 4.070336 -0.286813 -0.692434 -0.661977
1.246146 -0.103991 4.070336 -0.413678 -0.624592 -0.662343
1.245546 -0.104889 4.072097 -0.512070 -0.773156 -0.374126
1.234172 -0.098855 4.072097 -0.354930 -0.856868 -0.373852
1.221862 -0.095079 4.072097 -0.184606 -0.908780 -0.374126
1.222072 -0.094020 4.070336 -0.149144 -0.734214 -0.662313
1.209085 -0.093756 4.072097 0.000000 -0.927122 -0.374676
1.209085 -0.092675 4.070336 0.000000 -0.748589 -0.663015
1.222371 -0.092515 4.069078 -0.089938 -0.442976 -0.891995
1.235171 -0.096441 4.069078 -0.173132 -0.418012 -0.891781
1.222720 -0.090761 4.068576 0.002564 0.012360 -0.999908
1.235855 -0.094790 4.068576 0.004669 0.011292 -0.999908
1.209085 -0.091139 4.069078 0.000000 -0.451064 -0.892483
1.209085 -0.089349 4.068576 0.000000 0.013581 -0.999878
1.246998 -0.102716 4.069079 -0.249611 -0.376843 -0.891995
1.247993 -0.101229 4.068576 0.006897 0.010468 -0.999908
1.237190 -0.091569 4.070336 0.280160 0.676382 -0.681173
1.249932 -0.098329 4.070336 0.404218 0.610309 -0.681234
1.249018 -0.099696 4.069078 0.250099 0.377636 -0.891507
1.236561 -0.093087 4.069078 0.173284 0.418470 -0.891507
1.223079 -0.088952 4.069079 0.090182 0.443892 -0.891507
1.223399 -0.087339 4.070336 0.145695 0.717338 -0.681295
1.209085 -0.087503 4.069078 0.000000 0.453169 -0.891385
1.209085 -0.085857 4.070336 0.000000 0.731956 -0.681326
1.223631 -0.086171 4.072097 0.182501 0.898587 -0.398999
1.237645 -0.090469 4.072097 0.350902 0.847163 -0.398907
1.209085 -0.084665 4.072097 0.000000 0.916898 -0.399091
1.250594 -0.097339 4.072097 0.506333 0.764428 -0.399030
1.180980 -0.091569 4.077881 -0.280160 0.676321 0.681204
1.194770 -0.087339 4.077881 -0.145695 0.717307 0.681326
1.194538 -0.086171 4.076120 -0.182470 0.898587 0.398999
1.180525 -0.090469 4.076120 -0.350902 0.847163 0.398907
1.194445 -0.085699 4.074109 -0.198981 0.979980 0.000000
1.180340 -0.090025 4.074109 -0.382641 0.923887 0.000000
1.167576 -0.097339 4.076120 -0.506333 0.764428 0.399030
1.168238 -0.098329 4.077881 -0.404187 0.610248 0.681295
1.156225 -0.106560 4.076120 -0.648305 0.648366 0.399091
1.157068 -0.107403 4.077881 -0.517533 0.517533 0.681356
1.167308 -0.096939 4.074109 -0.552232 0.833674 0.000000
1.155884 -0.106219 4.074109 -0.707114 0.707083 0.000000
1.169152 -0.099696 4.079138 -0.250130 0.377667 0.891507
1.181609 -0.093087 4.079138 -0.173345 0.418500 0.891507
1.170177 -0.101229 4.079641 -0.006897 0.010529 0.999908
1.182314 -0.094790 4.079641 -0.004669 0.011292 0.999908
1.158232 -0.108567 4.079138 -0.320475 0.320444 0.891385
1.159537 -0.109872 4.079641 -0.009583 0.009613 0.999878
1.195091 -0.088952 4.079138 -0.090182 0.443892 0.891507
1.195450 -0.090761 4.079641 -0.002564 0.012329 0.999908
1.183585 -0.097858 4.077881 0.286782 -0.692404 0.662038
1.196097 -0.094020 4.077881 0.149113 -0.734153 0.662374
1.195798 -0.092515 4.079138 0.089969 -0.443007 0.891964
1.182998 -0.096441 4.079138 0.173162 -0.418043 0.891751
1.171171 -0.102716 4.079138 0.249641 -0.376873 0.891964
1.172024 -0.103991 4.077881 0.413648 -0.624592 0.662374
1.160803 -0.111138 4.079138 0.318979 -0.318949 0.892453
1.161889 -0.112224 4.077881 0.529283 -0.529313 0.663045
1.172624 -0.104889 4.076120 0.512070 -0.773156 0.374126
1.183998 -0.098855 4.076120 0.354930 -0.856868 0.373852
1.172861 -0.105243 4.074109 0.552171 -0.833705 0.000000
1.184161 -0.099248 4.074109 0.382672 -0.923856 0.000000
1.162654 -0.112988 4.076120 0.655599 -0.655568 0.374676
1.162955 -0.113290 4.074109 0.707114 -0.707053 0.000000
1.196307 -0.095079 4.076120 0.184637 -0.908780 0.374126
1.196391 -0.095497 4.074109 0.199103 -0.979949 0.000000
1.183585 -0.097858 4.070336 0.286813 -0.692434 -0.661977
1.196097 -0.094020 4.070336 0.149144 -0.734184 -0.662343
1.196308 -0.095079 4.072097 0.184637 -0.908780 -0.374126
1.183998 -0.098855 4.072097 0.354930 -0.856868 -0.373852
1.172624 -0.104889 4.072097 0.512070 -0.773156 -0.374126
1.172024 -0.103991 4.070336 0.413678 -0.624622 -0.662313
1.162654 -0.112988 4.072097 0.655599 -0.655568 -0.374676
1.161889 -0.112224 4.070336 0.529374 -0.529313 -0.662984
1.171171 -0.102716 4.069078 0.249611 -0.376843 -0.891995
1.182998 -0.096441 4.069078 0.173162 -0.418012 -0.891751
1.170177 -0.101229 4.068576 -0.006867 0.010590 -0.999908
1.182314 -0.094790 4.068576 -0.004639 0.011292 -0.999908
1.160803 -0.111138 4.069078 0.318949 -0.318949 -0.892483
1.159537 -0.109872 4.068576 -0.009583 0.009613 -0.999878
1.195798 -0.092515 4.069079 0.089938 -0.442976 -0.891995
1.195450 -0.090761 4.068576 -0.002564 0.012238 -0.999908
1.180980 -0.091569 4.070336 -0.280160 0.676382 -0.681143
1.194770 -0.087339 4.070336 -0.145695 0.717368 -0.681265
1.195091 -0.088952 4.069078 -0.090182 0.443861 -0.891507
1.181609 -0.093087 4.069078 -0.173345 0.418470 -0.891507
1.169152 -0.099696 4.069079 -0.250069 0.377667 -0.891507
1.168238 -0.098329 4.070336 -0.404218 0.610279 -0.681265
1.158232 -0.108567 4.069078 -0.320414 0.320444 -0.891415
1.157068 -0.107403 4.070336 -0.517594 0.517563 -0.681295
1.167576 -0.097339 4.072097 -0.506333 0.764428 -0.399030
1.180525 -0.090469 4.072097 -0.350871 0.847163 -0.398907
1.156225 -0.106560 4.072097 -0.648366 0.648305 -0.399060
1.194538 -0.086171 4.072097 -0.182501 0.898587 -0.398999
1.141234 -0.131315 4.077881 -0.676351 0.280129 0.681204
1.147994 -0.118573 4.077881 -0.610248 0.404157 0.681326
1.147004 -0.117911 4.076120 -0.764428 0.506363 0.398999
1.140135 -0.130859 4.076120 -0.847163 0.350902 0.398877
1.146604 -0.117643 4.074109 -0.833674 0.552232 0.000000
1.139690 -0.130675 4.074109 -0.923856 0.382672 0.000000
1.135836 -0.144873 4.076120 -0.898587 0.182470 0.398999
1.137004 -0.145105 4.077881 -0.717277 0.145695 0.681326
1.134330 -0.159420 4.076120 -0.916898 0.000000 0.399091
1.135522 -0.159420 4.077881 -0.731864 0.000000 0.681417
1.135364 -0.144779 4.074109 -0.979980 0.198981 0.000000
1.133848 -0.159420 4.074109 -0.999969 0.000000 0.000000
1.138617 -0.145426 4.079138 -0.443831 0.090213 0.891537
1.142753 -0.131944 4.079138 -0.418470 0.173345 0.891507
1.140426 -0.145785 4.079641 -0.012299 0.002564 0.999908
1.144455 -0.132649 4.079641 -0.011292 0.004669 0.999908
1.137168 -0.159420 4.079138 -0.453169 0.000000 0.891385
1.139014 -0.159420 4.079641 -0.013611 0.000000 0.999878
1.149361 -0.119487 4.079138 -0.377667 0.250069 0.891507
1.150894 -0.120512 4.079641 -0.010529 0.006897 0.999908
1.147523 -0.133920 4.077881 0.692404 -0.286782 0.662038
1.153656 -0.122359 4.077881 0.624561 -0.413648 0.662374
1.152381 -0.121506 4.079138 0.376873 -0.249641 0.891964
1.146107 -0.133333 4.079138 0.418012 -0.173162 0.891751
1.142180 -0.146133 4.079138 0.442976 -0.089969 0.891964
1.143685 -0.146432 4.077881 0.734153 -0.149113 0.662374
1.140805 -0.159420 4.079138 0.451064 0.000000 0.892453
1.142340 -0.159420 4.077881 0.748527 0.000000 0.663076
1.144744 -0.146642 4.076120 0.908780 -0.184637 0.374157
1.148520 -0.134333 4.076120 0.856868 -0.354900 0.373882
1.145163 -0.146725 4.074109 0.979949 -0.199103 0.000000
1.148914 -0.134496 4.074109 0.923856 -0.382672 0.000000
1.143421 -0.159420 4.076120 0.927122 0.000000 0.374706
1.143848 -0.159420 4.074109 0.999969 0.000000 0.000000
1.154554 -0.122959 4.076120 0.773156 -0.512040 0.374126
1.154909 -0.123196 4.074109 0.833735 -0.552110 0.000000
1.147523 -0.133920 4.070336 0.692434 -0.286782 -0.662008
1.153657 -0.122359 4.070336 0.624653 -0.413648 -0.662313
1.154554 -0.122959 4.072097 0.773186 -0.512009 -0.374096
1.148520 -0.134333 4.072097 0.856868 -0.354900 -0.373852
1.144744 -0.146642 4.072097 0.908780 -0.184637 -0.374157
1.143685 -0.146432 4.070336 0.734153 -0.149144 -0.662343
1.143421 -0.159420 4.072097 0.927122 0.000000 -0.374706
1.142340 -0.159420 4.070336 0.748589 0.000000 -0.663015
1.142180 -0.146133 4.069078 0.442976 -0.089938 -0.891995
1.146107 -0.133333 4.069078 0.418012 -0.173132 -0.891781
1.140426 -0.145785 4.068576 -0.012299 0.002564 -0.999908
1.144455 -0.132649 4.068576 -0.011292 0.004669 -0.999908
1.140805 -0.159420 4.069078 0.451033 0.000000 -0.892483
1.139014 -0.159420 4.068576 -0.013611 0.000000 -0.999878
1.152381 -0.121506 4.069079 0.376843 -0.249611 -0.891995
1.150894 -0.120512 4.068576 -0.010529 0.006836 -0.999908
1.141234 -0.131315 4.070336 -0.676351 0.280160 -0.681173
1.147994 -0.118573 4.070336 -0.610279 0.404187 -0.681265
1.149361 -0.119487 4.069078 -0.377667 0.250069 -0.891507
1.142753 -0.131944 4.069078 -0.418470 0.173315 -0.891507
1.138617 -0.145426 4.069079 -0.443861 0.090213 -0.891507
1.137004 -0.145105 4.070336 -0.717338 0.145695 -0.681265
1.137168 -0.159420 4.069078 -0.453200 0.000000 -0.891385
1.135522 -0.159420 4.070336 -0.731956 0.000000 -0.681295
1.135836 -0.144873 4.072097 -0.898587 0.182470 -0.398999
1.140135 -0.130859 4.072097 -0.847194 0.350902 -0.398877
1.134330 -0.159420 4.072097 -0.916898 0.000000 -0.399060
1.147004 -0.117911 4.072097 -0.764458 0.506333 -0.398999
1.141234 -0.187524 4.077881 -0.676351 -0.280129 0.681204
1.137004 -0.173734 4.077881 -0.717277 -0.145695 0.681356
1.135836 -0.173966 4.076120 -0.898587 -0.182470 0.398999
1.140135 -0.187980 4.076120 -0.847194 -0.350902 0.398877
1.135364 -0.174060 4.074109 -0.979980 -0.198981 0.000000
1.139690 -0.188164 4.074109 -0.923856 -0.382672 0.000000
1.147004 -0.200928 4.076120 -0.764428 -0.506333 0.398999
1.147994 -0.200266 4.077881 -0.610279 -0.404157 0.681295
1.156225 -0.212279 4.076120 -0.648335 -0.648335 0.399091
1.157068 -0.211436 4.077881 -0.517533 -0.517533 0.681387
1.146604 -0.201196 4.074109 -0.833674 -0.552232 0.000000
1.155884 -0.212620 4.074109 -0.707083 -0.707083 0.000000
1.149361 -0.199352 4.079138 -0.377697 -0.250069 0.891507
1.142753 -0.186895 4.079138 -0.418470 -0.173345 0.891507
1.150894 -0.198327 4.079641 -0.010559 -0.006897 0.999908
1.144455 -0.186190 4.079641 -0.011292 -0.004669 0.999908
1.158232 -0.210272 4.079138 -0.320475 -0.320444 0.891385
1.159537 -0.208967 4.079641 -0.009644 -0.009613 0.999878
1.138617 -0.173414 4.079138 -0.443861 -0.090213 0.891507
1.140426 -0.173054 4.079641 -0.012299 -0.002564 0.999908
1.147523 -0.184919 4.077881 0.692373 0.286782 0.662038
1.143685 -0.172407 4.077881 0.734123 0.149144 0.662404
1.142180 -0.172706 4.079138 0.443007 0.089969 0.891964
1.146107 -0.185506 4.079138 0.418043 0.173162 0.891751
1.152381 -0.197333 4.079138 0.376873 0.249641 0.891964
1.153656 -0.196480 4.077881 0.624561 0.413648 0.662374
1.160803 -0.207701 4.079138 0.318979 0.318949 0.892453
1.161889 -0.206615 4.077881 0.529313 0.529313 0.663045
1.154554 -0.195880 4.076120 0.773156 0.512070 0.374157
1.148520 -0.184506 4.076120 0.856838 0.354930 0.373882
1.154909 -0.195643 4.074109 0.833735 0.552110 0.000000
1.148914 -0.184343 4.074109 0.923856 0.382672 0.000000
1.162653 -0.205851 4.076120 0.655568 0.655568 0.374676
1.162955 -0.205549 4.074109 0.707083 0.707114 0.000000
1.144744 -0.172197 4.076120 0.908780 0.184606 0.374157
1.145162 -0.172114 4.074109 0.979949 0.199103 0.000000
1.147523 -0.184919 4.070336 0.692404 0.286782 -0.662038
1.143685 -0.172407 4.070336 0.734184 0.149144 -0.662343
1.144744 -0.172197 4.072097 0.908780 0.184637 -0.374157
1.148520 -0.184506 4.072097 0.856868 0.354900 -0.373852
1.154554 -0.195880 4.072097 0.773186 0.512040 -0.374126
1.153656 -0.196480 4.070336 0.624592 0.413648 -0.662374
1.162653 -0.205851 4.072097 0.655568 0.655599 -0.374676
1.161889 -0.206615 4.070336 0.529283 0.529313 -0.663045
1.152381 -0.197333 4.069079 0.376873 0.249641 -0.891964
1.146107 -0.185506 4.069079 0.418043 0.173162 -0.891751
1.150894 -0.198327 4.068576 -0.010529 -0.006897 -0.999908
1.144455 -0.186190 4.068576 -0.011231 -0.004669 -0.999908
1.160803 -0.207701 4.069079 0.318979 0.318949 -0.892453
1.159537 -0.208967 4.068576 -0.009583 -0.009613 -0.999878
1.142180 -0.172706 4.069079 0.442976 0.089938 -0.891995
1.140426 -0.173054 4.068576 -0.012268 -0.002564 -0.999908
1.141234 -0.187524 4.070336 -0.676351 -0.280129 -0.681173
1.137004 -0.173734 4.070336 -0.717368 -0.145695 -0.681265
1.138617 -0.173414 4.069078 -0.443861 -0.090213 -0.891537
1.142753 -0.186895 4.069079 -0.418470 -0.173345 -0.891507
1.149361 -0.199352 4.069079 -0.377697 -0.250069 -0.891507
1.147994 -0.200266 4.070336 -0.610248 -0.404157 -0.681326
1.158232 -0.210272 4.069079 -0.320475 -0.320444 -0.891385
1.157068 -0.211436 4.070336 -0.517533 -0.517533 -0.681356
1.147004 -0.200928 4.072097 -0.764428 -0.506333 -0.398999
1.140135 -0.187980 4.072097 -0.847163 -0.350902 -0.398907
1.156225 -0.212279 4.072097 -0.648335 -0.648335 -0.399091
1.135836 -0.173966 4.072097 -0.898587 -0.182470 -0.398999
1.180980 -0.227270 4.077881 -0.280160 -0.676321 0.681204
1.168238 -0.220510 4.077881 -0.404187 -0.610248 0.681326
1.167576 -0.221500 4.076120 -0.506333 -0.764428 0.399030
1.180525 -0.228370 4.076120 -0.350871 -0.847163 0.398907
1.167308 -0.221900 4.074109 -0.552232 -0.833674 0.000000
1.180340 -0.228814 4.074109 -0.382672 -0.923856 0.000000
1.194538 -0.232668 4.076120 -0.182470 -0.898587 0.398999
1.194770 -0.231500 4.077881 -0.145695 -0.717307 0.681326
1.209085 -0.234174 4.076120 0.000000 -0.916898 0.399091
1.209085 -0.232983 4.077881 0.000000 -0.731925 0.681356
1.194445 -0.233141 4.074109 -0.198981 -0.979980 0.000000
1.209085 -0.234657 4.074109 0.000000 -1.000000 0.000000
1.195091 -0.229887 4.079138 -0.090213 -0.443892 0.891507
1.181609 -0.225752 4.079138 -0.173345 -0.418470 0.891507
1.195450 -0.228078 4.079641 -0.002564 -0.012329 0.999908
1.182314 -0.224049 4.079641 -0.004669 -0.011292 0.999908
1.209085 -0.231336 4.079138 0.000000 -0.453200 0.891385
1.209085 -0.229490 4.079641 0.000000 -0.013581 0.999878
1.169152 -0.219143 4.079138 -0.250099 -0.377667 0.891507
1.170177 -0.217610 4.079641 -0.006928 -0.010529 0.999908
1.183585 -0.220982 4.077881 0.286782 0.692404 0.662038
1.172024 -0.214848 4.077881 0.413678 0.624592 0.662374
1.171171 -0.216123 4.079138 0.249611 0.376873 0.891964
1.182998 -0.222398 4.079138 0.173162 0.418043 0.891751
1.195798 -0.226324 4.079138 0.089969 0.443007 0.891964
1.196097 -0.224819 4.077881 0.149144 0.734153 0.662374
1.209085 -0.227700 4.079138 0.000000 0.451094 0.892453
1.209085 -0.226164 4.077881 0.000000 0.748527 0.663045
1.196308 -0.223760 4.076120 0.184637 0.908780 0.374126
1.183998 -0.219985 4.076120 0.354900 0.856868 0.373852
1.196391 -0.223342 4.074109 0.199103 0.979949 0.000000
1.184161 -0.219591 4.074109 0.382672 0.923856 0.000000
1.209085 -0.225083 4.076120 0.000000 0.927122 0.374676
1.209085 -0.224656 4.074109 0.000000 1.000000 0.000000
1.172624 -0.213950 4.076120 0.512040 0.773156 0.374157
1.172861 -0.213596 4.074109 0.552110 0.833735 0.000000
1.183585 -0.220982 4.070336 0.286782 0.692404 -0.662038
1.172024 -0.214848 4.070336 0.413648 0.624592 -0.662374
1.172624 -0.213950 4.072097 0.512040 0.773186 -0.374126
1.183998 -0.219985 4.072097 0.354930 0.856868 -0.373852
1.196308 -0.223760 4.072097 0.184637 0.908780 -0.374126
1.196097 -0.224819 4.070336 0.149113 0.734153 -0.662374
1.209085 -0.225083 4.072097 0.000000 0.927122 -0.374676
1.209085 -0.226164 4.070336 0.000000 0.748527 -0.663045
1.195798 -0.226324 4.069079 0.089969 0.443007 -0.891964
1.182998 -0.222398 4.069079 0.173162 0.418043 -0.891751
1.195450 -0.228078 4.068576 -0.002564 -0.012329 -0.999908
1.182314 -0.224049 4.068576 -0.004639 -0.011292 -0.999908
1.209085 -0.227700 4.069079 0.000000 0.451094 -0.892453
1.209085 -0.229490 4.068576 0.000000 -0.013581 -0.999878
1.171171 -0.216123 4.069079 0.249641 0.376873 -0.891964
1.170177 -0.217610 4.068576 -0.006867 -0.010529 -0.999908
1.180980 -0.227270 4.070336 -0.280129 -0.676351 -0.681204
1.168238 -0.220510 4.070336 -0.404157 -0.610248 -0.681326
1.169152 -0.219143 4.069079 -0.250069 -0.377667 -0.891507
1.181609 -0.225752 4.069079 -0.173345 -0.418500 -0.891507
1.195091 -0.229887 4.069079 -0.090213 -0.443892 -0.891507
1.194770 -0.231500 4.070336 -0.145695 -0.717307 -0.681326
1.209085 -0.231336 4.069079 0.000000 -0.453200 -0.891385
1.209085 -0.232983 4.070336 0.000000 -0.731925 -0.681356
1.194538 -0.232668 4.072097 -0.182501 -0.898587 -0.398999
1.180525 -0.228370 4.072097 -0.350902 -0.847163 -0.398907
1.209085 -0.234174 4.072097 0.000000 -0.916898 -0.399091
1.167576 -0.221500 4.072097 -0.506363 -0.764428 -0.398999
1.237190 -0.227270 4.077881 0.280160 -0.676321 0.681204
1.223399 -0.231500 4.077881 0.145695 -0.717307 0.681326
1.223631 -0.232668 4.076120 0.182501 -0.898587 0.398999
1.237645 -0.228370 4.076120 0.350932 -0.847163 0.398877
1.223725 -0.233141 4.074109 0.198981 -0.979980 0.000000
1.237829 -0.228814 4.074109 0.382672 -0.923856 0.000000
1.250594 -0.221500 4.076120 0.506363 -0.764428 0.398999
1.249932 -0.220510 4.077881 0.404157 -0.610248 0.681326
1.261944 -0.212279 4.076120 0.648335 -0.648335 0.399060
1.261102 -0.211436 4.077881 0.517533 -0.517533 0.681356
1.250861 -0.221900 4.074109 0.552232 -0.833674 0.000000
1.262285 -0.212620 4.074109 0.707083 -0.707083 0.000000
1.249018 -0.219143 4.079138 0.250099 -0.377667 0.891507
1.236561 -0.225752 4.079138 0.173315 -0.418470 0.891507
1.247993 -0.217610 4.079641 0.006897 -0.010529 0.999908
1.235855 -0.224049 4.079641 0.004700 -0.011292 0.999908
1.259938 -0.210272 4.079138 0.320444 -0.320444 0.891385
1.258632 -0.208967 4.079641 0.009583 -0.009583 0.999878
1.223079 -0.229887 4.079138 0.090182 -0.443892 0.891507
1.222720 -0.228078 4.079641 0.002564 -0.012329 0.999908
1.234585 -0.220982 4.077881 -0.286813 0.692373 0.662038
1.222072 -0.224819 4.077881 -0.149144 0.734153 0.662374
1.222371 -0.226324 4.079138 -0.089969 0.443007 0.891964
1.235171 -0.222398 4.079138 -0.173162 0.418043 0.891751
1.246998 -0.216123 4.079138 -0.249611 0.376873 0.891964
1.246146 -0.214848 4.077881 -0.413648 0.624561 0.662374
1.257366 -0.207701 4.079138 -0.318979 0.318949 0.892453
1.256281 -0.206615 4.077881 -0.529283 0.529283 0.663076
1.245546 -0.213950 4.076120 -0.512040 0.773156 0.374157
1.234172 -0.219985 4.076120 -0.354900 0.856868 0.373882
1.245309 -0.213596 4.074109 -0.552141 0.833735 0.000000
1.234009 -0.219591 4.074109 -0.382672 0.923856 0.000000
1.255516 -0.205851 4.076120 -0.655568 0.655568 0.374676
1.255214 -0.205549 4.074109 -0.707083 0.707083 0.000000
1.221862 -0.223760 4.076120 -0.184637 0.908780 0.374126
1.221779 -0.223342 4.074109 -0.199103 0.979949 0.000000
1.234585 -0.220982 4.070336 -0.286782 0.692373 -0.662038
1.222072 -0.224819 4.070336 -0.149113 0.734153 -0.662374
1.221862 -0.223760 4.072097 -0.184606 0.908780 -0.374126
1.234172 -0.219985 4.072097 -0.354900 0.856868 -0.373852
1.245546 -0.213950 4.072097 -0.512009 0.773186 -0.374157
1.246146 -0.214848 4.070336 -0.413678 0.624561 -0.662374
1.255516 -0.205851 4.072097 -0.655568 0.655599 -0.374676
1.256281 -0.206615 4.070336 -0.529313 0.529283 -0.663045
1.246998 -0.216123 4.069079 -0.249641 0.376873 -0.891964
1.235171 -0.222398 4.069079 -0.173132 0.418043 -0.891751
1.247993 -0.217610 4.068576 0.006928 -0.010529 -0.999908
1.235855 -0.224049 4.068576 0.004669 -0.011292 -0.999908
1.257366 -0.207701 4.069079 -0.318979 0.318949 -0.892453
1.258632 -0.208967 4.068576 0.009644 -0.009613 -0.999878
1.222371 -0.226324 4.069079 -0.089938 0.443007 -0.891964
1.222720 -0.228078 4.068576 0.002564 -0.012329 -0.999908
1.237190 -0.227270 4.070336 0.280129 -0.676351 -0.681204
1.223399 -0.231500 4.070336 0.145695 -0.717307 -0.681326
1.223079 -0.229887 4.069079 0.090182 -0.443892 -0.891507
1.236561 -0.225752 4.069079 0.173315 -0.418470 -0.891507
1.249018 -0.219143 4.069079 0.250099 -0.377667 -0.891507
1.249932 -0.220510 4.070336 0.404187 -0.610248 -0.681326
1.259938 -0.210272 4.069079 0.320505 -0.320444 -0.891385
1.261102 -0.211436 4.070336 0.517533 -0.517533 -0.681356
1.250594 -0.221500 4.072097 0.506333 -0.764458 -0.398999
1.237645 -0.228370 4.072097 0.350902 -0.847194 -0.398877
1.261945 -0.212279 4.072097 0.648335 -0.648335 -0.399060
1.223631 -0.232668 4.072097 0.182470 -0.898587 -0.398999
1.276936 -0.187524 4.077881 0.676321 -0.280160 0.681204
1.270175 -0.200267 4.077881 0.610248 -0.404187 0.681295
1.271165 -0.200928 4.076120 0.764428 -0.506363 0.398999
1.278035 -0.187980 4.076120 0.847163 -0.350932 0.398907
1.271566 -0.201196 4.074109 0.833674 -0.552232 0.000031
1.278480 -0.188164 4.074109 0.923856 -0.382672 0.000031
1.282333 -0.173966 4.076120 0.898587 -0.182470 0.398999
1.281166 -0.173734 4.077881 0.717307 -0.145695 0.681326
1.282806 -0.174060 4.074109 0.979980 -0.198981 0.000000
1.279552 -0.173414 4.079138 0.443861 -0.090213 0.891507
1.275417 -0.186895 4.079138 0.418500 -0.173345 0.891507
1.277744 -0.173054 4.079641 0.012299 -0.002564 0.999908
1.273715 -0.186190 4.079641 0.011322 -0.004669 0.999908
1.268808 -0.199352 4.079138 0.377697 -0.250099 0.891507
1.267275 -0.198327 4.079641 0.010529 -0.006867 0.999908
1.270647 -0.184919 4.077881 -0.692404 0.286782 0.662038
1.264513 -0.196481 4.077881 -0.624561 0.413648 0.662404
1.265788 -0.197333 4.079138 -0.376873 0.249611 0.891964
1.272063 -0.185506 4.079138 -0.418043 0.173162 0.891751
1.275989 -0.172706 4.079138 -0.443037 0.089938 0.891964
1.274485 -0.172407 4.077881 -0.734153 0.149144 0.662374
1.273426 -0.172197 4.076120 -0.908780 0.184637 0.374126
1.269650 -0.184506 4.076120 -0.856868 0.354930 0.373852
1.273007 -0.172114 4.074109 -0.979949 0.199103 0.000000
1.269256 -0.184343 4.074109 -0.923856 0.382672 0.000000
1.263615 -0.195880 4.076120 -0.773156 0.512040 0.374126
1.263261 -0.195643 4.074109 -0.833735 0.552110 0.000000
1.270647 -0.184919 4.070336 -0.692434 0.286782 -0.662008
1.264513 -0.196481 4.070336 -0.624622 0.413648 -0.662343
1.263616 -0.195880 4.072097 -0.773186 0.512009 -0.374096
1.269650 -0.184506 4.072097 -0.856868 0.354900 -0.373852
1.273425 -0.172197 4.072097 -0.908780 0.184637 -0.374126
1.274485 -0.172407 4.070336 -0.734214 0.149144 -0.662313
1.275989 -0.172706 4.069078 -0.442976 0.089938 -0.891995
1.272063 -0.185506 4.069079 -0.418012 0.173132 -0.891751
1.277744 -0.173054 4.068576 0.012299 -0.002594 -0.999908
1.273715 -0.186190 4.068576 0.011353 -0.004669 -0.999908
1.265788 -0.197333 4.069079 -0.376873 0.249611 -0.891964
1.267275 -0.198327 4.068576 0.010559 -0.006897 -0.999908
1.276936 -0.187524 4.070336 0.676321 -0.280129 -0.681204
1.270175 -0.200267 4.070336 0.610248 -0.404187 -0.681326
1.268808 -0.199352 4.069079 0.377728 -0.250069 -0.891476
1.275417 -0.186895 4.069079 0.418470 -0.173345 -0.891507
1.279552 -0.173414 4.069079 0.443861 -0.090213 -0.891537
1.281166 -0.173734 4.070336 0.717338 -0.145695 -0.681265
1.282333 -0.173966 4.072097 0.898587 -0.182470 -0.398999
1.278035 -0.187980 4.072097 0.847194 -0.350902 -0.398877
1.271165 -0.200928 4.072097 0.764458 -0.506333 -0.398999
-1.276936 -0.131315 4.077881 -0.676351 0.280160 0.681204
-1.278035 -0.130859 4.076120 -0.847163 0.350902 0.398907
-1.282333 -0.144873 4.076120 -0.898587 0.182470 0.398999
-1.281166 -0.145105 4.077881 -0.717307 0.145695 0.681326
-1.283840 -0.159420 4.076120 -0.916898 0.000000 0.399091
-1.282648 -0.159420 4.077881 -0.731895 0.000000 0.681387
-1.278480 -0.130675 4.074109 -0.923856 0.382672 0.000000
-1.282806 -0.144779 4.074109 -0.979980 0.198981 -0.000031
-1.284322 -0.159420 4.074109 -1.000000 0.000000 0.000000
-1.279552 -0.145426 4.079138 -0.443892 0.090213 0.891507
-1.275417 -0.131944 4.079138 -0.418470 0.173345 0.891507
-1.277744 -0.145785 4.079641 -0.012268 0.002564 0.999908
-1.273715 -0.132649 4.079641 -0.011292 0.004669 0.999908
-1.281002 -0.159420 4.079138 -0.453200 0.000000 0.891385
-1.279156 -0.159420 4.079641 -0.013581 0.000000 0.999878
-1.268808 -0.119487 4.079138 -0.377636 0.250069 0.891507
-1.270176 -0.118573 4.077881 -0.610248 0.404187 0.681295
-1.259938 -0.108567 4.079138 -0.320444 0.320444 0.891385
-1.261102 -0.107403 4.077881 -0.517563 0.517533 0.681356
-1.267275 -0.120512 4.079641 -0.010559 0.006867 0.999908
-1.258632 -0.109872 4.079641 -0.009613 0.009583 0.999878
-1.271165 -0.117911 4.076120 -0.764458 0.506333 0.398999
-1.271566 -0.117643 4.074109 -0.833674 0.552202 0.000000
-1.261944 -0.106560 4.076120 -0.648335 0.648335 0.399091
-1.262286 -0.106219 4.074109 -0.707114 0.707083 0.000000
-1.270647 -0.133920 4.077881 0.692373 -0.286782 0.662038
-1.272063 -0.133333 4.079138 0.418043 -0.173162 0.891751
-1.275989 -0.146133 4.079138 0.443068 -0.089969 0.891934
-1.274485 -0.146432 4.077881 0.734153 -0.149144 0.662374
-1.277365 -0.159420 4.079138 0.451125 0.000000 0.892453
-1.275830 -0.159420 4.077881 0.748527 0.000000 0.663076
-1.273426 -0.146642 4.076120 0.908780 -0.184637 0.374157
-1.269650 -0.134333 4.076120 0.856868 -0.354930 0.373852
-1.273007 -0.146725 4.074109 0.979949 -0.199103 0.000000
-1.269256 -0.134496 4.074109 0.923856 -0.382672 0.000000
-1.274749 -0.159420 4.076120 0.927122 0.000000 0.374706
-1.274322 -0.159420 4.074109 1.000000 0.000000 0.000000
-1.263615 -0.122959 4.076120 0.773186 -0.512040 0.374126
-1.264513 -0.122359 4.077881 0.624561 -0.413648 0.662404
-1.255516 -0.112988 4.076120 0.655568 -0.655599 0.374676
-1.256281 -0.112224 4.077881 0.529283 -0.529283 0.663076
-1.263261 -0.123196 4.074109 0.833735 -0.552110 0.000000
-1.255214 -0.113290 4.074109 0.707083 -0.707083 0.000000
-1.265788 -0.121506 4.079138 0.376812 -0.249641 0.891995
-1.257366 -0.111138 4.079138 0.318949 -0.318949 0.892453
-1.270647 -0.133920 4.070336 0.692465 -0.286813 -0.661977
-1.269650 -0.134333 4.072097 0.856868 -0.354900 -0.373852
-1.273425 -0.146642 4.072097 0.908780 -0.184637 -0.374157
-1.274485 -0.146432 4.070336 0.734184 -0.149144 -0.662313
-1.274749 -0.159420 4.072097 0.927122 0.000000 -0.374706
-1.275830 -0.159420 4.070336 0.748589 0.000000 -0.662984
-1.275989 -0.146133 4.069078 0.442976 -0.089938 -0.891995
-1.272063 -0.133333 4.069078 0.418012 -0.173132 -0.891751
-1.277744 -0.145785 4.068576 -0.012329 0.002564 -0.999908
-1.273715 -0.132649 4.068576 -0.011322 0.004669 -0.999908
-1.277365 -0.159420 4.069078 0.451064 0.000000 -0.892483
-1.279155 -0.159420 4.068576 -0.013550 0.000000 -0.999878
-1.265788 -0.121506 4.069079 0.376873 -0.249611 -0.891964
-1.264513 -0.122359 4.070336 0.624653 -0.413648 -0.662313
-1.257366 -0.111138 4.069078 0.318949 -0.318949 -0.892453
-1.256281 -0.112224 4.070336 0.529344 -0.529313 -0.662984
-1.267275 -0.120512 4.068576 -0.010498 0.006836 -0.999908
-1.258632 -0.109872 4.068576 -0.009552 0.009613 -0.999878
-1.263616 -0.122959 4.072097 0.773186 -0.512009 -0.374096
-1.255516 -0.112988 4.072097 0.655599 -0.655568 -0.374676
-1.276936 -0.131315 4.070336 -0.676382 0.280160 -0.681143
-1.281166 -0.145105 4.070336 -0.717368 0.145726 -0.681265
-1.282333 -0.144873 4.072097 -0.898587 0.182501 -0.398999
-1.278035 -0.130859 4.072097 -0.847163 0.350902 -0.398907
-1.282648 -0.159420 4.070336 -0.731986 0.000000 -0.681295
-1.283840 -0.159420 4.072097 -0.916898 0.000000 -0.399091
-1.271165 -0.117911 4.072097 -0.764458 0.506302 -0.398999
-1.270175 -0.118573 4.070336 -0.610309 0.404187 -0.681234
-1.261944 -0.106560 4.072097 -0.648366 0.648305 -0.399091
-1.261102 -0.107403 4.070336 -0.517594 0.517563 -0.681295
-1.268808 -0.119487 4.069078 -0.377667 0.250069 -0.891507
-1.275417 -0.131944 4.069078 -0.418500 0.173315 -0.891507
-1.259938 -0.108567 4.069078 -0.320444 0.320444 -0.891385
-1.279552 -0.145426 4.069079 -0.443892 0.090213 -0.891507
-1.281001 -0.159420 4.069078 -0.453169 0.000000 -0.891415
-1.237190 -0.091569 4.077881 -0.280160 0.676321 0.681204
-1.237645 -0.090469 4.076120 -0.350902 0.847194 0.398877
-1.250594 -0.097339 4.076120 -0.506333 0.764428 0.398999
-1.249932 -0.098329 4.077881 -0.404187 0.610248 0.681326
-1.237829 -0.090025 4.074109 -0.382672 0.923856 0.000000
-1.250861 -0.096939 4.074109 -0.552232 0.833674 0.000000
-1.249018 -0.099696 4.079138 -0.250069 0.377667 0.891507
-1.236561 -0.093087 4.079138 -0.173315 0.418470 0.891507
-1.247993 -0.101229 4.079641 -0.006867 0.010529 0.999908
-1.235855 -0.094790 4.079641 -0.004669 0.011292 0.999908
-1.223079 -0.088952 4.079138 -0.090182 0.443892 0.891507
-1.223399 -0.087339 4.077881 -0.145695 0.717307 0.681326
-1.209085 -0.087503 4.079138 0.000000 0.453200 0.891385
-1.209085 -0.085857 4.077881 0.000000 0.731925 0.681356
-1.222720 -0.090761 4.079641 -0.002594 0.012329 0.999908
-1.209085 -0.089349 4.079641 0.000000 0.013581 0.999878
-1.223631 -0.086171 4.076120 -0.182470 0.898587 0.398999
-1.223725 -0.085699 4.074109 -0.198981 0.979980 0.000000
-1.209085 -0.084665 4.076120 0.000000 0.916898 0.399091
-1.209085 -0.084183 4.074109 0.000000 1.000000 0.000000
-1.234585 -0.097858 4.077881 0.286813 -0.692373 0.662038
-1.235171 -0.096441 4.079138 0.173162 -0.418043 0.891751
-1.246998 -0.102716 4.079138 0.249641 -0.376873 0.891964
-1.246146 -0.103991 4.077881 0.413648 -0.624561 0.662374
-1.245546 -0.104889 4.076120 0.512009 -0.773186 0.374157
-1.234172 -0.098855 4.076120 0.354900 -0.856868 0.373852
-1.245309 -0.105243 4.074109 0.552110 -0.833735 0.000000
-1.234009 -0.099248 4.074109 0.382672 -0.923856 0.000000
-1.221862 -0.095079 4.076120 0.184637 -0.908780 0.374126
-1.222072 -0.094020 4.077881 0.149144 -0.734153 0.662374
-1.209085 -0.093756 4.076120 0.000000 -0.927122 0.374676
-1.209085 -0.092675 4.077881 0.000000 -0.748527 0.663045
-1.221779 -0.095497 4.074109 0.199103 -0.979949 0.000000
-1.209085 -0.094183 4.074109 0.000000 -1.000000 0.000000
-1.222371 -0.092515 4.079138 0.089938 -0.443007 0.891964
-1.209085 -0.091139 4.079138 0.000000 -0.451094 0.892453
-1.234585 -0.097858 4.070336 0.286843 -0.692434 -0.661977
-1.234172 -0.098855 4.072097 0.354930 -0.856868 -0.373852
-1.245546 -0.104889 4.072097 0.512070 -0.773156 -0.374126
-1.246146 -0.103991 4.070336 0.413709 -0.624622 -0.662313
-1.246998 -0.102716 4.069078 0.249611 -0.376843 -0.891995
-1.235171 -0.096441 4.069078 0.173162 -0.418012 -0.891751
-1.247993 -0.101229 4.068576 -0.006867 0.010590 -0.999908
-1.235855 -0.094790 4.068576 -0.004639 0.011292 -0.999908
-1.222371 -0.092515 4.069079 0.089938 -0.442976 -0.891964
-1.222072 -0.094020 4.070336 0.149144 -0.734184 -0.662343
-1.209085 -0.091139 4.069078 0.000000 -0.451064 -0.892483
-1.209085 -0.092675 4.070336 0.000000 -0.748589 -0.663015
-1.222720 -0.090761 4.068576 -0.002564 0.012268 -0.999908
-1.209085 -0.089349 4.068576 0.000000 0.013581 -0.999878
-1.221862 -0.095079 4.072097 0.184637 -0.908780 -0.374126
-1.209085 -0.093756 4.072097 0.000000 -0.927122 -0.374676
-1.237190 -0.091569 4.070336 -0.280190 0.676382 -0.681143
-1.236561 -0.093087 4.069078 -0.173345 0.418470 -0.891507
-1.249018 -0.099696 4.069079 -0.250099 0.377636 -0.891507
-1.249932 -0.098329 4.070336 -0.404218 0.610248 -0.681265
-1.250594 -0.097339 4.072097 -0.506333 0.764428 -0.398999
-1.237645 -0.090469 4.072097 -0.350902 0.847163 -0.398877
-1.223631 -0.086171 4.072097 -0.182501 0.898587 -0.398999
-1.223399 -0.087339 4.070336 -0.145726 0.717368 -0.681265
-1.209085 -0.084665 4.072097 0.000000 0.916898 -0.399091
-1.209085 -0.085857 4.070336 0.000000 0.731956 -0.681326
-1.223079 -0.088952 4.069078 -0.090182 0.443861 -0.891507
-1.209085 -0.087503 4.069078 0.000000 0.453169 -0.891385
-1.180980 -0.091569 4.077881 0.280160 0.676321 0.681204
-1.180525 -0.090469 4.076120 0.350902 0.847163 0.398907
-1.194538 -0.086171 4.076120 0.182501 0.898587 0.398999
-1.194770 -0.087339 4.077881 0.145695 0.717307 0.681326
-1.180340 -0.090025 4.074109 0.382641 0.923856 0.000000
-1.194445 -0.085699 4.074109 0.198981 0.979980 0.000000
-1.195091 -0.088952 4.079138 0.090182 0.443892 0.891507
-1.181609 -0.093087 4.079138 0.173315 0.418500 0.891507
-1.195450 -0.090761 4.079641 0.002564 0.012329 0.999908
-1.182314 -0.094790 4.079641 0.004669 0.011292 0.999908
-1.169152 -0.099696 4.079138 0.250099 0.377667 0.891507
-1.168238 -0.098329 4.077881 0.404187 0.610248 0.681295
-1.158232 -0.108567 4.079138 0.320444 0.320444 0.891385
-1.157068 -0.107403 4.077881 0.517533 0.517533 0.681356
-1.170177 -0.101229 4.079641 0.006867 0.010529 0.999908
-1.159537 -0.109872 4.079641 0.009552 0.009613 0.999878
-1.167576 -0.097339 4.076120 0.506333 0.764428 0.399030
-1.167308 -0.096939 4.074109 0.552202 0.833674 0.000000
-1.156225 -0.106560 4.076120 0.648305 0.648366 0.399091
-1.155884 -0.106219 4.074109 0.707083 0.707114 0.000000
-1.183585 -0.097858 4.077881 -0.286813 -0.692373 0.662038
-1.182998 -0.096441 4.079138 -0.173132 -0.418043 0.891751
-1.195798 -0.092515 4.079138 -0.089938 -0.443007 0.891964
-1.196097 -0.094020 4.077881 -0.149144 -0.734153 0.662374
-1.196307 -0.095079 4.076120 -0.184637 -0.908780 0.374126
-1.183998 -0.098855 4.076120 -0.354930 -0.856868 0.373852
-1.196391 -0.095497 4.074109 -0.199103 -0.979949 0.000000
-1.184161 -0.099248 4.074109 -0.382672 -0.923856 0.000000
-1.172624 -0.104889 4.076120 -0.512040 -0.773156 0.374126
-1.172024 -0.103991 4.077881 -0.413709 -0.624561 0.662374
-1.162654 -0.112988 4.076120 -0.655568 -0.655568 0.374676
-1.161889 -0.112224 4.077881 -0.529313 -0.529283 0.663045
-1.172861 -0.105243 4.074109 -0.552141 -0.833735 0.000000
-1.162955 -0.113290 4.074109 -0.707083 -0.707114 0.000000
-1.171171 -0.102716 4.079138 -0.249672 -0.376873 0.891964
-1.160803 -0.111138 4.079138 -0.319010 -0.318949 0.892453
-1.183585 -0.097858 4.070336 -0.286813 -0.692434 -0.661977
-1.183998 -0.098855 4.072097 -0.354930 -0.856868 -0.373852
-1.196308 -0.095079 4.072097 -0.184606 -0.908780 -0.374126
-1.196097 -0.094020 4.070336 -0.149144 -0.734214 -0.662313
-1.195798 -0.092515 4.069078 -0.089938 -0.442976 -0.891995
-1.182998 -0.096441 4.069078 -0.173132 -0.418012 -0.891781
-1.195450 -0.090761 4.068576 0.002564 0.012360 -0.999908
-1.182314 -0.094790 4.068576 0.004669 0.011292 -0.999908
-1.171171 -0.102716 4.069079 -0.249611 -0.376843 -0.891995
-1.172024 -0.103991 4.070336 -0.413678 -0.624592 -0.662343
-1.160803 -0.111138 4.069078 -0.318949 -0.318918 -0.892483
-1.161889 -0.112224 4.070336 -0.529374 -0.529313 -0.662984
-1.170177 -0.101229 4.068576 0.006867 0.010468 -0.999908
-1.159537 -0.109872 4.068576 0.009583 0.009583 -0.999878
-1.172624 -0.104889 4.072097 -0.512040 -0.773156 -0.374126
-1.162654 -0.112988 4.072097 -0.655568 -0.655568 -0.374676
-1.180980 -0.091569 4.070336 0.280160 0.676382 -0.681143
-1.181609 -0.093087 4.069078 0.173315 0.418470 -0.891507
-1.195091 -0.088952 4.069079 0.090182 0.443892 -0.891507
-1.194770 -0.087339 4.070336 0.145726 0.717338 -0.681295
-1.194538 -0.086171 4.072097 0.182501 0.898587 -0.398999
-1.180525 -0.090469 4.072097 0.350902 0.847163 -0.398907
-1.167576 -0.097339 4.072097 0.506363 0.764428 -0.398999
-1.168238 -0.098329 4.070336 0.404248 0.610279 -0.681234
-1.156225 -0.106560 4.072097 0.648366 0.648335 -0.399060
-1.157068 -0.107403 4.070336 0.517624 0.517563 -0.681295
-1.169152 -0.099696 4.069078 0.250069 0.377636 -0.891507
-1.158232 -0.108567 4.069078 0.320444 0.320444 -0.891385
-1.141234 -0.131315 4.077881 0.676351 0.280129 0.681204
-1.140135 -0.130859 4.076120 0.847194 0.350902 0.398877
-1.147004 -0.117911 4.076120 0.764428 0.506333 0.398999
-1.147994 -0.118573 4.077881 0.610279 0.404157 0.681295
-1.139690 -0.130675 4.074109 0.923856 0.382672 0.000000
-1.146604 -0.117643 4.074109 0.833644 0.552232 0.000000
-1.149361 -0.119487 4.079138 0.377667 0.250069 0.891507
-1.142753 -0.131944 4.079138 0.418470 0.173345 0.891507
-1.150894 -0.120512 4.079641 0.010498 0.006897 0.999908
-1.144455 -0.132649 4.079641 0.011261 0.004669 0.999908
-1.138617 -0.145426 4.079138 0.443831 0.090213 0.891537
-1.137004 -0.145105 4.077881 0.717277 0.145695 0.681356
-1.137168 -0.159420 4.079138 0.453169 0.000000 0.891385
-1.135522 -0.159420 4.077881 0.731864 0.000000 0.681417
-1.140426 -0.145785 4.079641 0.012268 0.002564 0.999908
-1.139014 -0.159420 4.079641 0.013581 0.000000 0.999878
-1.135836 -0.144873 4.076120 0.898587 0.182470 0.398999
-1.135364 -0.144779 4.074109 0.979980 0.198981 0.000000
-1.134330 -0.159420 4.076120 0.916898 0.000000 0.399091
-1.133848 -0.159420 4.074109 0.999969 0.000000 0.000000
-1.147523 -0.133920 4.077881 -0.692373 -0.286782 0.662038
-1.146107 -0.133333 4.079138 -0.418043 -0.173162 0.891751
-1.152381 -0.121506 4.079138 -0.376873 -0.249641 0.891964
-1.153656 -0.122359 4.077881 -0.624592 -0.413648 0.662374
-1.154554 -0.122959 4.076120 -0.773156 -0.512040 0.374126
-1.148520 -0.134333 4.076120 -0.856868 -0.354930 0.373882
-1.154909 -0.123196 4.074109 -0.833735 -0.552141 0.000000
-1.148914 -0.134496 4.074109 -0.923856 -0.382672 0.000000
-1.144744 -0.146642 4.076120 -0.908780 -0.184637 0.374157
-1.143685 -0.146432 4.077881 -0.734153 -0.149144 0.662374
-1.143421 -0.159420 4.076120 -0.927122 0.000000 0.374706
-1.142340 -0.159420 4.077881 -0.748527 0.000000 0.663076
-1.145162 -0.146725 4.074109 -0.979949 -0.199103 0.000000
-1.143848 -0.159420 4.074109 -1.000000 0.000000 0.000000
-1.142180 -0.146133 4.079138 -0.443007 -0.089969 0.891964
-1.140805 -0.159420 4.079138 -0.451094 0.000000 0.892453
-1.147523 -0.133920 4.070336 -0.692434 -0.286813 -0.661977
-1.148520 -0.134333 4.072097 -0.856868 -0.354900 -0.373852
-1.154554 -0.122959 4.072097 -0.773186 -0.512040 -0.374126
-1.153656 -0.122359 4.070336 -0.624653 -0.413678 -0.662313
-1.152381 -0.121506 4.069078 -0.376843 -0.249611 -0.891995
-1.146107 -0.133333 4.069078 -0.418012 -0.173162 -0.891751
-1.150894 -0.120512 4.068576 0.010529 0.006928 -0.999908
-1.144455 -0.132649 4.068576 0.011261 0.004669 -0.999908
-1.142180 -0.146133 4.069079 -0.442976 -0.089969 -0.891995
-1.143685 -0.146432 4.070336 -0.734214 -0.149144 -0.662313
-1.140805 -0.159420 4.069078 -0.451064 0.000000 -0.892483
-1.142340 -0.159420 4.070336 -0.748589 0.000000 -0.662984
-1.140426 -0.145785 4.068576 0.012299 0.002564 -0.999908
-1.139014 -0.159420 4.068576 0.013611 0.000000 -0.999878
-1.144744 -0.146642 4.072097 -0.908780 -0.184637 -0.374157
-1.143421 -0.159420 4.072097 -0.927122 0.000000 -0.374737
-1.141234 -0.131315 4.070336 0.676382 0.280160 -0.681173
-1.142753 -0.131944 4.069078 0.418470 0.173345 -0.891507
-1.149361 -0.119487 4.069079 0.377667 0.250069 -0.891507
-1.147994 -0.118573 4.070336 0.610279 0.404187 -0.681265
-1.147004 -0.117911 4.072097 0.764428 0.506333 -0.398999
-1.140135 -0.130859 4.072097 0.847163 0.350902 -0.398907
-1.135836 -0.144873 4.072097 0.898587 0.182470 -0.398999
-1.137004 -0.145105 4.070336 0.717368 0.145695 -0.681265
-1.134330 -0.159420 4.072097 0.916898 0.000000 -0.399060
-1.135522 -0.159420 4.070336 0.731956 0.000000 -0.681326
-1.138617 -0.145426 4.069078 0.443861 0.090213 -0.891537
-1.137168 -0.159420 4.069078 0.453169 0.000000 -0.891385
-1.141234 -0.187524 4.077881 0.676351 -0.280129 0.681204
-1.140135 -0.187980 4.076120 0.847163 -0.350902 0.398877
-1.135836 -0.173966 4.076120 0.898587 -0.182470 0.398999
-1.137004 -0.173734 4.077881 0.717277 -0.145695 0.681326
-1.139690 -0.188164 4.074109 0.923856 -0.382672 0.000000
-1.135364 -0.174060 4.074109 0.979980 -0.198981 0.000000
-1.138617 -0.173414 4.079138 0.443861 -0.090213 0.891507
-1.142753 -0.186895 4.079138 0.418470 -0.173345 0.891507
-1.140426 -0.173054 4.079641 0.012299 -0.002564 0.999908
-1.144455 -0.186190 4.079641 0.011292 -0.004669 0.999908
-1.149361 -0.199352 4.079138 0.377667 -0.250069 0.891507
-1.147994 -0.200266 4.077881 0.610248 -0.404157 0.681326
-1.158232 -0.210272 4.079138 0.320444 -0.320444 0.891385
-1.157068 -0.211436 4.077881 0.517502 -0.517563 0.681387
-1.150894 -0.198327 4.079641 0.010559 -0.006897 0.999908
-1.159537 -0.208967 4.079641 0.009613 -0.009613 0.999878
-1.147004 -0.200928 4.076120 0.764428 -0.506363 0.398999
-1.146604 -0.201196 4.074109 0.833644 -0.552232 0.000000
-1.156225 -0.212279 4.076120 0.648305 -0.648335 0.399091
-1.155884 -0.212620 4.074109 0.707083 -0.707083 0.000000
-1.147523 -0.184919 4.077881 -0.692404 0.286782 0.662038
-1.146107 -0.185506 4.079138 -0.418012 0.173132 0.891751
-1.142180 -0.172706 4.079138 -0.443007 0.089969 0.891964
-1.143685 -0.172407 4.077881 -0.734123 0.149144 0.662404
-1.144744 -0.172197 4.076120 -0.908780 0.184637 0.374157
-1.148520 -0.184506 4.076120 -0.856868 0.354930 0.373852
-1.145163 -0.172114 4.074109 -0.979949 0.199103 0.000000
-1.148914 -0.184343 4.074109 -0.923856 0.382672 0.000000
-1.154554 -0.195880 4.076120 -0.773156 0.512040 0.374126
-1.153657 -0.196480 4.077881 -0.624561 0.413648 0.662374
-1.162654 -0.205851 4.076120 -0.655599 0.655568 0.374676
-1.161889 -0.206615 4.077881 -0.529283 0.529313 0.663076
-1.154909 -0.195643 4.074109 -0.833735 0.552110 0.000000
-1.162955 -0.205549 4.074109 -0.707083 0.707083 0.000000
-1.152381 -0.197333 4.079138 -0.376873 0.249611 0.891964
-1.160803 -0.207701 4.079138 -0.318979 0.318949 0.892453
-1.147523 -0.184919 4.070336 -0.692434 0.286782 -0.662008
-1.148520 -0.184506 4.072097 -0.856868 0.354900 -0.373852
-1.144744 -0.172197 4.072097 -0.908780 0.184637 -0.374157
-1.143685 -0.172407 4.070336 -0.734184 0.149144 -0.662313
-1.142180 -0.172706 4.069078 -0.442976 0.089938 -0.891995
-1.146107 -0.185506 4.069079 -0.418043 0.173132 -0.891751
-1.140426 -0.173054 4.068576 0.012329 -0.002594 -0.999908
-1.144455 -0.186190 4.068576 0.011322 -0.004669 -0.999908
-1.152381 -0.197333 4.069079 -0.376873 0.249641 -0.891964
-1.153656 -0.196480 4.070336 -0.624592 0.413648 -0.662374
-1.160803 -0.207701 4.069079 -0.318979 0.318949 -0.892453
-1.161889 -0.206615 4.070336 -0.529283 0.529313 -0.663076
-1.150894 -0.198327 4.068576 0.010529 -0.006897 -0.999908
-1.159537 -0.208967 4.068576 0.009583 -0.009613 -0.999878
-1.154554 -0.195880 4.072097 -0.773186 0.512009 -0.374126
-1.162653 -0.205851 4.072097 -0.655568 0.655568 -0.374676
-1.141234 -0.187524 4.070336 0.676321 -0.280129 -0.681234
-1.142753 -0.186895 4.069079 0.418470 -0.173345 -0.891507
-1.138617 -0.173414 4.069079 0.443861 -0.090213 -0.891537
-1.137004 -0.173734 4.070336 0.717338 -0.145695 -0.681295
-1.135836 -0.173966 4.072097 0.898587 -0.182470 -0.398999
-1.140135 -0.187980 4.072097 0.847194 -0.350902 -0.398877
-1.147004 -0.200928 4.072097 0.764428 -0.506333 -0.398999
-1.147994 -0.200266 4.070336 0.610248 -0.404157 -0.681326
-1.156225 -0.212279 4.072097 0.648335 -0.648335 -0.399091
-1.157068 -0.211436 4.070336 0.517563 -0.517533 -0.681356
-1.149361 -0.199352 4.069079 0.377697 -0.250069 -0.891476
-1.158232 -0.210272 4.069079 0.320505 -0.320444 -0.891385
-1.180980 -0.227270 4.077881 0.280129 -0.676351 0.681204
-1.180525 -0.228370 4.076120 0.350871 -0.847163 0.398907
-1.167576 -0.221500 4.076120 0.506302 -0.764458 0.399030
-1.168238 -0.220510 4.077881 0.404126 -0.610279 0.681326
-1.180340 -0.228814 4.074109 0.382672 -0.923856 0.000000
-1.167308 -0.221900 4.074109 0.552232 -0.833674 0.000000
-1.169152 -0.219143 4.079138 0.250099 -0.377667 0.891507
-1.181609 -0.225752 4.079138 0.173345 -0.418500 0.891507
-1.170177 -0.217610 4.079641 0.006928 -0.010529 0.999908
-1.182314 -0.224049 4.079641 0.004669 -0.011292 0.999908
-1.195091 -0.229887 4.079138 0.090213 -0.443892 0.891507
-1.194770 -0.231500 4.077881 0.145726 -0.717307 0.681326
-1.209085 -0.231336 4.079138 0.000000 -0.453200 0.891385
-1.209085 -0.232983 4.077881 0.000000 -0.731925 0.681356
-1.195450 -0.228078 4.079641 0.002533 -0.012329 0.999908
-1.209085 -0.229490 4.079641 0.000000 -0.013581 0.999878
-1.194538 -0.232668 4.076120 0.182470 -0.898587 0.398999
-1.194445 -0.233141 4.074109 0.198981 -0.979980 0.000000
-1.209085 -0.234174 4.076120 0.000000 -0.916898 0.399091
-1.209085 -0.234657 4.074109 0.000000 -1.000000 0.000000
-1.183585 -0.220982 4.077881 -0.286813 0.692404 0.662038
-1.182998 -0.222398 4.079138 -0.173162 0.418043 0.891751
-1.171171 -0.216123 4.079138 -0.249611 0.376873 0.891964
-1.172024 -0.214848 4.077881 -0.413648 0.624592 0.662374
-1.172624 -0.213950 4.076120 -0.512070 0.773156 0.374126
-1.183998 -0.219985 4.076120 -0.354930 0.856868 0.373852
-1.172861 -0.213596 4.074109 -0.552141 0.833735 0.000000
-1.184161 -0.219591 4.074109 -0.382672 0.923856 0.000000
-1.196308 -0.223760 4.076120 -0.184637 0.908780 0.374126
-1.196097 -0.224819 4.077881 -0.149144 0.734153 0.662374
-1.209085 -0.225083 4.076120 0.000000 0.927122 0.374676
-1.209085 -0.226164 4.077881 0.000000 0.748527 0.663045
-1.196391 -0.223342 4.074109 -0.199103 0.979949 0.000000
-1.209085 -0.224656 4.074109 0.000000 1.000000 0.000000
-1.195798 -0.226324 4.079138 -0.089969 0.443007 0.891964
-1.209085 -0.227700 4.079138 0.000000 0.451094 0.892453
-1.183585 -0.220982 4.070336 -0.286782 0.692373 -0.662038
-1.183998 -0.219985 4.072097 -0.354930 0.856868 -0.373852
-1.172624 -0.213950 4.072097 -0.512040 0.773186 -0.374157
-1.172024 -0.214848 4.070336 -0.413648 0.624592 -0.662374
-1.171171 -0.216123 4.069079 -0.249672 0.376873 -0.891964
-1.182998 -0.222398 4.069079 -0.173193 0.418043 -0.891751
-1.170177 -0.217610 4.068576 0.006836 -0.010529 -0.999908
-1.182314 -0.224049 4.068576 0.004608 -0.011292 -0.999908
-1.195798 -0.226324 4.069079 -0.089969 0.443007 -0.891964
-1.196097 -0.224819 4.070336 -0.149113 0.734153 -0.662374
-1.209085 -0.227700 4.069079 0.000000 0.451094 -0.892453
-1.209085 -0.226164 4.070336 0.000000 0.748527 -0.663045
-1.195450 -0.228078 4.068576 0.002564 -0.012329 -0.999908
-1.209085 -0.229490 4.068576 0.000000 -0.013581 -0.999878
-1.196308 -0.223760 4.072097 -0.184637 0.908780 -0.374126
-1.209085 -0.225083 4.072097 0.000000 0.927122 -0.374676
-1.180980 -0.227270 4.070336 0.280129 -0.676351 -0.681204
-1.181609 -0.225752 4.069079 0.173315 -0.418500 -0.891507
-1.169152 -0.219143 4.069079 0.250099 -0.377667 -0.891507
-1.168238 -0.220510 4.070336 0.404187 -0.610248 -0.681295
-1.167576 -0.221500 4.072097 0.506333 -0.764428 -0.399030
-1.180525 -0.228370 4.072097 0.350902 -0.847163 -0.398907
-1.194538 -0.232668 4.072097 0.182501 -0.898587 -0.398999
-1.194770 -0.231500 4.070336 0.145695 -0.717307 -0.681326
-1.209085 -0.234174 4.072097 0.000000 -0.916898 -0.399091
-1.209085 -0.232983 4.070336 0.000000 -0.731925 -0.681356
-1.195091 -0.229887 4.069079 0.090182 -0.443892 -0.891507
-1.209085 -0.231336 4.069079 0.000000 -0.453200 -0.891385
-1.237190 -0.227270 4.077881 -0.280099 -0.676351 0.681204
-1.237645 -0.228370 4.076120 -0.350902 -0.847194 0.398877
-1.223631 -0.232668 4.076120 -0.182501 -0.898587 0.398999
-1.223399 -0.231500 4.077881 -0.145695 -0.717307 0.681326
-1.237829 -0.228814 4.074109 -0.382641 -0.923856 0.000000
-1.223725 -0.233141 4.074109 -0.198981 -0.979980 0.000000
-1.223079 -0.229887 4.079138 -0.090213 -0.443892 0.891507
-1.236561 -0.225752 4.079138 -0.173315 -0.418500 0.891507
-1.222720 -0.228078 4.079641 -0.002594 -0.012329 0.999908
-1.235855 -0.224049 4.079641 -0.004700 -0.011292 0.999908
-1.249018 -0.219143 4.079138 -0.250069 -0.377667 0.891507
-1.249932 -0.220510 4.077881 -0.404157 -0.610248 0.681326
-1.259938 -0.210272 4.079138 -0.320475 -0.320444 0.891385
-1.261102 -0.211436 4.077881 -0.517502 -0.517533 0.681387
-1.247993 -0.217610 4.079641 -0.006897 -0.010529 0.999908
-1.258632 -0.208967 4.079641 -0.009583 -0.009613 0.999878
-1.250594 -0.221500 4.076120 -0.506302 -0.764458 0.399030
-1.250861 -0.221900 4.074109 -0.552202 -0.833674 0.000000
-1.261945 -0.212279 4.076120 -0.648305 -0.648366 0.399121
-1.262286 -0.212620 4.074109 -0.707083 -0.707083 0.000000
-1.234585 -0.220982 4.077881 0.286782 0.692373 0.662038
-1.235171 -0.222398 4.079138 0.173132 0.418043 0.891751
-1.222371 -0.226324 4.079138 0.089938 0.443007 0.891964
-1.222072 -0.224819 4.077881 0.149144 0.734153 0.662374
-1.221862 -0.223760 4.076120 0.184637 0.908780 0.374126
-1.234172 -0.219985 4.076120 0.354900 0.856868 0.373852
-1.221779 -0.223342 4.074109 0.199103 0.979949 0.000000
-1.234009 -0.219591 4.074109 0.382672 0.923856 0.000000
-1.245546 -0.213950 4.076120 0.512040 0.773156 0.374126
-1.246146 -0.214848 4.077881 0.413648 0.624561 0.662374
-1.255516 -0.205851 4.076120 0.655599 0.655568 0.374676
-1.256281 -0.206615 4.077881 0.529313 0.529283 0.663045
-1.245309 -0.213596 4.074109 0.552141 0.833735 0.000000
-1.255214 -0.205549 4.074109 0.707114 0.707083 0.000000
-1.246998 -0.216123 4.079138 0.249611 0.376873 0.891964
-1.257366 -0.207701 4.079138 0.318979 0.318949 0.892453
-1.234585 -0.220982 4.070336 0.286782 0.692373 -0.662038
-1.234172 -0.219985 4.072097 0.354930 0.856868 -0.373852
-1.221862 -0.223760 4.072097 0.184606 0.908780 -0.374126
-1.222072 -0.224819 4.070336 0.149113 0.734153 -0.662374
-1.222371 -0.226324 4.069079 0.089938 0.443007 -0.891964
-1.235171 -0.222398 4.069079 0.173162 0.418043 -0.891751
-1.222720 -0.228078 4.068576 -0.002564 -0.012329 -0.999908
-1.235855 -0.224049 4.068576 -0.004639 -0.011292 -0.999908
-1.246998 -0.216123 4.069079 0.249641 0.376873 -0.891964
-1.246146 -0.214848 4.070336 0.413648 0.624561 -0.662374
-1.257366 -0.207701 4.069079 0.318918 0.318949 -0.892483
-1.256281 -0.206615 4.070336 0.529283 0.529283 -0.663076
-1.247993 -0.217610 4.068576 -0.006897 -0.010529 -0.999908
-1.258632 -0.208967 4.068576 -0.009613 -0.009583 -0.999878
-1.245546 -0.213950 4.072097 0.512070 0.773156 -0.374126
-1.255516 -0.205851 4.072097 0.655568 0.655568 -0.374676
-1.237190 -0.227270 4.070336 -0.280160 -0.676321 -0.681204
-1.236561 -0.225752 4.069079 -0.173315 -0.418500 -0.891507
-1.223079 -0.229887 4.069079 -0.090182 -0.443892 -0.891507
-1.223399 -0.231500 4.070336 -0.145695 -0.717307 -0.681326
-1.223631 -0.232668 4.072097 -0.182501 -0.898587 -0.398999
-1.237645 -0.228370 4.072097 -0.350902 -0.847163 -0.398877
-1.250594 -0.221500 4.072097 -0.506363 -0.764428 -0.398999
-1.249932 -0.220510 4.070336 -0.404187 -0.610248 -0.681326
-1.261945 -0.212279 4.072097 -0.648335 -0.648335 -0.399091
-1.261102 -0.211436 4.070336 -0.517533 -0.517533 -0.681356
-1.249018 -0.219143 4.069079 -0.250099 -0.377667 -0.891507
-1.259938 -0.210272 4.069079 -0.320444 -0.320444 -0.891385
-1.276936 -0.187524 4.077881 -0.676321 -0.280129 0.681204
-1.278035 -0.187980 4.076120 -0.847194 -0.350902 0.398877
-1.271165 -0.200928 4.076120 -0.764428 -0.506363 0.399030
-1.270176 -0.200267 4.077881 -0.610218 -0.404187 0.681326
-1.278480 -0.188164 4.074109 -0.923856 -0.382672 0.000000
-1.271566 -0.201196 4.074109 -0.833674 -0.552202 0.000000
-1.268808 -0.199352 4.079138 -0.377667 -0.250069 0.891507
-1.275417 -0.186895 4.079138 -0.418470 -0.173345 0.891507
-1.267275 -0.198327 4.079641 -0.010529 -0.006867 0.999908
-1.273715 -0.186190 4.079641 -0.011292 -0.004669 0.999908
-1.279552 -0.173414 4.079138 -0.443861 -0.090213 0.891507
-1.281166 -0.173734 4.077881 -0.717307 -0.145695 0.681326
-1.277744 -0.173054 4.079641 -0.012329 -0.002564 0.999908
-1.282333 -0.173966 4.076120 -0.898587 -0.182470 0.398999
-1.282806 -0.174060 4.074109 -0.979980 -0.198981 0.000000
-1.270647 -0.184919 4.077881 0.692404 0.286782 0.662008
-1.272063 -0.185506 4.079138 0.418073 0.173132 0.891751
-1.265788 -0.197333 4.079138 0.376904 0.249611 0.891964
-1.264513 -0.196481 4.077881 0.624592 0.413648 0.662343
-1.263616 -0.195880 4.076120 0.773156 0.512040 0.374126
-1.269650 -0.184506 4.076120 0.856838 0.354930 0.373882
-1.263261 -0.195643 4.074109 0.833735 0.552141 0.000000
-1.269256 -0.184343 4.074109 0.923856 0.382672 0.000000
-1.273425 -0.172197 4.076120 0.908780 0.184637 0.374157
-1.274485 -0.172407 4.077881 0.734153 0.149144 0.662374
-1.273007 -0.172114 4.074109 0.979949 0.199103 0.000000
-1.275989 -0.172706 4.079138 0.443037 0.089938 0.891964
-1.270647 -0.184919 4.070336 0.692373 0.286782 -0.662069
-1.269650 -0.184506 4.072097 0.856868 0.354900 -0.373852
-1.263615 -0.195880 4.072097 0.773186 0.512009 -0.374126
-1.264513 -0.196481 4.070336 0.624561 0.413648 -0.662374
-1.265788 -0.197333 4.069079 0.376843 0.249641 -0.891995
-1.272063 -0.185506 4.069079 0.418012 0.173162 -0.891751
-1.267275 -0.198327 4.068576 -0.010529 -0.006867 -0.999908
-1.273715 -0.186190 4.068576 -0.011231 -0.004669 -0.999908
-1.275989 -0.172706 4.069079 0.443007 0.089938 -0.891964
-1.274485 -0.172407 4.070336 0.734153 0.149144 -0.662343
-1.277744 -0.173054 4.068576 -0.012238 -0.002564 -0.999908
-1.273426 -0.172197 4.072097 0.908780 0.184637 -0.374157
-1.276936 -0.187524 4.070336 -0.676351 -0.280129 -0.681173
-1.275417 -0.186895 4.069079 -0.418470 -0.173345 -0.891507
-1.268808 -0.199352 4.069079 -0.377667 -0.250069 -0.891507
-1.270175 -0.200267 4.070336 -0.610279 -0.404157 -0.681295
-1.271165 -0.200928 4.072097 -0.764458 -0.506333 -0.398999
-1.278035 -0.187980 4.072097 -0.847194 -0.350871 -0.398877
-1.282333 -0.173966 4.072097 -0.898587 -0.182501 -0.398999
-1.281166 -0.173734 4.070336 -0.717338 -0.145726 -0.681265
-1.279552 -0.173414 4.069078 -0.443861 -0.090213 -0.891537
4 0 1 2 3
4 3 2 4 5
4 1 6 7 2
4 2 7 8 4
4 0 3 9 10
4 10 9 11 12
4 3 5 13 9
4 9 13 14 11
4 0 10 15 16
4 16 15 17 18
4 10 12 19 15
4 15 19 20 17
4 0 16 21 1
4 1 21 22 6
4 16 18 23 21
4 21 23 24 22
4 25 26 27 28
4 28 27 23 18
4 26 29 30 27
4 27 30 24 23
4 25 28 31 32
4 32 31 33 34
4 28 18 17 31
4 31 17 20 33
4 25 32 35 36
4 36 35 37 38
4 32 34 39 35
4 35 39 40 37
4 25 36 41 26
4 26 41 42 29
4 36 38 43 41
4 41 43 44 42
4 45 46 47 48
4 48 47 43 38
4 46 49 50 47
4 47 50 44 43
4 45 48 51 52
4 52 51 53 54
4 48 38 37 51
4 51 37 40 53
4 45 52 55 56
4 56 55 57 58
4 52 54 59 55
4 55 59 60 57
4 45 56 61 46
4 46 61 62 49
4 56 58 63 61
4 61 63 64 62
4 65 66 67 68
4 68 67 69 70
4 66 5 4 67
4 67 4 8 69
4 65 68 71 72
4 72 71 63 58
4 68 70 73 71
4 71 73 64 63
4 65 72 74 75
4 75 74 76 77
4 72 58 57 74
4 74 57 60 76
4 65 75 78 66
4 66 78 13 5
4 75 77 79 78
4 78 79 14 13
4 80 81 82 83
4 83 82 84 85
4 81 12 11 82
4 82 11 14 84
4 80 83 86 87
4 87 86 88 89
4 83 85 90 86
4 86 90 91 88
4 80 87 92 93
4 93 92 94 95
4 87 89 96 92
4 92 96 97 94
4 80 93 98 81
4 81 98 19 12
4 93 95 99 98
4 98 99 20 19
4 100 101 102 103
4 103 102 99 95
4 101 34 33 102
4 102 33 20 99
4 100 103 104 105
4 105 104 106 107
4 103 95 94 104
4 104 94 97 106
4 100 105 108 109
4 109 108 110 111
4 105 107 112 108
4 108 112 113 110
4 100 109 114 101
4 101 114 39 34
4 109 111 115 114
4 114 115 40 39
4 116 117 118 119
4 119 118 115 111
4 117 54 53 118
4 118 53 40 115
4 116 119 120 121
4 121 120 122 123
4 119 111 110 120
4 120 110 113 122
4 116 121 124 125
4 125 124 126 127
4 121 123 128 124
4 124 128 129 126
4 116 125 130 117
4 117 130 59 54
4 125 127 131 130
4 130 131 60 59
4 132 133 134 135
4 135 134 131 127
4 133 77 76 134
4 134 76 60 131
4 132 135 136 137
4 137 136 138 139
4 135 127 126 136
4 136 126 129 138
4 132 137 140 141
4 141 140 90 85
4 137 139 142 140
4 140 142 91 90
4 132 141 143 133
4 133 143 79 77
4 141 85 84 143
4 143 84 14 79
4 144 145 146 147
4 147 146 148 149
4 145 89 88 146
4 146 88 91 148
4 144 147 150 151
4 151 150 152 153
4 147 149 154 150
4 150 154 155 152
4 144 151 156 157
4 157 156 158 159
4 151 153 160 156
4 156 160 161 158
4 144 157 162 145
4 145 162 96 89
4 157 159 163 162
4 162 163 97 96
4 164 165 166 167
4 167 166 163 159
4 165 107 106 166
4 166 106 97 163
4 164 167 168 169
4 169 168 170 171
4 167 159 158 168
4 168 158 161 170
4 164 169 172 173
4 173 172 174 175
4 169 171 176 172
4 172 176 177 174
4 164 173 178 165
4 165 178 112 107
4 173 175 179 178
4 178 179 113 112
4 180 181 182 183
4 183 182 179 175
4 181 123 122 182
4 182 122 113 179
4 180 183 184 185
4 185 184 186 187
4 183 175 174 184
4 184 174 177 186
4 180 185 188 189
4 189 188 190 191
4 185 187 192 188
4 188 192 193 190
4 180 189 194 181
4 181 194 128 123
4 189 191 195 194
4 194 195 129 128
4 196 197 198 199
4 199 198 195 191
4 197 139 138 198
4 198 138 129 195
4 196 199 200 201
4 201 200 202 203
4 199 191 190 200
4 200 190 193 202
4 196 201 204 205
4 205 204 154 149
4 201 203 206 204
4 204 206 155 154
4 196 205 207 197
4 197 207 142 139
4 205 149 148 207
4 207 148 91 142
4 208 209 210 211
4 211 210 212 213
4 209 153 152 210
4 210 152 155 212
4 208 211 214 215
4 215 214 216 217
4 211 213 218 214
4 214 218 219 216
4 208 215 220 221
4 221 220 222 223
4 215 217 224 220
4 220 224 225 222
4 208 221 226 209
4 209 226 160 153
4 221 223 227 226
4 226 227 161 160
4 228 229 230 231
4 231 230 227 223
4 229 171 170 230
4 230 170 161 227
4 228 231 232 233
4 233 232 234 235
4 231 223 222 232
4 232 222 225 234
4 228 233 236 237
4 237 236 238 239
4 233 235 240 236
4 236 240 241 238
4 228 237 242 229
4 229 242 176 171
4 237 239 243 242
4 242 243 177 176
4 244 245 246 247
4 247 246 243 239
4 245 187 186 246
4 246 186 177 243
4 244 247 248 249
4 249 248 250 251
4 247 239 238 248
4 248 238 241 250
4 244 249 252 253
4 253 252 254 255
4 249 251 256 252
4 252 256 257 254
4 244 253 258 245
4 245 258 192 187
4 253 255 259 258
4 258 259 193 192
4 260 261 262 263
4 263 262 259 255
4 261 203 202 262
4 262 202 193 259
4 260 263 264 265
4 265 264 266 267
4 263 255 254 264
4 264 254 257 266
4 260 265 268 269
4 269 268 218 213
4 265 267 270 268
4 268 270 219 218
4 260 269 271 261
4 261 271 206 203
4 269 213 212 271
4 271 212 155 206
4 272 273 274 275
4 275 274 276 277
4 273 217 216 274
4 274 216 219 276
4 272 275 278 279
4 279 278 280 281
4 275 277 282 278
4 278 282 283 280
4 272 279 284 285
4 285 284 286 287
4 279 281 288 284
4 284 288 289 286
4 272 285 290 273
4 273 290 224 217
4 285 287 291 290
4 290 291 225 224
4 292 293 294 295
4 295 294 291 287
4 293 235 234 294
4 294 234 225 291
4 292 295 296 297
4 297 296 298 299
4 295 287 286 296
4 296 286 289 298
4 292 297 300 301
4 301 300 302 303
4 297 299 304 300
4 300 304 305 302
4 292 301 306 293
4 293 306 240 235
4 301 303 307 306
4 306 307 241 240
4 308 309 310 311
4 311 310 307 303
4 309 251 250 310
4 310 250 241 307
4 308 311 312 313
4 313 312 314 315
4 311 303 302 312
4 312 302 305 314
4 308 313 316 317
4 317 316 318 319
4 313 315 320 316
4 316 320 321 318
4 308 317 322 309
4 309 322 256 251
4 317 319 323 322
4 322 323 257 256
4 324 325 326 327
4 327 326 323 319
4 325 267 266 326
4 326 266 257 323
4 324 327 328 329
4 329 328 330 331
4 327 319 318 328
4 328 318 321 330
4 324 329 332 333
4 333 332 282 277
4 329 331 334 332
4 332 334 283 282
4 324 333 335 325
4 325 335 270 267
4 333 277 276 335
4 335 276 219 270
4 336 337 338 339
4 339 338 340 341
4 337 281 280 338
4 338 280 283 340
4 336 339 342 343
4 343 342 344 345
4 339 341 346 342
4 342 346 347 344
4 336 343 348 349
4 349 348 350 351
4 343 345 352 348
4 348 352 353 350
4 336 349 354 337
4 337 354 288 281
4 349 351 355 354
4 354 355 289 288
4 356 357 358 359
4 359 358 355 351
4 357 299 298 358
4 358 298 289 355
4 356 359 360 361
4 361 360 362 363
4 359 351 350 360
4 360 350 353 362
4 356 361 364 365
4 365 364 366 367
4 361 363 368 364
4 364 368 369 366
4 356 365 370 357
4 357 370 304 299
4 365 367 371 370
4 370 371 305 304
4 372 373 374 375
4 375 374 371 367
4 373 315 314 374
4 374 314 305 371
4 372 375 376 377
4 377 376 378 379
4 375 367 366 376
4 376 366 369 378
4 372 377 380 381
4 381 380 382 383
4 377 379 384 380
4 380 384 385 382
4 372 381 386 373
4 373 386 320 315
4 381 383 387 386
4 386 387 321 320
4 388 389 390 391
4 391 390 387 383
4 389 331 330 390
4 390 330 321 387
4 388 391 392 393
4 393 392 394 395
4 391 383 382 392
4 392 382 385 394
4 388 393 396 397
4 397 396 346 341
4 393 395 398 396
4 396 398 347 346
4 388 397 399 389
4 389 399 334 331
4 397 341 340 399
4 399 340 283 334
4 400 401 402 403
4 403 402 404 405
4 401 345 344 402
4 402 344 347 404
4 400 403 406 407
4 407 406 408 409
4 403 405 410 406
4 406 410 411 408
4 400 407 412 413
4 413 412 414 415
4 407 409 416 412
4 412 416 417 414
4 400 413 418 401
4 401 418 352 345
4 413 415 419 418
4 418 419 353 352
4 420 421 422 423
4 423 422 419 415
4 421 363 362 422
4 422 362 353 419
4 420 423 424 425
4 425 424 426 427
4 423 415 414 424
4 424 414 417 426
4 420 425 428 429
4 429 428 430 431
4 425 427 432 428
4 428 432 433 430
4 420 429 434 421
4 421 434 368 363
4 429 431 435 434
4 434 435 369 368
4 436 437 438 439
4 439 438 435 431
4 437 379 378 438
4 438 378 369 435
4 436 439 440 441
4 441 440 442 443
4 439 431 430 440
4 440 430 433 442
4 436 441 444 445
4 445 444 446 447
4 441 443 448 444
4 444 448 449 446
4 436 445 450 437
4 437 450 384 379
4 445 447 451 450
4 450 451 385 384
4 452 453 454 455
4 455 454 451 447
4 453 395 394 454
4 454 394 385 451
4 452 455 456 457
4 457 456 458 459
4 455 447 446 456
4 456 446 449 458
4 452 457 460 461
4 461 460 410 405
4 457 459 462 460
4 460 462 411 410
4 452 461 463 453
4 453 463 398 395
4 461 405 404 463
4 463 404 347 398
4 464 465 466 467
4 467 466 468 469
4 465 409 408 466
4 466 408 411 468
4 464 467 470 471
4 471 470 7 6
4 467 469 472 470
4 470 472 8 7
4 464 471 473 474
4 474 473 475 476
4 471 6 22 473
4 473 22 24 475
4 464 474 477 465
4 465 477 416 409
4 474 476 478 477
4 477 478 417 416
4 479 480 481 482
4 482 481 478 476
4 480 427 426 481
4 481 426 417 478
4 479 482 483 484
4 484 483 30 29
4 482 476 475 483
4 483 475 24 30
4 479 484 485 486
4 486 485 487 488
4 484 29 42 485
4 485 42 44 487
4 479 486 489 480
4 480 489 432 427
4 486 488 490 489
4 489 490 433 432
4 491 492 493 494
4 494 493 490 488
4 492 443 442 493
4 493 442 433 490
4 491 494 495 496
4 496 495 50 49
4 494 488 487 495
4 495 487 44 50
4 491 496 497 498
4 498 497 499 500
4 496 49 62 497
4 497 62 64 499
4 491 498 501 492
4 492 501 448 443
4 498 500 502 501
4 501 502 449 448
4 503 504 505 506
4 506 505 502 500
4 504 459 458 505
4 505 458 449 502
4 503 506 507 508
4 508 507 73 70
4 506 500 499 507
4 507 499 64 73
4 503 508 509 510
4 510 509 472 469
4 508 70 69 509
4 509 69 8 472
4 503 510 511 504
4 504 511 462 459
4 510 469 468 511
4 511 468 411 462
4 512 513 514 515
4 515 514 516 517
4 513 518 519 514
4 514 519 520 516
4 512 515 521 522
4 522 521 523 524
4 515 517 525 521
4 521 525 526 523
4 512 522 527 528
4 528 527 529 530
4 522 524 531 527
4 527 531 532 529
4 512 528 533 513
4 513 533 534 518
4 528 530 535 533
4 533 535 536 534
4 537 538 539 540
4 540 539 541 542
4 538 524 523 539
4 539 523 526 541
4 537 540 543 544
4 544 543 545 546
4 540 542 547 543
4 543 547 548 545
4 537 544 549 550
4 550 549 551 552
4 544 546 553 549
4 549 553 554 551
4 537 550 555 538
4 538 555 531 524
4 550 552 556 555
4 555 556 532 531
4 557 558 559 560
4 560 559 561 562
4 558 546 545 559
4 559 545 548 561
4 557 560 563 564
4 564 563 565 566
4 560 562 567 563
4 563 567 568 565
4 557 564 569 570
4 570 569 571 572
4 564 566 573 569
4 569 573 574 571
4 557 570 575 558
4 558 575 553 546
4 570 572 576 575
4 575 576 554 553
4 577 578 579 580
4 580 579 519 518
4 578 581 582 579
4 579 582 520 519
4 577 580 583 584
4 584 583 585 586
4 580 518 534 583
4 583 534 536 585
4 577 584 587 588
4 588 587 573 566
4 584 586 589 587
4 587 589 574 573
4 577 588 590 578
4 578 590 591 581
4 588 566 565 590
4 590 565 568 591
4 592 593 594 595
4 595 594 535 530
4 593 596 597 594
4 594 597 536 535
4 592 595 598 599
4 599 598 600 601
4 595 530 529 598
4 598 529 532 600
4 592 599 602 603
4 603 602 604 605
4 599 601 606 602
4 602 606 607 604
4 592 603 608 593
4 593 608 609 596
4 603 605 610 608
4 608 610 611 609
4 612 613 614 615
4 615 614 556 552
4 613 601 600 614
4 614 600 532 556
4 612 615 616 617
4 617 616 618 619
4 615 552 551 616
4 616 551 554 618
4 612 617 620 621
4 621 620 622 623
4 617 619 624 620
4 620 624 625 622
4 612 621 626 613
4 613 626 606 601
4 621 623 627 626
4 626 627 607 606
4 628 629 630 631
4 631 630 576 572
4 629 619 618 630
4 630 618 554 576
4 628 631 632 633
4 633 632 634 635
4 631 572 571 632
4 632 571 574 634
4 628 633 636 637
4 637 636 638 639
4 633 635 640 636
4 636 640 641 638
4 628 637 642 629
4 629 642 624 619
4 637 639 643 642
4 642 643 625 624
4 644 645 646 647
4 647 646 589 586
4 645 635 634 646
4 646 634 574 589
4 644 647 648 649
4 649 648 597 596
4 647 586 585 648
4 648 585 536 597
4 644 649 650 651
4 651 650 652 653
4 649 596 609 650
4 650 609 611 652
4 644 651 654 645
4 645 654 640 635
4 651 653 655 654
4 654 655 641 640
4 656 657 658 659
4 659 658 610 605
4 657 660 661 658
4 658 661 611 610
4 656 659 662 663
4 663 662 664 665
4 659 605 604 662
4 662 604 607 664
4 656 663 666 667
4 667 666 668 669
4 663 665 670 666
4 666 670 671 668
4 656 667 672 657
4 657 672 673 660
4 667 669 674 672
4 672 674 675 673
4 676 677 678 679
4 679 678 627 623
4 677 665 664 678
4 678 664 607 627
4 676 679 680 681
4 681 680 682 683
4 679 623 622 680
4 680 622 625 682
4 676 681 684 685
4 685 684 686 687
4 681 683 688 684
4 684 688 689 686
4 676 685 690 677
4 677 690 670 665
4 685 687 691 690
4 690 691 671 670
4 692 693 694 695
4 695 694 643 639
4 693 683 682 694
4 694 682 625 643
4 692 695 696 697
4 697 696 698 699
4 695 639 638 696
4 696 638 641 698
4 692 697 700 701
4 701 700 702 703
4 697 699 704 700
4 700 704 705 702
4 692 701 706 693
4 693 706 688 683
4 701 703 707 706
4 706 707 689 688
4 708 709 710 711
4 711 710 655 653
4 709 699 698 710
4 710 698 641 655
4 708 711 712 713
4 713 712 661 660
4 711 653 652 712
4 712 652 611 661
4 708 713 714 715
4 715 714 716 717
4 713 660 673 714
4 714 673 675 716
4 708 715 718 709
4 709 718 704 699
4 715 717 719 718
4 718 719 705 704
4 720 721 722 723
4 723 722 674 669
4 721 724 725 722
4 722 725 675 674
4 720 723 726 727
4 727 726 728 729
4 723 669 668 726
4 726 668 671 728
4 720 727 730 731
4 731 730 732 733
4 727 729 734 730
4 730 734 735 732
4 720 731 736 721
4 721 736 737 724
4 731 733 738 736
4 736 738 739 737
4 740 741 742 743
4 743 742 691 687
4 741 729 728 742
4 742 728 671 691
4 740 743 744 745
4 745 744 746 747
4 743 687 686 744
4 744 686 689 746
4 740 745 748 749
4 749 748 750 751
4 745 747 752 748
4 748 752 753 750
4 740 749 754 741
4 741 754 734 729
4 749 751 755 754
4 754 755 735 734
4 756 757 758 759
4 759 758 707 703
4 757 747 746 758
4 758 746 689 707
4 756 759 760 761
4 761 760 762 763
4 759 703 702 760
4 760 702 705 762
4 756 761 764 765
4 765 764 766 767
4 761 763 768 764
4 764 768 769 766
4 756 765 770 757
4 757 770 752 747
4 765 767 771 770
4 770 771 753 752
4 772 773 774 775
4 775 774 719 717
4 773 763 762 774
4 774 762 705 719
4 772 775 776 777
4 777 776 725 724
4 775 717 716 776
4 776 716 675 725
4 772 777 778 779
4 779 778 780 781
4 777 724 737 778
4 778 737 739 780
4 772 779 782 773
4 773 782 768 763
4 779 781 783 782
4 782 783 769 768
4 784 785 786 787
4 787 786 738 733
4 785 788 789 786
4 786 789 739 738
4 784 787 790 791
4 791 790 792 793
4 787 733 732 790
4 790 732 735 792
4 784 791 794 795
4 795 794 796 797
4 791 793 798 794
4 794 798 799 796
4 784 795 800 785
4 785 800 801 788
4 795 797 802 800
4 800 802 803 801
4 804 805 806 807
4 807 806 755 751
4 805 793 792 806
4 806 792 735 755
4 804 807 808 809
4 809 808 810 811
4 807 751 750 808
4 808 750 753 810
4 804 809 812 813
4 813 812 814 815
4 809 811 816 812
4 812 816 817 814
4 804 813 818 805
4 805 818 798 793
4 813 815 819 818
4 818 819 799 798
4 820 821 822 823
4 823 822 771 767
4 821 811 810 822
4 822 810 753 771
4 820 823 824 825
4 825 824 826 827
4 823 767 766 824
4 824 766 769 826
4 820 825 828 829
4 829 828 830 831
4 825 827 832 828
4 828 832 833 830
4 820 829 834 821
4 821 834 816 811
4 829 831 835 834
4 834 835 817 816
4 836 837 838 839
4 839 838 783 781
4 837 827 826 838
4 838 826 769 783
4 836 839 840 841
4 841 840 789 788
4 839 781 780 840
4 840 780 739 789
4 836 841 842 843
4 843 842 844 845
4 841 788 801 842
4 842 801 803 844
4 836 843 846 837
4 837 846 832 827
4 843 845 847 846
4 846 847 833 832
4 848 849 850 851
4 851 850 802 797
4 849 852 853 850
4 850 853 803 802
4 848 851 854 855
4 855 854 856 857
4 851 797 796 854
4 854 796 799 856
4 848 855 858 859
4 859 858 860 861
4 855 857 862 858
4 858 862 863 860
4 848 859 864 849
4 849 864 865 852
4 859 861 866 864
4 864 866 867 865
4 868 869 870 871
4 871 870 819 815
4 869 857 856 870
4 870 856 799 819
4 868 871 872 873
4 873 872 874 875
4 871 815 814 872
4 872 814 817 874
4 868 873 876 877
4 877 876 878 879
4 873 875 880 876
4 876 880 881 878
4 868 877 882 869
4 869 882 862 857
4 877 879 883 882
4 882 883 863 862
4 884 885 886 887
4 887 886 835 831
4 885 875 874 886
4 886 874 817 835
4 884 887 888 889
4 889 888 890 891
4 887 831 830 888
4 888 830 833 890
4 884 889 892 893
4 893 892 894 895
4 889 891 896 892
4 892 896 897 894
4 884 893 898 885
4 885 898 880 875
4 893 895 899 898
4 898 899 881 880
4 900 901 902 903
4 903 902 847 845
4 901 891 890 902
4 902 890 833 847
4 900 903 904 905
4 905 904 853 852
4 903 845 844 904
4 904 844 803 853
4 900 905 906 907
4 907 906 908 909
4 905 852 865 906
4 906 865 867 908
4 900 907 910 901
4 901 910 896 891
4 907 909 911 910
4 910 911 897 896
4 912 913 914 915
4 915 914 866 861
4 913 916 917 914
4 914 917 867 866
4 912 915 918 919
4 919 918 920 921
4 915 861 860 918
4 918 860 863 920
4 912 919 922 923
4 923 922 924 925
4 919 921 926 922
4 922 926 927 924
4 912 923 928 913
4 913 928 929 916
4 923 925 930 928
4 928 930 931 929
4 932 933 934 935
4 935 934 883 879
4 933 921 920 934
4 934 920 863 883
4 932 935 936 937
4 937 936 938 939
4 935 879 878 936
4 936 878 881 938
4 932 937 940 941
4 941 940 942 943
4 937 939 944 940
4 940 944 945 942
4 932 941 946 933
4 933 946 926 921
4 941 943 947 946
4 946 947 927 926
4 948 949 950 951
4 951 950 899 895
4 949 939 938 950
4 950 938 881 899
4 948 951 952 953
4 953 952 954 955
4 951 895 894 952
4 952 894 897 954
4 948 953 956 957
4 957 956 958 959
4 953 955 960 956
4 956 960 961 958
4 948 957 962 949
4 949 962 944 939
4 957 959 963 962
4 962 963 945 944
4 964 965 966 967
4 967 966 911 909
4 965 955 954 966
4 966 954 897 911
4 964 967 968 969
4 969 968 917 916
4 967 909 908 968
4 968 908 867 917
4 964 969 970 971
4 971 970 972 973
4 969 916 929 970
4 970 929 931 972
4 964 971 974 965
4 965 974 960 955
4 971 973 975 974
4 974 975 961 960
4 976 977 978 979
4 979 978 930 925
4 977 980 981 978
4 978 981 931 930
4 976 979 982 983
4 983 982 984 985
4 979 925 924 982
4 982 924 927 984
4 976 983 986 987
4 987 986 525 517
4 983 985 988 986
4 986 988 526 525
4 976 987 989 977
4 977 989 990 980
4 987 517 516 989
4 989 516 520 990
4 991 992 993 994
4 994 993 947 943
4 992 985 984 993
4 993 984 927 947
4 991 994 995 996
4 996 995 997 998
4 994 943 942 995
4 995 942 945 997
4 991 996 999 1000
4 1000 999 547 542
4 996 998 1001 999
4 999 1001 548 547
4 991 1000 1002 992
4 992 1002 988 985
4 1000 542 541 1002
4 1002 541 526 988
4 1003 1004 1005 1006
4 1006 1005 963 959
4 1004 998 997 1005
4 1005 997 945 963
4 1003 1006 1007 1008
4 1008 1007 1009 1010
4 1006 959 958 1007
4 1007 958 961 1009
4 1003 1008 1011 1012
4 1012 1011 567 562
4 1008 1010 1013 1011
4 1011 1013 568 567
4 1003 1012 1014 1004
4 1004 1014 1001 998
4 1012 562 561 1014
4 1014 561 548 1001
4 1015 1016 1017 1018
4 1018 1017 975 973
4 1016 1010 1009 1017
4 1017 1009 961 975
4 1015 1018 1019 1020
4 1020 1019 981 980
4 1018 973 972 1019
4 1019 972 931 981
4 1015 1020 1021 1022
4 1022 1021 582 581
4 1020 980 990 1021
4 1021 990 520 582
4 1015 1022 1023 1016
4 1016 1023 1013 1010
4 1022 581 591 1023
4 1023 591 568 1013
