ply
format ascii 1.0
comment Created by Blender 2.79 (sub 0) - www.blender.org, source file: 'm3_v2.blend'
element vertex 1022
property float x
property float y
property float z
property float nx
property float ny
property float nz
element face 392
property list uchar uint vertex_indices
end_header
1.602063 -0.726892 2.974036 0.000000 -0.499999 -0.866026
1.641076 -0.726892 2.974036 0.000000 -0.499999 -0.866026
1.641076 -0.743785 2.983789 0.000000 -0.499999 -0.866026
1.602063 -0.743785 2.983789 0.000000 -0.499999 -0.866026
1.602063 -0.743785 2.983789 0.000000 -1.000000 -0.000000
1.641076 -0.743785 2.983789 0.000000 -1.000000 -0.000000
1.641076 -0.743785 3.003295 0.000000 -1.000000 -0.000000
1.602063 -0.743785 3.003295 0.000000 -1.000000 -0.000000
1.602063 -0.743785 3.003295 0.000000 -0.499999 0.866026
1.641076 -0.743785 3.003295 0.000000 -0.499999 0.866026
1.641076 -0.726892 3.013049 0.000000 -0.499999 0.866026
1.602063 -0.726892 3.013049 0.000000 -0.499999 0.866026
1.602063 -0.726892 3.013049 0.000000 0.500000 0.866025
1.641076 -0.726892 3.013049 0.000000 0.500000 0.866025
1.641076 -0.709999 3.003295 0.000000 0.500000 0.866025
1.602063 -0.709999 3.003295 0.000000 0.500000 0.866025
1.641076 -0.743785 3.003295 1.000000 0.000000 0.000000
1.641076 -0.743785 2.983789 1.000000 0.000000 0.000000
1.641076 -0.738473 2.986856 1.000000 0.000000 0.000000
1.641076 -0.738473 3.000228 1.000000 0.000000 0.000000
1.641076 -0.726892 2.974036 0.000000 0.500000 -0.866025
1.602063 -0.726892 2.974036 0.000000 0.500000 -0.866025
1.602063 -0.709999 2.983789 0.000000 0.500000 -0.866025
1.641076 -0.709999 2.983789 0.000000 0.500000 -0.866025
1.602063 -0.709999 3.003295 0.000000 1.000000 -0.000000
1.641076 -0.709999 3.003295 0.000000 1.000000 -0.000000
1.641076 -0.709999 2.983789 0.000000 1.000000 -0.000000
1.602063 -0.709999 2.983789 0.000000 1.000000 -0.000000
1.602063 -0.709999 2.983789 -1.000000 0.000000 0.000000
1.602063 -0.726892 2.974036 -1.000000 0.000000 0.000000
1.602063 -0.743785 2.983789 -1.000000 0.000000 0.000000
1.602063 -0.743785 3.003295 -1.000000 0.000000 -0.000000
1.602063 -0.726892 3.013049 -1.000000 0.000000 -0.000000
1.602063 -0.709999 3.003295 -1.000000 0.000000 0.000000
1.641076 -0.726892 3.013049 1.000000 0.000000 -0.000000
1.641076 -0.726892 3.006914 1.000000 0.000000 -0.000000
1.641076 -0.726892 2.974036 1.000000 0.000000 0.000000
1.641076 -0.726892 2.980170 1.000000 0.000000 0.000000
1.641076 -0.709999 3.003295 1.000000 -0.000000 -0.000000
1.641076 -0.715312 3.000228 1.000000 -0.000000 -0.000000
1.641076 -0.709999 2.983789 1.000000 -0.000000 0.000000
1.641076 -0.715312 2.986856 1.000000 -0.000000 0.000000
1.641076 -0.738473 3.000228 -0.000000 1.000000 0.000000
1.641076 -0.738473 2.986856 -0.000000 1.000000 0.000000
1.620377 -0.738473 2.986856 -0.000000 1.000000 0.000000
1.620377 -0.738473 3.000228 -0.000000 1.000000 0.000000
1.641076 -0.715312 2.986856 0.000000 -1.000000 0.000000
1.641076 -0.715312 3.000228 0.000000 -1.000000 0.000000
1.620377 -0.715312 3.000228 0.000000 -1.000000 0.000000
1.620377 -0.715312 2.986856 0.000000 -1.000000 0.000000
1.641076 -0.738473 2.986856 0.000000 0.499990 0.866031
1.641076 -0.726892 2.980170 0.000000 0.499990 0.866031
1.620377 -0.726892 2.980170 0.000000 0.499990 0.866031
1.620377 -0.738473 2.986856 0.000000 0.499990 0.866031
1.641076 -0.715312 3.000228 0.000000 -0.499992 -0.866030
1.641076 -0.726892 3.006914 0.000000 -0.499992 -0.866030
1.620377 -0.726892 3.006914 0.000000 -0.499992 -0.866030
1.620377 -0.715312 3.000228 0.000000 -0.499992 -0.866030
1.641076 -0.726892 3.006914 0.000000 0.499990 -0.866031
1.641076 -0.738473 3.000228 0.000000 0.499990 -0.866031
1.620377 -0.738473 3.000228 0.000000 0.499990 -0.866031
1.620377 -0.726892 3.006914 0.000000 0.499990 -0.866031
1.641076 -0.726892 2.980170 0.000000 -0.499992 0.866030
1.641076 -0.715312 2.986856 0.000000 -0.499992 0.866030
1.620377 -0.715312 2.986856 0.000000 -0.499992 0.866030
1.620377 -0.726892 2.980170 0.000000 -0.499992 0.866030
1.620377 -0.726892 3.006914 1.000000 0.000000 -0.000000
1.620377 -0.738473 3.000228 1.000000 0.000000 -0.000000
1.620377 -0.726892 2.993542 1.000000 0.000000 -0.000000
1.620377 -0.726892 2.980170 1.000000 0.000000 0.000000
1.620377 -0.715312 2.986856 1.000000 0.000000 0.000000
1.620377 -0.738473 2.986856 1.000000 0.000000 -0.000000
1.620377 -0.715312 3.000228 1.000000 -0.000000 0.000000
1.602063 -0.822360 2.917468 0.000000 -0.988756 -0.149537
1.641076 -0.822360 2.917468 0.000000 -0.988756 -0.149537
1.641076 -0.825277 2.936755 0.000000 -0.988756 -0.149537
1.602063 -0.825277 2.936755 0.000000 -0.988756 -0.149537
1.602063 -0.825277 2.936755 0.000000 -0.623876 0.781523
1.641076 -0.825277 2.936755 0.000000 -0.623876 0.781523
1.641076 -0.810032 2.948925 0.000000 -0.623876 0.781523
1.602063 -0.810032 2.948925 0.000000 -0.623876 0.781523
1.602063 -0.810032 2.948925 0.000000 0.364878 0.931055
1.641076 -0.810032 2.948925 0.000000 0.364878 0.931055
1.641076 -0.791871 2.941808 0.000000 0.364878 0.931055
1.602063 -0.791871 2.941808 0.000000 0.364878 0.931055
1.602063 -0.791871 2.941808 0.000000 0.988757 0.149534
1.641076 -0.791871 2.941808 0.000000 0.988757 0.149534
1.641076 -0.788954 2.922520 0.000000 0.988757 0.149534
1.602063 -0.788954 2.922520 0.000000 0.988757 0.149534
1.641076 -0.810032 2.948925 1.000000 0.000000 -0.000000
1.641076 -0.825277 2.936755 1.000000 0.000000 -0.000000
1.641076 -0.819566 2.934517 1.000000 0.000000 -0.000000
1.641076 -0.809115 2.942860 1.000000 0.000000 -0.000000
1.602063 -0.804199 2.910351 0.000000 -0.364879 -0.931055
1.641076 -0.804199 2.910351 0.000000 -0.364879 -0.931055
1.641076 -0.822360 2.917468 0.000000 -0.364879 -0.931055
1.602063 -0.822360 2.917468 0.000000 -0.364879 -0.931055
1.602063 -0.788954 2.922520 0.000000 0.623876 -0.781523
1.641076 -0.788954 2.922520 0.000000 0.623876 -0.781523
1.641076 -0.804199 2.910351 0.000000 0.623876 -0.781523
1.602063 -0.804199 2.910351 0.000000 0.623876 -0.781523
1.602063 -0.804199 2.910351 -1.000000 0.000000 0.000000
1.602063 -0.822360 2.917468 -1.000000 0.000000 0.000000
1.602063 -0.825277 2.936755 -1.000000 0.000000 0.000000
1.602063 -0.810032 2.948925 -1.000000 -0.000000 0.000000
1.602063 -0.791871 2.941808 -1.000000 -0.000000 0.000000
1.602063 -0.788954 2.922520 -1.000000 0.000000 0.000000
1.641076 -0.791871 2.941808 1.000000 -0.000000 -0.000000
1.641076 -0.796665 2.937981 1.000000 -0.000000 -0.000000
1.641076 -0.822360 2.917468 1.000000 0.000000 0.000000
1.641076 -0.817566 2.921295 1.000000 0.000000 0.000000
1.641076 -0.788954 2.922520 1.000000 -0.000000 0.000000
1.641076 -0.794665 2.924759 1.000000 -0.000000 0.000000
1.641076 -0.804199 2.910351 1.000000 -0.000000 0.000000
1.641076 -0.805116 2.916416 1.000000 -0.000000 0.000000
1.641076 -0.809115 2.942860 0.000000 0.623882 -0.781519
1.641076 -0.819566 2.934517 0.000000 0.623882 -0.781519
1.620377 -0.819566 2.934517 0.000000 0.623882 -0.781519
1.620377 -0.809115 2.942860 0.000000 0.623882 -0.781519
1.641076 -0.805116 2.916416 0.000000 -0.623882 0.781519
1.641076 -0.794665 2.924759 0.000000 -0.623882 0.781519
1.620377 -0.794665 2.924759 0.000000 -0.623882 0.781519
1.620377 -0.805116 2.916416 0.000000 -0.623882 0.781519
1.641076 -0.819566 2.934517 0.000000 0.988757 0.149534
1.641076 -0.817566 2.921295 0.000000 0.988757 0.149534
1.620377 -0.817566 2.921295 0.000000 0.988757 0.149534
1.620377 -0.819566 2.934517 0.000000 0.988757 0.149534
1.641076 -0.794665 2.924759 0.000000 -0.988757 -0.149534
1.641076 -0.796665 2.937981 0.000000 -0.988757 -0.149534
1.620377 -0.796665 2.937981 0.000000 -0.988757 -0.149534
1.620377 -0.794665 2.924759 0.000000 -0.988757 -0.149534
1.641076 -0.796665 2.937981 0.000000 -0.364877 -0.931056
1.641076 -0.809115 2.942860 0.000000 -0.364877 -0.931056
1.620377 -0.809115 2.942860 0.000000 -0.364877 -0.931056
1.620377 -0.796665 2.937981 0.000000 -0.364877 -0.931056
1.641076 -0.817566 2.921295 0.000000 0.364877 0.931056
1.641076 -0.805116 2.916416 0.000000 0.364877 0.931056
1.620377 -0.805116 2.916416 0.000000 0.364877 0.931056
1.620377 -0.817566 2.921295 0.000000 0.364877 0.931056
1.620377 -0.796665 2.937981 1.000000 -0.000000 -0.000000
1.620377 -0.809115 2.942860 1.000000 -0.000000 -0.000000
1.620377 -0.807116 2.929638 1.000000 -0.000000 -0.000000
1.620377 -0.817566 2.921295 1.000000 0.000000 0.000000
1.620377 -0.805116 2.916416 1.000000 0.000000 0.000000
1.620377 -0.819566 2.934517 1.000000 0.000000 -0.000000
1.620377 -0.794665 2.924759 1.000000 0.000000 0.000000
1.602063 -0.926129 2.956787 0.000000 -0.733730 0.679441
1.641076 -0.926129 2.956787 0.000000 -0.733730 0.679441
1.641076 -0.912876 2.971100 0.000000 -0.733730 0.679441
1.602063 -0.912876 2.971100 0.000000 -0.733730 0.679441
1.602063 -0.912876 2.971100 0.000000 0.221546 0.975150
1.641076 -0.912876 2.971100 0.000000 0.221546 0.975150
1.641076 -0.893854 2.966778 0.000000 0.221546 0.975150
1.602063 -0.893854 2.966778 0.000000 0.221546 0.975150
1.602063 -0.893854 2.966778 0.000000 0.955278 0.295709
1.641076 -0.893854 2.966778 0.000000 0.955278 0.295709
1.641076 -0.888086 2.948144 0.000000 0.955278 0.295709
1.602063 -0.888086 2.948144 0.000000 0.955278 0.295709
1.602063 -0.888086 2.948144 0.000000 0.733729 -0.679443
1.641076 -0.888086 2.948144 0.000000 0.733729 -0.679443
1.641076 -0.901339 2.933832 0.000000 0.733729 -0.679443
1.602063 -0.901339 2.933832 0.000000 0.733729 -0.679443
1.641076 -0.893854 2.966778 1.000000 0.000000 -0.000000
1.641076 -0.912876 2.971100 1.000000 0.000000 -0.000000
1.641076 -0.911062 2.965240 1.000000 0.000000 -0.000000
1.641076 -0.898022 2.962277 1.000000 0.000000 -0.000000
1.602063 -0.920361 2.938153 0.000000 -0.955278 -0.295709
1.641076 -0.920361 2.938153 0.000000 -0.955278 -0.295709
1.641076 -0.926129 2.956787 0.000000 -0.955278 -0.295709
1.602063 -0.926129 2.956787 0.000000 -0.955278 -0.295709
1.602063 -0.901339 2.933832 0.000000 -0.221546 -0.975150
1.641076 -0.901339 2.933832 0.000000 -0.221546 -0.975150
1.641076 -0.920361 2.938153 0.000000 -0.221546 -0.975150
1.602063 -0.920361 2.938153 0.000000 -0.221546 -0.975150
1.602063 -0.920361 2.938153 -1.000000 0.000000 -0.000000
1.602063 -0.926129 2.956787 -1.000000 0.000000 -0.000000
1.602063 -0.912876 2.971100 -1.000000 0.000000 -0.000000
1.602063 -0.893854 2.966778 -1.000000 0.000000 0.000000
1.602063 -0.888086 2.948144 -1.000000 0.000000 0.000000
1.602063 -0.901339 2.933832 -1.000000 0.000000 0.000000
1.641076 -0.888086 2.948144 1.000000 -0.000000 0.000000
1.641076 -0.894068 2.949503 1.000000 -0.000000 0.000000
1.641076 -0.926129 2.956787 1.000000 0.000000 -0.000000
1.641076 -0.920148 2.955428 1.000000 0.000000 -0.000000
1.641076 -0.901339 2.933832 1.000000 -0.000000 0.000000
1.641076 -0.903153 2.939692 1.000000 -0.000000 0.000000
1.641076 -0.920361 2.938153 1.000000 0.000000 0.000000
1.641076 -0.916193 2.942654 1.000000 0.000000 0.000000
1.641076 -0.898022 2.962277 0.000000 -0.221547 -0.975150
1.641076 -0.911062 2.965240 0.000000 -0.221547 -0.975150
1.620377 -0.911062 2.965240 0.000000 -0.221547 -0.975150
1.620377 -0.898022 2.962277 0.000000 -0.221547 -0.975150
1.641076 -0.916193 2.942654 0.000000 0.221547 0.975150
1.641076 -0.903153 2.939692 0.000000 0.221547 0.975150
1.620377 -0.903153 2.939692 0.000000 0.221547 0.975150
1.620377 -0.916193 2.942654 0.000000 0.221547 0.975150
1.641076 -0.911062 2.965240 0.000000 0.733731 -0.679440
1.641076 -0.920148 2.955428 0.000000 0.733731 -0.679440
1.620377 -0.920148 2.955428 0.000000 0.733731 -0.679440
1.620377 -0.911062 2.965240 0.000000 0.733731 -0.679440
1.641076 -0.903153 2.939692 0.000000 -0.733731 0.679440
1.641076 -0.894068 2.949503 0.000000 -0.733731 0.679440
1.620377 -0.894068 2.949503 0.000000 -0.733731 0.679440
1.620377 -0.903153 2.939692 0.000000 -0.733731 0.679440
1.641076 -0.894068 2.949503 0.000000 -0.955278 -0.295709
1.641076 -0.898022 2.962277 0.000000 -0.955278 -0.295709
1.620377 -0.898022 2.962277 0.000000 -0.955278 -0.295709
1.620377 -0.894068 2.949503 0.000000 -0.955278 -0.295709
1.641076 -0.920148 2.955428 0.000000 0.955278 0.295709
1.641076 -0.916193 2.942654 0.000000 0.955278 0.295709
1.620377 -0.916193 2.942654 0.000000 0.955278 0.295709
1.620377 -0.920148 2.955428 0.000000 0.955278 0.295709
1.620377 -0.894068 2.949503 1.000000 -0.000000 0.000000
1.620377 -0.898022 2.962277 1.000000 -0.000000 0.000000
1.620377 -0.907108 2.952466 1.000000 -0.000000 0.000000
1.620377 -0.920148 2.955428 1.000000 0.000000 0.000000
1.620377 -0.916193 2.942654 1.000000 0.000000 0.000000
1.620377 -0.911062 2.965240 1.000000 -0.000000 -0.000000
1.620377 -0.903153 2.939692 1.000000 0.000000 0.000000
1.602063 -0.960140 3.062416 0.000000 0.073237 0.997315
1.641076 -0.960140 3.062416 0.000000 0.073237 0.997315
1.641076 -0.940686 3.060987 0.000000 0.073237 0.997315
1.602063 -0.940686 3.060987 0.000000 0.073237 0.997315
1.602063 -0.940686 3.060987 0.000000 0.900319 0.435230
1.641076 -0.940686 3.060987 0.000000 0.900319 0.435230
1.641076 -0.932196 3.043425 0.000000 0.900319 0.435230
1.602063 -0.932196 3.043425 0.000000 0.900319 0.435230
1.602063 -0.932196 3.043425 0.000000 0.827082 -0.562081
1.641076 -0.932196 3.043425 0.000000 0.827082 -0.562081
1.641076 -0.943160 3.027291 0.000000 0.827082 -0.562081
1.602063 -0.943160 3.027291 0.000000 0.827082 -0.562081
1.602063 -0.943160 3.027291 0.000000 -0.073249 -0.997314
1.641076 -0.943160 3.027291 0.000000 -0.073249 -0.997314
1.641076 -0.962615 3.028720 0.000000 -0.073249 -0.997314
1.602063 -0.962615 3.028720 0.000000 -0.073249 -0.997314
1.641076 -0.932196 3.043425 1.000000 -0.000000 -0.000000
1.641076 -0.940686 3.060987 1.000000 -0.000000 -0.000000
1.641076 -0.944134 3.055913 1.000000 -0.000000 -0.000000
1.641076 -0.938314 3.043874 1.000000 -0.000000 -0.000000
1.602063 -0.971104 3.046282 0.000000 -0.827082 0.562081
1.641076 -0.971104 3.046282 0.000000 -0.827082 0.562081
1.641076 -0.960140 3.062416 0.000000 -0.827082 0.562081
1.602063 -0.960140 3.062416 0.000000 -0.827082 0.562081
1.602063 -0.962615 3.028720 0.000000 -0.900317 -0.435235
1.641076 -0.962615 3.028720 0.000000 -0.900317 -0.435235
1.641076 -0.971104 3.046282 0.000000 -0.900317 -0.435235
1.602063 -0.971104 3.046282 0.000000 -0.900317 -0.435235
1.602063 -0.971104 3.046282 -1.000000 -0.000000 0.000000
1.602063 -0.960140 3.062416 -1.000000 -0.000000 0.000000
1.602063 -0.940686 3.060987 -1.000000 -0.000000 0.000000
1.602063 -0.932196 3.043425 -1.000000 0.000000 0.000000
1.602063 -0.943160 3.027291 -1.000000 0.000000 0.000000
1.602063 -0.962615 3.028720 -1.000000 0.000000 0.000000
1.641076 -0.943160 3.027291 1.000000 -0.000000 0.000000
1.641076 -0.945830 3.032814 1.000000 -0.000000 0.000000
1.641076 -0.960140 3.062416 1.000000 0.000000 -0.000000
1.641076 -0.957470 3.056893 1.000000 0.000000 -0.000000
1.641076 -0.962615 3.028720 1.000000 0.000000 0.000000
1.641076 -0.959167 3.033793 1.000000 0.000000 0.000000
1.641076 -0.971104 3.046282 1.000000 0.000000 0.000000
1.641076 -0.964987 3.045833 1.000000 0.000000 0.000000
1.641076 -0.938314 3.043874 0.000001 -0.900321 -0.435226
1.641076 -0.944134 3.055913 0.000001 -0.900321 -0.435226
1.620377 -0.944134 3.055913 0.000001 -0.900321 -0.435226
1.620377 -0.938314 3.043874 0.000001 -0.900321 -0.435226
1.641076 -0.964987 3.045833 0.000000 0.900320 0.435228
1.641076 -0.959167 3.033793 0.000000 0.900320 0.435228
1.620377 -0.959167 3.033793 0.000000 0.900320 0.435228
1.620377 -0.964987 3.045833 0.000000 0.900320 0.435228
1.641076 -0.944134 3.055913 0.000000 -0.073243 -0.997314
1.641076 -0.957470 3.056893 0.000000 -0.073243 -0.997314
1.620377 -0.957470 3.056893 0.000000 -0.073243 -0.997314
1.620377 -0.944134 3.055913 0.000000 -0.073243 -0.997314
1.641076 -0.959167 3.033793 0.000000 0.073225 0.997315
1.641076 -0.945830 3.032814 0.000000 0.073225 0.997315
1.620377 -0.945830 3.032814 0.000000 0.073225 0.997315
1.620377 -0.959167 3.033793 0.000000 0.073225 0.997315
1.641076 -0.945830 3.032814 0.000000 -0.827076 0.562089
1.641076 -0.938314 3.043874 0.000000 -0.827076 0.562089
1.620377 -0.938314 3.043874 0.000000 -0.827076 0.562089
1.620377 -0.945830 3.032814 0.000000 -0.827076 0.562089
1.641076 -0.957470 3.056893 0.000000 0.827082 -0.562081
1.641076 -0.964987 3.045833 0.000000 0.827082 -0.562081
1.620377 -0.964987 3.045833 0.000000 0.827082 -0.562081
1.620377 -0.957470 3.056893 0.000000 0.827082 -0.562081
1.620377 -0.945830 3.032814 1.000000 0.000000 0.000000
1.620377 -0.938314 3.043874 1.000000 0.000000 0.000000
1.620377 -0.951650 3.044853 1.000000 0.000000 0.000000
1.620377 -0.957470 3.056893 1.000000 0.000000 -0.000000
1.620377 -0.964987 3.045833 1.000000 0.000000 -0.000000
1.620377 -0.944134 3.055913 1.000000 -0.000000 0.000000
1.620377 -0.959167 3.033793 1.000000 0.000000 0.000000
1.602063 -0.898808 3.154895 0.000000 0.825115 0.564965
1.641076 -0.898808 3.154895 0.000000 0.825115 0.564965
1.641076 -0.887788 3.138800 0.000000 0.825115 0.564965
1.602063 -0.887788 3.138800 0.000000 0.825115 0.564965
1.602063 -0.887788 3.138800 0.000000 0.901831 -0.432090
1.641076 -0.887788 3.138800 0.000000 0.901831 -0.432090
1.641076 -0.896216 3.121208 0.000000 0.901831 -0.432090
1.602063 -0.896216 3.121208 0.000000 0.901831 -0.432090
1.602063 -0.896216 3.121208 0.000000 0.076721 -0.997053
1.641076 -0.896216 3.121208 0.000000 0.076721 -0.997053
1.641076 -0.915665 3.119712 0.000000 0.076721 -0.997053
1.602063 -0.915665 3.119712 0.000000 0.076721 -0.997053
1.602063 -0.915665 3.119712 0.000000 -0.825115 -0.564965
1.641076 -0.915665 3.119712 0.000000 -0.825115 -0.564965
1.641076 -0.926686 3.135807 0.000000 -0.825115 -0.564965
1.602063 -0.926686 3.135807 0.000000 -0.825115 -0.564965
1.641076 -0.896216 3.121208 1.000000 -0.000000 0.000000
1.641076 -0.887788 3.138800 1.000000 -0.000000 0.000000
1.641076 -0.893904 3.138329 1.000000 -0.000000 0.000000
1.641076 -0.899682 3.126270 1.000000 -0.000000 0.000000
1.602063 -0.918257 3.153398 0.000000 -0.076721 0.997053
1.641076 -0.918257 3.153398 0.000000 -0.076721 0.997053
1.641076 -0.898808 3.154895 0.000000 -0.076721 0.997053
1.602063 -0.898808 3.154895 0.000000 -0.076721 0.997053
1.602063 -0.926686 3.135807 0.000000 -0.901831 0.432090
1.641076 -0.926686 3.135807 0.000000 -0.901831 0.432090
1.641076 -0.918257 3.153398 0.000000 -0.901831 0.432090
1.602063 -0.918257 3.153398 0.000000 -0.901831 0.432090
1.602063 -0.918257 3.153398 -1.000000 -0.000000 0.000000
1.602063 -0.898808 3.154895 -1.000000 -0.000000 0.000000
1.602063 -0.887788 3.138800 -1.000000 -0.000000 0.000000
1.602063 -0.896216 3.121208 -1.000000 0.000000 0.000000
1.602063 -0.915665 3.119712 -1.000000 0.000000 0.000000
1.602063 -0.926686 3.135807 -1.000000 0.000000 -0.000000
1.641076 -0.915665 3.119712 1.000000 0.000000 0.000000
1.641076 -0.913015 3.125244 1.000000 0.000000 0.000000
1.641076 -0.898808 3.154895 1.000000 -0.000000 -0.000000
1.641076 -0.901459 3.149363 1.000000 -0.000000 -0.000000
1.641076 -0.926686 3.135807 1.000000 0.000000 0.000000
1.641076 -0.920569 3.136277 1.000000 0.000000 0.000000
1.641076 -0.918257 3.153398 1.000000 0.000000 -0.000000
1.641076 -0.914791 3.148337 1.000000 0.000000 -0.000000
1.641076 -0.899682 3.126270 0.000000 -0.901830 0.432091
1.641076 -0.893904 3.138329 0.000000 -0.901830 0.432091
1.620377 -0.893904 3.138329 0.000000 -0.901830 0.432091
1.620377 -0.899682 3.126270 0.000000 -0.901830 0.432091
1.641076 -0.914791 3.148337 0.000000 0.901835 -0.432081
1.641076 -0.920569 3.136277 0.000000 0.901835 -0.432081
1.620377 -0.920569 3.136277 0.000000 0.901835 -0.432081
1.620377 -0.914791 3.148337 0.000000 0.901835 -0.432081
1.641076 -0.893904 3.138329 0.000000 -0.825117 -0.564962
1.641076 -0.901459 3.149363 0.000000 -0.825117 -0.564962
1.620377 -0.901459 3.149363 0.000000 -0.825117 -0.564962
1.620377 -0.893904 3.138329 0.000000 -0.825117 -0.564962
1.641076 -0.920569 3.136277 0.000000 0.825111 0.564971
1.641076 -0.913015 3.125244 0.000000 0.825111 0.564971
1.620377 -0.913015 3.125244 0.000000 0.825111 0.564971
1.620377 -0.920569 3.136277 0.000000 0.825111 0.564971
1.641076 -0.913015 3.125244 0.000000 -0.076720 0.997053
1.641076 -0.899682 3.126270 0.000000 -0.076720 0.997053
1.620377 -0.899682 3.126270 0.000000 -0.076720 0.997053
1.620377 -0.913015 3.125244 0.000000 -0.076720 0.997053
1.641076 -0.901459 3.149363 0.000000 0.076719 -0.997053
1.641076 -0.914791 3.148337 0.000000 0.076719 -0.997053
1.620377 -0.914791 3.148337 0.000000 0.076719 -0.997053
1.620377 -0.901459 3.149363 0.000000 0.076719 -0.997053
1.620377 -0.913015 3.125244 1.000000 0.000000 0.000000
1.620377 -0.899682 3.126270 1.000000 0.000000 0.000000
1.620377 -0.907237 3.137303 1.000000 0.000000 0.000000
1.620377 -0.901459 3.149363 1.000000 0.000000 -0.000000
1.620377 -0.914791 3.148337 1.000000 0.000000 -0.000000
1.620377 -0.893904 3.138329 1.000000 -0.000000 0.000000
1.620377 -0.920569 3.136277 1.000000 0.000000 -0.000000
1.602063 -0.788270 3.164659 0.000000 0.956306 -0.292369
1.641076 -0.788270 3.164659 0.000000 0.956306 -0.292369
1.641076 -0.793973 3.146004 0.000000 0.956306 -0.292369
1.602063 -0.793973 3.146004 0.000000 0.956306 -0.292369
1.602063 -0.793973 3.146004 0.000000 0.224944 -0.974372
1.641076 -0.793973 3.146004 0.000000 0.224944 -0.974372
1.641076 -0.812980 3.141616 0.000000 0.224944 -0.974372
1.602063 -0.812980 3.141616 0.000000 0.224944 -0.974372
1.602063 -0.812980 3.141616 0.000002 -0.731353 -0.681999
1.641076 -0.812980 3.141616 0.000002 -0.731353 -0.681999
1.641076 -0.826283 3.155883 0.000002 -0.731353 -0.681999
1.602063 -0.826283 3.155882 0.000002 -0.731353 -0.681999
1.602063 -0.826283 3.155882 -0.000001 -0.956305 0.292371
1.641076 -0.826283 3.155883 -0.000001 -0.956305 0.292371
1.641076 -0.820580 3.174537 -0.000001 -0.956305 0.292371
1.602063 -0.820580 3.174537 -0.000001 -0.956305 0.292371
1.641076 -0.812980 3.141616 1.000000 0.000000 0.000000
1.641076 -0.793973 3.146004 1.000000 0.000000 0.000000
1.641076 -0.798156 3.150491 1.000000 0.000000 0.000000
1.641076 -0.811186 3.147482 1.000000 0.000000 0.000000
1.602063 -0.801573 3.178925 0.000000 0.731350 0.682002
1.641076 -0.801573 3.178925 0.000000 0.731350 0.682002
1.641076 -0.788270 3.164659 0.000000 0.731350 0.682002
1.602063 -0.788270 3.164659 0.000000 0.731350 0.682002
1.602063 -0.820580 3.174537 0.000000 -0.224944 0.974372
1.641076 -0.820580 3.174537 0.000000 -0.224944 0.974372
1.641076 -0.801573 3.178925 0.000000 -0.224944 0.974372
1.602063 -0.801573 3.178925 0.000000 -0.224944 0.974372
1.602063 -0.801573 3.178925 -1.000000 0.000000 0.000000
1.602063 -0.788270 3.164659 -1.000000 0.000000 0.000000
1.602063 -0.793973 3.146004 -1.000000 0.000000 0.000000
1.602063 -0.812980 3.141616 -1.000000 0.000000 0.000000
1.602063 -0.826283 3.155882 -1.000000 0.000000 0.000000
1.602063 -0.820580 3.174537 -1.000000 0.000000 0.000000
1.641076 -0.826283 3.155883 1.000000 0.000000 0.000000
1.641076 -0.820306 3.157262 1.000000 0.000000 0.000000
1.641076 -0.788270 3.164659 1.000000 -0.000000 0.000000
1.641076 -0.794247 3.163279 1.000000 -0.000000 0.000000
1.641076 -0.820580 3.174537 1.000000 0.000000 0.000000
1.641076 -0.816396 3.170050 1.000000 0.000000 0.000000
1.641076 -0.801573 3.178925 1.000000 0.000000 -0.000000
1.641076 -0.803367 3.173059 1.000000 0.000000 -0.000000
1.641076 -0.811186 3.147482 0.000000 -0.224952 0.974370
1.641076 -0.798156 3.150491 0.000000 -0.224952 0.974370
1.620377 -0.798156 3.150491 0.000000 -0.224952 0.974370
1.620377 -0.811186 3.147482 0.000000 -0.224952 0.974370
1.641076 -0.803367 3.173059 0.000000 0.224952 -0.974370
1.641076 -0.816396 3.170050 0.000000 0.224952 -0.974370
1.620377 -0.816396 3.170050 0.000000 0.224952 -0.974370
1.620377 -0.803367 3.173059 0.000000 0.224952 -0.974370
1.641076 -0.798156 3.150491 0.000000 -0.956305 0.292372
1.641076 -0.794247 3.163279 0.000000 -0.956305 0.292372
1.620377 -0.794247 3.163279 0.000000 -0.956305 0.292372
1.620377 -0.798156 3.150491 0.000000 -0.956305 0.292372
1.641076 -0.816396 3.170050 0.000000 0.956305 -0.292372
1.641076 -0.820306 3.157262 0.000000 0.956305 -0.292372
1.620377 -0.820306 3.157262 0.000000 0.956305 -0.292372
1.620377 -0.816396 3.170050 0.000000 0.956305 -0.292372
1.641076 -0.820306 3.157262 0.000000 0.731356 0.681996
1.641076 -0.811186 3.147482 0.000000 0.731356 0.681996
1.620377 -0.811186 3.147482 0.000000 0.731356 0.681996
1.620377 -0.820306 3.157262 0.000000 0.731356 0.681996
1.641076 -0.794247 3.163279 0.000000 -0.731356 -0.681996
1.641076 -0.803367 3.173059 0.000000 -0.731356 -0.681996
1.620377 -0.803367 3.173059 0.000000 -0.731356 -0.681996
1.620377 -0.794247 3.163279 0.000000 -0.731356 -0.681996
1.620377 -0.820306 3.157262 1.000000 0.000000 0.000000
1.620377 -0.811186 3.147482 1.000000 0.000000 0.000000
1.620377 -0.807276 3.160270 1.000000 0.000000 0.000000
1.620377 -0.794247 3.163279 1.000000 -0.000000 0.000000
1.620377 -0.803367 3.173059 1.000000 -0.000000 0.000000
1.620377 -0.798156 3.150491 1.000000 0.000000 0.000000
1.620377 -0.816396 3.170050 1.000000 0.000000 -0.000000
1.602063 -0.711677 3.084362 0.000003 0.368124 -0.929777
1.641076 -0.711677 3.084362 0.000003 0.368124 -0.929777
1.641076 -0.729813 3.077181 0.000003 0.368124 -0.929777
1.602063 -0.729813 3.077181 0.000003 0.368124 -0.929777
1.602063 -0.729813 3.077181 0.000000 -0.621149 -0.783693
1.641076 -0.729813 3.077181 0.000000 -0.621149 -0.783693
1.641076 -0.745101 3.089298 0.000000 -0.621149 -0.783693
1.602063 -0.745101 3.089298 0.000000 -0.621149 -0.783693
1.602063 -0.745101 3.089298 -0.000000 -0.989272 0.146084
1.641076 -0.745101 3.089298 -0.000000 -0.989272 0.146084
1.641076 -0.742251 3.108595 -0.000000 -0.989272 0.146084
1.602063 -0.742251 3.108595 -0.000000 -0.989272 0.146084
1.602063 -0.742251 3.108595 -0.000003 -0.368124 0.929777
1.641076 -0.742251 3.108595 -0.000003 -0.368124 0.929777
1.641076 -0.724114 3.115776 -0.000003 -0.368124 0.929777
1.602063 -0.724114 3.115776 -0.000003 -0.368124 0.929777
1.641076 -0.745101 3.089298 1.000000 0.000000 0.000000
1.641076 -0.729813 3.077181 1.000000 0.000000 0.000000
1.641076 -0.728917 3.083250 1.000000 0.000000 0.000000
1.641076 -0.739397 3.091556 1.000000 0.000000 0.000000
1.602063 -0.708827 3.103659 0.000000 0.989272 -0.146084
1.641076 -0.708827 3.103659 0.000000 0.989272 -0.146084
1.641076 -0.711677 3.084362 0.000000 0.989272 -0.146084
1.602063 -0.711677 3.084362 0.000000 0.989272 -0.146084
1.602063 -0.724114 3.115776 0.000000 0.621149 0.783693
1.641076 -0.724114 3.115776 0.000000 0.621149 0.783693
1.641076 -0.708827 3.103659 0.000000 0.621149 0.783693
1.602063 -0.708827 3.103659 0.000000 0.621149 0.783693
1.602063 -0.708827 3.103659 -1.000000 0.000000 0.000000
1.602063 -0.711677 3.084362 -1.000000 0.000000 0.000000
1.602063 -0.729813 3.077181 -1.000000 0.000000 0.000000
1.602063 -0.745101 3.089298 -1.000000 0.000000 -0.000000
1.602063 -0.742251 3.108595 -1.000000 0.000000 -0.000000
1.602063 -0.724114 3.115776 -1.000000 -0.000000 0.000000
1.641076 -0.742251 3.108595 1.000000 0.000000 0.000000
1.641076 -0.737444 3.104784 1.000000 0.000000 0.000000
1.641076 -0.711677 3.084362 1.000000 -0.000000 0.000000
1.641076 -0.716484 3.088172 1.000000 -0.000000 0.000000
1.641076 -0.724114 3.115776 1.000000 0.000000 -0.000000
1.641076 -0.725010 3.109707 1.000000 0.000000 -0.000000
1.641076 -0.708827 3.103659 1.000000 -0.000000 -0.000000
1.641076 -0.714531 3.101401 1.000000 -0.000000 -0.000000
1.641076 -0.739397 3.091556 0.000000 0.621142 0.783698
1.641076 -0.728917 3.083250 0.000000 0.621142 0.783698
1.620377 -0.728917 3.083250 0.000000 0.621142 0.783698
1.620377 -0.739397 3.091556 0.000000 0.621142 0.783698
1.641076 -0.714531 3.101401 0.000000 -0.621142 -0.783698
1.641076 -0.725010 3.109707 0.000000 -0.621142 -0.783698
1.620377 -0.725010 3.109707 0.000000 -0.621142 -0.783698
1.620377 -0.714531 3.101401 0.000000 -0.621142 -0.783698
1.641076 -0.728917 3.083250 0.000000 -0.368122 0.929777
1.641076 -0.716484 3.088172 0.000000 -0.368122 0.929777
1.620377 -0.716484 3.088172 0.000000 -0.368122 0.929777
1.620377 -0.728917 3.083250 0.000000 -0.368122 0.929777
1.641076 -0.725010 3.109707 0.000000 0.368122 -0.929777
1.641076 -0.737444 3.104784 0.000000 0.368122 -0.929777
1.620377 -0.737444 3.104784 0.000000 0.368122 -0.929777
1.620377 -0.725010 3.109707 0.000000 0.368122 -0.929777
1.641076 -0.737444 3.104784 0.000000 0.989272 -0.146084
1.641076 -0.739397 3.091556 0.000000 0.989272 -0.146084
1.620377 -0.739397 3.091556 0.000000 0.989272 -0.146084
1.620377 -0.737444 3.104784 0.000000 0.989272 -0.146084
1.641076 -0.716484 3.088172 0.000000 -0.989272 0.146084
1.641076 -0.714531 3.101401 0.000000 -0.989272 0.146084
1.620377 -0.714531 3.101401 0.000000 -0.989272 0.146084
1.620377 -0.716484 3.088172 0.000000 -0.989272 0.146084
1.620377 -0.737444 3.104784 1.000000 0.000000 -0.000000
1.620377 -0.739397 3.091556 1.000000 0.000000 -0.000000
1.620377 -0.726964 3.096478 1.000000 0.000000 -0.000000
1.620377 -0.716484 3.088172 1.000000 -0.000000 0.000000
1.620377 -0.714531 3.101401 1.000000 -0.000000 0.000000
1.620377 -0.728917 3.083250 1.000000 0.000000 0.000000
1.620377 -0.725010 3.109707 1.000000 -0.000000 0.000000
1.602063 -0.726892 2.974036 0.000000 -0.499999 -0.866026
1.641076 -0.726892 2.974036 0.000000 -0.499999 -0.866026
1.641076 -0.743785 2.983789 0.000000 -0.499999 -0.866026
1.602063 -0.743785 2.983789 0.000000 -0.499999 -0.866026
1.602063 -0.743785 2.983789 0.000000 -1.000000 -0.000000
1.641076 -0.743785 2.983789 0.000000 -1.000000 -0.000000
1.641076 -0.743785 3.003295 0.000000 -1.000000 -0.000000
1.602063 -0.743785 3.003295 0.000000 -1.000000 -0.000000
1.602063 -0.743785 3.003295 0.000000 -0.499999 0.866026
1.641076 -0.743785 3.003295 0.000000 -0.499999 0.866026
1.641076 -0.726892 3.013049 0.000000 -0.499999 0.866026
1.602063 -0.726892 3.013049 0.000000 -0.499999 0.866026
1.602063 -0.726892 3.013049 0.000000 0.500000 0.866025
1.641076 -0.726892 3.013049 0.000000 0.500000 0.866025
1.641076 -0.709999 3.003295 0.000000 0.500000 0.866025
1.602063 -0.709999 3.003295 0.000000 0.500000 0.866025
1.641076 -0.743785 3.003295 1.000000 0.000000 0.000000
1.641076 -0.743785 2.983789 1.000000 0.000000 0.000000
1.641076 -0.738473 2.986856 1.000000 0.000000 0.000000
1.641076 -0.738473 3.000228 1.000000 0.000000 0.000000
1.602063 -0.709999 2.983789 0.000000 0.500000 -0.866025
1.641076 -0.709999 2.983789 0.000000 0.500000 -0.866025
1.641076 -0.726892 2.974036 0.000000 0.500000 -0.866025
1.602063 -0.726892 2.974036 0.000000 0.500000 -0.866025
1.602063 -0.709999 3.003295 0.000000 1.000000 -0.000000
1.641076 -0.709999 3.003295 0.000000 1.000000 -0.000000
1.641076 -0.709999 2.983789 0.000000 1.000000 -0.000000
1.602063 -0.709999 2.983789 0.000000 1.000000 -0.000000
1.602063 -0.709999 2.983789 -1.000000 0.000000 0.000000
1.602063 -0.726892 2.974036 -1.000000 0.000000 0.000000
1.602063 -0.743785 2.983789 -1.000000 0.000000 0.000000
1.602063 -0.743785 3.003295 -1.000000 0.000000 -0.000000
1.602063 -0.726892 3.013049 -1.000000 0.000000 -0.000000
1.602063 -0.709999 3.003295 -1.000000 0.000000 0.000000
1.641076 -0.726892 3.013049 1.000000 0.000000 -0.000000
1.641076 -0.726892 3.006914 1.000000 0.000000 -0.000000
1.641076 -0.726892 2.974036 1.000000 0.000000 0.000000
1.641076 -0.726892 2.980170 1.000000 0.000000 0.000000
1.641076 -0.709999 3.003295 1.000000 -0.000000 -0.000000
1.641076 -0.715312 3.000228 1.000000 -0.000000 -0.000000
1.641076 -0.709999 2.983789 1.000000 -0.000000 0.000000
1.641076 -0.715312 2.986856 1.000000 -0.000000 0.000000
1.641076 -0.738473 3.000228 -0.000000 1.000000 0.000000
1.641076 -0.738473 2.986856 -0.000000 1.000000 0.000000
1.620377 -0.738473 2.986856 -0.000000 1.000000 0.000000
1.620377 -0.738473 3.000228 -0.000000 1.000000 0.000000
1.641076 -0.715312 2.986856 0.000000 -1.000000 0.000000
1.641076 -0.715312 3.000228 0.000000 -1.000000 0.000000
1.620377 -0.715312 3.000228 0.000000 -1.000000 0.000000
1.620377 -0.715312 2.986856 0.000000 -1.000000 0.000000
1.641076 -0.738473 2.986856 0.000000 0.499990 0.866031
1.641076 -0.726892 2.980170 0.000000 0.499990 0.866031
1.620377 -0.726892 2.980170 0.000000 0.499990 0.866031
1.620377 -0.738473 2.986856 0.000000 0.499990 0.866031
1.641076 -0.715312 3.000228 0.000000 -0.499992 -0.866030
1.641076 -0.726892 3.006914 0.000000 -0.499992 -0.866030
1.620377 -0.726892 3.006914 0.000000 -0.499992 -0.866030
1.620377 -0.715312 3.000228 0.000000 -0.499992 -0.866030
1.641076 -0.726892 3.006914 0.000000 0.499990 -0.866031
1.641076 -0.738473 3.000228 0.000000 0.499990 -0.866031
1.620377 -0.738473 3.000228 0.000000 0.499990 -0.866031
1.620377 -0.726892 3.006914 0.000000 0.499990 -0.866031
1.641076 -0.726892 2.980170 0.000000 -0.499992 0.866030
1.641076 -0.715312 2.986856 0.000000 -0.499992 0.866030
1.620377 -0.715312 2.986856 0.000000 -0.499992 0.866030
1.620377 -0.726892 2.980170 0.000000 -0.499992 0.866030
1.620377 -0.726892 3.006914 1.000000 0.000000 -0.000000
1.620377 -0.738473 3.000228 1.000000 0.000000 -0.000000
1.620377 -0.726892 2.993542 1.000000 0.000000 -0.000000
1.620377 -0.726892 2.980170 1.000000 0.000000 0.000000
1.620377 -0.715312 2.986856 1.000000 0.000000 0.000000
1.620377 -0.738473 2.986856 1.000000 0.000000 -0.000000
1.620377 -0.715312 3.000228 1.000000 -0.000000 0.000000
1.602063 -0.822360 2.917468 0.000000 -0.988756 -0.149537
1.641076 -0.822360 2.917468 0.000000 -0.988756 -0.149537
1.641076 -0.825277 2.936755 0.000000 -0.988756 -0.149537
1.602063 -0.825277 2.936755 0.000000 -0.988756 -0.149537
1.602063 -0.825277 2.936755 0.000000 -0.623876 0.781523
1.641076 -0.825277 2.936755 0.000000 -0.623876 0.781523
1.641076 -0.810032 2.948925 0.000000 -0.623876 0.781523
1.602063 -0.810032 2.948925 0.000000 -0.623876 0.781523
1.602063 -0.810032 2.948925 0.000000 0.364878 0.931055
1.641076 -0.810032 2.948925 0.000000 0.364878 0.931055
1.641076 -0.791871 2.941808 0.000000 0.364878 0.931055
1.602063 -0.791871 2.941808 0.000000 0.364878 0.931055
1.602063 -0.791871 2.941808 0.000000 0.988757 0.149534
1.641076 -0.791871 2.941808 0.000000 0.988757 0.149534
1.641076 -0.788954 2.922520 0.000000 0.988757 0.149534
1.602063 -0.788954 2.922520 0.000000 0.988757 0.149534
1.641076 -0.810032 2.948925 1.000000 0.000000 -0.000000
1.641076 -0.825277 2.936755 1.000000 0.000000 -0.000000
1.641076 -0.819566 2.934517 1.000000 0.000000 -0.000000
1.641076 -0.809115 2.942860 1.000000 0.000000 -0.000000
1.602063 -0.804199 2.910351 0.000000 -0.364879 -0.931055
1.641076 -0.804199 2.910351 0.000000 -0.364879 -0.931055
1.641076 -0.822360 2.917468 0.000000 -0.364879 -0.931055
1.602063 -0.822360 2.917468 0.000000 -0.364879 -0.931055
1.602063 -0.788954 2.922520 0.000000 0.623876 -0.781523
1.641076 -0.788954 2.922520 0.000000 0.623876 -0.781523
1.641076 -0.804199 2.910351 0.000000 0.623876 -0.781523
1.602063 -0.804199 2.910351 0.000000 0.623876 -0.781523
1.602063 -0.804199 2.910351 -1.000000 0.000000 0.000000
1.602063 -0.822360 2.917468 -1.000000 0.000000 0.000000
1.602063 -0.825277 2.936755 -1.000000 0.000000 0.000000
1.602063 -0.810032 2.948925 -1.000000 -0.000000 0.000000
1.602063 -0.791871 2.941808 -1.000000 -0.000000 0.000000
1.602063 -0.788954 2.922520 -1.000000 0.000000 0.000000
1.641076 -0.791871 2.941808 1.000000 -0.000000 -0.000000
1.641076 -0.796665 2.937981 1.000000 -0.000000 -0.000000
1.641076 -0.822360 2.917468 1.000000 0.000000 0.000000
1.641076 -0.817566 2.921295 1.000000 0.000000 0.000000
1.641076 -0.788954 2.922520 1.000000 -0.000000 0.000000
1.641076 -0.794665 2.924759 1.000000 -0.000000 0.000000
1.641076 -0.804199 2.910351 1.000000 -0.000000 0.000000
1.641076 -0.805116 2.916416 1.000000 -0.000000 0.000000
1.641076 -0.809115 2.942860 0.000000 0.623882 -0.781519
1.641076 -0.819566 2.934517 0.000000 0.623882 -0.781519
1.620377 -0.819566 2.934517 0.000000 0.623882 -0.781519
1.620377 -0.809115 2.942860 0.000000 0.623882 -0.781519
1.641076 -0.805116 2.916416 0.000000 -0.623882 0.781519
1.641076 -0.794665 2.924759 0.000000 -0.623882 0.781519
1.620377 -0.794665 2.924759 0.000000 -0.623882 0.781519
1.620377 -0.805116 2.916416 0.000000 -0.623882 0.781519
1.641076 -0.819566 2.934517 0.000000 0.988757 0.149534
1.641076 -0.817566 2.921295 0.000000 0.988757 0.149534
1.620377 -0.817566 2.921295 0.000000 0.988757 0.149534
1.620377 -0.819566 2.934517 0.000000 0.988757 0.149534
1.641076 -0.794665 2.924759 0.000000 -0.988757 -0.149534
1.641076 -0.796665 2.937981 0.000000 -0.988757 -0.149534
1.620377 -0.796665 2.937981 0.000000 -0.988757 -0.149534
1.620377 -0.794665 2.924759 0.000000 -0.988757 -0.149534
1.641076 -0.796665 2.937981 0.000000 -0.364877 -0.931056
1.641076 -0.809115 2.942860 0.000000 -0.364877 -0.931056
1.620377 -0.809115 2.942860 0.000000 -0.364877 -0.931056
1.620377 -0.796665 2.937981 0.000000 -0.364877 -0.931056
1.641076 -0.817566 2.921295 0.000000 0.364877 0.931056
1.641076 -0.805116 2.916416 0.000000 0.364877 0.931056
1.620377 -0.805116 2.916416 0.000000 0.364877 0.931056
1.620377 -0.817566 2.921295 0.000000 0.364877 0.931056
1.620377 -0.796665 2.937981 1.000000 -0.000000 -0.000000
1.620377 -0.809115 2.942860 1.000000 -0.000000 -0.000000
1.620377 -0.807116 2.929638 1.000000 -0.000000 -0.000000
1.620377 -0.817566 2.921295 1.000000 0.000000 0.000000
1.620377 -0.805116 2.916416 1.000000 0.000000 0.000000
1.620377 -0.819566 2.934517 1.000000 0.000000 -0.000000
1.620377 -0.794665 2.924759 1.000000 0.000000 0.000000
1.602063 -0.926129 2.956787 0.000000 -0.733730 0.679441
1.641076 -0.926129 2.956787 0.000000 -0.733730 0.679441
1.641076 -0.912876 2.971100 0.000000 -0.733730 0.679441
1.602063 -0.912876 2.971100 0.000000 -0.733730 0.679441
1.602063 -0.912876 2.971100 0.000000 0.221546 0.975150
1.641076 -0.912876 2.971100 0.000000 0.221546 0.975150
1.641076 -0.893854 2.966778 0.000000 0.221546 0.975150
1.602063 -0.893854 2.966778 0.000000 0.221546 0.975150
1.602063 -0.893854 2.966778 0.000000 0.955278 0.295709
1.641076 -0.893854 2.966778 0.000000 0.955278 0.295709
1.641076 -0.888086 2.948144 0.000000 0.955278 0.295709
1.602063 -0.888086 2.948144 0.000000 0.955278 0.295709
1.602063 -0.888086 2.948144 0.000000 0.733729 -0.679443
1.641076 -0.888086 2.948144 0.000000 0.733729 -0.679443
1.641076 -0.901339 2.933832 0.000000 0.733729 -0.679443
1.602063 -0.901339 2.933832 0.000000 0.733729 -0.679443
1.641076 -0.893854 2.966778 1.000000 0.000000 -0.000000
1.641076 -0.912876 2.971100 1.000000 0.000000 -0.000000
1.641076 -0.911062 2.965240 1.000000 0.000000 -0.000000
1.641076 -0.898022 2.962277 1.000000 0.000000 -0.000000
1.602063 -0.920361 2.938153 0.000000 -0.955278 -0.295709
1.641076 -0.920361 2.938153 0.000000 -0.955278 -0.295709
1.641076 -0.926129 2.956787 0.000000 -0.955278 -0.295709
1.602063 -0.926129 2.956787 0.000000 -0.955278 -0.295709
1.602063 -0.901339 2.933832 0.000000 -0.221546 -0.975150
1.641076 -0.901339 2.933832 0.000000 -0.221546 -0.975150
1.641076 -0.920361 2.938153 0.000000 -0.221546 -0.975150
1.602063 -0.920361 2.938153 0.000000 -0.221546 -0.975150
1.602063 -0.920361 2.938153 -1.000000 0.000000 -0.000000
1.602063 -0.926129 2.956787 -1.000000 0.000000 -0.000000
1.602063 -0.912876 2.971100 -1.000000 0.000000 -0.000000
1.602063 -0.893854 2.966778 -1.000000 0.000000 0.000000
1.602063 -0.888086 2.948144 -1.000000 0.000000 0.000000
1.602063 -0.901339 2.933832 -1.000000 0.000000 0.000000
1.641076 -0.888086 2.948144 1.000000 -0.000000 0.000000
1.641076 -0.894068 2.949503 1.000000 -0.000000 0.000000
1.641076 -0.926129 2.956787 1.000000 0.000000 -0.000000
1.641076 -0.920148 2.955428 1.000000 0.000000 -0.000000
1.641076 -0.901339 2.933832 1.000000 -0.000000 0.000000
1.641076 -0.903153 2.939692 1.000000 -0.000000 0.000000
1.641076 -0.920361 2.938153 1.000000 0.000000 0.000000
1.641076 -0.916193 2.942654 1.000000 0.000000 0.000000
1.641076 -0.898022 2.962277 0.000000 -0.221547 -0.975150
1.641076 -0.911062 2.965240 0.000000 -0.221547 -0.975150
1.620377 -0.911062 2.965240 0.000000 -0.221547 -0.975150
1.620377 -0.898022 2.962277 0.000000 -0.221547 -0.975150
1.641076 -0.916193 2.942654 0.000000 0.221547 0.975150
1.641076 -0.903153 2.939692 0.000000 0.221547 0.975150
1.620377 -0.903153 2.939692 0.000000 0.221547 0.975150
1.620377 -0.916193 2.942654 0.000000 0.221547 0.975150
1.641076 -0.911062 2.965240 0.000000 0.733731 -0.679440
1.641076 -0.920148 2.955428 0.000000 0.733731 -0.679440
1.620377 -0.920148 2.955428 0.000000 0.733731 -0.679440
1.620377 -0.911062 2.965240 0.000000 0.733731 -0.679440
1.641076 -0.903153 2.939692 0.000000 -0.733731 0.679440
1.641076 -0.894068 2.949503 0.000000 -0.733731 0.679440
1.620377 -0.894068 2.949503 0.000000 -0.733731 0.679440
1.620377 -0.903153 2.939692 0.000000 -0.733731 0.679440
1.641076 -0.894068 2.949503 0.000000 -0.955278 -0.295709
1.641076 -0.898022 2.962277 0.000000 -0.955278 -0.295709
1.620377 -0.898022 2.962277 0.000000 -0.955278 -0.295709
1.620377 -0.894068 2.949503 0.000000 -0.955278 -0.295709
1.641076 -0.920148 2.955428 0.000000 0.955278 0.295709
1.641076 -0.916193 2.942654 0.000000 0.955278 0.295709
1.620377 -0.916193 2.942654 0.000000 0.955278 0.295709
1.620377 -0.920148 2.955428 0.000000 0.955278 0.295709
1.620377 -0.894068 2.949503 1.000000 -0.000000 0.000000
1.620377 -0.898022 2.962277 1.000000 -0.000000 0.000000
1.620377 -0.907108 2.952466 1.000000 -0.000000 0.000000
1.620377 -0.920148 2.955428 1.000000 0.000000 0.000000
1.620377 -0.916193 2.942654 1.000000 0.000000 0.000000
1.620377 -0.911062 2.965240 1.000000 -0.000000 -0.000000
1.620377 -0.903153 2.939692 1.000000 0.000000 0.000000
1.602063 -0.960140 3.062416 0.000000 0.073237 0.997315
1.641076 -0.960140 3.062416 0.000000 0.073237 0.997315
1.641076 -0.940686 3.060987 0.000000 0.073237 0.997315
1.602063 -0.940686 3.060987 0.000000 0.073237 0.997315
1.602063 -0.940686 3.060987 0.000000 0.900319 0.435230
1.641076 -0.940686 3.060987 0.000000 0.900319 0.435230
1.641076 -0.932196 3.043425 0.000000 0.900319 0.435230
1.602063 -0.932196 3.043425 0.000000 0.900319 0.435230
1.602063 -0.932196 3.043425 0.000000 0.827082 -0.562081
1.641076 -0.932196 3.043425 0.000000 0.827082 -0.562081
1.641076 -0.943160 3.027291 0.000000 0.827082 -0.562081
1.602063 -0.943160 3.027291 0.000000 0.827082 -0.562081
1.602063 -0.943160 3.027291 0.000000 -0.073249 -0.997314
1.641076 -0.943160 3.027291 0.000000 -0.073249 -0.997314
1.641076 -0.962615 3.028720 0.000000 -0.073249 -0.997314
1.602063 -0.962615 3.028720 0.000000 -0.073249 -0.997314
1.641076 -0.932196 3.043425 1.000000 -0.000000 -0.000000
1.641076 -0.940686 3.060987 1.000000 -0.000000 -0.000000
1.641076 -0.944134 3.055913 1.000000 -0.000000 -0.000000
1.641076 -0.938314 3.043874 1.000000 -0.000000 -0.000000
1.602063 -0.971104 3.046282 0.000000 -0.827082 0.562081
1.641076 -0.971104 3.046282 0.000000 -0.827082 0.562081
1.641076 -0.960140 3.062416 0.000000 -0.827082 0.562081
1.602063 -0.960140 3.062416 0.000000 -0.827082 0.562081
1.602063 -0.962615 3.028720 0.000000 -0.900317 -0.435235
1.641076 -0.962615 3.028720 0.000000 -0.900317 -0.435235
1.641076 -0.971104 3.046282 0.000000 -0.900317 -0.435235
1.602063 -0.971104 3.046282 0.000000 -0.900317 -0.435235
1.602063 -0.971104 3.046282 -1.000000 -0.000000 0.000000
1.602063 -0.960140 3.062416 -1.000000 -0.000000 0.000000
1.602063 -0.940686 3.060987 -1.000000 -0.000000 0.000000
1.602063 -0.932196 3.043425 -1.000000 0.000000 0.000000
1.602063 -0.943160 3.027291 -1.000000 0.000000 0.000000
1.602063 -0.962615 3.028720 -1.000000 0.000000 0.000000
1.641076 -0.943160 3.027291 1.000000 -0.000000 0.000000
1.641076 -0.945830 3.032814 1.000000 -0.000000 0.000000
1.641076 -0.960140 3.062416 1.000000 0.000000 -0.000000
1.641076 -0.957470 3.056893 1.000000 0.000000 -0.000000
1.641076 -0.962615 3.028720 1.000000 0.000000 0.000000
1.641076 -0.959167 3.033793 1.000000 0.000000 0.000000
1.641076 -0.971104 3.046282 1.000000 0.000000 0.000000
1.641076 -0.964987 3.045833 1.000000 0.000000 0.000000
1.641076 -0.938314 3.043874 0.000001 -0.900321 -0.435226
1.641076 -0.944134 3.055913 0.000001 -0.900321 -0.435226
1.620377 -0.944134 3.055913 0.000001 -0.900321 -0.435226
1.620377 -0.938314 3.043874 0.000001 -0.900321 -0.435226
1.641076 -0.964987 3.045833 0.000000 0.900320 0.435228
1.641076 -0.959167 3.033793 0.000000 0.900320 0.435228
1.620377 -0.959167 3.033793 0.000000 0.900320 0.435228
1.620377 -0.964987 3.045833 0.000000 0.900320 0.435228
1.641076 -0.944134 3.055913 0.000000 -0.073243 -0.997314
1.641076 -0.957470 3.056893 0.000000 -0.073243 -0.997314
1.620377 -0.957470 3.056893 0.000000 -0.073243 -0.997314
1.620377 -0.944134 3.055913 0.000000 -0.073243 -0.997314
1.641076 -0.959167 3.033793 0.000000 0.073225 0.997315
1.641076 -0.945830 3.032814 0.000000 0.073225 0.997315
1.620377 -0.945830 3.032814 0.000000 0.073225 0.997315
1.620377 -0.959167 3.033793 0.000000 0.073225 0.997315
1.641076 -0.945830 3.032814 0.000000 -0.827076 0.562089
1.641076 -0.938314 3.043874 0.000000 -0.827076 0.562089
1.620377 -0.938314 3.043874 0.000000 -0.827076 0.562089
1.620377 -0.945830 3.032814 0.000000 -0.827076 0.562089
1.641076 -0.957470 3.056893 0.000000 0.827082 -0.562081
1.641076 -0.964987 3.045833 0.000000 0.827082 -0.562081
1.620377 -0.964987 3.045833 0.000000 0.827082 -0.562081
1.620377 -0.957470 3.056893 0.000000 0.827082 -0.562081
1.620377 -0.945830 3.032814 1.000000 0.000000 0.000000
1.620377 -0.938314 3.043874 1.000000 0.000000 0.000000
1.620377 -0.951650 3.044853 1.000000 0.000000 0.000000
1.620377 -0.957470 3.056893 1.000000 0.000000 -0.000000
1.620377 -0.964987 3.045833 1.000000 0.000000 -0.000000
1.620377 -0.944134 3.055913 1.000000 -0.000000 0.000000
1.620377 -0.959167 3.033793 1.000000 0.000000 0.000000
1.602063 -0.898808 3.154895 0.000000 0.825115 0.564965
1.641076 -0.898808 3.154895 0.000000 0.825115 0.564965
1.641076 -0.887788 3.138800 0.000000 0.825115 0.564965
1.602063 -0.887788 3.138800 0.000000 0.825115 0.564965
1.602063 -0.887788 3.138800 0.000000 0.901831 -0.432090
1.641076 -0.887788 3.138800 0.000000 0.901831 -0.432090
1.641076 -0.896216 3.121208 0.000000 0.901831 -0.432090
1.602063 -0.896216 3.121208 0.000000 0.901831 -0.432090
1.602063 -0.896216 3.121208 0.000000 0.076721 -0.997053
1.641076 -0.896216 3.121208 0.000000 0.076721 -0.997053
1.641076 -0.915665 3.119712 0.000000 0.076721 -0.997053
1.602063 -0.915665 3.119712 0.000000 0.076721 -0.997053
1.602063 -0.915665 3.119712 0.000000 -0.825115 -0.564965
1.641076 -0.915665 3.119712 0.000000 -0.825115 -0.564965
1.641076 -0.926686 3.135807 0.000000 -0.825115 -0.564965
1.602063 -0.926686 3.135807 0.000000 -0.825115 -0.564965
1.641076 -0.896216 3.121208 1.000000 -0.000000 0.000000
1.641076 -0.887788 3.138800 1.000000 -0.000000 0.000000
1.641076 -0.893904 3.138329 1.000000 -0.000000 0.000000
1.641076 -0.899682 3.126270 1.000000 -0.000000 0.000000
1.602063 -0.918257 3.153398 0.000000 -0.076721 0.997053
1.641076 -0.918257 3.153398 0.000000 -0.076721 0.997053
1.641076 -0.898808 3.154895 0.000000 -0.076721 0.997053
1.602063 -0.898808 3.154895 0.000000 -0.076721 0.997053
1.602063 -0.926686 3.135807 0.000000 -0.901831 0.432090
1.641076 -0.926686 3.135807 0.000000 -0.901831 0.432090
1.641076 -0.918257 3.153398 0.000000 -0.901831 0.432090
1.602063 -0.918257 3.153398 0.000000 -0.901831 0.432090
1.602063 -0.918257 3.153398 -1.000000 -0.000000 0.000000
1.602063 -0.898808 3.154895 -1.000000 -0.000000 0.000000
1.602063 -0.887788 3.138800 -1.000000 -0.000000 0.000000
1.602063 -0.896216 3.121208 -1.000000 0.000000 0.000000
1.602063 -0.915665 3.119712 -1.000000 0.000000 0.000000
1.602063 -0.926686 3.135807 -1.000000 0.000000 -0.000000
1.641076 -0.915665 3.119712 1.000000 0.000000 0.000000
1.641076 -0.913015 3.125244 1.000000 0.000000 0.000000
1.641076 -0.898808 3.154895 1.000000 -0.000000 -0.000000
1.641076 -0.901459 3.149363 1.000000 -0.000000 -0.000000
1.641076 -0.926686 3.135807 1.000000 0.000000 0.000000
1.641076 -0.920569 3.136277 1.000000 0.000000 0.000000
1.641076 -0.918257 3.153398 1.000000 0.000000 -0.000000
1.641076 -0.914791 3.148337 1.000000 0.000000 -0.000000
1.641076 -0.899682 3.126270 0.000000 -0.901830 0.432091
1.641076 -0.893904 3.138329 0.000000 -0.901830 0.432091
1.620377 -0.893904 3.138329 0.000000 -0.901830 0.432091
1.620377 -0.899682 3.126270 0.000000 -0.901830 0.432091
1.641076 -0.914791 3.148337 0.000000 0.901835 -0.432081
1.641076 -0.920569 3.136277 0.000000 0.901835 -0.432081
1.620377 -0.920569 3.136277 0.000000 0.901835 -0.432081
1.620377 -0.914791 3.148337 0.000000 0.901835 -0.432081
1.641076 -0.893904 3.138329 0.000000 -0.825117 -0.564962
1.641076 -0.901459 3.149363 0.000000 -0.825117 -0.564962
1.620377 -0.901459 3.149363 0.000000 -0.825117 -0.564962
1.620377 -0.893904 3.138329 0.000000 -0.825117 -0.564962
1.641076 -0.920569 3.136277 0.000000 0.825111 0.564971
1.641076 -0.913015 3.125244 0.000000 0.825111 0.564971
1.620377 -0.913015 3.125244 0.000000 0.825111 0.564971
1.620377 -0.920569 3.136277 0.000000 0.825111 0.564971
1.641076 -0.913015 3.125244 0.000000 -0.076720 0.997053
1.641076 -0.899682 3.126270 0.000000 -0.076720 0.997053
1.620377 -0.899682 3.126270 0.000000 -0.076720 0.997053
1.620377 -0.913015 3.125244 0.000000 -0.076720 0.997053
1.641076 -0.901459 3.149363 0.000000 0.076719 -0.997053
1.641076 -0.914791 3.148337 0.000000 0.076719 -0.997053
1.620377 -0.914791 3.148337 0.000000 0.076719 -0.997053
1.620377 -0.901459 3.149363 0.000000 0.076719 -0.997053
1.620377 -0.913015 3.125244 1.000000 0.000000 0.000000
1.620377 -0.899682 3.126270 1.000000 0.000000 0.000000
1.620377 -0.907237 3.137303 1.000000 0.000000 0.000000
1.620377 -0.901459 3.149363 1.000000 0.000000 -0.000000
1.620377 -0.914791 3.148337 1.000000 0.000000 -0.000000
1.620377 -0.893904 3.138329 1.000000 -0.000000 0.000000
1.620377 -0.920569 3.136277 1.000000 0.000000 -0.000000
1.602063 -0.788270 3.164659 0.000000 0.956306 -0.292369
1.641076 -0.788270 3.164659 0.000000 0.956306 -0.292369
1.641076 -0.793973 3.146004 0.000000 0.956306 -0.292369
1.602063 -0.793973 3.146004 0.000000 0.956306 -0.292369
1.602063 -0.793973 3.146004 0.000000 0.224944 -0.974372
1.641076 -0.793973 3.146004 0.000000 0.224944 -0.974372
1.641076 -0.812980 3.141616 0.000000 0.224944 -0.974372
1.602063 -0.812980 3.141616 0.000000 0.224944 -0.974372
1.602063 -0.812980 3.141616 0.000002 -0.731353 -0.681999
1.641076 -0.812980 3.141616 0.000002 -0.731353 -0.681999
1.641076 -0.826283 3.155883 0.000002 -0.731353 -0.681999
1.602063 -0.826283 3.155882 0.000002 -0.731353 -0.681999
1.602063 -0.826283 3.155882 -0.000001 -0.956305 0.292371
1.641076 -0.826283 3.155883 -0.000001 -0.956305 0.292371
1.641076 -0.820580 3.174537 -0.000001 -0.956305 0.292371
1.602063 -0.820580 3.174537 -0.000001 -0.956305 0.292371
1.641076 -0.812980 3.141616 1.000000 0.000000 0.000000
1.641076 -0.793973 3.146004 1.000000 0.000000 0.000000
1.641076 -0.798156 3.150491 1.000000 0.000000 0.000000
1.641076 -0.811186 3.147482 1.000000 0.000000 0.000000
1.602063 -0.801573 3.178925 0.000000 0.731350 0.682002
1.641076 -0.801573 3.178925 0.000000 0.731350 0.682002
1.641076 -0.788270 3.164659 0.000000 0.731350 0.682002
1.602063 -0.788270 3.164659 0.000000 0.731350 0.682002
1.602063 -0.820580 3.174537 0.000000 -0.224944 0.974372
1.641076 -0.820580 3.174537 0.000000 -0.224944 0.974372
1.641076 -0.801573 3.178925 0.000000 -0.224944 0.974372
1.602063 -0.801573 3.178925 0.000000 -0.224944 0.974372
1.602063 -0.801573 3.178925 -1.000000 0.000000 0.000000
1.602063 -0.788270 3.164659 -1.000000 0.000000 0.000000
1.602063 -0.793973 3.146004 -1.000000 0.000000 0.000000
1.602063 -0.812980 3.141616 -1.000000 0.000000 0.000000
1.602063 -0.826283 3.155882 -1.000000 0.000000 0.000000
1.602063 -0.820580 3.174537 -1.000000 0.000000 0.000000
1.641076 -0.826283 3.155883 1.000000 0.000000 0.000000
1.641076 -0.820306 3.157262 1.000000 0.000000 0.000000
1.641076 -0.788270 3.164659 1.000000 -0.000000 0.000000
1.641076 -0.794247 3.163279 1.000000 -0.000000 0.000000
1.641076 -0.820580 3.174537 1.000000 0.000000 0.000000
1.641076 -0.816396 3.170050 1.000000 0.000000 0.000000
1.641076 -0.801573 3.178925 1.000000 0.000000 -0.000000
1.641076 -0.803367 3.173059 1.000000 0.000000 -0.000000
1.641076 -0.811186 3.147482 0.000000 -0.224952 0.974370
1.641076 -0.798156 3.150491 0.000000 -0.224952 0.974370
1.620377 -0.798156 3.150491 0.000000 -0.224952 0.974370
1.620377 -0.811186 3.147482 0.000000 -0.224952 0.974370
1.641076 -0.803367 3.173059 0.000000 0.224952 -0.974370
1.641076 -0.816396 3.170050 0.000000 0.224952 -0.974370
1.620377 -0.816396 3.170050 0.000000 0.224952 -0.974370
1.620377 -0.803367 3.173059 0.000000 0.224952 -0.974370
1.641076 -0.798156 3.150491 0.000000 -0.956305 0.292372
1.641076 -0.794247 3.163279 0.000000 -0.956305 0.292372
1.620377 -0.794247 3.163279 0.000000 -0.956305 0.292372
1.620377 -0.798156 3.150491 0.000000 -0.956305 0.292372
1.641076 -0.816396 3.170050 0.000000 0.956305 -0.292372
1.641076 -0.820306 3.157262 0.000000 0.956305 -0.292372
1.620377 -0.820306 3.157262 0.000000 0.956305 -0.292372
1.620377 -0.816396 3.170050 0.000000 0.956305 -0.292372
1.641076 -0.820306 3.157262 0.000000 0.731356 0.681996
1.641076 -0.811186 3.147482 0.000000 0.731356 0.681996
1.620377 -0.811186 3.147482 0.000000 0.731356 0.681996
1.620377 -0.820306 3.157262 0.000000 0.731356 0.681996
1.641076 -0.794247 3.163279 0.000000 -0.731356 -0.681996
1.641076 -0.803367 3.173059 0.000000 -0.731356 -0.681996
1.620377 -0.803367 3.173059 0.000000 -0.731356 -0.681996
1.620377 -0.794247 3.163279 0.000000 -0.731356 -0.681996
1.620377 -0.820306 3.157262 1.000000 0.000000 0.000000
1.620377 -0.811186 3.147482 1.000000 0.000000 0.000000
1.620377 -0.807276 3.160270 1.000000 0.000000 0.000000
1.620377 -0.794247 3.163279 1.000000 -0.000000 0.000000
1.620377 -0.803367 3.173059 1.000000 -0.000000 0.000000
1.620377 -0.798156 3.150491 1.000000 0.000000 0.000000
1.620377 -0.816396 3.170050 1.000000 0.000000 -0.000000
1.602063 -0.711677 3.084362 0.000003 0.368124 -0.929777
1.641076 -0.711677 3.084362 0.000003 0.368124 -0.929777
1.641076 -0.729813 3.077181 0.000003 0.368124 -0.929777
1.602063 -0.729813 3.077181 0.000003 0.368124 -0.929777
1.602063 -0.729813 3.077181 0.000000 -0.621149 -0.783693
1.641076 -0.729813 3.077181 0.000000 -0.621149 -0.783693
1.641076 -0.745101 3.089298 0.000000 -0.621149 -0.783693
1.602063 -0.745101 3.089298 0.000000 -0.621149 -0.783693
1.602063 -0.745101 3.089298 -0.000000 -0.989272 0.146084
1.641076 -0.745101 3.089298 -0.000000 -0.989272 0.146084
1.641076 -0.742251 3.108595 -0.000000 -0.989272 0.146084
1.602063 -0.742251 3.108595 -0.000000 -0.989272 0.146084
1.602063 -0.742251 3.108595 -0.000003 -0.368124 0.929777
1.641076 -0.742251 3.108595 -0.000003 -0.368124 0.929777
1.641076 -0.724114 3.115776 -0.000003 -0.368124 0.929777
1.602063 -0.724114 3.115776 -0.000003 -0.368124 0.929777
1.641076 -0.745101 3.089298 1.000000 0.000000 0.000000
1.641076 -0.729813 3.077181 1.000000 0.000000 0.000000
1.641076 -0.728917 3.083250 1.000000 0.000000 0.000000
1.641076 -0.739397 3.091556 1.000000 0.000000 0.000000
1.602063 -0.708827 3.103659 0.000000 0.989272 -0.146084
1.641076 -0.708827 3.103659 0.000000 0.989272 -0.146084
1.641076 -0.711677 3.084362 0.000000 0.989272 -0.146084
1.602063 -0.711677 3.084362 0.000000 0.989272 -0.146084
1.602063 -0.724114 3.115776 0.000000 0.621149 0.783693
1.641076 -0.724114 3.115776 0.000000 0.621149 0.783693
1.641076 -0.708827 3.103659 0.000000 0.621149 0.783693
1.602063 -0.708827 3.103659 0.000000 0.621149 0.783693
1.602063 -0.708827 3.103659 -1.000000 0.000000 0.000000
1.602063 -0.711677 3.084362 -1.000000 0.000000 0.000000
1.602063 -0.729813 3.077181 -1.000000 0.000000 0.000000
1.602063 -0.745101 3.089298 -1.000000 0.000000 -0.000000
1.602063 -0.742251 3.108595 -1.000000 0.000000 -0.000000
1.602063 -0.724114 3.115776 -1.000000 -0.000000 0.000000
1.641076 -0.742251 3.108595 1.000000 0.000000 0.000000
1.641076 -0.737444 3.104784 1.000000 0.000000 0.000000
1.641076 -0.711677 3.084362 1.000000 -0.000000 0.000000
1.641076 -0.716484 3.088172 1.000000 -0.000000 0.000000
1.641076 -0.724114 3.115776 1.000000 0.000000 -0.000000
1.641076 -0.725010 3.109707 1.000000 0.000000 -0.000000
1.641076 -0.708827 3.103659 1.000000 -0.000000 -0.000000
1.641076 -0.714531 3.101401 1.000000 -0.000000 -0.000000
1.641076 -0.739397 3.091556 0.000000 0.621142 0.783698
1.641076 -0.728917 3.083250 0.000000 0.621142 0.783698
1.620377 -0.728917 3.083250 0.000000 0.621142 0.783698
1.620377 -0.739397 3.091556 0.000000 0.621142 0.783698
1.641076 -0.714531 3.101401 0.000000 -0.621142 -0.783698
1.641076 -0.725010 3.109707 0.000000 -0.621142 -0.783698
1.620377 -0.725010 3.109707 0.000000 -0.621142 -0.783698
1.620377 -0.714531 3.101401 0.000000 -0.621142 -0.783698
1.641076 -0.728917 3.083250 0.000000 -0.368122 0.929777
1.641076 -0.716484 3.088172 0.000000 -0.368122 0.929777
1.620377 -0.716484 3.088172 0.000000 -0.368122 0.929777
1.620377 -0.728917 3.083250 0.000000 -0.368122 0.929777
1.641076 -0.725010 3.109707 0.000000 0.368122 -0.929777
1.641076 -0.737444 3.104784 0.000000 0.368122 -0.929777
1.620377 -0.737444 3.104784 0.000000 0.368122 -0.929777
1.620377 -0.725010 3.109707 0.000000 0.368122 -0.929777
1.641076 -0.737444 3.104784 0.000000 0.989272 -0.146084
1.641076 -0.739397 3.091556 0.000000 0.989272 -0.146084
1.620377 -0.739397 3.091556 0.000000 0.989272 -0.146084
1.620377 -0.737444 3.104784 0.000000 0.989272 -0.146084
1.641076 -0.716484 3.088172 0.000000 -0.989272 0.146084
1.641076 -0.714531 3.101401 0.000000 -0.989272 0.146084
1.620377 -0.714531 3.101401 0.000000 -0.989272 0.146084
1.620377 -0.716484 3.088172 0.000000 -0.989272 0.146084
1.620377 -0.737444 3.104784 1.000000 0.000000 -0.000000
1.620377 -0.739397 3.091556 1.000000 0.000000 -0.000000
1.620377 -0.726964 3.096478 1.000000 0.000000 -0.000000
1.620377 -0.716484 3.088172 1.000000 -0.000000 0.000000
1.620377 -0.714531 3.101401 1.000000 -0.000000 0.000000
1.620377 -0.728917 3.083250 1.000000 0.000000 0.000000
1.620377 -0.725010 3.109707 1.000000 -0.000000 0.000000
4 0 1 2 3
4 4 5 6 7
4 8 9 10 11
4 12 13 14 15
4 16 17 18 19
4 20 21 22 23
4 24 25 26 27
3 28 29 30
3 30 31 32
3 32 33 28
3 30 32 28
4 34 16 19 35
4 17 36 37 18
4 38 34 35 39
4 40 38 39 41
4 36 40 41 37
4 42 43 44 45
4 46 47 48 49
4 50 51 52 53
4 54 55 56 57
4 58 59 60 61
4 62 63 64 65
3 66 67 68
3 69 70 68
3 67 71 68
3 70 72 68
3 71 69 68
3 72 66 68
4 73 74 75 76
4 77 78 79 80
4 81 82 83 84
4 85 86 87 88
4 89 90 91 92
4 93 94 95 96
4 97 98 99 100
3 101 102 103
3 103 104 105
3 105 106 101
3 103 105 101
4 107 89 92 108
4 90 109 110 91
4 111 107 108 112
4 113 111 112 114
4 109 113 114 110
4 115 116 117 118
4 119 120 121 122
4 123 124 125 126
4 127 128 129 130
4 131 132 133 134
4 135 136 137 138
3 139 140 141
3 142 143 141
3 140 144 141
3 143 145 141
3 144 142 141
3 145 139 141
4 146 147 148 149
4 150 151 152 153
4 154 155 156 157
4 158 159 160 161
4 162 163 164 165
4 166 167 168 169
4 170 171 172 173
3 174 175 176
3 176 177 178
3 178 179 174
3 176 178 174
4 180 162 165 181
4 163 182 183 164
4 184 180 181 185
4 186 184 185 187
4 182 186 187 183
4 188 189 190 191
4 192 193 194 195
4 196 197 198 199
4 200 201 202 203
4 204 205 206 207
4 208 209 210 211
3 212 213 214
3 215 216 214
3 213 217 214
3 216 218 214
3 217 215 214
3 218 212 214
4 219 220 221 222
4 223 224 225 226
4 227 228 229 230
4 231 232 233 234
4 235 236 237 238
4 239 240 241 242
4 243 244 245 246
3 247 248 249
3 249 250 251
3 251 252 247
3 249 251 247
4 253 235 238 254
4 236 255 256 237
4 257 253 254 258
4 259 257 258 260
4 255 259 260 256
4 261 262 263 264
4 265 266 267 268
4 269 270 271 272
4 273 274 275 276
4 277 278 279 280
4 281 282 283 284
3 285 286 287
3 288 289 287
3 286 290 287
3 289 291 287
3 290 288 287
3 291 285 287
4 292 293 294 295
4 296 297 298 299
4 300 301 302 303
4 304 305 306 307
4 308 309 310 311
4 312 313 314 315
4 316 317 318 319
3 320 321 322
3 322 323 324
3 324 325 320
3 322 324 320
4 326 308 311 327
4 309 328 329 310
4 330 326 327 331
4 332 330 331 333
4 328 332 333 329
4 334 335 336 337
4 338 339 340 341
4 342 343 344 345
4 346 347 348 349
4 350 351 352 353
4 354 355 356 357
3 358 359 360
3 361 362 360
3 359 363 360
3 362 364 360
3 363 361 360
3 364 358 360
4 365 366 367 368
4 369 370 371 372
4 373 374 375 376
4 377 378 379 380
4 381 382 383 384
4 385 386 387 388
4 389 390 391 392
3 393 394 395
3 395 396 397
3 397 398 393
3 395 397 393
4 399 381 384 400
4 382 401 402 383
4 403 399 400 404
4 405 403 404 406
4 401 405 406 402
4 407 408 409 410
4 411 412 413 414
4 415 416 417 418
4 419 420 421 422
4 423 424 425 426
4 427 428 429 430
3 431 432 433
3 434 435 433
3 432 436 433
3 435 437 433
3 436 434 433
3 437 431 433
4 438 439 440 441
4 442 443 444 445
4 446 447 448 449
4 450 451 452 453
4 454 455 456 457
4 458 459 460 461
4 462 463 464 465
3 466 467 468
3 468 469 470
3 470 471 466
3 468 470 466
4 472 454 457 473
4 455 474 475 456
4 476 472 473 477
4 478 476 477 479
4 474 478 479 475
4 480 481 482 483
4 484 485 486 487
4 488 489 490 491
4 492 493 494 495
4 496 497 498 499
4 500 501 502 503
3 504 505 506
3 507 508 506
3 505 509 506
3 508 510 506
3 509 507 506
3 510 504 506
4 511 512 513 514
4 515 516 517 518
4 519 520 521 522
4 523 524 525 526
4 527 528 529 530
4 531 532 533 534
4 535 536 537 538
3 539 540 541
3 541 542 543
3 543 544 539
3 541 543 539
4 545 527 530 546
4 528 547 548 529
4 549 545 546 550
4 551 549 550 552
4 547 551 552 548
4 553 554 555 556
4 557 558 559 560
4 561 562 563 564
4 565 566 567 568
4 569 570 571 572
4 573 574 575 576
3 577 578 579
3 580 581 579
3 578 582 579
3 581 583 579
3 582 580 579
3 583 577 579
4 584 585 586 587
4 588 589 590 591
4 592 593 594 595
4 596 597 598 599
4 600 601 602 603
4 604 605 606 607
4 608 609 610 611
3 612 613 614
3 614 615 616
3 616 617 612
3 614 616 612
4 618 600 603 619
4 601 620 621 602
4 622 618 619 623
4 624 622 623 625
4 620 624 625 621
4 626 627 628 629
4 630 631 632 633
4 634 635 636 637
4 638 639 640 641
4 642 643 644 645
4 646 647 648 649
3 650 651 652
3 653 654 652
3 651 655 652
3 654 656 652
3 655 653 652
3 656 650 652
4 657 658 659 660
4 661 662 663 664
4 665 666 667 668
4 669 670 671 672
4 673 674 675 676
4 677 678 679 680
4 681 682 683 684
3 685 686 687
3 687 688 689
3 689 690 685
3 687 689 685
4 691 673 676 692
4 674 693 694 675
4 695 691 692 696
4 697 695 696 698
4 693 697 698 694
4 699 700 701 702
4 703 704 705 706
4 707 708 709 710
4 711 712 713 714
4 715 716 717 718
4 719 720 721 722
3 723 724 725
3 726 727 725
3 724 728 725
3 727 729 725
3 728 726 725
3 729 723 725
4 730 731 732 733
4 734 735 736 737
4 738 739 740 741
4 742 743 744 745
4 746 747 748 749
4 750 751 752 753
4 754 755 756 757
3 758 759 760
3 760 761 762
3 762 763 758
3 760 762 758
4 764 746 749 765
4 747 766 767 748
4 768 764 765 769
4 770 768 769 771
4 766 770 771 767
4 772 773 774 775
4 776 777 778 779
4 780 781 782 783
4 784 785 786 787
4 788 789 790 791
4 792 793 794 795
3 796 797 798
3 799 800 798
3 797 801 798
3 800 802 798
3 801 799 798
3 802 796 798
4 803 804 805 806
4 807 808 809 810
4 811 812 813 814
4 815 816 817 818
4 819 820 821 822
4 823 824 825 826
4 827 828 829 830
3 831 832 833
3 833 834 835
3 835 836 831
3 833 835 831
4 837 819 822 838
4 820 839 840 821
4 841 837 838 842
4 843 841 842 844
4 839 843 844 840
4 845 846 847 848
4 849 850 851 852
4 853 854 855 856
4 857 858 859 860
4 861 862 863 864
4 865 866 867 868
3 869 870 871
3 872 873 871
3 870 874 871
3 873 875 871
3 874 872 871
3 875 869 871
4 876 877 878 879
4 880 881 882 883
4 884 885 886 887
4 888 889 890 891
4 892 893 894 895
4 896 897 898 899
4 900 901 902 903
3 904 905 906
3 906 907 908
3 908 909 904
3 906 908 904
4 910 892 895 911
4 893 912 913 894
4 914 910 911 915
4 916 914 915 917
4 912 916 917 913
4 918 919 920 921
4 922 923 924 925
4 926 927 928 929
4 930 931 932 933
4 934 935 936 937
4 938 939 940 941
3 942 943 944
3 945 946 944
3 943 947 944
3 946 948 944
3 947 945 944
3 948 942 944
4 949 950 951 952
4 953 954 955 956
4 957 958 959 960
4 961 962 963 964
4 965 966 967 968
4 969 970 971 972
4 973 974 975 976
3 977 978 979
3 979 980 981
3 981 982 977
3 979 981 977
4 983 965 968 984
4 966 985 986 967
4 987 983 984 988
4 989 987 988 990
4 985 989 990 986
4 991 992 993 994
4 995 996 997 998
4 999 1000 1001 1002
4 1003 1004 1005 1006
4 1007 1008 1009 1010
4 1011 1012 1013 1014
3 1015 1016 1017
3 1018 1019 1017
3 1016 1020 1017
3 1019 1021 1017
3 1020 1018 1017
3 1021 1015 1017
