ply
format ascii 1.0
comment Created by Blender 2.79 (sub 0) - www.blender.org, source file: 'm3_v2.blend'
element vertex 1022
property float x
property float y
property float z
property float nx
property float ny
property float nz
element face 392
property list uchar uint vertex_indices
end_header
1.604627 -0.731204 -2.662488 0.000000 -0.499995 -0.866028
1.641399 -0.731204 -2.662488 0.000000 -0.499995 -0.866028
1.641399 -0.747127 -2.653295 0.000000 -0.499995 -0.866028
1.604627 -0.747127 -2.653295 0.000000 -0.499995 -0.866028
1.604627 -0.747127 -2.653295 0.000000 -1.000000 -0.000000
1.641399 -0.747127 -2.653295 0.000000 -1.000000 -0.000000
1.641399 -0.747127 -2.634909 0.000000 -1.000000 -0.000000
1.604627 -0.747127 -2.634909 0.000000 -1.000000 -0.000000
1.604627 -0.747127 -2.634909 0.000000 -0.500005 0.866022
1.641399 -0.747127 -2.634909 0.000000 -0.500005 0.866022
1.641399 -0.731204 -2.625716 0.000000 -0.500005 0.866022
1.604627 -0.731204 -2.625716 0.000000 -0.500005 0.866022
1.604627 -0.731204 -2.625716 0.000000 0.500005 0.866022
1.641399 -0.731204 -2.625716 0.000000 0.500005 0.866022
1.641399 -0.715281 -2.634909 0.000000 0.500005 0.866022
1.604627 -0.715281 -2.634909 0.000000 0.500005 0.866022
1.641399 -0.747127 -2.634909 1.000000 0.000000 0.000000
1.641399 -0.747127 -2.653295 1.000000 0.000000 0.000000
1.641399 -0.742119 -2.650404 1.000000 0.000000 0.000000
1.641399 -0.742119 -2.637800 1.000000 0.000000 0.000000
1.641399 -0.731204 -2.662488 0.000000 0.499995 -0.866028
1.604627 -0.731204 -2.662488 0.000000 0.499995 -0.866028
1.604627 -0.715281 -2.653295 0.000000 0.499995 -0.866028
1.641399 -0.715281 -2.653295 0.000000 0.499995 -0.866028
1.604627 -0.715281 -2.634909 0.000000 1.000000 -0.000000
1.641399 -0.715281 -2.634909 0.000000 1.000000 -0.000000
1.641399 -0.715281 -2.653295 0.000000 1.000000 -0.000000
1.604627 -0.715281 -2.653295 0.000000 1.000000 -0.000000
1.604627 -0.715281 -2.653295 -1.000000 0.000000 0.000000
1.604627 -0.731204 -2.662488 -1.000000 0.000000 0.000000
1.604627 -0.747127 -2.653295 -1.000000 0.000000 0.000000
1.604627 -0.747127 -2.634909 -1.000000 0.000000 -0.000000
1.604627 -0.731204 -2.625716 -1.000000 0.000000 -0.000000
1.604627 -0.715281 -2.634909 -1.000000 0.000000 0.000000
1.641399 -0.731204 -2.625716 1.000000 0.000000 -0.000000
1.641399 -0.731204 -2.631498 1.000000 0.000000 -0.000000
1.641399 -0.731204 -2.662488 1.000000 0.000000 0.000000
1.641399 -0.731204 -2.656706 1.000000 0.000000 0.000000
1.641399 -0.715281 -2.634909 1.000000 -0.000000 -0.000000
1.641399 -0.720288 -2.637800 1.000000 -0.000000 -0.000000
1.641399 -0.715281 -2.653295 1.000000 -0.000000 0.000000
1.641399 -0.720288 -2.650404 1.000000 -0.000000 0.000000
1.641399 -0.742119 -2.637800 -0.000000 1.000000 0.000000
1.641399 -0.742119 -2.650404 -0.000000 1.000000 0.000000
1.621890 -0.742119 -2.650404 -0.000000 1.000000 0.000000
1.621890 -0.742119 -2.637800 -0.000000 1.000000 0.000000
1.641399 -0.720288 -2.650404 0.000000 -1.000000 0.000000
1.641399 -0.720288 -2.637800 0.000000 -1.000000 0.000000
1.621890 -0.720288 -2.637800 0.000000 -1.000000 0.000000
1.621890 -0.720288 -2.650404 0.000000 -1.000000 0.000000
1.641399 -0.742119 -2.650404 0.000000 0.500000 0.866025
1.641399 -0.731204 -2.656706 0.000000 0.500000 0.866025
1.621890 -0.731204 -2.656706 0.000000 0.500000 0.866025
1.621890 -0.742119 -2.650404 0.000000 0.500000 0.866025
1.641399 -0.720288 -2.637800 0.000000 -0.500000 -0.866025
1.641399 -0.731204 -2.631498 0.000000 -0.500000 -0.866025
1.621890 -0.731204 -2.631498 0.000000 -0.500000 -0.866025
1.621890 -0.720288 -2.637800 0.000000 -0.500000 -0.866025
1.641399 -0.731204 -2.631498 0.000000 0.500000 -0.866025
1.641399 -0.742119 -2.637800 0.000000 0.500000 -0.866025
1.621890 -0.742119 -2.637800 0.000000 0.500000 -0.866025
1.621890 -0.731204 -2.631498 0.000000 0.500000 -0.866025
1.641399 -0.731204 -2.656706 0.000000 -0.500000 0.866025
1.641399 -0.720288 -2.650404 0.000000 -0.500000 0.866025
1.621890 -0.720288 -2.650404 0.000000 -0.500000 0.866025
1.621890 -0.731204 -2.656706 0.000000 -0.500000 0.866025
1.621890 -0.731204 -2.631498 1.000000 0.000000 -0.000000
1.621890 -0.742119 -2.637800 1.000000 0.000000 -0.000000
1.621890 -0.731204 -2.644102 1.000000 0.000000 -0.000000
1.621890 -0.731204 -2.656706 1.000000 0.000000 0.000000
1.621890 -0.720288 -2.650404 1.000000 0.000000 0.000000
1.621890 -0.742119 -2.650404 1.000000 0.000000 -0.000000
1.621890 -0.720288 -2.637800 1.000000 -0.000000 0.000000
1.604627 -0.821189 -2.715807 0.000000 -0.988756 -0.149536
1.641399 -0.821189 -2.715807 0.000000 -0.988756 -0.149536
1.641399 -0.823938 -2.697628 0.000000 -0.988756 -0.149536
1.604627 -0.823938 -2.697628 0.000000 -0.988756 -0.149536
1.604627 -0.823938 -2.697628 0.000000 -0.623880 0.781520
1.641399 -0.823938 -2.697628 0.000000 -0.623880 0.781520
1.641399 -0.809569 -2.686157 0.000000 -0.623880 0.781520
1.604627 -0.809569 -2.686157 0.000000 -0.623880 0.781520
1.604627 -0.809569 -2.686157 0.000000 0.364874 0.931057
1.641399 -0.809569 -2.686157 0.000000 0.364874 0.931057
1.641399 -0.792450 -2.692865 0.000000 0.364874 0.931057
1.604627 -0.792450 -2.692865 0.000000 0.364874 0.931057
1.604627 -0.792450 -2.692865 0.000000 0.988756 0.149536
1.641399 -0.792450 -2.692865 0.000000 0.988756 0.149536
1.641399 -0.789701 -2.711045 0.000000 0.988756 0.149536
1.604627 -0.789701 -2.711045 0.000000 0.988756 0.149536
1.641399 -0.809569 -2.686157 1.000000 0.000000 -0.000000
1.641399 -0.823938 -2.697628 1.000000 0.000000 -0.000000
1.641399 -0.818555 -2.699737 1.000000 0.000000 -0.000000
1.641399 -0.808704 -2.691874 1.000000 0.000000 -0.000000
1.604627 -0.804070 -2.722516 0.000000 -0.364873 -0.931057
1.641399 -0.804070 -2.722516 0.000000 -0.364873 -0.931057
1.641399 -0.821189 -2.715807 0.000000 -0.364873 -0.931057
1.604627 -0.821189 -2.715807 0.000000 -0.364873 -0.931057
1.604627 -0.789701 -2.711045 0.000000 0.623882 -0.781519
1.641399 -0.789701 -2.711045 0.000000 0.623882 -0.781519
1.641399 -0.804070 -2.722516 0.000000 0.623882 -0.781519
1.604627 -0.804070 -2.722516 0.000000 0.623882 -0.781519
1.604627 -0.804070 -2.722516 -1.000000 0.000000 0.000000
1.604627 -0.821189 -2.715807 -1.000000 0.000000 0.000000
1.604627 -0.823938 -2.697628 -1.000000 0.000000 0.000000
1.604627 -0.809569 -2.686157 -1.000000 -0.000000 0.000000
1.604627 -0.792450 -2.692865 -1.000000 -0.000000 0.000000
1.604627 -0.789701 -2.711045 -1.000000 0.000000 0.000000
1.641399 -0.792450 -2.692865 1.000000 -0.000000 -0.000000
1.641399 -0.796969 -2.696473 1.000000 -0.000000 -0.000000
1.641399 -0.821189 -2.715807 1.000000 0.000000 0.000000
1.641399 -0.816670 -2.712200 1.000000 0.000000 0.000000
1.641399 -0.789701 -2.711045 1.000000 -0.000000 0.000000
1.641399 -0.795084 -2.708935 1.000000 -0.000000 0.000000
1.641399 -0.804070 -2.722516 1.000000 -0.000000 0.000000
1.641399 -0.804935 -2.716799 1.000000 -0.000000 0.000000
1.641399 -0.808704 -2.691874 0.000000 0.623880 -0.781520
1.641399 -0.818555 -2.699737 0.000000 0.623880 -0.781520
1.621890 -0.818555 -2.699737 0.000000 0.623880 -0.781520
1.621890 -0.808704 -2.691874 0.000000 0.623880 -0.781520
1.641399 -0.804935 -2.716799 0.000000 -0.623878 0.781522
1.641399 -0.795084 -2.708935 0.000000 -0.623878 0.781522
1.621890 -0.795084 -2.708935 0.000000 -0.623878 0.781522
1.621890 -0.804935 -2.716799 0.000000 -0.623878 0.781522
1.641399 -0.818555 -2.699737 0.000000 0.988757 0.149533
1.641399 -0.816670 -2.712200 0.000000 0.988757 0.149533
1.621890 -0.816670 -2.712200 0.000000 0.988757 0.149533
1.621890 -0.818555 -2.699737 0.000000 0.988757 0.149533
1.641399 -0.795084 -2.708935 0.000000 -0.988756 -0.149540
1.641399 -0.796969 -2.696473 0.000000 -0.988756 -0.149540
1.621890 -0.796969 -2.696473 0.000000 -0.988756 -0.149540
1.621890 -0.795084 -2.708935 0.000000 -0.988756 -0.149540
1.641399 -0.796969 -2.696473 0.000000 -0.364883 -0.931053
1.641399 -0.808704 -2.691874 0.000000 -0.364883 -0.931053
1.621890 -0.808704 -2.691874 0.000000 -0.364883 -0.931053
1.621890 -0.796969 -2.696473 0.000000 -0.364883 -0.931053
1.641399 -0.816670 -2.712200 0.000000 0.364867 0.931060
1.641399 -0.804935 -2.716799 0.000000 0.364867 0.931060
1.621890 -0.804935 -2.716799 0.000000 0.364867 0.931060
1.621890 -0.816670 -2.712200 0.000000 0.364867 0.931060
1.621890 -0.796969 -2.696473 1.000000 -0.000000 -0.000000
1.621890 -0.808704 -2.691874 1.000000 -0.000000 -0.000000
1.621890 -0.806820 -2.704336 1.000000 -0.000000 -0.000000
1.621890 -0.816670 -2.712200 1.000000 0.000000 0.000000
1.621890 -0.804935 -2.716799 1.000000 0.000000 0.000000
1.621890 -0.818555 -2.699737 1.000000 0.000000 -0.000000
1.621890 -0.795084 -2.708935 1.000000 0.000000 0.000000
1.604627 -0.918998 -2.678746 0.000000 -0.733729 0.679442
1.641399 -0.918998 -2.678746 0.000000 -0.733729 0.679442
1.641399 -0.906506 -2.665256 0.000000 -0.733729 0.679442
1.604627 -0.906506 -2.665256 0.000000 -0.733729 0.679442
1.604627 -0.906506 -2.665256 0.000000 0.221547 0.975150
1.641399 -0.906506 -2.665256 0.000000 0.221547 0.975150
1.641399 -0.888576 -2.669329 0.000000 0.221547 0.975150
1.604627 -0.888576 -2.669329 0.000000 0.221547 0.975150
1.604627 -0.888576 -2.669329 0.000000 0.955278 0.295710
1.641399 -0.888576 -2.669329 0.000000 0.955278 0.295710
1.641399 -0.883139 -2.686893 0.000000 0.955278 0.295710
1.604627 -0.883139 -2.686893 0.000000 0.955278 0.295710
1.604627 -0.883139 -2.686893 0.000000 0.733729 -0.679442
1.641399 -0.883139 -2.686893 0.000000 0.733729 -0.679442
1.641399 -0.895632 -2.700383 0.000000 0.733729 -0.679442
1.604627 -0.895632 -2.700383 0.000000 0.733729 -0.679442
1.641399 -0.888576 -2.669329 1.000000 0.000000 -0.000000
1.641399 -0.906506 -2.665256 1.000000 0.000000 -0.000000
1.641399 -0.904796 -2.670779 1.000000 0.000000 -0.000000
1.641399 -0.892505 -2.673571 1.000000 0.000000 -0.000000
1.604627 -0.913561 -2.696310 0.000000 -0.955279 -0.295707
1.641399 -0.913561 -2.696310 0.000000 -0.955279 -0.295707
1.641399 -0.918998 -2.678746 0.000000 -0.955279 -0.295707
1.604627 -0.918998 -2.678746 0.000000 -0.955279 -0.295707
1.604627 -0.895632 -2.700383 0.000000 -0.221546 -0.975150
1.641399 -0.895632 -2.700383 0.000000 -0.221546 -0.975150
1.641399 -0.913561 -2.696310 0.000000 -0.221546 -0.975150
1.604627 -0.913561 -2.696310 0.000000 -0.221546 -0.975150
1.604627 -0.913561 -2.696310 -1.000000 0.000000 -0.000000
1.604627 -0.918998 -2.678746 -1.000000 0.000000 -0.000000
1.604627 -0.906506 -2.665256 -1.000000 0.000000 -0.000000
1.604627 -0.888576 -2.669329 -1.000000 0.000000 0.000000
1.604627 -0.883139 -2.686893 -1.000000 0.000000 0.000000
1.604627 -0.895632 -2.700383 -1.000000 0.000000 0.000000
1.641399 -0.883139 -2.686893 1.000000 -0.000000 0.000000
1.641399 -0.888778 -2.685612 1.000000 -0.000000 0.000000
1.641399 -0.918998 -2.678746 1.000000 0.000000 -0.000000
1.641399 -0.913360 -2.680027 1.000000 0.000000 -0.000000
1.641399 -0.895632 -2.700383 1.000000 -0.000000 0.000000
1.641399 -0.897341 -2.694860 1.000000 -0.000000 0.000000
1.641399 -0.913561 -2.696310 1.000000 0.000000 0.000000
1.641399 -0.909633 -2.692067 1.000000 0.000000 0.000000
1.641399 -0.892505 -2.673571 0.000000 -0.221560 -0.975147
1.641399 -0.904796 -2.670779 0.000000 -0.221560 -0.975147
1.621890 -0.904796 -2.670779 0.000000 -0.221560 -0.975147
1.621890 -0.892505 -2.673571 0.000000 -0.221560 -0.975147
1.641399 -0.909633 -2.692067 0.000000 0.221560 0.975147
1.641399 -0.897341 -2.694860 0.000000 0.221560 0.975147
1.621890 -0.897341 -2.694860 0.000000 0.221560 0.975147
1.621890 -0.909633 -2.692067 0.000000 0.221560 0.975147
1.641399 -0.904796 -2.670779 0.000000 0.733734 -0.679437
1.641399 -0.913360 -2.680027 0.000000 0.733734 -0.679437
1.621890 -0.913360 -2.680027 0.000000 0.733734 -0.679437
1.621890 -0.904796 -2.670779 0.000000 0.733734 -0.679437
1.641399 -0.897341 -2.694860 0.000000 -0.733734 0.679437
1.641399 -0.888778 -2.685612 0.000000 -0.733734 0.679437
1.621890 -0.888778 -2.685612 0.000000 -0.733734 0.679437
1.621890 -0.897341 -2.694860 0.000000 -0.733734 0.679437
1.641399 -0.888778 -2.685612 0.000000 -0.955277 -0.295714
1.641399 -0.892505 -2.673571 0.000000 -0.955277 -0.295714
1.621890 -0.892505 -2.673571 0.000000 -0.955277 -0.295714
1.621890 -0.888778 -2.685612 0.000000 -0.955277 -0.295714
1.641399 -0.913360 -2.680027 0.000000 0.955277 0.295714
1.641399 -0.909633 -2.692067 0.000000 0.955277 0.295714
1.621890 -0.909633 -2.692067 0.000000 0.955277 0.295714
1.621890 -0.913360 -2.680027 0.000000 0.955277 0.295714
1.621890 -0.888778 -2.685612 1.000000 -0.000000 0.000000
1.621890 -0.892505 -2.673571 1.000000 -0.000000 0.000000
1.621890 -0.901069 -2.682819 1.000000 -0.000000 0.000000
1.621890 -0.913360 -2.680027 1.000000 0.000000 0.000000
1.621890 -0.909633 -2.692067 1.000000 0.000000 0.000000
1.621890 -0.904796 -2.670779 1.000000 -0.000000 -0.000000
1.621890 -0.897341 -2.694860 1.000000 0.000000 0.000000
1.604627 -0.951055 -2.579185 0.000000 0.073239 0.997314
1.641399 -0.951055 -2.579185 0.000000 0.073239 0.997314
1.641399 -0.932718 -2.580531 0.000000 0.073239 0.997314
1.604627 -0.932718 -2.580531 0.000000 0.073239 0.997314
1.604627 -0.932718 -2.580531 0.000000 0.900319 0.435231
1.641399 -0.932718 -2.580531 0.000000 0.900319 0.435231
1.641399 -0.924716 -2.597085 0.000000 0.900319 0.435231
1.604627 -0.924716 -2.597085 0.000000 0.900319 0.435231
1.604627 -0.924716 -2.597085 0.000000 0.827080 -0.562084
1.641399 -0.924716 -2.597085 0.000000 0.827080 -0.562084
1.641399 -0.935051 -2.612291 0.000000 0.827080 -0.562084
1.604627 -0.935051 -2.612291 0.000000 0.827080 -0.562084
1.604627 -0.935051 -2.612291 0.000000 -0.073239 -0.997314
1.641399 -0.935051 -2.612291 0.000000 -0.073239 -0.997314
1.641399 -0.953387 -2.610945 0.000000 -0.073239 -0.997314
1.604627 -0.953387 -2.610945 0.000000 -0.073239 -0.997314
1.641399 -0.924716 -2.597085 1.000000 -0.000000 -0.000000
1.641399 -0.932718 -2.580531 1.000000 -0.000000 -0.000000
1.641399 -0.935968 -2.585313 1.000000 -0.000000 -0.000000
1.641399 -0.930483 -2.596661 1.000000 -0.000000 -0.000000
1.604627 -0.961390 -2.594391 0.000000 -0.827080 0.562084
1.641399 -0.961390 -2.594391 0.000000 -0.827080 0.562084
1.641399 -0.951055 -2.579185 0.000000 -0.827080 0.562084
1.604627 -0.951055 -2.579185 0.000000 -0.827080 0.562084
1.604627 -0.953387 -2.610945 0.000000 -0.900319 -0.435231
1.641399 -0.953387 -2.610945 0.000000 -0.900319 -0.435231
1.641399 -0.961390 -2.594391 0.000000 -0.900319 -0.435231
1.604627 -0.961390 -2.594391 0.000000 -0.900319 -0.435231
1.604627 -0.961390 -2.594391 -1.000000 -0.000000 0.000000
1.604627 -0.951055 -2.579185 -1.000000 -0.000000 0.000000
1.604627 -0.932718 -2.580531 -1.000000 -0.000000 0.000000
1.604627 -0.924716 -2.597085 -1.000000 0.000000 0.000000
1.604627 -0.935051 -2.612291 -1.000000 0.000000 0.000000
1.604627 -0.953387 -2.610945 -1.000000 0.000000 0.000000
1.641399 -0.935051 -2.612291 1.000000 -0.000000 0.000000
1.641399 -0.937567 -2.607086 1.000000 -0.000000 0.000000
1.641399 -0.951055 -2.579185 1.000000 0.000000 -0.000000
1.641399 -0.948539 -2.584390 1.000000 0.000000 -0.000000
1.641399 -0.953387 -2.610945 1.000000 0.000000 0.000000
1.641399 -0.950138 -2.606163 1.000000 0.000000 0.000000
1.641399 -0.961390 -2.594391 1.000000 0.000000 0.000000
1.641399 -0.955623 -2.594815 1.000000 0.000000 0.000000
1.641399 -0.930483 -2.596661 0.000001 -0.900318 -0.435232
1.641399 -0.935968 -2.585313 0.000001 -0.900318 -0.435232
1.621890 -0.935968 -2.585313 0.000001 -0.900318 -0.435232
1.621890 -0.930483 -2.596661 0.000001 -0.900318 -0.435232
1.641399 -0.955623 -2.594815 0.000000 0.900317 0.435234
1.641399 -0.950138 -2.606163 0.000000 0.900317 0.435234
1.621890 -0.950138 -2.606163 0.000000 0.900317 0.435234
1.621890 -0.955623 -2.594815 0.000000 0.900317 0.435234
1.641399 -0.935968 -2.585313 0.000000 -0.073242 -0.997314
1.641399 -0.948539 -2.584390 0.000000 -0.073242 -0.997314
1.621890 -0.948539 -2.584390 0.000000 -0.073242 -0.997314
1.621890 -0.935968 -2.585313 0.000000 -0.073242 -0.997314
1.641399 -0.950138 -2.606163 0.000000 0.073241 0.997314
1.641399 -0.937567 -2.607086 0.000000 0.073241 0.997314
1.621890 -0.937567 -2.607086 0.000000 0.073241 0.997314
1.621890 -0.950138 -2.606163 0.000000 0.073241 0.997314
1.641399 -0.937567 -2.607086 0.000000 -0.827079 0.562086
1.641399 -0.930483 -2.596661 0.000000 -0.827079 0.562086
1.621890 -0.930483 -2.596661 0.000000 -0.827079 0.562086
1.621890 -0.937567 -2.607086 0.000000 -0.827079 0.562086
1.641399 -0.948539 -2.584390 0.000000 0.827077 -0.562089
1.641399 -0.955623 -2.594815 0.000000 0.827077 -0.562089
1.621890 -0.955623 -2.594815 0.000000 0.827077 -0.562089
1.621890 -0.948539 -2.584390 0.000000 0.827077 -0.562089
1.621890 -0.937567 -2.607086 1.000000 0.000000 0.000000
1.621890 -0.930483 -2.596661 1.000000 0.000000 0.000000
1.621890 -0.943053 -2.595738 1.000000 0.000000 0.000000
1.621890 -0.948539 -2.584390 1.000000 0.000000 -0.000000
1.621890 -0.955623 -2.594815 1.000000 0.000000 -0.000000
1.621890 -0.935968 -2.585313 1.000000 -0.000000 0.000000
1.621890 -0.950138 -2.606163 1.000000 0.000000 0.000000
1.604627 -0.893246 -2.492017 0.000000 0.825111 0.564970
1.641399 -0.893246 -2.492017 0.000000 0.825111 0.564970
1.641399 -0.882858 -2.507187 0.000000 0.825111 0.564970
1.604627 -0.882858 -2.507187 0.000000 0.825111 0.564970
1.604627 -0.882858 -2.507187 0.000000 0.901833 -0.432085
1.641399 -0.882858 -2.507187 0.000000 0.901833 -0.432085
1.641399 -0.890803 -2.523769 0.000000 0.901833 -0.432085
1.604627 -0.890803 -2.523769 0.000000 0.901833 -0.432085
1.604627 -0.890803 -2.523769 0.000000 0.076715 -0.997053
1.641399 -0.890803 -2.523769 0.000000 0.076715 -0.997053
1.641399 -0.909135 -2.525179 0.000000 0.076715 -0.997053
1.604627 -0.909135 -2.525179 0.000000 0.076715 -0.997053
1.604627 -0.909135 -2.525179 0.000000 -0.825111 -0.564970
1.641399 -0.909135 -2.525179 0.000000 -0.825111 -0.564970
1.641399 -0.919522 -2.510009 0.000000 -0.825111 -0.564970
1.604627 -0.919522 -2.510009 0.000000 -0.825111 -0.564970
1.641399 -0.890803 -2.523769 1.000000 -0.000000 0.000000
1.641399 -0.882858 -2.507187 1.000000 -0.000000 0.000000
1.641399 -0.888623 -2.507631 1.000000 -0.000000 0.000000
1.641399 -0.894069 -2.518998 1.000000 -0.000000 0.000000
1.604627 -0.911578 -2.493427 0.000000 -0.076715 0.997053
1.641399 -0.911578 -2.493427 0.000000 -0.076715 0.997053
1.641399 -0.893246 -2.492017 0.000000 -0.076715 0.997053
1.604627 -0.893246 -2.492017 0.000000 -0.076715 0.997053
1.604627 -0.919522 -2.510009 0.000000 -0.901833 0.432085
1.641399 -0.919522 -2.510009 0.000000 -0.901833 0.432085
1.641399 -0.911578 -2.493427 0.000000 -0.901833 0.432085
1.604627 -0.911578 -2.493427 0.000000 -0.901833 0.432085
1.604627 -0.911578 -2.493427 -1.000000 -0.000000 0.000000
1.604627 -0.893246 -2.492017 -1.000000 -0.000000 0.000000
1.604627 -0.882858 -2.507187 -1.000000 -0.000000 0.000000
1.604627 -0.890803 -2.523769 -1.000000 0.000000 0.000000
1.604627 -0.909135 -2.525179 -1.000000 0.000000 0.000000
1.604627 -0.919522 -2.510009 -1.000000 0.000000 -0.000000
1.641399 -0.909135 -2.525179 1.000000 0.000000 0.000000
1.641399 -0.906636 -2.519965 1.000000 0.000000 0.000000
1.641399 -0.893246 -2.492017 1.000000 -0.000000 -0.000000
1.641399 -0.895744 -2.497231 1.000000 -0.000000 -0.000000
1.641399 -0.919522 -2.510009 1.000000 0.000000 0.000000
1.641399 -0.913757 -2.509565 1.000000 0.000000 0.000000
1.641399 -0.911578 -2.493427 1.000000 0.000000 -0.000000
1.641399 -0.908311 -2.498198 1.000000 0.000000 -0.000000
1.641399 -0.894069 -2.518998 0.000001 -0.901832 0.432087
1.641399 -0.888623 -2.507631 0.000001 -0.901832 0.432087
1.621890 -0.888623 -2.507631 0.000001 -0.901832 0.432087
1.621890 -0.894069 -2.518998 0.000001 -0.901832 0.432087
1.641399 -0.908311 -2.498198 0.000000 0.901831 -0.432089
1.641399 -0.913757 -2.509565 0.000000 0.901831 -0.432089
1.621890 -0.913757 -2.509565 0.000000 0.901831 -0.432089
1.621890 -0.908311 -2.498198 0.000000 0.901831 -0.432089
1.641399 -0.888623 -2.507631 0.000000 -0.825117 -0.564962
1.641399 -0.895744 -2.497231 0.000000 -0.825117 -0.564962
1.621890 -0.895744 -2.497231 0.000000 -0.825117 -0.564962
1.621890 -0.888623 -2.507631 0.000000 -0.825117 -0.564962
1.641399 -0.913757 -2.509565 0.000000 0.825115 0.564965
1.641399 -0.906636 -2.519965 0.000000 0.825115 0.564965
1.621890 -0.906636 -2.519965 0.000000 0.825115 0.564965
1.621890 -0.913757 -2.509565 0.000000 0.825115 0.564965
1.641399 -0.906636 -2.519965 0.000000 -0.076722 0.997052
1.641399 -0.894069 -2.518998 0.000000 -0.076722 0.997052
1.621890 -0.894069 -2.518998 0.000000 -0.076722 0.997052
1.621890 -0.906636 -2.519965 0.000000 -0.076722 0.997052
1.641399 -0.895744 -2.497231 0.000000 0.076722 -0.997053
1.641399 -0.908311 -2.498198 0.000000 0.076722 -0.997053
1.621890 -0.908311 -2.498198 0.000000 0.076722 -0.997053
1.621890 -0.895744 -2.497231 0.000000 0.076722 -0.997053
1.621890 -0.906636 -2.519965 1.000000 0.000000 0.000000
1.621890 -0.894069 -2.518998 1.000000 0.000000 0.000000
1.621890 -0.901190 -2.508598 1.000000 0.000000 0.000000
1.621890 -0.895744 -2.497231 1.000000 0.000000 -0.000000
1.621890 -0.908311 -2.498198 1.000000 0.000000 -0.000000
1.621890 -0.888623 -2.507631 1.000000 -0.000000 0.000000
1.621890 -0.913757 -2.509565 1.000000 0.000000 -0.000000
1.604627 -0.789056 -2.482814 0.000000 0.956306 -0.292368
1.641399 -0.789056 -2.482814 0.000000 0.956306 -0.292368
1.641399 -0.794432 -2.500397 0.000000 0.956306 -0.292368
1.604627 -0.794432 -2.500397 0.000000 0.956306 -0.292368
1.604627 -0.794432 -2.500397 0.000000 0.224944 -0.974372
1.641399 -0.794432 -2.500397 0.000000 0.224944 -0.974372
1.641399 -0.812347 -2.504533 0.000000 0.224944 -0.974372
1.604627 -0.812347 -2.504533 0.000000 0.224944 -0.974372
1.604627 -0.812347 -2.504533 0.000000 -0.731356 -0.681996
1.641399 -0.812347 -2.504533 0.000000 -0.731356 -0.681996
1.641399 -0.824886 -2.491086 0.000000 -0.731356 -0.681996
1.604627 -0.824886 -2.491086 0.000000 -0.731356 -0.681996
1.604627 -0.824886 -2.491086 0.000000 -0.956305 0.292372
1.641399 -0.824886 -2.491086 0.000000 -0.956305 0.292372
1.641399 -0.819510 -2.473503 0.000000 -0.956305 0.292372
1.604627 -0.819510 -2.473503 0.000000 -0.956305 0.292372
1.641399 -0.812347 -2.504533 1.000000 0.000000 0.000000
1.641399 -0.794432 -2.500397 1.000000 0.000000 0.000000
1.641399 -0.798375 -2.496168 1.000000 0.000000 0.000000
1.641399 -0.810656 -2.499003 1.000000 0.000000 0.000000
1.604627 -0.801596 -2.469367 0.000000 0.731356 0.681996
1.641399 -0.801596 -2.469367 0.000000 0.731356 0.681996
1.641399 -0.789056 -2.482814 0.000000 0.731356 0.681996
1.604627 -0.789056 -2.482814 0.000000 0.731356 0.681996
1.604627 -0.819510 -2.473503 0.000000 -0.224956 0.974369
1.641399 -0.819510 -2.473503 0.000000 -0.224956 0.974369
1.641399 -0.801596 -2.469367 0.000000 -0.224956 0.974369
1.604627 -0.801596 -2.469367 0.000000 -0.224956 0.974369
1.604627 -0.801596 -2.469367 -1.000000 0.000000 0.000000
1.604627 -0.789056 -2.482814 -1.000000 0.000000 0.000000
1.604627 -0.794432 -2.500397 -1.000000 0.000000 0.000000
1.604627 -0.812347 -2.504533 -1.000000 0.000000 0.000000
1.604627 -0.824886 -2.491086 -1.000000 0.000000 0.000000
1.604627 -0.819510 -2.473503 -1.000000 0.000000 0.000000
1.641399 -0.824886 -2.491086 1.000000 0.000000 0.000000
1.641399 -0.819252 -2.489785 1.000000 0.000000 0.000000
1.641399 -0.789056 -2.482814 1.000000 -0.000000 0.000000
1.641399 -0.794690 -2.484115 1.000000 -0.000000 0.000000
1.641399 -0.819510 -2.473503 1.000000 0.000000 0.000000
1.641399 -0.815567 -2.477732 1.000000 0.000000 0.000000
1.641399 -0.801596 -2.469367 1.000000 0.000000 -0.000000
1.641399 -0.803286 -2.474896 1.000000 0.000000 -0.000000
1.641399 -0.810656 -2.499003 0.000000 -0.224947 0.974371
1.641399 -0.798375 -2.496168 0.000000 -0.224947 0.974371
1.621890 -0.798375 -2.496168 0.000000 -0.224947 0.974371
1.621890 -0.810656 -2.499003 0.000000 -0.224947 0.974371
1.641399 -0.803286 -2.474896 0.000000 0.224947 -0.974371
1.641399 -0.815567 -2.477732 0.000000 0.224947 -0.974371
1.621890 -0.815567 -2.477732 0.000000 0.224947 -0.974371
1.621890 -0.803286 -2.474896 0.000000 0.224947 -0.974371
1.641399 -0.798375 -2.496168 0.000000 -0.956305 0.292371
1.641399 -0.794690 -2.484115 0.000000 -0.956305 0.292371
1.621890 -0.794690 -2.484115 0.000000 -0.956305 0.292371
1.621890 -0.798375 -2.496168 0.000000 -0.956305 0.292371
1.641399 -0.815567 -2.477732 0.000000 0.956304 -0.292376
1.641399 -0.819252 -2.489785 0.000000 0.956304 -0.292376
1.621890 -0.819252 -2.489785 0.000000 0.956304 -0.292376
1.621890 -0.815567 -2.477732 0.000000 0.956304 -0.292376
1.641399 -0.819252 -2.489785 0.000000 0.731354 0.681998
1.641399 -0.810656 -2.499003 0.000000 0.731354 0.681998
1.621890 -0.810656 -2.499003 0.000000 0.731354 0.681998
1.621890 -0.819252 -2.489785 0.000000 0.731354 0.681998
1.641399 -0.794690 -2.484115 0.000000 -0.731356 -0.681996
1.641399 -0.803286 -2.474896 0.000000 -0.731356 -0.681996
1.621890 -0.803286 -2.474896 0.000000 -0.731356 -0.681996
1.621890 -0.794690 -2.484115 0.000000 -0.731356 -0.681996
1.621890 -0.819252 -2.489785 1.000000 0.000000 0.000000
1.621890 -0.810656 -2.499003 1.000000 0.000000 0.000000
1.621890 -0.806971 -2.486950 1.000000 0.000000 0.000000
1.621890 -0.794690 -2.484115 1.000000 -0.000000 0.000000
1.621890 -0.803286 -2.474896 1.000000 -0.000000 0.000000
1.621890 -0.798375 -2.496168 1.000000 0.000000 0.000000
1.621890 -0.815567 -2.477732 1.000000 0.000000 -0.000000
1.604627 -0.716862 -2.558499 0.000000 0.368128 -0.929775
1.641399 -0.716862 -2.558499 0.000000 0.368128 -0.929775
1.641399 -0.733957 -2.565267 0.000000 0.368128 -0.929775
1.604627 -0.733957 -2.565267 0.000000 0.368128 -0.929775
1.604627 -0.733957 -2.565267 0.000000 -0.621148 -0.783693
1.641399 -0.733957 -2.565267 0.000000 -0.621148 -0.783693
1.641399 -0.748366 -2.553847 0.000000 -0.621148 -0.783693
1.604627 -0.748366 -2.553847 0.000000 -0.621148 -0.783693
1.604627 -0.748366 -2.553847 0.000000 -0.989272 0.146083
1.641399 -0.748366 -2.553847 0.000000 -0.989272 0.146083
1.641399 -0.745680 -2.535658 0.000000 -0.989272 0.146083
1.604627 -0.745680 -2.535658 0.000000 -0.989272 0.146083
1.604627 -0.745680 -2.535658 0.000000 -0.368128 0.929775
1.641399 -0.745680 -2.535658 0.000000 -0.368128 0.929775
1.641399 -0.728585 -2.528889 0.000000 -0.368128 0.929775
1.604627 -0.728585 -2.528889 0.000000 -0.368128 0.929775
1.641399 -0.748366 -2.553847 1.000000 0.000000 0.000000
1.641399 -0.733957 -2.565267 1.000000 0.000000 0.000000
1.641399 -0.733113 -2.559547 1.000000 0.000000 0.000000
1.641399 -0.742990 -2.551718 1.000000 0.000000 0.000000
1.604627 -0.714176 -2.540310 0.000000 0.989272 -0.146083
1.641399 -0.714176 -2.540310 0.000000 0.989272 -0.146083
1.641399 -0.716862 -2.558499 0.000000 0.989272 -0.146083
1.604627 -0.716862 -2.558499 0.000000 0.989272 -0.146083
1.604627 -0.728585 -2.528889 0.000000 0.621148 0.783693
1.641399 -0.728585 -2.528889 0.000000 0.621148 0.783693
1.641399 -0.714176 -2.540310 0.000000 0.621148 0.783693
1.604627 -0.714176 -2.540310 0.000000 0.621148 0.783693
1.604627 -0.714176 -2.540310 -1.000000 0.000000 0.000000
1.604627 -0.716862 -2.558499 -1.000000 0.000000 0.000000
1.604627 -0.733957 -2.565267 -1.000000 0.000000 0.000000
1.604627 -0.748366 -2.553847 -1.000000 0.000000 -0.000000
1.604627 -0.745680 -2.535658 -1.000000 0.000000 -0.000000
1.604627 -0.728585 -2.528889 -1.000000 -0.000000 0.000000
1.641399 -0.745680 -2.535658 1.000000 0.000000 0.000000
1.641399 -0.741149 -2.539249 1.000000 0.000000 0.000000
1.641399 -0.716862 -2.558499 1.000000 -0.000000 0.000000
1.641399 -0.721394 -2.554907 1.000000 -0.000000 0.000000
1.641399 -0.728585 -2.528889 1.000000 0.000000 -0.000000
1.641399 -0.729430 -2.534609 1.000000 0.000000 -0.000000
1.641399 -0.714176 -2.540310 1.000000 -0.000000 -0.000000
1.641399 -0.719552 -2.542438 1.000000 -0.000000 -0.000000
1.641399 -0.742990 -2.551718 0.000000 0.621152 0.783690
1.641399 -0.733113 -2.559547 0.000000 0.621152 0.783690
1.621890 -0.733113 -2.559547 0.000000 0.621152 0.783690
1.621890 -0.742990 -2.551718 0.000000 0.621152 0.783690
1.641399 -0.719552 -2.542438 0.000000 -0.621152 -0.783690
1.641399 -0.729430 -2.534609 0.000000 -0.621152 -0.783690
1.621890 -0.729430 -2.534609 0.000000 -0.621152 -0.783690
1.621890 -0.719552 -2.542438 0.000000 -0.621152 -0.783690
1.641399 -0.733113 -2.559547 0.000000 -0.368120 0.929778
1.641399 -0.721394 -2.554907 0.000000 -0.368120 0.929778
1.621890 -0.721394 -2.554907 0.000000 -0.368120 0.929778
1.621890 -0.733113 -2.559547 0.000000 -0.368120 0.929778
1.641399 -0.729430 -2.534609 0.000000 0.368119 -0.929779
1.641399 -0.741149 -2.539249 0.000000 0.368119 -0.929779
1.621890 -0.741149 -2.539249 0.000000 0.368119 -0.929779
1.621890 -0.729430 -2.534609 0.000000 0.368119 -0.929779
1.641399 -0.741149 -2.539249 0.000000 0.989273 -0.146081
1.641399 -0.742990 -2.551718 0.000000 0.989273 -0.146081
1.621890 -0.742990 -2.551718 0.000000 0.989273 -0.146081
1.621890 -0.741149 -2.539249 0.000000 0.989273 -0.146081
1.641399 -0.721394 -2.554907 0.000000 -0.989272 0.146086
1.641399 -0.719552 -2.542438 0.000000 -0.989272 0.146086
1.621890 -0.719552 -2.542438 0.000000 -0.989272 0.146086
1.621890 -0.721394 -2.554907 0.000000 -0.989272 0.146086
1.621890 -0.741149 -2.539249 1.000000 0.000000 -0.000000
1.621890 -0.742990 -2.551718 1.000000 0.000000 -0.000000
1.621890 -0.731271 -2.547078 1.000000 0.000000 -0.000000
1.621890 -0.721394 -2.554907 1.000000 -0.000000 0.000000
1.621890 -0.719552 -2.542438 1.000000 -0.000000 0.000000
1.621890 -0.733113 -2.559547 1.000000 0.000000 0.000000
1.621890 -0.729430 -2.534609 1.000000 -0.000000 0.000000
1.604627 -0.731204 -2.662488 0.000000 -0.499995 -0.866028
1.641399 -0.731204 -2.662488 0.000000 -0.499995 -0.866028
1.641399 -0.747127 -2.653295 0.000000 -0.499995 -0.866028
1.604627 -0.747127 -2.653295 0.000000 -0.499995 -0.866028
1.604627 -0.747127 -2.653295 0.000000 -1.000000 -0.000000
1.641399 -0.747127 -2.653295 0.000000 -1.000000 -0.000000
1.641399 -0.747127 -2.634909 0.000000 -1.000000 -0.000000
1.604627 -0.747127 -2.634909 0.000000 -1.000000 -0.000000
1.604627 -0.747127 -2.634909 0.000000 -0.500005 0.866022
1.641399 -0.747127 -2.634909 0.000000 -0.500005 0.866022
1.641399 -0.731204 -2.625716 0.000000 -0.500005 0.866022
1.604627 -0.731204 -2.625716 0.000000 -0.500005 0.866022
1.604627 -0.731204 -2.625716 0.000000 0.500005 0.866022
1.641399 -0.731204 -2.625716 0.000000 0.500005 0.866022
1.641399 -0.715281 -2.634909 0.000000 0.500005 0.866022
1.604627 -0.715281 -2.634909 0.000000 0.500005 0.866022
1.641399 -0.747127 -2.634909 1.000000 0.000000 0.000000
1.641399 -0.747127 -2.653295 1.000000 0.000000 0.000000
1.641399 -0.742119 -2.650404 1.000000 0.000000 0.000000
1.641399 -0.742119 -2.637800 1.000000 0.000000 0.000000
1.604627 -0.715281 -2.653295 0.000000 0.499995 -0.866028
1.641399 -0.715281 -2.653295 0.000000 0.499995 -0.866028
1.641399 -0.731204 -2.662488 0.000000 0.499995 -0.866028
1.604627 -0.731204 -2.662488 0.000000 0.499995 -0.866028
1.604627 -0.715281 -2.634909 0.000000 1.000000 -0.000000
1.641399 -0.715281 -2.634909 0.000000 1.000000 -0.000000
1.641399 -0.715281 -2.653295 0.000000 1.000000 -0.000000
1.604627 -0.715281 -2.653295 0.000000 1.000000 -0.000000
1.604627 -0.715281 -2.653295 -1.000000 0.000000 0.000000
1.604627 -0.731204 -2.662488 -1.000000 0.000000 0.000000
1.604627 -0.747127 -2.653295 -1.000000 0.000000 0.000000
1.604627 -0.747127 -2.634909 -1.000000 0.000000 -0.000000
1.604627 -0.731204 -2.625716 -1.000000 0.000000 -0.000000
1.604627 -0.715281 -2.634909 -1.000000 0.000000 0.000000
1.641399 -0.731204 -2.625716 1.000000 0.000000 -0.000000
1.641399 -0.731204 -2.631498 1.000000 0.000000 -0.000000
1.641399 -0.731204 -2.662488 1.000000 0.000000 0.000000
1.641399 -0.731204 -2.656706 1.000000 0.000000 0.000000
1.641399 -0.715281 -2.634909 1.000000 -0.000000 -0.000000
1.641399 -0.720288 -2.637800 1.000000 -0.000000 -0.000000
1.641399 -0.715281 -2.653295 1.000000 -0.000000 0.000000
1.641399 -0.720288 -2.650404 1.000000 -0.000000 0.000000
1.641399 -0.742119 -2.637800 -0.000000 1.000000 0.000000
1.641399 -0.742119 -2.650404 -0.000000 1.000000 0.000000
1.621890 -0.742119 -2.650404 -0.000000 1.000000 0.000000
1.621890 -0.742119 -2.637800 -0.000000 1.000000 0.000000
1.641399 -0.720288 -2.650404 0.000000 -1.000000 0.000000
1.641399 -0.720288 -2.637800 0.000000 -1.000000 0.000000
1.621890 -0.720288 -2.637800 0.000000 -1.000000 0.000000
1.621890 -0.720288 -2.650404 0.000000 -1.000000 0.000000
1.641399 -0.742119 -2.650404 0.000000 0.500000 0.866025
1.641399 -0.731204 -2.656706 0.000000 0.500000 0.866025
1.621890 -0.731204 -2.656706 0.000000 0.500000 0.866025
1.621890 -0.742119 -2.650404 0.000000 0.500000 0.866025
1.641399 -0.720288 -2.637800 0.000000 -0.500000 -0.866025
1.641399 -0.731204 -2.631498 0.000000 -0.500000 -0.866025
1.621890 -0.731204 -2.631498 0.000000 -0.500000 -0.866025
1.621890 -0.720288 -2.637800 0.000000 -0.500000 -0.866025
1.641399 -0.731204 -2.631498 0.000000 0.500000 -0.866025
1.641399 -0.742119 -2.637800 0.000000 0.500000 -0.866025
1.621890 -0.742119 -2.637800 0.000000 0.500000 -0.866025
1.621890 -0.731204 -2.631498 0.000000 0.500000 -0.866025
1.641399 -0.731204 -2.656706 0.000000 -0.500000 0.866025
1.641399 -0.720288 -2.650404 0.000000 -0.500000 0.866025
1.621890 -0.720288 -2.650404 0.000000 -0.500000 0.866025
1.621890 -0.731204 -2.656706 0.000000 -0.500000 0.866025
1.621890 -0.731204 -2.631498 1.000000 0.000000 -0.000000
1.621890 -0.742119 -2.637800 1.000000 0.000000 -0.000000
1.621890 -0.731204 -2.644102 1.000000 0.000000 -0.000000
1.621890 -0.731204 -2.656706 1.000000 0.000000 0.000000
1.621890 -0.720288 -2.650404 1.000000 0.000000 0.000000
1.621890 -0.742119 -2.650404 1.000000 0.000000 -0.000000
1.621890 -0.720288 -2.637800 1.000000 -0.000000 0.000000
1.604627 -0.821189 -2.715807 0.000000 -0.988756 -0.149536
1.641399 -0.821189 -2.715807 0.000000 -0.988756 -0.149536
1.641399 -0.823938 -2.697628 0.000000 -0.988756 -0.149536
1.604627 -0.823938 -2.697628 0.000000 -0.988756 -0.149536
1.604627 -0.823938 -2.697628 0.000000 -0.623880 0.781520
1.641399 -0.823938 -2.697628 0.000000 -0.623880 0.781520
1.641399 -0.809569 -2.686157 0.000000 -0.623880 0.781520
1.604627 -0.809569 -2.686157 0.000000 -0.623880 0.781520
1.604627 -0.809569 -2.686157 0.000000 0.364874 0.931057
1.641399 -0.809569 -2.686157 0.000000 0.364874 0.931057
1.641399 -0.792450 -2.692865 0.000000 0.364874 0.931057
1.604627 -0.792450 -2.692865 0.000000 0.364874 0.931057
1.604627 -0.792450 -2.692865 0.000000 0.988756 0.149536
1.641399 -0.792450 -2.692865 0.000000 0.988756 0.149536
1.641399 -0.789701 -2.711045 0.000000 0.988756 0.149536
1.604627 -0.789701 -2.711045 0.000000 0.988756 0.149536
1.641399 -0.809569 -2.686157 1.000000 0.000000 -0.000000
1.641399 -0.823938 -2.697628 1.000000 0.000000 -0.000000
1.641399 -0.818555 -2.699737 1.000000 0.000000 -0.000000
1.641399 -0.808704 -2.691874 1.000000 0.000000 -0.000000
1.604627 -0.804070 -2.722516 0.000000 -0.364873 -0.931057
1.641399 -0.804070 -2.722516 0.000000 -0.364873 -0.931057
1.641399 -0.821189 -2.715807 0.000000 -0.364873 -0.931057
1.604627 -0.821189 -2.715807 0.000000 -0.364873 -0.931057
1.604627 -0.789701 -2.711045 0.000000 0.623882 -0.781519
1.641399 -0.789701 -2.711045 0.000000 0.623882 -0.781519
1.641399 -0.804070 -2.722516 0.000000 0.623882 -0.781519
1.604627 -0.804070 -2.722516 0.000000 0.623882 -0.781519
1.604627 -0.804070 -2.722516 -1.000000 0.000000 0.000000
1.604627 -0.821189 -2.715807 -1.000000 0.000000 0.000000
1.604627 -0.823938 -2.697628 -1.000000 0.000000 0.000000
1.604627 -0.809569 -2.686157 -1.000000 -0.000000 0.000000
1.604627 -0.792450 -2.692865 -1.000000 -0.000000 0.000000
1.604627 -0.789701 -2.711045 -1.000000 0.000000 0.000000
1.641399 -0.792450 -2.692865 1.000000 -0.000000 -0.000000
1.641399 -0.796969 -2.696473 1.000000 -0.000000 -0.000000
1.641399 -0.821189 -2.715807 1.000000 0.000000 0.000000
1.641399 -0.816670 -2.712200 1.000000 0.000000 0.000000
1.641399 -0.789701 -2.711045 1.000000 -0.000000 0.000000
1.641399 -0.795084 -2.708935 1.000000 -0.000000 0.000000
1.641399 -0.804070 -2.722516 1.000000 -0.000000 0.000000
1.641399 -0.804935 -2.716799 1.000000 -0.000000 0.000000
1.641399 -0.808704 -2.691874 0.000000 0.623880 -0.781520
1.641399 -0.818555 -2.699737 0.000000 0.623880 -0.781520
1.621890 -0.818555 -2.699737 0.000000 0.623880 -0.781520
1.621890 -0.808704 -2.691874 0.000000 0.623880 -0.781520
1.641399 -0.804935 -2.716799 0.000000 -0.623878 0.781522
1.641399 -0.795084 -2.708935 0.000000 -0.623878 0.781522
1.621890 -0.795084 -2.708935 0.000000 -0.623878 0.781522
1.621890 -0.804935 -2.716799 0.000000 -0.623878 0.781522
1.641399 -0.818555 -2.699737 0.000000 0.988757 0.149533
1.641399 -0.816670 -2.712200 0.000000 0.988757 0.149533
1.621890 -0.816670 -2.712200 0.000000 0.988757 0.149533
1.621890 -0.818555 -2.699737 0.000000 0.988757 0.149533
1.641399 -0.795084 -2.708935 0.000000 -0.988756 -0.149540
1.641399 -0.796969 -2.696473 0.000000 -0.988756 -0.149540
1.621890 -0.796969 -2.696473 0.000000 -0.988756 -0.149540
1.621890 -0.795084 -2.708935 0.000000 -0.988756 -0.149540
1.641399 -0.796969 -2.696473 0.000000 -0.364883 -0.931053
1.641399 -0.808704 -2.691874 0.000000 -0.364883 -0.931053
1.621890 -0.808704 -2.691874 0.000000 -0.364883 -0.931053
1.621890 -0.796969 -2.696473 0.000000 -0.364883 -0.931053
1.641399 -0.816670 -2.712200 0.000000 0.364867 0.931060
1.641399 -0.804935 -2.716799 0.000000 0.364867 0.931060
1.621890 -0.804935 -2.716799 0.000000 0.364867 0.931060
1.621890 -0.816670 -2.712200 0.000000 0.364867 0.931060
1.621890 -0.796969 -2.696473 1.000000 -0.000000 -0.000000
1.621890 -0.808704 -2.691874 1.000000 -0.000000 -0.000000
1.621890 -0.806820 -2.704336 1.000000 -0.000000 -0.000000
1.621890 -0.816670 -2.712200 1.000000 0.000000 0.000000
1.621890 -0.804935 -2.716799 1.000000 0.000000 0.000000
1.621890 -0.818555 -2.699737 1.000000 0.000000 -0.000000
1.621890 -0.795084 -2.708935 1.000000 0.000000 0.000000
1.604627 -0.918998 -2.678746 0.000000 -0.733729 0.679442
1.641399 -0.918998 -2.678746 0.000000 -0.733729 0.679442
1.641399 -0.906506 -2.665256 0.000000 -0.733729 0.679442
1.604627 -0.906506 -2.665256 0.000000 -0.733729 0.679442
1.604627 -0.906506 -2.665256 0.000000 0.221547 0.975150
1.641399 -0.906506 -2.665256 0.000000 0.221547 0.975150
1.641399 -0.888576 -2.669329 0.000000 0.221547 0.975150
1.604627 -0.888576 -2.669329 0.000000 0.221547 0.975150
1.604627 -0.888576 -2.669329 0.000000 0.955278 0.295710
1.641399 -0.888576 -2.669329 0.000000 0.955278 0.295710
1.641399 -0.883139 -2.686893 0.000000 0.955278 0.295710
1.604627 -0.883139 -2.686893 0.000000 0.955278 0.295710
1.604627 -0.883139 -2.686893 0.000000 0.733729 -0.679442
1.641399 -0.883139 -2.686893 0.000000 0.733729 -0.679442
1.641399 -0.895632 -2.700383 0.000000 0.733729 -0.679442
1.604627 -0.895632 -2.700383 0.000000 0.733729 -0.679442
1.641399 -0.888576 -2.669329 1.000000 0.000000 -0.000000
1.641399 -0.906506 -2.665256 1.000000 0.000000 -0.000000
1.641399 -0.904796 -2.670779 1.000000 0.000000 -0.000000
1.641399 -0.892505 -2.673571 1.000000 0.000000 -0.000000
1.604627 -0.913561 -2.696310 0.000000 -0.955279 -0.295707
1.641399 -0.913561 -2.696310 0.000000 -0.955279 -0.295707
1.641399 -0.918998 -2.678746 0.000000 -0.955279 -0.295707
1.604627 -0.918998 -2.678746 0.000000 -0.955279 -0.295707
1.604627 -0.895632 -2.700383 0.000000 -0.221546 -0.975150
1.641399 -0.895632 -2.700383 0.000000 -0.221546 -0.975150
1.641399 -0.913561 -2.696310 0.000000 -0.221546 -0.975150
1.604627 -0.913561 -2.696310 0.000000 -0.221546 -0.975150
1.604627 -0.913561 -2.696310 -1.000000 0.000000 -0.000000
1.604627 -0.918998 -2.678746 -1.000000 0.000000 -0.000000
1.604627 -0.906506 -2.665256 -1.000000 0.000000 -0.000000
1.604627 -0.888576 -2.669329 -1.000000 0.000000 0.000000
1.604627 -0.883139 -2.686893 -1.000000 0.000000 0.000000
1.604627 -0.895632 -2.700383 -1.000000 0.000000 0.000000
1.641399 -0.883139 -2.686893 1.000000 -0.000000 0.000000
1.641399 -0.888778 -2.685612 1.000000 -0.000000 0.000000
1.641399 -0.918998 -2.678746 1.000000 0.000000 -0.000000
1.641399 -0.913360 -2.680027 1.000000 0.000000 -0.000000
1.641399 -0.895632 -2.700383 1.000000 -0.000000 0.000000
1.641399 -0.897341 -2.694860 1.000000 -0.000000 0.000000
1.641399 -0.913561 -2.696310 1.000000 0.000000 0.000000
1.641399 -0.909633 -2.692067 1.000000 0.000000 0.000000
1.641399 -0.892505 -2.673571 0.000000 -0.221560 -0.975147
1.641399 -0.904796 -2.670779 0.000000 -0.221560 -0.975147
1.621890 -0.904796 -2.670779 0.000000 -0.221560 -0.975147
1.621890 -0.892505 -2.673571 0.000000 -0.221560 -0.975147
1.641399 -0.909633 -2.692067 0.000000 0.221560 0.975147
1.641399 -0.897341 -2.694860 0.000000 0.221560 0.975147
1.621890 -0.897341 -2.694860 0.000000 0.221560 0.975147
1.621890 -0.909633 -2.692067 0.000000 0.221560 0.975147
1.641399 -0.904796 -2.670779 0.000000 0.733734 -0.679437
1.641399 -0.913360 -2.680027 0.000000 0.733734 -0.679437
1.621890 -0.913360 -2.680027 0.000000 0.733734 -0.679437
1.621890 -0.904796 -2.670779 0.000000 0.733734 -0.679437
1.641399 -0.897341 -2.694860 0.000000 -0.733734 0.679437
1.641399 -0.888778 -2.685612 0.000000 -0.733734 0.679437
1.621890 -0.888778 -2.685612 0.000000 -0.733734 0.679437
1.621890 -0.897341 -2.694860 0.000000 -0.733734 0.679437
1.641399 -0.888778 -2.685612 0.000000 -0.955277 -0.295714
1.641399 -0.892505 -2.673571 0.000000 -0.955277 -0.295714
1.621890 -0.892505 -2.673571 0.000000 -0.955277 -0.295714
1.621890 -0.888778 -2.685612 0.000000 -0.955277 -0.295714
1.641399 -0.913360 -2.680027 0.000000 0.955277 0.295714
1.641399 -0.909633 -2.692067 0.000000 0.955277 0.295714
1.621890 -0.909633 -2.692067 0.000000 0.955277 0.295714
1.621890 -0.913360 -2.680027 0.000000 0.955277 0.295714
1.621890 -0.888778 -2.685612 1.000000 -0.000000 0.000000
1.621890 -0.892505 -2.673571 1.000000 -0.000000 0.000000
1.621890 -0.901069 -2.682819 1.000000 -0.000000 0.000000
1.621890 -0.913360 -2.680027 1.000000 0.000000 0.000000
1.621890 -0.909633 -2.692067 1.000000 0.000000 0.000000
1.621890 -0.904796 -2.670779 1.000000 -0.000000 -0.000000
1.621890 -0.897341 -2.694860 1.000000 0.000000 0.000000
1.604627 -0.951055 -2.579185 0.000000 0.073239 0.997314
1.641399 -0.951055 -2.579185 0.000000 0.073239 0.997314
1.641399 -0.932718 -2.580531 0.000000 0.073239 0.997314
1.604627 -0.932718 -2.580531 0.000000 0.073239 0.997314
1.604627 -0.932718 -2.580531 0.000000 0.900319 0.435231
1.641399 -0.932718 -2.580531 0.000000 0.900319 0.435231
1.641399 -0.924716 -2.597085 0.000000 0.900319 0.435231
1.604627 -0.924716 -2.597085 0.000000 0.900319 0.435231
1.604627 -0.924716 -2.597085 0.000000 0.827080 -0.562084
1.641399 -0.924716 -2.597085 0.000000 0.827080 -0.562084
1.641399 -0.935051 -2.612291 0.000000 0.827080 -0.562084
1.604627 -0.935051 -2.612291 0.000000 0.827080 -0.562084
1.604627 -0.935051 -2.612291 0.000000 -0.073239 -0.997314
1.641399 -0.935051 -2.612291 0.000000 -0.073239 -0.997314
1.641399 -0.953387 -2.610945 0.000000 -0.073239 -0.997314
1.604627 -0.953387 -2.610945 0.000000 -0.073239 -0.997314
1.641399 -0.924716 -2.597085 1.000000 -0.000000 -0.000000
1.641399 -0.932718 -2.580531 1.000000 -0.000000 -0.000000
1.641399 -0.935968 -2.585313 1.000000 -0.000000 -0.000000
1.641399 -0.930483 -2.596661 1.000000 -0.000000 -0.000000
1.604627 -0.961390 -2.594391 0.000000 -0.827080 0.562084
1.641399 -0.961390 -2.594391 0.000000 -0.827080 0.562084
1.641399 -0.951055 -2.579185 0.000000 -0.827080 0.562084
1.604627 -0.951055 -2.579185 0.000000 -0.827080 0.562084
1.604627 -0.953387 -2.610945 0.000000 -0.900319 -0.435231
1.641399 -0.953387 -2.610945 0.000000 -0.900319 -0.435231
1.641399 -0.961390 -2.594391 0.000000 -0.900319 -0.435231
1.604627 -0.961390 -2.594391 0.000000 -0.900319 -0.435231
1.604627 -0.961390 -2.594391 -1.000000 -0.000000 0.000000
1.604627 -0.951055 -2.579185 -1.000000 -0.000000 0.000000
1.604627 -0.932718 -2.580531 -1.000000 -0.000000 0.000000
1.604627 -0.924716 -2.597085 -1.000000 0.000000 0.000000
1.604627 -0.935051 -2.612291 -1.000000 0.000000 0.000000
1.604627 -0.953387 -2.610945 -1.000000 0.000000 0.000000
1.641399 -0.935051 -2.612291 1.000000 -0.000000 0.000000
1.641399 -0.937567 -2.607086 1.000000 -0.000000 0.000000
1.641399 -0.951055 -2.579185 1.000000 0.000000 -0.000000
1.641399 -0.948539 -2.584390 1.000000 0.000000 -0.000000
1.641399 -0.953387 -2.610945 1.000000 0.000000 0.000000
1.641399 -0.950138 -2.606163 1.000000 0.000000 0.000000
1.641399 -0.961390 -2.594391 1.000000 0.000000 0.000000
1.641399 -0.955623 -2.594815 1.000000 0.000000 0.000000
1.641399 -0.930483 -2.596661 0.000001 -0.900318 -0.435232
1.641399 -0.935968 -2.585313 0.000001 -0.900318 -0.435232
1.621890 -0.935968 -2.585313 0.000001 -0.900318 -0.435232
1.621890 -0.930483 -2.596661 0.000001 -0.900318 -0.435232
1.641399 -0.955623 -2.594815 0.000000 0.900317 0.435234
1.641399 -0.950138 -2.606163 0.000000 0.900317 0.435234
1.621890 -0.950138 -2.606163 0.000000 0.900317 0.435234
1.621890 -0.955623 -2.594815 0.000000 0.900317 0.435234
1.641399 -0.935968 -2.585313 0.000000 -0.073242 -0.997314
1.641399 -0.948539 -2.584390 0.000000 -0.073242 -0.997314
1.621890 -0.948539 -2.584390 0.000000 -0.073242 -0.997314
1.621890 -0.935968 -2.585313 0.000000 -0.073242 -0.997314
1.641399 -0.950138 -2.606163 0.000000 0.073241 0.997314
1.641399 -0.937567 -2.607086 0.000000 0.073241 0.997314
1.621890 -0.937567 -2.607086 0.000000 0.073241 0.997314
1.621890 -0.950138 -2.606163 0.000000 0.073241 0.997314
1.641399 -0.937567 -2.607086 0.000000 -0.827079 0.562086
1.641399 -0.930483 -2.596661 0.000000 -0.827079 0.562086
1.621890 -0.930483 -2.596661 0.000000 -0.827079 0.562086
1.621890 -0.937567 -2.607086 0.000000 -0.827079 0.562086
1.641399 -0.948539 -2.584390 0.000000 0.827077 -0.562089
1.641399 -0.955623 -2.594815 0.000000 0.827077 -0.562089
1.621890 -0.955623 -2.594815 0.000000 0.827077 -0.562089
1.621890 -0.948539 -2.584390 0.000000 0.827077 -0.562089
1.621890 -0.937567 -2.607086 1.000000 0.000000 0.000000
1.621890 -0.930483 -2.596661 1.000000 0.000000 0.000000
1.621890 -0.943053 -2.595738 1.000000 0.000000 0.000000
1.621890 -0.948539 -2.584390 1.000000 0.000000 -0.000000
1.621890 -0.955623 -2.594815 1.000000 0.000000 -0.000000
1.621890 -0.935968 -2.585313 1.000000 -0.000000 0.000000
1.621890 -0.950138 -2.606163 1.000000 0.000000 0.000000
1.604627 -0.893246 -2.492017 0.000000 0.825111 0.564970
1.641399 -0.893246 -2.492017 0.000000 0.825111 0.564970
1.641399 -0.882858 -2.507187 0.000000 0.825111 0.564970
1.604627 -0.882858 -2.507187 0.000000 0.825111 0.564970
1.604627 -0.882858 -2.507187 0.000000 0.901833 -0.432085
1.641399 -0.882858 -2.507187 0.000000 0.901833 -0.432085
1.641399 -0.890803 -2.523769 0.000000 0.901833 -0.432085
1.604627 -0.890803 -2.523769 0.000000 0.901833 -0.432085
1.604627 -0.890803 -2.523769 0.000000 0.076715 -0.997053
1.641399 -0.890803 -2.523769 0.000000 0.076715 -0.997053
1.641399 -0.909135 -2.525179 0.000000 0.076715 -0.997053
1.604627 -0.909135 -2.525179 0.000000 0.076715 -0.997053
1.604627 -0.909135 -2.525179 0.000000 -0.825111 -0.564970
1.641399 -0.909135 -2.525179 0.000000 -0.825111 -0.564970
1.641399 -0.919522 -2.510009 0.000000 -0.825111 -0.564970
1.604627 -0.919522 -2.510009 0.000000 -0.825111 -0.564970
1.641399 -0.890803 -2.523769 1.000000 -0.000000 0.000000
1.641399 -0.882858 -2.507187 1.000000 -0.000000 0.000000
1.641399 -0.888623 -2.507631 1.000000 -0.000000 0.000000
1.641399 -0.894069 -2.518998 1.000000 -0.000000 0.000000
1.604627 -0.911578 -2.493427 0.000000 -0.076715 0.997053
1.641399 -0.911578 -2.493427 0.000000 -0.076715 0.997053
1.641399 -0.893246 -2.492017 0.000000 -0.076715 0.997053
1.604627 -0.893246 -2.492017 0.000000 -0.076715 0.997053
1.604627 -0.919522 -2.510009 0.000000 -0.901833 0.432085
1.641399 -0.919522 -2.510009 0.000000 -0.901833 0.432085
1.641399 -0.911578 -2.493427 0.000000 -0.901833 0.432085
1.604627 -0.911578 -2.493427 0.000000 -0.901833 0.432085
1.604627 -0.911578 -2.493427 -1.000000 -0.000000 0.000000
1.604627 -0.893246 -2.492017 -1.000000 -0.000000 0.000000
1.604627 -0.882858 -2.507187 -1.000000 -0.000000 0.000000
1.604627 -0.890803 -2.523769 -1.000000 0.000000 0.000000
1.604627 -0.909135 -2.525179 -1.000000 0.000000 0.000000
1.604627 -0.919522 -2.510009 -1.000000 0.000000 -0.000000
1.641399 -0.909135 -2.525179 1.000000 0.000000 0.000000
1.641399 -0.906636 -2.519965 1.000000 0.000000 0.000000
1.641399 -0.893246 -2.492017 1.000000 -0.000000 -0.000000
1.641399 -0.895744 -2.497231 1.000000 -0.000000 -0.000000
1.641399 -0.919522 -2.510009 1.000000 0.000000 0.000000
1.641399 -0.913757 -2.509565 1.000000 0.000000 0.000000
1.641399 -0.911578 -2.493427 1.000000 0.000000 -0.000000
1.641399 -0.908311 -2.498198 1.000000 0.000000 -0.000000
1.641399 -0.894069 -2.518998 0.000001 -0.901832 0.432087
1.641399 -0.888623 -2.507631 0.000001 -0.901832 0.432087
1.621890 -0.888623 -2.507631 0.000001 -0.901832 0.432087
1.621890 -0.894069 -2.518998 0.000001 -0.901832 0.432087
1.641399 -0.908311 -2.498198 0.000000 0.901831 -0.432089
1.641399 -0.913757 -2.509565 0.000000 0.901831 -0.432089
1.621890 -0.913757 -2.509565 0.000000 0.901831 -0.432089
1.621890 -0.908311 -2.498198 0.000000 0.901831 -0.432089
1.641399 -0.888623 -2.507631 0.000000 -0.825117 -0.564962
1.641399 -0.895744 -2.497231 0.000000 -0.825117 -0.564962
1.621890 -0.895744 -2.497231 0.000000 -0.825117 -0.564962
1.621890 -0.888623 -2.507631 0.000000 -0.825117 -0.564962
1.641399 -0.913757 -2.509565 0.000000 0.825115 0.564965
1.641399 -0.906636 -2.519965 0.000000 0.825115 0.564965
1.621890 -0.906636 -2.519965 0.000000 0.825115 0.564965
1.621890 -0.913757 -2.509565 0.000000 0.825115 0.564965
1.641399 -0.906636 -2.519965 0.000000 -0.076722 0.997052
1.641399 -0.894069 -2.518998 0.000000 -0.076722 0.997052
1.621890 -0.894069 -2.518998 0.000000 -0.076722 0.997052
1.621890 -0.906636 -2.519965 0.000000 -0.076722 0.997052
1.641399 -0.895744 -2.497231 0.000000 0.076722 -0.997053
1.641399 -0.908311 -2.498198 0.000000 0.076722 -0.997053
1.621890 -0.908311 -2.498198 0.000000 0.076722 -0.997053
1.621890 -0.895744 -2.497231 0.000000 0.076722 -0.997053
1.621890 -0.906636 -2.519965 1.000000 0.000000 0.000000
1.621890 -0.894069 -2.518998 1.000000 0.000000 0.000000
1.621890 -0.901190 -2.508598 1.000000 0.000000 0.000000
1.621890 -0.895744 -2.497231 1.000000 0.000000 -0.000000
1.621890 -0.908311 -2.498198 1.000000 0.000000 -0.000000
1.621890 -0.888623 -2.507631 1.000000 -0.000000 0.000000
1.621890 -0.913757 -2.509565 1.000000 0.000000 -0.000000
1.604627 -0.789056 -2.482814 0.000000 0.956306 -0.292368
1.641399 -0.789056 -2.482814 0.000000 0.956306 -0.292368
1.641399 -0.794432 -2.500397 0.000000 0.956306 -0.292368
1.604627 -0.794432 -2.500397 0.000000 0.956306 -0.292368
1.604627 -0.794432 -2.500397 0.000000 0.224944 -0.974372
1.641399 -0.794432 -2.500397 0.000000 0.224944 -0.974372
1.641399 -0.812347 -2.504533 0.000000 0.224944 -0.974372
1.604627 -0.812347 -2.504533 0.000000 0.224944 -0.974372
1.604627 -0.812347 -2.504533 0.000000 -0.731356 -0.681996
1.641399 -0.812347 -2.504533 0.000000 -0.731356 -0.681996
1.641399 -0.824886 -2.491086 0.000000 -0.731356 -0.681996
1.604627 -0.824886 -2.491086 0.000000 -0.731356 -0.681996
1.604627 -0.824886 -2.491086 0.000000 -0.956305 0.292372
1.641399 -0.824886 -2.491086 0.000000 -0.956305 0.292372
1.641399 -0.819510 -2.473503 0.000000 -0.956305 0.292372
1.604627 -0.819510 -2.473503 0.000000 -0.956305 0.292372
1.641399 -0.812347 -2.504533 1.000000 0.000000 0.000000
1.641399 -0.794432 -2.500397 1.000000 0.000000 0.000000
1.641399 -0.798375 -2.496168 1.000000 0.000000 0.000000
1.641399 -0.810656 -2.499003 1.000000 0.000000 0.000000
1.604627 -0.801596 -2.469367 0.000000 0.731356 0.681996
1.641399 -0.801596 -2.469367 0.000000 0.731356 0.681996
1.641399 -0.789056 -2.482814 0.000000 0.731356 0.681996
1.604627 -0.789056 -2.482814 0.000000 0.731356 0.681996
1.604627 -0.819510 -2.473503 0.000000 -0.224956 0.974369
1.641399 -0.819510 -2.473503 0.000000 -0.224956 0.974369
1.641399 -0.801596 -2.469367 0.000000 -0.224956 0.974369
1.604627 -0.801596 -2.469367 0.000000 -0.224956 0.974369
1.604627 -0.801596 -2.469367 -1.000000 0.000000 0.000000
1.604627 -0.789056 -2.482814 -1.000000 0.000000 0.000000
1.604627 -0.794432 -2.500397 -1.000000 0.000000 0.000000
1.604627 -0.812347 -2.504533 -1.000000 0.000000 0.000000
1.604627 -0.824886 -2.491086 -1.000000 0.000000 0.000000
1.604627 -0.819510 -2.473503 -1.000000 0.000000 0.000000
1.641399 -0.824886 -2.491086 1.000000 0.000000 0.000000
1.641399 -0.819252 -2.489785 1.000000 0.000000 0.000000
1.641399 -0.789056 -2.482814 1.000000 -0.000000 0.000000
1.641399 -0.794690 -2.484115 1.000000 -0.000000 0.000000
1.641399 -0.819510 -2.473503 1.000000 0.000000 0.000000
1.641399 -0.815567 -2.477732 1.000000 0.000000 0.000000
1.641399 -0.801596 -2.469367 1.000000 0.000000 -0.000000
1.641399 -0.803286 -2.474896 1.000000 0.000000 -0.000000
1.641399 -0.810656 -2.499003 0.000000 -0.224947 0.974371
1.641399 -0.798375 -2.496168 0.000000 -0.224947 0.974371
1.621890 -0.798375 -2.496168 0.000000 -0.224947 0.974371
1.621890 -0.810656 -2.499003 0.000000 -0.224947 0.974371
1.641399 -0.803286 -2.474896 0.000000 0.224947 -0.974371
1.641399 -0.815567 -2.477732 0.000000 0.224947 -0.974371
1.621890 -0.815567 -2.477732 0.000000 0.224947 -0.974371
1.621890 -0.803286 -2.474896 0.000000 0.224947 -0.974371
1.641399 -0.798375 -2.496168 0.000000 -0.956305 0.292371
1.641399 -0.794690 -2.484115 0.000000 -0.956305 0.292371
1.621890 -0.794690 -2.484115 0.000000 -0.956305 0.292371
1.621890 -0.798375 -2.496168 0.000000 -0.956305 0.292371
1.641399 -0.815567 -2.477732 0.000000 0.956304 -0.292376
1.641399 -0.819252 -2.489785 0.000000 0.956304 -0.292376
1.621890 -0.819252 -2.489785 0.000000 0.956304 -0.292376
1.621890 -0.815567 -2.477732 0.000000 0.956304 -0.292376
1.641399 -0.819252 -2.489785 0.000000 0.731354 0.681998
1.641399 -0.810656 -2.499003 0.000000 0.731354 0.681998
1.621890 -0.810656 -2.499003 0.000000 0.731354 0.681998
1.621890 -0.819252 -2.489785 0.000000 0.731354 0.681998
1.641399 -0.794690 -2.484115 0.000000 -0.731356 -0.681996
1.641399 -0.803286 -2.474896 0.000000 -0.731356 -0.681996
1.621890 -0.803286 -2.474896 0.000000 -0.731356 -0.681996
1.621890 -0.794690 -2.484115 0.000000 -0.731356 -0.681996
1.621890 -0.819252 -2.489785 1.000000 0.000000 0.000000
1.621890 -0.810656 -2.499003 1.000000 0.000000 0.000000
1.621890 -0.806971 -2.486950 1.000000 0.000000 0.000000
1.621890 -0.794690 -2.484115 1.000000 -0.000000 0.000000
1.621890 -0.803286 -2.474896 1.000000 -0.000000 0.000000
1.621890 -0.798375 -2.496168 1.000000 0.000000 0.000000
1.621890 -0.815567 -2.477732 1.000000 0.000000 -0.000000
1.604627 -0.716862 -2.558499 0.000000 0.368128 -0.929775
1.641399 -0.716862 -2.558499 0.000000 0.368128 -0.929775
1.641399 -0.733957 -2.565267 0.000000 0.368128 -0.929775
1.604627 -0.733957 -2.565267 0.000000 0.368128 -0.929775
1.604627 -0.733957 -2.565267 0.000000 -0.621148 -0.783693
1.641399 -0.733957 -2.565267 0.000000 -0.621148 -0.783693
1.641399 -0.748366 -2.553847 0.000000 -0.621148 -0.783693
1.604627 -0.748366 -2.553847 0.000000 -0.621148 -0.783693
1.604627 -0.748366 -2.553847 0.000000 -0.989272 0.146083
1.641399 -0.748366 -2.553847 0.000000 -0.989272 0.146083
1.641399 -0.745680 -2.535658 0.000000 -0.989272 0.146083
1.604627 -0.745680 -2.535658 0.000000 -0.989272 0.146083
1.604627 -0.745680 -2.535658 0.000000 -0.368128 0.929775
1.641399 -0.745680 -2.535658 0.000000 -0.368128 0.929775
1.641399 -0.728585 -2.528889 0.000000 -0.368128 0.929775
1.604627 -0.728585 -2.528889 0.000000 -0.368128 0.929775
1.641399 -0.748366 -2.553847 1.000000 0.000000 0.000000
1.641399 -0.733957 -2.565267 1.000000 0.000000 0.000000
1.641399 -0.733113 -2.559547 1.000000 0.000000 0.000000
1.641399 -0.742990 -2.551718 1.000000 0.000000 0.000000
1.604627 -0.714176 -2.540310 0.000000 0.989272 -0.146083
1.641399 -0.714176 -2.540310 0.000000 0.989272 -0.146083
1.641399 -0.716862 -2.558499 0.000000 0.989272 -0.146083
1.604627 -0.716862 -2.558499 0.000000 0.989272 -0.146083
1.604627 -0.728585 -2.528889 0.000000 0.621148 0.783693
1.641399 -0.728585 -2.528889 0.000000 0.621148 0.783693
1.641399 -0.714176 -2.540310 0.000000 0.621148 0.783693
1.604627 -0.714176 -2.540310 0.000000 0.621148 0.783693
1.604627 -0.714176 -2.540310 -1.000000 0.000000 0.000000
1.604627 -0.716862 -2.558499 -1.000000 0.000000 0.000000
1.604627 -0.733957 -2.565267 -1.000000 0.000000 0.000000
1.604627 -0.748366 -2.553847 -1.000000 0.000000 -0.000000
1.604627 -0.745680 -2.535658 -1.000000 0.000000 -0.000000
1.604627 -0.728585 -2.528889 -1.000000 -0.000000 0.000000
1.641399 -0.745680 -2.535658 1.000000 0.000000 0.000000
1.641399 -0.741149 -2.539249 1.000000 0.000000 0.000000
1.641399 -0.716862 -2.558499 1.000000 -0.000000 0.000000
1.641399 -0.721394 -2.554907 1.000000 -0.000000 0.000000
1.641399 -0.728585 -2.528889 1.000000 0.000000 -0.000000
1.641399 -0.729430 -2.534609 1.000000 0.000000 -0.000000
1.641399 -0.714176 -2.540310 1.000000 -0.000000 -0.000000
1.641399 -0.719552 -2.542438 1.000000 -0.000000 -0.000000
1.641399 -0.742990 -2.551718 0.000000 0.621152 0.783690
1.641399 -0.733113 -2.559547 0.000000 0.621152 0.783690
1.621890 -0.733113 -2.559547 0.000000 0.621152 0.783690
1.621890 -0.742990 -2.551718 0.000000 0.621152 0.783690
1.641399 -0.719552 -2.542438 0.000000 -0.621152 -0.783690
1.641399 -0.729430 -2.534609 0.000000 -0.621152 -0.783690
1.621890 -0.729430 -2.534609 0.000000 -0.621152 -0.783690
1.621890 -0.719552 -2.542438 0.000000 -0.621152 -0.783690
1.641399 -0.733113 -2.559547 0.000000 -0.368120 0.929778
1.641399 -0.721394 -2.554907 0.000000 -0.368120 0.929778
1.621890 -0.721394 -2.554907 0.000000 -0.368120 0.929778
1.621890 -0.733113 -2.559547 0.000000 -0.368120 0.929778
1.641399 -0.729430 -2.534609 0.000000 0.368119 -0.929779
1.641399 -0.741149 -2.539249 0.000000 0.368119 -0.929779
1.621890 -0.741149 -2.539249 0.000000 0.368119 -0.929779
1.621890 -0.729430 -2.534609 0.000000 0.368119 -0.929779
1.641399 -0.741149 -2.539249 0.000000 0.989273 -0.146081
1.641399 -0.742990 -2.551718 0.000000 0.989273 -0.146081
1.621890 -0.742990 -2.551718 0.000000 0.989273 -0.146081
1.621890 -0.741149 -2.539249 0.000000 0.989273 -0.146081
1.641399 -0.721394 -2.554907 0.000000 -0.989272 0.146086
1.641399 -0.719552 -2.542438 0.000000 -0.989272 0.146086
1.621890 -0.719552 -2.542438 0.000000 -0.989272 0.146086
1.621890 -0.721394 -2.554907 0.000000 -0.989272 0.146086
1.621890 -0.741149 -2.539249 1.000000 0.000000 -0.000000
1.621890 -0.742990 -2.551718 1.000000 0.000000 -0.000000
1.621890 -0.731271 -2.547078 1.000000 0.000000 -0.000000
1.621890 -0.721394 -2.554907 1.000000 -0.000000 0.000000
1.621890 -0.719552 -2.542438 1.000000 -0.000000 0.000000
1.621890 -0.733113 -2.559547 1.000000 0.000000 0.000000
1.621890 -0.729430 -2.534609 1.000000 -0.000000 0.000000
4 0 1 2 3
4 4 5 6 7
4 8 9 10 11
4 12 13 14 15
4 16 17 18 19
4 20 21 22 23
4 24 25 26 27
3 28 29 30
3 30 31 32
3 32 33 28
3 30 32 28
4 34 16 19 35
4 17 36 37 18
4 38 34 35 39
4 40 38 39 41
4 36 40 41 37
4 42 43 44 45
4 46 47 48 49
4 50 51 52 53
4 54 55 56 57
4 58 59 60 61
4 62 63 64 65
3 66 67 68
3 69 70 68
3 67 71 68
3 70 72 68
3 71 69 68
3 72 66 68
4 73 74 75 76
4 77 78 79 80
4 81 82 83 84
4 85 86 87 88
4 89 90 91 92
4 93 94 95 96
4 97 98 99 100
3 101 102 103
3 103 104 105
3 105 106 101
3 103 105 101
4 107 89 92 108
4 90 109 110 91
4 111 107 108 112
4 113 111 112 114
4 109 113 114 110
4 115 116 117 118
4 119 120 121 122
4 123 124 125 126
4 127 128 129 130
4 131 132 133 134
4 135 136 137 138
3 139 140 141
3 142 143 141
3 140 144 141
3 143 145 141
3 144 142 141
3 145 139 141
4 146 147 148 149
4 150 151 152 153
4 154 155 156 157
4 158 159 160 161
4 162 163 164 165
4 166 167 168 169
4 170 171 172 173
3 174 175 176
3 176 177 178
3 178 179 174
3 176 178 174
4 180 162 165 181
4 163 182 183 164
4 184 180 181 185
4 186 184 185 187
4 182 186 187 183
4 188 189 190 191
4 192 193 194 195
4 196 197 198 199
4 200 201 202 203
4 204 205 206 207
4 208 209 210 211
3 212 213 214
3 215 216 214
3 213 217 214
3 216 218 214
3 217 215 214
3 218 212 214
4 219 220 221 222
4 223 224 225 226
4 227 228 229 230
4 231 232 233 234
4 235 236 237 238
4 239 240 241 242
4 243 244 245 246
3 247 248 249
3 249 250 251
3 251 252 247
3 249 251 247
4 253 235 238 254
4 236 255 256 237
4 257 253 254 258
4 259 257 258 260
4 255 259 260 256
4 261 262 263 264
4 265 266 267 268
4 269 270 271 272
4 273 274 275 276
4 277 278 279 280
4 281 282 283 284
3 285 286 287
3 288 289 287
3 286 290 287
3 289 291 287
3 290 288 287
3 291 285 287
4 292 293 294 295
4 296 297 298 299
4 300 301 302 303
4 304 305 306 307
4 308 309 310 311
4 312 313 314 315
4 316 317 318 319
3 320 321 322
3 322 323 324
3 324 325 320
3 322 324 320
4 326 308 311 327
4 309 328 329 310
4 330 326 327 331
4 332 330 331 333
4 328 332 333 329
4 334 335 336 337
4 338 339 340 341
4 342 343 344 345
4 346 347 348 349
4 350 351 352 353
4 354 355 356 357
3 358 359 360
3 361 362 360
3 359 363 360
3 362 364 360
3 363 361 360
3 364 358 360
4 365 366 367 368
4 369 370 371 372
4 373 374 375 376
4 377 378 379 380
4 381 382 383 384
4 385 386 387 388
4 389 390 391 392
3 393 394 395
3 395 396 397
3 397 398 393
3 395 397 393
4 399 381 384 400
4 382 401 402 383
4 403 399 400 404
4 405 403 404 406
4 401 405 406 402
4 407 408 409 410
4 411 412 413 414
4 415 416 417 418
4 419 420 421 422
4 423 424 425 426
4 427 428 429 430
3 431 432 433
3 434 435 433
3 432 436 433
3 435 437 433
3 436 434 433
3 437 431 433
4 438 439 440 441
4 442 443 444 445
4 446 447 448 449
4 450 451 452 453
4 454 455 456 457
4 458 459 460 461
4 462 463 464 465
3 466 467 468
3 468 469 470
3 470 471 466
3 468 470 466
4 472 454 457 473
4 455 474 475 456
4 476 472 473 477
4 478 476 477 479
4 474 478 479 475
4 480 481 482 483
4 484 485 486 487
4 488 489 490 491
4 492 493 494 495
4 496 497 498 499
4 500 501 502 503
3 504 505 506
3 507 508 506
3 505 509 506
3 508 510 506
3 509 507 506
3 510 504 506
4 511 512 513 514
4 515 516 517 518
4 519 520 521 522
4 523 524 525 526
4 527 528 529 530
4 531 532 533 534
4 535 536 537 538
3 539 540 541
3 541 542 543
3 543 544 539
3 541 543 539
4 545 527 530 546
4 528 547 548 529
4 549 545 546 550
4 551 549 550 552
4 547 551 552 548
4 553 554 555 556
4 557 558 559 560
4 561 562 563 564
4 565 566 567 568
4 569 570 571 572
4 573 574 575 576
3 577 578 579
3 580 581 579
3 578 582 579
3 581 583 579
3 582 580 579
3 583 577 579
4 584 585 586 587
4 588 589 590 591
4 592 593 594 595
4 596 597 598 599
4 600 601 602 603
4 604 605 606 607
4 608 609 610 611
3 612 613 614
3 614 615 616
3 616 617 612
3 614 616 612
4 618 600 603 619
4 601 620 621 602
4 622 618 619 623
4 624 622 623 625
4 620 624 625 621
4 626 627 628 629
4 630 631 632 633
4 634 635 636 637
4 638 639 640 641
4 642 643 644 645
4 646 647 648 649
3 650 651 652
3 653 654 652
3 651 655 652
3 654 656 652
3 655 653 652
3 656 650 652
4 657 658 659 660
4 661 662 663 664
4 665 666 667 668
4 669 670 671 672
4 673 674 675 676
4 677 678 679 680
4 681 682 683 684
3 685 686 687
3 687 688 689
3 689 690 685
3 687 689 685
4 691 673 676 692
4 674 693 694 675
4 695 691 692 696
4 697 695 696 698
4 693 697 698 694
4 699 700 701 702
4 703 704 705 706
4 707 708 709 710
4 711 712 713 714
4 715 716 717 718
4 719 720 721 722
3 723 724 725
3 726 727 725
3 724 728 725
3 727 729 725
3 728 726 725
3 729 723 725
4 730 731 732 733
4 734 735 736 737
4 738 739 740 741
4 742 743 744 745
4 746 747 748 749
4 750 751 752 753
4 754 755 756 757
3 758 759 760
3 760 761 762
3 762 763 758
3 760 762 758
4 764 746 749 765
4 747 766 767 748
4 768 764 765 769
4 770 768 769 771
4 766 770 771 767
4 772 773 774 775
4 776 777 778 779
4 780 781 782 783
4 784 785 786 787
4 788 789 790 791
4 792 793 794 795
3 796 797 798
3 799 800 798
3 797 801 798
3 800 802 798
3 801 799 798
3 802 796 798
4 803 804 805 806
4 807 808 809 810
4 811 812 813 814
4 815 816 817 818
4 819 820 821 822
4 823 824 825 826
4 827 828 829 830
3 831 832 833
3 833 834 835
3 835 836 831
3 833 835 831
4 837 819 822 838
4 820 839 840 821
4 841 837 838 842
4 843 841 842 844
4 839 843 844 840
4 845 846 847 848
4 849 850 851 852
4 853 854 855 856
4 857 858 859 860
4 861 862 863 864
4 865 866 867 868
3 869 870 871
3 872 873 871
3 870 874 871
3 873 875 871
3 874 872 871
3 875 869 871
4 876 877 878 879
4 880 881 882 883
4 884 885 886 887
4 888 889 890 891
4 892 893 894 895
4 896 897 898 899
4 900 901 902 903
3 904 905 906
3 906 907 908
3 908 909 904
3 906 908 904
4 910 892 895 911
4 893 912 913 894
4 914 910 911 915
4 916 914 915 917
4 912 916 917 913
4 918 919 920 921
4 922 923 924 925
4 926 927 928 929
4 930 931 932 933
4 934 935 936 937
4 938 939 940 941
3 942 943 944
3 945 946 944
3 943 947 944
3 946 948 944
3 947 945 944
3 948 942 944
4 949 950 951 952
4 953 954 955 956
4 957 958 959 960
4 961 962 963 964
4 965 966 967 968
4 969 970 971 972
4 973 974 975 976
3 977 978 979
3 979 980 981
3 981 982 977
3 979 981 977
4 983 965 968 984
4 966 985 986 967
4 987 983 984 988
4 989 987 988 990
4 985 989 990 986
4 991 992 993 994
4 995 996 997 998
4 999 1000 1001 1002
4 1003 1004 1005 1006
4 1007 1008 1009 1010
4 1011 1012 1013 1014
3 1015 1016 1017
3 1018 1019 1017
3 1016 1020 1017
3 1019 1021 1017
3 1020 1018 1017
3 1021 1015 1017
