# Blender v2.79 (sub 0) OBJ File: 'm3_v2.blend'
# www.blender.org
o Rim_Nuts_FR_Cylinder.004
v -1.626921 -0.726892 2.974036
v -1.665934 -0.726892 2.974036
v -1.626921 -0.743785 2.983789
v -1.665934 -0.743785 2.983789
v -1.626921 -0.743785 3.003295
v -1.665934 -0.743785 3.003295
v -1.626921 -0.726892 3.013049
v -1.665934 -0.726892 3.013049
v -1.626921 -0.709999 3.003295
v -1.665934 -0.709999 3.003295
v -1.626921 -0.709999 2.983789
v -1.665934 -0.709999 2.983789
v -1.665934 -0.726892 2.980170
v -1.665934 -0.738473 2.986856
v -1.665934 -0.738473 3.000228
v -1.665934 -0.726892 3.006914
v -1.665934 -0.715312 3.000228
v -1.665934 -0.715312 2.986856
v -1.645236 -0.726892 2.980170
v -1.645236 -0.738473 2.986856
v -1.645236 -0.738473 3.000228
v -1.645236 -0.726892 3.006914
v -1.645236 -0.715312 3.000228
v -1.645236 -0.715312 2.986856
v -1.645236 -0.726892 2.993542
v -1.626921 -0.822360 2.917468
v -1.665934 -0.822360 2.917468
v -1.626921 -0.825277 2.936755
v -1.665934 -0.825277 2.936755
v -1.626921 -0.810032 2.948925
v -1.665934 -0.810032 2.948925
v -1.626921 -0.791871 2.941808
v -1.665934 -0.791871 2.941808
v -1.626921 -0.788954 2.922520
v -1.665934 -0.788954 2.922520
v -1.626921 -0.804199 2.910351
v -1.665934 -0.804199 2.910351
v -1.665934 -0.817566 2.921295
v -1.665934 -0.819566 2.934517
v -1.665934 -0.809115 2.942860
v -1.665934 -0.796665 2.937981
v -1.665934 -0.794665 2.924759
v -1.665934 -0.805116 2.916416
v -1.645236 -0.817566 2.921295
v -1.645236 -0.819566 2.934517
v -1.645236 -0.809115 2.942860
v -1.645236 -0.796665 2.937981
v -1.645236 -0.794665 2.924759
v -1.645236 -0.805116 2.916416
v -1.645236 -0.807116 2.929638
v -1.626921 -0.926129 2.956787
v -1.665934 -0.926129 2.956787
v -1.626921 -0.912876 2.971100
v -1.665934 -0.912876 2.971100
v -1.626921 -0.893854 2.966778
v -1.665934 -0.893854 2.966778
v -1.626921 -0.888086 2.948144
v -1.665934 -0.888086 2.948144
v -1.626921 -0.901339 2.933832
v -1.665934 -0.901339 2.933832
v -1.626921 -0.920361 2.938153
v -1.665934 -0.920361 2.938153
v -1.665934 -0.920148 2.955428
v -1.665934 -0.911062 2.965240
v -1.665934 -0.898022 2.962277
v -1.665934 -0.894068 2.949503
v -1.665934 -0.903153 2.939692
v -1.665934 -0.916193 2.942654
v -1.645236 -0.920148 2.955428
v -1.645236 -0.911062 2.965240
v -1.645236 -0.898022 2.962277
v -1.645236 -0.894068 2.949503
v -1.645236 -0.903153 2.939692
v -1.645236 -0.916193 2.942654
v -1.645236 -0.907108 2.952466
v -1.626921 -0.960140 3.062416
v -1.665934 -0.960140 3.062416
v -1.626921 -0.940686 3.060987
v -1.665934 -0.940686 3.060987
v -1.626921 -0.932196 3.043425
v -1.665934 -0.932196 3.043425
v -1.626921 -0.943160 3.027291
v -1.665934 -0.943160 3.027291
v -1.626921 -0.962615 3.028720
v -1.665934 -0.962615 3.028720
v -1.626921 -0.971104 3.046282
v -1.665934 -0.971104 3.046282
v -1.665934 -0.957470 3.056893
v -1.665934 -0.944134 3.055913
v -1.665934 -0.938314 3.043874
v -1.665934 -0.945830 3.032814
v -1.665934 -0.959167 3.033793
v -1.665934 -0.964987 3.045833
v -1.645236 -0.957470 3.056893
v -1.645236 -0.944134 3.055913
v -1.645236 -0.938314 3.043874
v -1.645236 -0.945830 3.032814
v -1.645236 -0.959167 3.033793
v -1.645236 -0.964987 3.045833
v -1.645236 -0.951650 3.044853
v -1.626921 -0.898808 3.154895
v -1.665934 -0.898808 3.154895
v -1.626921 -0.887788 3.138800
v -1.665934 -0.887788 3.138800
v -1.626921 -0.896216 3.121208
v -1.665934 -0.896216 3.121208
v -1.626921 -0.915665 3.119712
v -1.665934 -0.915665 3.119712
v -1.626921 -0.926686 3.135807
v -1.665934 -0.926686 3.135807
v -1.626921 -0.918257 3.153398
v -1.665934 -0.918257 3.153398
v -1.665934 -0.901459 3.149363
v -1.665934 -0.893904 3.138329
v -1.665934 -0.899682 3.126270
v -1.665934 -0.913015 3.125244
v -1.665934 -0.920569 3.136277
v -1.665934 -0.914791 3.148337
v -1.645236 -0.901459 3.149363
v -1.645236 -0.893904 3.138329
v -1.645236 -0.899682 3.126270
v -1.645236 -0.913015 3.125244
v -1.645236 -0.920569 3.136277
v -1.645236 -0.914791 3.148337
v -1.645236 -0.907237 3.137303
v -1.626921 -0.788270 3.164659
v -1.665934 -0.788270 3.164659
v -1.626921 -0.793973 3.146004
v -1.665934 -0.793973 3.146004
v -1.626921 -0.812980 3.141616
v -1.665934 -0.812980 3.141616
v -1.626921 -0.826283 3.155882
v -1.665934 -0.826283 3.155883
v -1.626921 -0.820580 3.174537
v -1.665934 -0.820580 3.174537
v -1.626921 -0.801573 3.178925
v -1.665934 -0.801573 3.178925
v -1.665934 -0.794247 3.163279
v -1.665934 -0.798156 3.150491
v -1.665934 -0.811186 3.147482
v -1.665934 -0.820306 3.157262
v -1.665934 -0.816396 3.170050
v -1.665934 -0.803367 3.173059
v -1.645236 -0.794247 3.163279
v -1.645236 -0.798156 3.150491
v -1.645236 -0.811186 3.147482
v -1.645236 -0.820306 3.157262
v -1.645236 -0.816396 3.170050
v -1.645236 -0.803367 3.173059
v -1.645236 -0.807276 3.160270
v -1.626921 -0.711677 3.084362
v -1.665934 -0.711677 3.084362
v -1.626921 -0.729813 3.077181
v -1.665934 -0.729813 3.077181
v -1.626921 -0.745101 3.089298
v -1.665934 -0.745101 3.089298
v -1.626921 -0.742251 3.108595
v -1.665934 -0.742251 3.108595
v -1.626921 -0.724114 3.115776
v -1.665934 -0.724114 3.115776
v -1.626921 -0.708827 3.103659
v -1.665934 -0.708827 3.103659
v -1.665934 -0.716484 3.088172
v -1.665934 -0.728917 3.083250
v -1.665934 -0.739397 3.091556
v -1.665934 -0.737444 3.104784
v -1.665934 -0.725010 3.109707
v -1.665934 -0.714531 3.101401
v -1.645236 -0.716484 3.088172
v -1.645236 -0.728917 3.083250
v -1.645236 -0.739397 3.091556
v -1.645236 -0.737444 3.104784
v -1.645236 -0.725010 3.109707
v -1.645236 -0.714531 3.101401
v -1.645236 -0.726964 3.096478
v -1.626921 -0.726892 2.974036
v -1.665934 -0.726892 2.974036
v -1.626921 -0.743785 2.983789
v -1.665934 -0.743785 2.983789
v -1.626921 -0.743785 3.003295
v -1.665934 -0.743785 3.003295
v -1.626921 -0.726892 3.013049
v -1.665934 -0.726892 3.013049
v -1.626921 -0.709999 3.003295
v -1.665934 -0.709999 3.003295
v -1.626921 -0.709999 2.983789
v -1.665934 -0.709999 2.983789
v -1.665934 -0.726892 2.980170
v -1.665934 -0.738473 2.986856
v -1.665934 -0.738473 3.000228
v -1.665934 -0.726892 3.006914
v -1.665934 -0.715312 3.000228
v -1.665934 -0.715312 2.986856
v -1.645236 -0.726892 2.980170
v -1.645236 -0.738473 2.986856
v -1.645236 -0.738473 3.000228
v -1.645236 -0.726892 3.006914
v -1.645236 -0.715312 3.000228
v -1.645236 -0.715312 2.986856
v -1.645236 -0.726892 2.993542
v -1.626921 -0.822360 2.917468
v -1.665934 -0.822360 2.917468
v -1.626921 -0.825277 2.936755
v -1.665934 -0.825277 2.936755
v -1.626921 -0.810032 2.948925
v -1.665934 -0.810032 2.948925
v -1.626921 -0.791871 2.941808
v -1.665934 -0.791871 2.941808
v -1.626921 -0.788954 2.922520
v -1.665934 -0.788954 2.922520
v -1.626921 -0.804199 2.910351
v -1.665934 -0.804199 2.910351
v -1.665934 -0.817566 2.921295
v -1.665934 -0.819566 2.934517
v -1.665934 -0.809115 2.942860
v -1.665934 -0.796665 2.937981
v -1.665934 -0.794665 2.924759
v -1.665934 -0.805116 2.916416
v -1.645236 -0.817566 2.921295
v -1.645236 -0.819566 2.934517
v -1.645236 -0.809115 2.942860
v -1.645236 -0.796665 2.937981
v -1.645236 -0.794665 2.924759
v -1.645236 -0.805116 2.916416
v -1.645236 -0.807116 2.929638
v -1.626921 -0.926129 2.956787
v -1.665934 -0.926129 2.956787
v -1.626921 -0.912876 2.971100
v -1.665934 -0.912876 2.971100
v -1.626921 -0.893854 2.966778
v -1.665934 -0.893854 2.966778
v -1.626921 -0.888086 2.948144
v -1.665934 -0.888086 2.948144
v -1.626921 -0.901339 2.933832
v -1.665934 -0.901339 2.933832
v -1.626921 -0.920361 2.938153
v -1.665934 -0.920361 2.938153
v -1.665934 -0.920148 2.955428
v -1.665934 -0.911062 2.965240
v -1.665934 -0.898022 2.962277
v -1.665934 -0.894068 2.949503
v -1.665934 -0.903153 2.939692
v -1.665934 -0.916193 2.942654
v -1.645236 -0.920148 2.955428
v -1.645236 -0.911062 2.965240
v -1.645236 -0.898022 2.962277
v -1.645236 -0.894068 2.949503
v -1.645236 -0.903153 2.939692
v -1.645236 -0.916193 2.942654
v -1.645236 -0.907108 2.952466
v -1.626921 -0.960140 3.062416
v -1.665934 -0.960140 3.062416
v -1.626921 -0.940686 3.060987
v -1.665934 -0.940686 3.060987
v -1.626921 -0.932196 3.043425
v -1.665934 -0.932196 3.043425
v -1.626921 -0.943160 3.027291
v -1.665934 -0.943160 3.027291
v -1.626921 -0.962615 3.028720
v -1.665934 -0.962615 3.028720
v -1.626921 -0.971104 3.046282
v -1.665934 -0.971104 3.046282
v -1.665934 -0.957470 3.056893
v -1.665934 -0.944134 3.055913
v -1.665934 -0.938314 3.043874
v -1.665934 -0.945830 3.032814
v -1.665934 -0.959167 3.033793
v -1.665934 -0.964987 3.045833
v -1.645236 -0.957470 3.056893
v -1.645236 -0.944134 3.055913
v -1.645236 -0.938314 3.043874
v -1.645236 -0.945830 3.032814
v -1.645236 -0.959167 3.033793
v -1.645236 -0.964987 3.045833
v -1.645236 -0.951650 3.044853
v -1.626921 -0.898808 3.154895
v -1.665934 -0.898808 3.154895
v -1.626921 -0.887788 3.138800
v -1.665934 -0.887788 3.138800
v -1.626921 -0.896216 3.121208
v -1.665934 -0.896216 3.121208
v -1.626921 -0.915665 3.119712
v -1.665934 -0.915665 3.119712
v -1.626921 -0.926686 3.135807
v -1.665934 -0.926686 3.135807
v -1.626921 -0.918257 3.153398
v -1.665934 -0.918257 3.153398
v -1.665934 -0.901459 3.149363
v -1.665934 -0.893904 3.138329
v -1.665934 -0.899682 3.126270
v -1.665934 -0.913015 3.125244
v -1.665934 -0.920569 3.136277
v -1.665934 -0.914791 3.148337
v -1.645236 -0.901459 3.149363
v -1.645236 -0.893904 3.138329
v -1.645236 -0.899682 3.126270
v -1.645236 -0.913015 3.125244
v -1.645236 -0.920569 3.136277
v -1.645236 -0.914791 3.148337
v -1.645236 -0.907237 3.137303
v -1.626921 -0.788270 3.164659
v -1.665934 -0.788270 3.164659
v -1.626921 -0.793973 3.146004
v -1.665934 -0.793973 3.146004
v -1.626921 -0.812980 3.141616
v -1.665934 -0.812980 3.141616
v -1.626921 -0.826283 3.155882
v -1.665934 -0.826283 3.155883
v -1.626921 -0.820580 3.174537
v -1.665934 -0.820580 3.174537
v -1.626921 -0.801573 3.178925
v -1.665934 -0.801573 3.178925
v -1.665934 -0.794247 3.163279
v -1.665934 -0.798156 3.150491
v -1.665934 -0.811186 3.147482
v -1.665934 -0.820306 3.157262
v -1.665934 -0.816396 3.170050
v -1.665934 -0.803367 3.173059
v -1.645236 -0.794247 3.163279
v -1.645236 -0.798156 3.150491
v -1.645236 -0.811186 3.147482
v -1.645236 -0.820306 3.157262
v -1.645236 -0.816396 3.170050
v -1.645236 -0.803367 3.173059
v -1.645236 -0.807276 3.160270
v -1.626921 -0.711677 3.084362
v -1.665934 -0.711677 3.084362
v -1.626921 -0.729813 3.077181
v -1.665934 -0.729813 3.077181
v -1.626921 -0.745101 3.089298
v -1.665934 -0.745101 3.089298
v -1.626921 -0.742251 3.108595
v -1.665934 -0.742251 3.108595
v -1.626921 -0.724114 3.115776
v -1.665934 -0.724114 3.115776
v -1.626921 -0.708827 3.103659
v -1.665934 -0.708827 3.103659
v -1.665934 -0.716484 3.088172
v -1.665934 -0.728917 3.083250
v -1.665934 -0.739397 3.091556
v -1.665934 -0.737444 3.104784
v -1.665934 -0.725010 3.109707
v -1.665934 -0.714531 3.101401
v -1.645236 -0.716484 3.088172
v -1.645236 -0.728917 3.083250
v -1.645236 -0.739397 3.091556
v -1.645236 -0.737444 3.104784
v -1.645236 -0.725010 3.109707
v -1.645236 -0.714531 3.101401
v -1.645236 -0.726964 3.096478
vn 0.0000 -0.5000 -0.8660
vn 0.0000 -1.0000 0.0000
vn 0.0000 -0.5000 0.8660
vn 0.0000 0.5000 0.8660
vn -1.0000 0.0000 0.0000
vn 0.0000 0.5000 -0.8660
vn 0.0000 1.0000 0.0000
vn 1.0000 0.0000 0.0000
vn 0.0000 -0.9888 -0.1495
vn 0.0000 -0.6239 0.7815
vn 0.0000 0.3649 0.9311
vn 0.0000 0.9888 0.1495
vn 0.0000 -0.3649 -0.9311
vn 0.0000 0.6239 -0.7815
vn 0.0000 -0.7337 0.6794
vn 0.0000 0.2215 0.9752
vn 0.0000 0.9553 0.2957
vn 0.0000 0.7337 -0.6794
vn 0.0000 -0.9553 -0.2957
vn 0.0000 -0.2215 -0.9752
vn -1.0000 -0.0001 0.0000
vn 0.0000 -0.2215 -0.9751
vn 0.0000 0.2215 0.9751
vn 0.0000 0.0732 0.9973
vn 0.0000 0.9003 0.4352
vn 0.0000 0.8271 -0.5621
vn 0.0000 -0.0732 -0.9973
vn 0.0000 -0.8271 0.5621
vn 0.0000 -0.9003 -0.4352
vn 0.0000 0.8251 0.5650
vn 0.0000 0.9018 -0.4321
vn 0.0000 0.0767 -0.9971
vn 0.0000 -0.8251 -0.5650
vn 0.0000 -0.0767 0.9971
vn 0.0000 -0.9018 0.4321
vn 0.0000 0.9563 -0.2924
vn 0.0000 0.2249 -0.9744
vn 0.0000 -0.7314 -0.6820
vn 0.0000 -0.9563 0.2924
vn 0.0000 0.7314 0.6820
vn 0.0000 -0.2249 0.9744
vn 0.0000 -0.2250 0.9744
vn 0.0000 0.2250 -0.9744
vn 0.0000 -0.7313 -0.6820
vn 0.0000 0.3681 -0.9298
vn 0.0000 -0.6211 -0.7837
vn 0.0000 -0.9893 0.1461
vn 0.0000 -0.3681 0.9298
vn 0.0000 0.9893 -0.1461
vn 0.0000 0.6212 0.7837
vn 0.0000 0.6211 0.7837
vn -1.0000 0.0001 0.0000
vn 0.0000 0.7313 0.6820
vn 0.0000 -0.6212 -0.7837
s off
f 2//1 1//1 3//1
f 4//2 3//2 5//2
f 5//3 7//3 8//3
f 8//4 7//4 9//4
f 4//5 6//5 15//5
f 12//6 11//6 1//6
f 10//7 9//7 11//7
f 3//8 11//8 7//8
f 6//5 8//5 16//5
f 2//5 4//5 14//5
f 10//5 17//5 16//5
f 10//5 12//5 18//5
f 12//5 2//5 13//5
f 14//7 15//7 21//7
f 17//2 18//2 24//2
f 13//4 14//4 20//4
f 17//1 23//1 22//1
f 16//6 22//6 21//6
f 18//3 13//3 19//3
f 22//5 25//5 21//5
f 19//5 25//5 24//5
f 21//5 25//5 20//5
f 24//5 25//5 23//5
f 20//5 25//5 19//5
f 23//5 25//5 22//5
f 27//9 26//9 28//9
f 29//10 28//10 30//10
f 30//11 32//11 33//11
f 33//12 32//12 34//12
f 31//5 40//5 39//5
f 37//13 36//13 26//13
f 35//14 34//14 36//14
f 28//8 36//8 32//8
f 31//5 33//5 41//5
f 27//5 29//5 39//5
f 35//5 42//5 41//5
f 37//5 43//5 42//5
f 27//5 38//5 43//5
f 39//14 40//14 46//14
f 42//10 43//10 49//10
f 38//12 39//12 45//12
f 42//9 48//9 47//9
f 41//13 47//13 46//13
f 43//11 38//11 44//11
f 47//5 50//5 46//5
f 44//5 50//5 49//5
f 46//5 50//5 45//5
f 49//5 50//5 48//5
f 45//5 50//5 44//5
f 48//5 50//5 47//5
f 52//15 51//15 53//15
f 54//16 53//16 55//16
f 55//17 57//17 58//17
f 57//18 59//18 60//18
f 54//5 56//5 65//5
f 62//19 61//19 51//19
f 60//20 59//20 61//20
f 57//8 61//8 59//8
f 56//5 58//5 66//5
f 54//5 64//5 63//5
f 60//5 67//5 66//5
f 62//5 68//5 67//5
f 52//21 63//21 68//21
f 64//22 65//22 71//22
f 67//23 68//23 74//23
f 63//18 64//18 70//18
f 67//15 73//15 72//15
f 66//19 72//19 71//19
f 68//17 63//17 69//17
f 72//5 75//5 71//5
f 69//5 75//5 74//5
f 71//5 75//5 70//5
f 74//5 75//5 73//5
f 70//5 75//5 69//5
f 73//5 75//5 72//5
f 77//24 76//24 78//24
f 78//25 80//25 81//25
f 80//26 82//26 83//26
f 82//27 84//27 85//27
f 79//5 81//5 90//5
f 87//28 86//28 76//28
f 85//29 84//29 86//29
f 82//8 86//8 84//8
f 81//5 83//5 91//5
f 77//5 79//5 89//5
f 85//5 92//5 91//5
f 85//5 87//5 93//5
f 87//5 77//5 88//5
f 90//29 96//29 95//29
f 92//25 93//25 99//25
f 88//27 89//27 95//27
f 91//24 92//24 98//24
f 91//28 97//28 96//28
f 93//26 88//26 94//26
f 97//5 100//5 96//5
f 94//5 100//5 99//5
f 96//5 100//5 95//5
f 99//5 100//5 98//5
f 95//5 100//5 94//5
f 98//5 100//5 97//5
f 101//30 103//30 104//30
f 104//31 103//31 105//31
f 105//32 107//32 108//32
f 108//33 107//33 109//33
f 104//5 106//5 115//5
f 112//34 111//34 101//34
f 110//35 109//35 111//35
f 107//8 111//8 109//8
f 106//5 108//5 116//5
f 102//5 104//5 114//5
f 108//5 110//5 117//5
f 110//5 112//5 118//5
f 112//5 102//5 113//5
f 114//35 115//35 121//35
f 117//31 118//31 124//31
f 113//33 114//33 120//33
f 117//30 123//30 122//30
f 116//34 122//34 121//34
f 118//32 113//32 119//32
f 122//5 125//5 121//5
f 119//5 125//5 124//5
f 121//5 125//5 120//5
f 124//5 125//5 123//5
f 120//5 125//5 119//5
f 123//5 125//5 122//5
f 126//36 128//36 129//36
f 129//37 128//37 130//37
f 131//38 130//38 132//38
f 133//39 132//39 134//39
f 129//5 131//5 140//5
f 137//40 136//40 126//40
f 135//41 134//41 136//41
f 134//8 128//8 136//8
f 133//5 141//5 140//5
f 127//5 129//5 139//5
f 135//5 142//5 141//5
f 137//5 143//5 142//5
f 137//5 127//5 138//5
f 139//42 140//42 146//42
f 142//43 143//43 149//43
f 139//39 145//39 144//39
f 141//36 142//36 148//36
f 140//40 141//40 147//40
f 138//44 144//44 149//44
f 147//5 150//5 146//5
f 144//5 150//5 149//5
f 146//5 150//5 145//5
f 149//5 150//5 148//5
f 145//5 150//5 144//5
f 148//5 150//5 147//5
f 152//45 151//45 153//45
f 154//46 153//46 155//46
f 156//47 155//47 157//47
f 157//48 159//48 160//48
f 156//5 165//5 164//5
f 161//49 151//49 152//49
f 159//50 161//50 162//50
f 159//8 153//8 161//8
f 156//5 158//5 166//5
f 154//5 164//5 163//5
f 158//5 160//5 167//5
f 162//5 168//5 167//5
f 152//5 163//5 168//5
f 165//51 171//51 170//51
f 168//46 174//46 173//46
f 163//48 164//48 170//48
f 167//45 173//45 172//45
f 165//49 166//49 172//49
f 168//47 163//47 169//47
f 172//5 175//5 171//5
f 169//5 175//5 174//5
f 171//5 175//5 170//5
f 174//5 175//5 173//5
f 170//5 175//5 169//5
f 173//5 175//5 172//5
f 177//1 176//1 178//1
f 179//2 178//2 180//2
f 180//3 182//3 183//3
f 183//4 182//4 184//4
f 179//5 181//5 190//5
f 187//6 186//6 176//6
f 185//7 184//7 186//7
f 178//8 186//8 182//8
f 181//5 183//5 191//5
f 177//5 179//5 189//5
f 185//5 192//5 191//5
f 185//5 187//5 193//5
f 187//5 177//5 188//5
f 189//7 190//7 196//7
f 192//2 193//2 199//2
f 188//4 189//4 195//4
f 192//1 198//1 197//1
f 191//6 197//6 196//6
f 193//3 188//3 194//3
f 197//5 200//5 196//5
f 194//5 200//5 199//5
f 196//5 200//5 195//5
f 199//5 200//5 198//5
f 195//5 200//5 194//5
f 198//5 200//5 197//5
f 202//9 201//9 203//9
f 204//10 203//10 205//10
f 205//11 207//11 208//11
f 208//12 207//12 209//12
f 206//5 215//5 214//5
f 212//13 211//13 201//13
f 210//14 209//14 211//14
f 203//8 211//8 207//8
f 206//5 208//5 216//5
f 202//5 204//5 214//5
f 210//5 217//5 216//5
f 212//5 218//5 217//5
f 202//5 213//5 218//5
f 214//14 215//14 221//14
f 217//10 218//10 224//10
f 213//12 214//12 220//12
f 217//9 223//9 222//9
f 216//13 222//13 221//13
f 218//11 213//11 219//11
f 222//5 225//5 221//5
f 219//5 225//5 224//5
f 221//5 225//5 220//5
f 224//5 225//5 223//5
f 220//5 225//5 219//5
f 223//5 225//5 222//5
f 227//15 226//15 228//15
f 229//16 228//16 230//16
f 230//17 232//17 233//17
f 232//18 234//18 235//18
f 229//5 231//5 240//5
f 237//19 236//19 226//19
f 235//20 234//20 236//20
f 232//8 236//8 234//8
f 231//5 233//5 241//5
f 229//5 239//5 238//5
f 235//5 242//5 241//5
f 237//5 243//5 242//5
f 227//21 238//21 243//21
f 239//22 240//22 246//22
f 242//23 243//23 249//23
f 238//18 239//18 245//18
f 242//15 248//15 247//15
f 241//19 247//19 246//19
f 243//17 238//17 244//17
f 247//5 250//5 246//5
f 244//5 250//5 249//5
f 246//5 250//5 245//5
f 249//5 250//5 248//5
f 245//5 250//5 244//5
f 248//5 250//5 247//5
f 252//24 251//24 253//24
f 253//25 255//25 256//25
f 255//26 257//26 258//26
f 257//27 259//27 260//27
f 254//5 256//5 265//5
f 262//28 261//28 251//28
f 260//29 259//29 261//29
f 257//8 261//8 259//8
f 256//5 258//5 266//5
f 252//5 254//5 264//5
f 260//5 267//5 266//5
f 260//5 262//5 268//5
f 262//5 252//5 263//5
f 265//29 271//29 270//29
f 267//25 268//25 274//25
f 263//27 264//27 270//27
f 266//24 267//24 273//24
f 266//28 272//28 271//28
f 268//26 263//26 269//26
f 272//5 275//5 271//5
f 269//5 275//5 274//5
f 271//5 275//5 270//5
f 274//5 275//5 273//5
f 270//5 275//5 269//5
f 273//5 275//5 272//5
f 276//30 278//30 279//30
f 279//31 278//31 280//31
f 280//32 282//32 283//32
f 283//33 282//33 284//33
f 279//5 281//5 290//5
f 287//34 286//34 276//34
f 285//35 284//35 286//35
f 282//8 286//8 284//8
f 281//5 283//5 291//5
f 277//5 279//5 289//5
f 283//5 285//5 292//5
f 285//5 287//5 293//5
f 287//5 277//5 288//5
f 289//35 290//35 296//35
f 292//31 293//31 299//31
f 288//33 289//33 295//33
f 292//30 298//30 297//30
f 291//34 297//34 296//34
f 293//32 288//32 294//32
f 297//5 300//5 296//5
f 294//5 300//5 299//5
f 296//5 300//5 295//5
f 299//5 300//5 298//5
f 295//5 300//5 294//5
f 298//5 300//5 297//5
f 301//36 303//36 304//36
f 304//37 303//37 305//37
f 306//38 305//38 307//38
f 308//39 307//39 309//39
f 304//5 306//5 315//5
f 312//40 311//40 301//40
f 310//41 309//41 311//41
f 309//8 303//8 311//8
f 308//5 316//5 315//5
f 302//5 304//5 314//5
f 310//5 317//5 316//5
f 312//5 318//5 317//5
f 312//5 302//5 313//5
f 314//42 315//42 321//42
f 317//43 318//43 324//43
f 314//39 320//39 319//39
f 316//36 317//36 323//36
f 315//40 316//40 322//40
f 313//44 319//44 324//44
f 322//5 325//5 321//5
f 319//5 325//5 324//5
f 321//5 325//5 320//5
f 324//5 325//5 323//5
f 320//5 325//5 319//5
f 323//5 325//5 322//5
f 327//45 326//45 328//45
f 329//46 328//46 330//46
f 331//47 330//47 332//47
f 332//48 334//48 335//48
f 331//5 340//5 339//5
f 336//49 326//49 327//49
f 334//50 336//50 337//50
f 334//8 328//8 336//8
f 331//5 333//5 341//5
f 329//5 339//5 338//5
f 333//5 335//5 342//5
f 337//5 343//5 342//5
f 327//5 338//5 343//5
f 340//51 346//51 345//51
f 343//46 349//46 348//46
f 338//48 339//48 345//48
f 342//45 348//45 347//45
f 340//49 341//49 347//49
f 343//47 338//47 344//47
f 347//5 350//5 346//5
f 344//5 350//5 349//5
f 346//5 350//5 345//5
f 349//5 350//5 348//5
f 345//5 350//5 344//5
f 348//5 350//5 347//5
f 2//1 3//1 4//1
f 4//2 5//2 6//2
f 5//3 8//3 6//3
f 8//4 9//4 10//4
f 4//21 15//21 14//21
f 12//6 1//6 2//6
f 10//7 11//7 12//7
f 11//8 3//8 1//8
f 3//8 7//8 5//8
f 7//8 11//8 9//8
f 6//5 16//5 15//5
f 2//5 14//5 13//5
f 10//5 16//5 8//5
f 10//52 18//52 17//52
f 12//5 13//5 18//5
f 14//7 21//7 20//7
f 17//2 24//2 23//2
f 13//4 20//4 19//4
f 17//1 22//1 16//1
f 16//6 21//6 15//6
f 18//3 19//3 24//3
f 27//9 28//9 29//9
f 29//10 30//10 31//10
f 30//11 33//11 31//11
f 33//12 34//12 35//12
f 31//5 39//5 29//5
f 37//13 26//13 27//13
f 35//14 36//14 37//14
f 36//8 28//8 26//8
f 28//8 32//8 30//8
f 32//8 36//8 34//8
f 31//5 41//5 40//5
f 27//52 39//52 38//52
f 35//5 41//5 33//5
f 37//5 42//5 35//5
f 27//5 43//5 37//5
f 39//14 46//14 45//14
f 42//10 49//10 48//10
f 38//12 45//12 44//12
f 42//9 47//9 41//9
f 41//13 46//13 40//13
f 43//11 44//11 49//11
f 52//15 53//15 54//15
f 54//23 55//23 56//23
f 55//17 58//17 56//17
f 57//18 60//18 58//18
f 54//5 65//5 64//5
f 62//19 51//19 52//19
f 60//22 61//22 62//22
f 61//8 53//8 51//8
f 53//8 61//8 55//8
f 55//8 61//8 57//8
f 56//52 66//52 65//52
f 54//5 63//5 52//5
f 60//5 66//5 58//5
f 62//5 67//5 60//5
f 52//5 68//5 62//5
f 64//20 71//20 70//20
f 67//23 74//23 73//23
f 63//18 70//18 69//18
f 67//15 72//15 66//15
f 66//19 71//19 65//19
f 68//17 69//17 74//17
f 77//24 78//24 79//24
f 78//25 81//25 79//25
f 80//26 83//26 81//26
f 82//27 85//27 83//27
f 79//5 90//5 89//5
f 87//28 76//28 77//28
f 85//29 86//29 87//29
f 86//8 78//8 76//8
f 78//8 86//8 80//8
f 80//8 86//8 82//8
f 81//5 91//5 90//5
f 77//5 89//5 88//5
f 85//5 91//5 83//5
f 85//5 93//5 92//5
f 87//5 88//5 93//5
f 90//29 95//29 89//29
f 92//25 99//25 98//25
f 88//27 95//27 94//27
f 91//24 98//24 97//24
f 91//28 96//28 90//28
f 93//26 94//26 99//26
f 101//30 104//30 102//30
f 104//31 105//31 106//31
f 105//32 108//32 106//32
f 108//33 109//33 110//33
f 104//5 115//5 114//5
f 112//34 101//34 102//34
f 110//35 111//35 112//35
f 111//8 103//8 101//8
f 103//8 111//8 105//8
f 105//8 111//8 107//8
f 106//5 116//5 115//5
f 102//5 114//5 113//5
f 108//5 117//5 116//5
f 110//5 118//5 117//5
f 112//5 113//5 118//5
f 114//35 121//35 120//35
f 117//31 124//31 123//31
f 113//33 120//33 119//33
f 117//30 122//30 116//30
f 116//34 121//34 115//34
f 118//32 119//32 124//32
f 126//36 129//36 127//36
f 129//37 130//37 131//37
f 131//38 132//38 133//38
f 133//39 134//39 135//39
f 129//5 140//5 139//5
f 137//53 126//53 127//53
f 135//41 136//41 137//41
f 136//8 128//8 126//8
f 128//8 132//8 130//8
f 132//8 128//8 134//8
f 133//5 140//5 131//5
f 127//5 139//5 138//5
f 135//5 141//5 133//5
f 137//5 142//5 135//5
f 137//5 138//5 143//5
f 139//42 146//42 145//42
f 142//43 149//43 148//43
f 139//39 144//39 138//39
f 141//36 148//36 147//36
f 140//40 147//40 146//40
f 138//38 149//38 143//38
f 152//45 153//45 154//45
f 154//54 155//54 156//54
f 156//47 157//47 158//47
f 157//48 160//48 158//48
f 156//5 164//5 154//5
f 161//49 152//49 162//49
f 159//51 162//51 160//51
f 161//8 153//8 151//8
f 153//8 157//8 155//8
f 157//8 153//8 159//8
f 156//5 166//5 165//5
f 154//5 163//5 152//5
f 158//5 167//5 166//5
f 162//5 167//5 160//5
f 152//5 168//5 162//5
f 165//51 170//51 164//51
f 168//46 173//46 167//46
f 163//48 170//48 169//48
f 167//45 172//45 166//45
f 165//49 172//49 171//49
f 168//47 169//47 174//47
f 177//1 178//1 179//1
f 179//2 180//2 181//2
f 180//3 183//3 181//3
f 183//4 184//4 185//4
f 179//21 190//21 189//21
f 187//6 176//6 177//6
f 185//7 186//7 187//7
f 186//8 178//8 176//8
f 178//8 182//8 180//8
f 182//8 186//8 184//8
f 181//5 191//5 190//5
f 177//5 189//5 188//5
f 185//5 191//5 183//5
f 185//52 193//52 192//52
f 187//5 188//5 193//5
f 189//7 196//7 195//7
f 192//2 199//2 198//2
f 188//4 195//4 194//4
f 192//1 197//1 191//1
f 191//6 196//6 190//6
f 193//3 194//3 199//3
f 202//9 203//9 204//9
f 204//10 205//10 206//10
f 205//11 208//11 206//11
f 208//12 209//12 210//12
f 206//5 214//5 204//5
f 212//13 201//13 202//13
f 210//14 211//14 212//14
f 211//8 203//8 201//8
f 203//8 207//8 205//8
f 207//8 211//8 209//8
f 206//5 216//5 215//5
f 202//52 214//52 213//52
f 210//5 216//5 208//5
f 212//5 217//5 210//5
f 202//5 218//5 212//5
f 214//14 221//14 220//14
f 217//10 224//10 223//10
f 213//12 220//12 219//12
f 217//9 222//9 216//9
f 216//13 221//13 215//13
f 218//11 219//11 224//11
f 227//15 228//15 229//15
f 229//23 230//23 231//23
f 230//17 233//17 231//17
f 232//18 235//18 233//18
f 229//5 240//5 239//5
f 237//19 226//19 227//19
f 235//22 236//22 237//22
f 236//8 228//8 226//8
f 228//8 236//8 230//8
f 230//8 236//8 232//8
f 231//52 241//52 240//52
f 229//5 238//5 227//5
f 235//5 241//5 233//5
f 237//5 242//5 235//5
f 227//5 243//5 237//5
f 239//20 246//20 245//20
f 242//23 249//23 248//23
f 238//18 245//18 244//18
f 242//15 247//15 241//15
f 241//19 246//19 240//19
f 243//17 244//17 249//17
f 252//24 253//24 254//24
f 253//25 256//25 254//25
f 255//26 258//26 256//26
f 257//27 260//27 258//27
f 254//5 265//5 264//5
f 262//28 251//28 252//28
f 260//29 261//29 262//29
f 261//8 253//8 251//8
f 253//8 261//8 255//8
f 255//8 261//8 257//8
f 256//5 266//5 265//5
f 252//5 264//5 263//5
f 260//5 266//5 258//5
f 260//5 268//5 267//5
f 262//5 263//5 268//5
f 265//29 270//29 264//29
f 267//25 274//25 273//25
f 263//27 270//27 269//27
f 266//24 273//24 272//24
f 266//28 271//28 265//28
f 268//26 269//26 274//26
f 276//30 279//30 277//30
f 279//31 280//31 281//31
f 280//32 283//32 281//32
f 283//33 284//33 285//33
f 279//5 290//5 289//5
f 287//34 276//34 277//34
f 285//35 286//35 287//35
f 286//8 278//8 276//8
f 278//8 286//8 280//8
f 280//8 286//8 282//8
f 281//5 291//5 290//5
f 277//5 289//5 288//5
f 283//5 292//5 291//5
f 285//5 293//5 292//5
f 287//5 288//5 293//5
f 289//35 296//35 295//35
f 292//31 299//31 298//31
f 288//33 295//33 294//33
f 292//30 297//30 291//30
f 291//34 296//34 290//34
f 293//32 294//32 299//32
f 301//36 304//36 302//36
f 304//37 305//37 306//37
f 306//38 307//38 308//38
f 308//39 309//39 310//39
f 304//5 315//5 314//5
f 312//53 301//53 302//53
f 310//41 311//41 312//41
f 311//8 303//8 301//8
f 303//8 307//8 305//8
f 307//8 303//8 309//8
f 308//5 315//5 306//5
f 302//5 314//5 313//5
f 310//5 316//5 308//5
f 312//5 317//5 310//5
f 312//5 313//5 318//5
f 314//42 321//42 320//42
f 317//43 324//43 323//43
f 314//39 319//39 313//39
f 316//36 323//36 322//36
f 315//40 322//40 321//40
f 313//38 324//38 318//38
f 327//45 328//45 329//45
f 329//54 330//54 331//54
f 331//47 332//47 333//47
f 332//48 335//48 333//48
f 331//5 339//5 329//5
f 336//49 327//49 337//49
f 334//51 337//51 335//51
f 336//8 328//8 326//8
f 328//8 332//8 330//8
f 332//8 328//8 334//8
f 331//5 341//5 340//5
f 329//5 338//5 327//5
f 333//5 342//5 341//5
f 337//5 342//5 335//5
f 327//5 343//5 337//5
f 340//51 345//51 339//51
f 343//46 348//46 342//46
f 338//48 345//48 344//48
f 342//45 347//45 341//45
f 340//49 347//49 346//49
f 343//47 344//47 349//47
