# Blender v2.82 (sub 7) OBJ File: 'Dragon.blend'
# www.blender.org
o SwordDecoration3_Esfera.001
v -2.110673 3.675746 6.017307
v -2.112353 3.673773 6.019554
v -2.113053 3.669714 6.021610
v -2.113431 3.663558 6.024093
v -2.094846 3.681355 6.013412
v -2.092510 3.681052 6.010909
v -2.089890 3.678436 6.008100
v -2.087164 3.673685 6.005177
v -2.115630 3.670882 6.010828
v -2.117142 3.669074 6.013297
v -2.117346 3.665502 6.015999
v -2.116936 3.660119 6.019512
v -2.088006 3.679679 6.019153
v -2.085904 3.679433 6.016454
v -2.083967 3.676984 6.013072
v -2.082328 3.672499 6.009237
v -2.118858 3.663306 6.004930
v -2.120260 3.661756 6.007599
v -2.120142 3.658940 6.010891
v -2.119219 3.654762 6.015341
v -2.081199 3.674815 6.023649
v -2.079329 3.674735 6.020796
v -2.078072 3.672772 6.016965
v -2.077515 3.669060 6.012415
v -2.075090 3.667239 6.026459
v -2.120041 3.653759 6.000188
v -2.121402 3.652535 6.003019
v -2.121166 3.650673 6.006785
v -2.120055 3.648011 6.011988
v -2.073428 3.667417 6.023511
v -2.072782 3.666211 6.019399
v -2.073195 3.663703 6.014403
v -2.070278 3.657692 6.027309
v -2.119061 3.643177 5.997068
v -2.120456 3.642313 6.000005
v -2.120317 3.641508 6.004083
v -2.119363 3.640528 6.009782
v -2.068780 3.658195 6.024332
v -2.068614 3.657943 6.020135
v -2.069792 3.656953 6.015004
v -2.067233 3.647110 6.026115
v -2.065839 3.647974 6.023179
v -2.065977 3.648779 6.019101
v -2.067639 3.649470 6.014160
v -2.076859 3.643177 6.036434
v -2.079691 3.642313 6.038030
v -2.083769 3.641508 6.038175
v -2.089521 3.640528 6.037618
v -2.109436 3.647110 5.986749
v -2.106604 3.647974 5.985154
v -2.079903 3.653759 6.037628
v -2.082632 3.652535 6.039183
v -2.086406 3.650673 6.039208
v -2.091674 3.648011 6.038462
v -2.102526 3.648779 5.985009
v -2.097481 3.649470 5.986324
v -2.110415 3.657692 5.989870
v -2.107549 3.658195 5.988168
v -2.084716 3.663306 6.036778
v -2.087281 3.661756 6.038362
v -2.090573 3.658941 6.038472
v -2.095076 3.654762 6.037861
v -2.103374 3.657943 5.987711
v -2.098174 3.656953 5.988530
v -2.109233 3.667239 5.994611
v -2.106407 3.667417 5.992748
v -2.090824 3.670882 6.033967
v -2.093181 3.669074 6.035647
v -2.095863 3.665502 6.036038
v -2.099396 3.660119 6.035873
v -2.102350 3.666211 5.991817
v -2.097338 3.663703 5.991883
v -2.106005 3.674815 6.000510
v -2.103289 3.674735 5.998446
v -2.097631 3.675746 6.029472
v -2.099756 3.673773 6.031304
v -2.101759 3.669714 6.032145
v -2.104209 3.663558 6.032695
v -2.099555 3.672772 5.996926
v -2.095055 3.669060 5.996054
v -2.101048 3.679679 6.006988
v -2.098501 3.679433 6.004704
v -2.104471 3.677422 6.023731
v -2.106363 3.675391 6.025759
v -2.107682 3.671165 6.027174
v -2.109046 3.664743 6.028636
v -2.095261 3.676984 6.002536
v -2.091550 3.672499 6.000635
v -2.089499 3.684398 5.994607
v -2.091179 3.682425 5.996854
v -2.091879 3.678366 5.998910
v -2.073671 3.690008 5.990712
v -2.071336 3.689704 5.988209
v -2.068716 3.687088 5.985400
v -2.065990 3.682337 5.982477
v -2.094456 3.679534 5.988129
v -2.095968 3.677727 5.990596
v -2.096172 3.674154 5.993299
v -2.066832 3.688332 5.996453
v -2.064729 3.688086 5.993754
v -2.062793 3.685637 5.990372
v -2.061154 3.681152 5.986537
v -2.097684 3.671958 5.982230
v -2.099086 3.670408 5.984899
v -2.098968 3.667593 5.988191
v -2.060025 3.683467 6.000949
v -2.058154 3.683387 5.998096
v -2.056898 3.681424 5.994265
v -2.056340 3.677712 5.989716
v -2.053916 3.675891 6.003759
v -2.098866 3.662412 5.977489
v -2.100228 3.661187 5.980319
v -2.099991 3.659325 5.984085
v -2.052254 3.676069 6.000811
v -2.051607 3.674863 5.996698
v -2.052021 3.672355 5.991703
v -2.049104 3.666345 6.004609
v -2.097887 3.651829 5.974368
v -2.099282 3.650966 5.977305
v -2.099144 3.650161 5.981383
v -2.047606 3.666848 6.001632
v -2.047440 3.666595 5.997435
v -2.048618 3.665605 5.992304
v -2.046059 3.655762 6.003416
v -2.044665 3.656626 6.000479
v -2.044803 3.657431 5.996401
v -2.046465 3.658122 5.991460
v -2.055685 3.651829 6.013734
v -2.058517 3.650966 6.015330
v -2.062595 3.650161 6.015475
v -2.088262 3.655762 5.964049
v -2.085429 3.656626 5.962454
v -2.058729 3.662412 6.014928
v -2.061458 3.661187 6.016482
v -2.065232 3.659325 6.016509
v -2.081352 3.657431 5.962309
v -2.076307 3.658122 5.963624
v -2.089241 3.666345 5.967170
v -2.086375 3.666848 5.965468
v -2.063541 3.671958 6.014078
v -2.066106 3.670408 6.015661
v -2.069399 3.667593 6.015772
v -2.082200 3.666595 5.965011
v -2.076999 3.665605 5.965830
v -2.088059 3.675891 5.971911
v -2.085233 3.676069 5.970048
v -2.069650 3.679534 6.011268
v -2.072007 3.677727 6.012947
v -2.074689 3.674154 6.013339
v -2.081176 3.674863 5.969118
v -2.076164 3.672355 5.969183
v -2.084831 3.683467 5.977810
v -2.082115 3.683387 5.975746
v -2.076457 3.684398 6.006772
v -2.078582 3.682425 6.008605
v -2.080585 3.678366 6.009445
v -2.078380 3.681424 5.974226
v -2.073881 3.677712 5.973354
v -2.079873 3.688332 5.984288
v -2.077327 3.688086 5.982003
v -2.083297 3.686074 6.001031
v -2.085188 3.684044 6.003059
v -2.086508 3.679818 6.004474
v -2.074087 3.685637 5.979836
v -2.070375 3.681152 5.977935
v -2.068325 3.693051 5.971907
v -2.070005 3.691077 5.974154
v -2.070704 3.687019 5.976210
v -2.052497 3.698660 5.968012
v -2.050162 3.698357 5.965508
v -2.047542 3.695740 5.962700
v -2.044816 3.690989 5.959777
v -2.073282 3.688187 5.965429
v -2.074794 3.686379 5.967896
v -2.074998 3.682806 5.970600
v -2.045658 3.696984 5.973753
v -2.043555 3.696738 5.971054
v -2.041619 3.694289 5.967671
v -2.039979 3.689804 5.963837
v -2.076510 3.680610 5.959530
v -2.077911 3.679061 5.962199
v -2.077793 3.676245 5.965491
v -2.038851 3.692120 5.978249
v -2.036980 3.692039 5.975396
v -2.035723 3.690077 5.971565
v -2.035166 3.686365 5.967016
v -2.032742 3.684544 5.981059
v -2.077692 3.671064 5.954789
v -2.079053 3.669840 5.957619
v -2.078817 3.667978 5.961385
v -2.031080 3.684721 5.978111
v -2.030433 3.683515 5.973999
v -2.030847 3.681008 5.969003
v -2.027930 3.674997 5.981909
v -2.076713 3.660482 5.951668
v -2.078108 3.659618 5.954605
v -2.077969 3.658813 5.958683
v -2.026431 3.675500 5.978932
v -2.026266 3.675248 5.974735
v -2.027444 3.674257 5.969604
v -2.024885 3.664415 5.980716
v -2.023490 3.665278 5.977779
v -2.023629 3.666083 5.973701
v -2.025291 3.666775 5.968760
v -2.034510 3.660482 5.991035
v -2.037343 3.659618 5.992630
v -2.041420 3.658813 5.992775
v -2.067088 3.664415 5.941350
v -2.064255 3.665278 5.939754
v -2.037555 3.671064 5.992228
v -2.040284 3.669840 5.993783
v -2.044057 3.667978 5.993808
v -2.060178 3.666083 5.939609
v -2.055133 3.666775 5.940924
v -2.068067 3.674997 5.944469
v -2.065201 3.675500 5.942768
v -2.042367 3.680610 5.991378
v -2.044932 3.679061 5.992961
v -2.048225 3.676245 5.993073
v -2.061026 3.675248 5.942311
v -2.055825 3.674257 5.943130
v -2.066885 3.684544 5.949211
v -2.064059 3.684721 5.947348
v -2.048476 3.688187 5.988568
v -2.050833 3.686379 5.990247
v -2.053515 3.682806 5.990639
v -2.060002 3.683515 5.946418
v -2.054989 3.681008 5.946483
v -2.063657 3.692120 5.955110
v -2.060941 3.692039 5.953046
v -2.055283 3.693051 5.984072
v -2.057408 3.691077 5.985905
v -2.059410 3.687019 5.986745
v -2.057206 3.690077 5.951526
v -2.052707 3.686365 5.950654
v -2.058699 3.696984 5.961588
v -2.056152 3.696738 5.959303
v -2.062122 3.694727 5.978331
v -2.064014 3.692696 5.980360
v -2.065333 3.688470 5.981773
v -2.052913 3.694289 5.957137
v -2.049201 3.689804 5.955235
v -2.047150 3.701703 5.949207
v -2.048831 3.699730 5.951454
v -2.049530 3.695671 5.953510
v -2.031323 3.707312 5.945312
v -2.028987 3.707009 5.942809
v -2.026367 3.704393 5.940000
v -2.023213 3.699817 5.936618
v -2.052108 3.696839 5.942729
v -2.053619 3.695031 5.945197
v -2.053824 3.691459 5.947900
v -2.024483 3.705636 5.951053
v -2.022381 3.705390 5.948354
v -2.020444 3.702941 5.944972
v -2.018377 3.698632 5.940678
v -2.055336 3.689263 5.936830
v -2.056737 3.687713 5.939499
v -2.056619 3.684898 5.942791
v -2.017676 3.700772 5.955549
v -2.015806 3.700692 5.952696
v -2.014549 3.698729 5.948865
v -2.013564 3.695192 5.943857
v -2.011568 3.693196 5.958359
v -2.056518 3.679716 5.932089
v -2.057879 3.678492 5.934919
v -2.057643 3.676630 5.938685
v -2.009905 3.693374 5.955411
v -2.009259 3.692168 5.951299
v -2.009244 3.689835 5.945844
v -2.006756 3.683650 5.959209
v -2.055539 3.669134 5.928968
v -2.056933 3.668270 5.931905
v -2.056795 3.667465 5.935983
v -2.005257 3.684153 5.956232
v -2.005091 3.683900 5.952035
v -2.005841 3.683085 5.946445
v -2.003711 3.673067 5.958015
v -2.002316 3.673931 5.955079
v -2.002455 3.674736 5.951001
v -2.003689 3.675602 5.945601
v -2.013336 3.669134 5.968335
v -2.016169 3.668270 5.969930
v -2.020246 3.667465 5.970075
v -2.045913 3.673067 5.918650
v -2.043081 3.673931 5.917054
v -2.016381 3.679716 5.969528
v -2.019110 3.678492 5.971083
v -2.022883 3.676630 5.971108
v -2.039003 3.674736 5.916909
v -2.033530 3.675602 5.917765
v -2.046893 3.683650 5.921770
v -2.044027 3.684153 5.920068
v -2.021193 3.689263 5.968678
v -2.023758 3.687713 5.970262
v -2.027050 3.684898 5.970372
v -2.039851 3.683900 5.919611
v -2.034223 3.683085 5.919971
v -2.045711 3.693196 5.926511
v -2.042885 3.693374 5.924648
v -2.027302 3.696839 5.965868
v -2.029658 3.695031 5.967547
v -2.032341 3.691459 5.967938
v -2.038827 3.692168 5.923717
v -2.033387 3.689835 5.923324
v -2.042483 3.700772 5.932410
v -2.039767 3.700692 5.930346
v -2.034109 3.701703 5.961372
v -2.036234 3.699730 5.963204
v -2.038236 3.695671 5.964045
v -2.036032 3.698729 5.928826
v -2.031104 3.695192 5.927495
v -2.037525 3.705636 5.938889
v -2.034978 3.705390 5.936604
v -2.040948 3.703379 5.955631
v -2.042840 3.701349 5.957659
v -2.044159 3.697123 5.959074
v -2.031739 3.702941 5.934436
v -2.027599 3.698632 5.932076
v -2.087164 3.673685 6.005177
v -2.091550 3.672499 6.000635
v -2.082328 3.672499 6.009237
v -2.073195 3.663703 6.014403
v -2.077515 3.669060 6.012415
v -2.069792 3.656953 6.015004
v -2.098174 3.656953 5.988530
v -2.097481 3.649470 5.986324
v -2.097338 3.663703 5.991883
v -2.095055 3.669060 5.996054
v -2.067639 3.649470 6.014160
v -2.065990 3.682337 5.982477
v -2.070375 3.681152 5.977935
v -2.061154 3.681152 5.986537
v -2.052021 3.672355 5.991703
v -2.056340 3.677712 5.989716
v -2.048618 3.665605 5.992304
v -2.076999 3.665605 5.965830
v -2.076307 3.658122 5.963624
v -2.076164 3.672355 5.969183
v -2.073881 3.677712 5.973354
v -2.046465 3.658122 5.991460
v -2.044816 3.690989 5.959777
v -2.049201 3.689804 5.955235
v -2.039979 3.689804 5.963837
v -2.030847 3.681008 5.969003
v -2.035166 3.686365 5.967016
v -2.027444 3.674257 5.969604
v -2.055825 3.674257 5.943130
v -2.055133 3.666775 5.940924
v -2.054989 3.681008 5.946483
v -2.052707 3.686365 5.950654
v -2.025291 3.666775 5.968760
v -1.811685 3.797921 5.696775
v -1.809138 3.797675 5.694490
v -1.805898 3.795226 5.692323
v -1.801480 3.791030 5.689663
v -1.815108 3.795664 5.713518
v -1.817000 3.793633 5.715546
v -1.818319 3.789407 5.716960
v -1.818975 3.783274 5.717664
v -1.816642 3.793057 5.690296
v -1.813927 3.792977 5.688232
v -1.810192 3.791014 5.686712
v -1.804985 3.787591 5.685082
v -1.808269 3.793988 5.719258
v -1.810393 3.792015 5.721091
v -1.812396 3.787956 5.721931
v -1.814139 3.782089 5.721723
v -1.819870 3.785481 5.684398
v -1.817044 3.785659 5.682535
v -1.812987 3.784452 5.681604
v -1.807268 3.782234 5.680912
v -1.801461 3.789124 5.723754
v -1.803818 3.787316 5.725433
v -1.806501 3.783744 5.725825
v -1.809326 3.778650 5.724902
v -1.795353 3.781548 5.726564
v -1.821052 3.775934 5.679656
v -1.818187 3.776438 5.677955
v -1.814011 3.776185 5.677498
v -1.808104 3.775483 5.677558
v -1.797918 3.779998 5.728148
v -1.801210 3.777182 5.728259
v -1.805007 3.773293 5.726889
v -1.790541 3.772001 5.727415
v -1.820073 3.765352 5.676536
v -1.817241 3.766216 5.674941
v -1.813163 3.767020 5.674796
v -1.807411 3.768001 5.675352
v -1.793269 3.770777 5.728969
v -1.797043 3.768915 5.728995
v -1.801604 3.766542 5.727490
v -1.787496 3.761419 5.726221
v -1.790329 3.760555 5.727816
v -1.794406 3.759750 5.727961
v -1.799451 3.759059 5.726646
v -1.777871 3.765352 5.715902
v -1.776476 3.766216 5.712965
v -1.776614 3.767020 5.708888
v -1.777569 3.768001 5.703188
v -1.829699 3.761419 5.686855
v -1.831093 3.760555 5.689791
v -1.780915 3.775934 5.717095
v -1.779417 3.776438 5.714118
v -1.779251 3.776185 5.709921
v -1.779722 3.775483 5.704032
v -1.830955 3.759750 5.693869
v -1.829293 3.759059 5.698810
v -1.830678 3.772001 5.689975
v -1.832039 3.770777 5.692805
v -1.785728 3.785481 5.716246
v -1.784065 3.785659 5.713297
v -1.783419 3.784453 5.709185
v -1.783125 3.782234 5.703431
v -1.831803 3.768915 5.696571
v -1.829985 3.766542 5.701016
v -1.829496 3.781548 5.694716
v -1.830897 3.779998 5.697385
v -1.791836 3.793057 5.713435
v -1.789966 3.792977 5.710583
v -1.788709 3.791014 5.706751
v -1.787445 3.787591 5.701444
v -1.830779 3.777182 5.700678
v -1.829149 3.773293 5.704370
v -1.826268 3.789124 5.700615
v -1.827779 3.787316 5.703083
v -1.798643 3.797921 5.708940
v -1.796541 3.797675 5.706240
v -1.794604 3.795226 5.702858
v -1.792258 3.791030 5.698265
v -1.827983 3.783744 5.705786
v -1.826867 3.778650 5.708540
v -1.821310 3.793988 5.707094
v -1.822990 3.792015 5.709341
v -1.805483 3.799597 5.703199
v -1.803147 3.799294 5.700695
v -1.800527 3.796678 5.697886
v -1.797094 3.792216 5.694206
v -1.823690 3.787956 5.711397
v -1.823361 3.782089 5.713121
v -1.832859 3.789269 5.719475
v -1.830312 3.789023 5.717190
v -1.827073 3.786574 5.715023
v -1.836282 3.787012 5.736217
v -1.838174 3.784981 5.738245
v -1.839493 3.780755 5.739660
v -1.840150 3.774622 5.740364
v -1.837816 3.784405 5.712996
v -1.835101 3.784324 5.710932
v -1.831366 3.782361 5.709413
v -1.829443 3.785336 5.741959
v -1.831568 3.783362 5.743791
v -1.833570 3.779304 5.744632
v -1.835314 3.773437 5.744423
v -1.841044 3.776829 5.707098
v -1.838219 3.777006 5.705235
v -1.834161 3.775800 5.704304
v -1.822636 3.780471 5.746454
v -1.824992 3.778664 5.748133
v -1.827675 3.775091 5.748525
v -1.830500 3.769997 5.747602
v -1.816527 3.772895 5.749264
v -1.842227 3.767282 5.702356
v -1.839361 3.767785 5.700655
v -1.835185 3.767533 5.700198
v -1.819092 3.771346 5.750848
v -1.822385 3.768530 5.750959
v -1.826181 3.764640 5.749589
v -1.811715 3.763349 5.750114
v -1.841248 3.756700 5.699236
v -1.838415 3.757563 5.697640
v -1.834337 3.758368 5.697495
v -1.814444 3.762125 5.751669
v -1.818217 3.760262 5.751695
v -1.822778 3.757890 5.750190
v -1.808670 3.752766 5.748921
v -1.811503 3.751903 5.750516
v -1.815580 3.751098 5.750661
v -1.820625 3.750407 5.749346
v -1.799045 3.756700 5.738602
v -1.797650 3.757563 5.735665
v -1.797789 3.758368 5.731587
v -1.850873 3.752766 5.709555
v -1.852267 3.751903 5.712491
v -1.802089 3.767282 5.739796
v -1.800591 3.767785 5.736818
v -1.800425 3.767533 5.732621
v -1.852129 3.751098 5.716569
v -1.850467 3.750407 5.721510
v -1.851852 3.763349 5.712675
v -1.853213 3.762125 5.715505
v -1.806902 3.776829 5.738945
v -1.805239 3.777006 5.735997
v -1.804593 3.775800 5.731885
v -1.852977 3.760262 5.719271
v -1.851159 3.757890 5.723717
v -1.850670 3.772895 5.717416
v -1.852071 3.771346 5.720085
v -1.813010 3.784405 5.736135
v -1.811140 3.784324 5.733283
v -1.809883 3.782361 5.729451
v -1.851953 3.768530 5.723378
v -1.850323 3.764640 5.727069
v -1.847442 3.780471 5.723315
v -1.848953 3.778664 5.725783
v -1.819818 3.789269 5.731639
v -1.817715 3.789023 5.728940
v -1.815778 3.786574 5.725558
v -1.849158 3.775091 5.728486
v -1.848041 3.769997 5.731240
v -1.842484 3.785336 5.729794
v -1.844165 3.783362 5.732040
v -1.826657 3.790945 5.725899
v -1.824321 3.790642 5.723395
v -1.821701 3.788025 5.720586
v -1.844864 3.779304 5.734097
v -1.844535 3.773437 5.735821
v -1.854033 3.780616 5.742175
v -1.851486 3.780370 5.739890
v -1.848247 3.777921 5.737723
v -1.857456 3.778359 5.758918
v -1.859348 3.776329 5.760946
v -1.860667 3.772103 5.762360
v -1.861324 3.765970 5.763064
v -1.858991 3.775752 5.735696
v -1.856275 3.775672 5.733632
v -1.852540 3.773709 5.732112
v -1.850617 3.776683 5.764658
v -1.852742 3.774710 5.766491
v -1.854744 3.770651 5.767332
v -1.856488 3.764784 5.767123
v -1.862219 3.768176 5.729797
v -1.859393 3.768354 5.727934
v -1.855336 3.767148 5.727004
v -1.843810 3.771819 5.769154
v -1.846167 3.770011 5.770833
v -1.848849 3.766439 5.771225
v -1.851674 3.761345 5.770302
v -1.837701 3.764243 5.771965
v -1.863401 3.758630 5.725056
v -1.860535 3.759133 5.723354
v -1.856359 3.758880 5.722898
v -1.840266 3.762693 5.773548
v -1.843559 3.759878 5.773659
v -1.847355 3.755988 5.772289
v -1.832889 3.754696 5.772814
v -1.862422 3.748047 5.721936
v -1.859589 3.748911 5.720341
v -1.855512 3.749716 5.720195
v -1.835618 3.753472 5.774369
v -1.839391 3.751610 5.774395
v -1.843952 3.749237 5.772890
v -1.829844 3.744114 5.771621
v -1.832677 3.743250 5.773216
v -1.836754 3.742445 5.773361
v -1.841799 3.741755 5.772046
v -1.820219 3.748047 5.761302
v -1.818824 3.748911 5.758365
v -1.818963 3.749716 5.754288
v -1.872047 3.744114 5.732255
v -1.873442 3.743250 5.735191
v -1.823264 3.758630 5.762496
v -1.821765 3.759133 5.759518
v -1.821600 3.758880 5.755321
v -1.873303 3.742445 5.739269
v -1.871641 3.741755 5.744210
v -1.873026 3.754696 5.735375
v -1.874387 3.753472 5.738205
v -1.828076 3.768176 5.761645
v -1.826414 3.768354 5.758697
v -1.825767 3.767148 5.754585
v -1.874151 3.751610 5.741971
v -1.872333 3.749237 5.746417
v -1.871844 3.764243 5.740117
v -1.873245 3.762693 5.742785
v -1.834185 3.775752 5.758835
v -1.832314 3.775672 5.755982
v -1.831057 3.773709 5.752151
v -1.873127 3.759878 5.746078
v -1.871497 3.755988 5.749769
v -1.868616 3.771819 5.746015
v -1.870127 3.770011 5.748483
v -1.840992 3.780616 5.754340
v -1.838889 3.780370 5.751640
v -1.836953 3.777921 5.748258
v -1.870332 3.766439 5.751186
v -1.869215 3.761345 5.753940
v -1.863658 3.776683 5.752493
v -1.865339 3.774710 5.754741
v -1.847831 3.782292 5.748599
v -1.845496 3.781989 5.746095
v -1.842876 3.779373 5.743286
v -1.866038 3.770651 5.756796
v -1.865709 3.764784 5.758521
v -1.875207 3.771964 5.764874
v -1.872661 3.771718 5.762590
v -1.869421 3.769269 5.760423
v -1.878631 3.769707 5.781618
v -1.880522 3.767676 5.783646
v -1.881841 3.763450 5.785060
v -1.882926 3.757142 5.786223
v -1.880165 3.767100 5.758396
v -1.877449 3.767020 5.756332
v -1.873714 3.765057 5.754812
v -1.871791 3.768031 5.787358
v -1.873916 3.766057 5.789191
v -1.875918 3.761999 5.790031
v -1.878090 3.755957 5.790282
v -1.883393 3.759524 5.752498
v -1.880567 3.759701 5.750634
v -1.876510 3.758495 5.749704
v -1.864984 3.763167 5.791854
v -1.867341 3.761359 5.793533
v -1.870023 3.757786 5.793925
v -1.873277 3.752517 5.793461
v -1.858875 3.755590 5.794664
v -1.884575 3.749977 5.747756
v -1.881709 3.750480 5.746054
v -1.877534 3.750228 5.745597
v -1.861440 3.754041 5.796248
v -1.864733 3.751225 5.796359
v -1.868957 3.747160 5.795448
v -1.854063 3.746044 5.795514
v -1.883596 3.739395 5.744636
v -1.880763 3.740258 5.743041
v -1.876686 3.741063 5.742895
v -1.856792 3.744820 5.797069
v -1.860565 3.742958 5.797095
v -1.865555 3.740410 5.796050
v -1.851018 3.735462 5.794321
v -1.853851 3.734598 5.795916
v -1.857929 3.733793 5.796061
v -1.863402 3.732927 5.795206
v -1.841393 3.739395 5.784002
v -1.839998 3.740258 5.781065
v -1.840137 3.741063 5.776988
v -1.893221 3.735462 5.754954
v -1.894616 3.734598 5.757891
v -1.844438 3.749977 5.785195
v -1.842939 3.750480 5.782218
v -1.842774 3.750228 5.778021
v -1.894477 3.733793 5.761969
v -1.893244 3.732927 5.767369
v -1.894200 3.746044 5.758075
v -1.895562 3.744820 5.760905
v -1.849250 3.759524 5.784345
v -1.847588 3.759701 5.781397
v -1.846941 3.758495 5.777285
v -1.895325 3.742958 5.764671
v -1.893936 3.740410 5.769576
v -1.893018 3.755590 5.762816
v -1.894420 3.754041 5.765485
v -1.855359 3.767100 5.781535
v -1.853488 3.767020 5.778683
v -1.852232 3.765057 5.774851
v -1.894301 3.751225 5.768777
v -1.893100 3.747160 5.772928
v -1.889790 3.763167 5.768715
v -1.891302 3.761359 5.771183
v -1.862166 3.771964 5.777040
v -1.860064 3.771718 5.774340
v -1.858127 3.769269 5.770958
v -1.891506 3.757786 5.773886
v -1.890817 3.752517 5.777100
v -1.884833 3.768031 5.775194
v -1.886513 3.766057 5.777441
v -1.869005 3.773640 5.771298
v -1.866670 3.773337 5.768795
v -1.864050 3.770720 5.765986
v -1.887213 3.761999 5.779496
v -1.887312 3.755957 5.781681
v -1.818975 3.783274 5.717664
v -1.823361 3.782089 5.713121
v -1.814139 3.782089 5.721723
v -1.805007 3.773293 5.726889
v -1.809326 3.778650 5.724902
v -1.801604 3.766542 5.727490
v -1.829985 3.766542 5.701016
v -1.829293 3.759059 5.698810
v -1.829149 3.773293 5.704370
v -1.826867 3.778650 5.708540
v -1.799451 3.759059 5.726646
v -1.840150 3.774622 5.740364
v -1.844535 3.773437 5.735821
v -1.835314 3.773437 5.744423
v -1.826181 3.764640 5.749589
v -1.830500 3.769997 5.747602
v -1.822778 3.757890 5.750190
v -1.851159 3.757890 5.723717
v -1.850467 3.750407 5.721510
v -1.850323 3.764640 5.727069
v -1.848041 3.769997 5.731240
v -1.820625 3.750407 5.749346
v -1.861324 3.765970 5.763064
v -1.865709 3.764784 5.758521
v -1.856488 3.764784 5.767123
v -1.847355 3.755988 5.772289
v -1.851674 3.761345 5.770302
v -1.843952 3.749237 5.772890
v -1.872333 3.749237 5.746417
v -1.871641 3.741755 5.744210
v -1.871497 3.755988 5.749769
v -1.869215 3.761345 5.753940
v -1.841799 3.741755 5.772046
vn -0.7898 0.3318 0.5159
vn -0.8998 0.1883 0.3936
vn -0.7949 0.2683 0.5441
vn -0.7302 0.5955 0.3350
vn -0.9030 0.2445 0.3531
vn -0.5444 0.8370 0.0554
vn -0.8775 0.4636 0.1226
vn -0.9608 0.0727 0.2675
vn -0.9695 0.1173 0.2149
vn -0.7198 0.6694 -0.1838
vn -0.9579 0.2829 -0.0493
vn -0.9821 -0.0637 0.1770
vn -0.9928 -0.0341 0.1145
vn -0.8144 0.4474 -0.3695
vn -0.9821 0.0792 -0.1705
vn -0.9810 -0.1325 0.1416
vn -0.9907 -0.1136 0.0745
vn -0.8429 0.2063 -0.4969
vn -0.9758 -0.0263 -0.2169
vn 0.9176 0.2941 -0.2674
vn 0.9239 0.3629 -0.1213
vn 0.9511 0.2866 -0.1149
vn 0.9005 0.3499 0.2580
vn 0.6285 0.5304 0.5688
vn 0.7492 0.2860 0.5973
vn 0.7974 0.5614 0.2214
vn 0.8958 0.3503 -0.2734
vn 0.8475 0.5077 -0.1548
vn 0.9353 0.2397 0.2604
vn 0.7897 0.1604 0.5921
vn -0.2955 0.9012 0.3168
vn 0.2086 0.9293 0.3047
vn -0.0651 0.9954 0.0697
vn -0.0732 -0.1325 0.9885
vn -0.0453 -0.0341 0.9984
vn -0.1083 -0.0637 0.9921
vn -0.0056 -0.1136 0.9935
vn 0.2384 0.0793 0.9679
vn 0.2842 -0.0263 0.9584
vn 0.5543 0.2064 0.8063
vn -0.6111 0.5305 -0.5875
vn -0.5046 0.7573 -0.4145
vn -0.3184 0.9293 -0.1869
vn -0.1472 0.1173 0.9821
vn -0.2002 0.0727 0.9771
vn 0.1158 0.2829 0.9521
vn 0.4251 0.4474 0.7868
vn -0.6456 0.1604 -0.7466
vn -0.8359 0.0826 -0.5426
vn -0.6479 0.2860 -0.7059
vn 0.0956 0.5077 -0.8562
vn 0.2104 0.3503 -0.9127
vn 0.0567 0.3629 -0.9301
vn -0.3247 0.2397 -0.9149
vn -0.2896 0.2445 0.9254
vn -0.3301 0.1883 0.9249
vn -0.0613 0.4636 0.8839
vn 0.2335 0.6694 0.7053
vn -0.3200 0.3498 -0.8805
vn 0.0487 0.2866 -0.9568
vn 0.2033 0.2942 -0.9339
vn -0.1699 0.7528 -0.6359
vn -0.2763 0.5614 -0.7800
vn 0.1788 0.6323 -0.7537
vn 0.2416 0.4607 -0.8540
vn -0.4598 0.3318 0.8237
vn -0.4875 0.2683 0.8309
vn -0.2834 0.5955 0.7517
vn -0.0173 0.8370 0.5470
vn 0.0003 0.8940 -0.4480
vn -0.6355 0.3632 0.6813
vn -0.6513 0.2972 0.6982
vn -0.5212 0.6451 0.5587
vn 0.3016 0.7195 -0.6255
vn 0.3081 0.5551 -0.7726
vn 0.4501 0.7513 -0.4826
vn 0.4054 0.6202 -0.6715
vn 0.6417 0.6202 -0.4511
vn 0.6031 0.7195 -0.3443
vn 0.2184 0.9473 -0.2342
vn 0.4470 0.8940 -0.0314
vn 0.7493 0.5551 -0.3611
vn 0.7395 0.6323 -0.2308
vn 0.6462 0.7527 0.1253
vn 0.4486 0.7573 0.4747
vn 0.8351 0.4607 -0.3004
vn 0.5993 0.0826 0.7962
vn -0.7917 0.2727 0.5466
vn -0.8689 0.0741 0.4894
vn -0.7851 0.1337 0.6048
vn -0.7302 0.5954 0.3349
vn -0.8964 0.1930 0.3990
vn -0.5444 0.8370 0.0553
vn -0.8775 0.4637 0.1226
vn -0.9201 -0.0140 0.3915
vn -0.9586 0.0769 0.2740
vn -0.7197 0.6694 -0.1838
vn -0.9397 -0.1197 0.3204
vn -0.9812 -0.0613 0.1827
vn -0.9821 0.0793 -0.1705
vn -0.9405 -0.1731 0.2922
vn -0.9802 -0.1337 0.1461
vn -0.8429 0.2064 -0.4969
vn 0.9175 0.2941 -0.2675
vn 0.9239 0.3628 -0.1213
vn 0.9511 0.2866 -0.1150
vn 0.9006 0.3498 0.2580
vn 0.6285 0.5305 0.5688
vn 0.7973 0.5614 0.2214
vn 0.9353 0.2397 0.2603
vn 0.2085 0.9293 0.3046
vn -0.0650 0.9954 0.0698
vn -0.2262 -0.1732 0.9586
vn -0.1141 -0.0613 0.9915
vn -0.2543 -0.1197 0.9597
vn -0.0778 -0.1338 0.9879
vn 0.2383 0.0793 0.9679
vn -0.6110 0.5305 -0.5875
vn -0.5047 0.7573 -0.4145
vn -0.2066 0.0769 0.9754
vn -0.3266 -0.0140 0.9450
vn 0.1157 0.2829 0.9521
vn 0.4252 0.4473 0.7868
vn -0.6454 0.1604 -0.7468
vn -0.8359 0.0826 -0.5425
vn -0.6480 0.2860 -0.7059
vn 0.2106 0.3503 -0.9126
vn 0.0569 0.3629 -0.9301
vn -0.3358 0.1929 0.9219
vn -0.4279 0.0741 0.9008
vn 0.2334 0.6694 0.7053
vn -0.3200 0.3498 -0.8804
vn 0.0486 0.2866 -0.9568
vn 0.2031 0.2941 -0.9339
vn -0.1698 0.7528 -0.6360
vn -0.2761 0.5614 -0.7801
vn 0.1789 0.6323 -0.7537
vn -0.4903 0.2727 0.8278
vn -0.5487 0.1337 0.8252
vn -0.0174 0.8370 0.5469
vn 0.0003 0.8940 -0.4481
vn -0.6503 0.3016 0.6972
vn -0.6738 0.1550 0.7224
vn -0.5212 0.6451 0.5588
vn 0.3083 0.5551 -0.7725
vn 0.4502 0.7512 -0.4826
vn 0.6030 0.7195 -0.3444
vn 0.2185 0.9473 -0.2341
vn 0.4469 0.8940 -0.0314
vn 0.6462 0.7528 0.1253
vn 0.4485 0.7573 0.4747
vn 0.5994 0.0826 0.7961
vn -0.8689 0.0741 0.4895
vn -0.7851 0.1338 0.6048
vn -0.8964 0.1930 0.3991
vn -0.9200 -0.0140 0.3915
vn -0.9586 0.0769 0.2739
vn -0.9397 -0.1197 0.3203
vn -0.9405 -0.1732 0.2921
vn -0.9802 -0.1338 0.1461
vn -0.9758 -0.0264 -0.2168
vn 0.9175 0.2941 -0.2674
vn 0.7493 0.2860 0.5973
vn 0.8958 0.3503 -0.2733
vn -0.2955 0.9013 0.3168
vn 0.2086 0.9293 0.3046
vn -0.0651 0.9954 0.0698
vn -0.2262 -0.1731 0.9586
vn -0.1140 -0.0613 0.9916
vn -0.2542 -0.1197 0.9597
vn -0.0779 -0.1338 0.9879
vn 0.2840 -0.0263 0.9584
vn 0.5542 0.2064 0.8063
vn -0.2067 0.0769 0.9754
vn -0.6455 0.1604 -0.7467
vn 0.0955 0.5077 -0.8562
vn 0.2105 0.3503 -0.9127
vn 0.0568 0.3628 -0.9301
vn -0.3246 0.2397 -0.9149
vn -0.3358 0.1930 0.9219
vn -0.4278 0.0741 0.9008
vn 0.2334 0.6693 0.7053
vn -0.3199 0.3498 -0.8805
vn 0.2031 0.2942 -0.9339
vn -0.1699 0.7528 -0.6360
vn -0.4902 0.2727 0.8278
vn -0.5488 0.1338 0.8252
vn -0.2835 0.5955 0.7517
vn -0.6503 0.3015 0.6972
vn -0.6738 0.1551 0.7224
vn 0.3081 0.5551 -0.7725
vn 0.6417 0.6203 -0.4511
vn 0.4469 0.8940 -0.0315
vn 0.7493 0.5551 -0.3612
vn 0.7395 0.6324 -0.2308
vn 0.6462 0.7528 0.1252
vn 0.4486 0.7573 0.4746
vn 0.8352 0.4607 -0.3004
vn -0.7918 0.2727 0.5465
vn -0.8964 0.1929 0.3990
vn -0.9201 -0.0140 0.3914
vn -0.7198 0.6694 -0.1839
vn -0.9579 0.2828 -0.0493
vn -0.8145 0.4473 -0.3695
vn -0.9821 0.0793 -0.1706
vn -0.9405 -0.1732 0.2922
vn -0.9802 -0.1338 0.1462
vn -0.8428 0.2064 -0.4970
vn -0.9758 -0.0263 -0.2168
vn 0.9420 0.2900 -0.1687
vn 0.9283 0.3641 -0.0746
vn 0.9567 0.2829 -0.0680
vn 0.9005 0.3499 0.2581
vn 0.6285 0.5305 0.5687
vn 0.7492 0.2860 0.5974
vn 0.9176 0.3568 -0.1752
vn 0.8481 0.5182 -0.1106
vn 0.7898 0.1604 0.5921
vn -0.2260 -0.1732 0.9586
vn -0.2544 -0.1197 0.9597
vn -0.0776 -0.1338 0.9879
vn 0.2383 0.0792 0.9679
vn 0.5543 0.2063 0.8063
vn -0.3266 -0.0139 0.9450
vn 0.0514 0.5181 -0.8537
vn 0.1111 0.3568 -0.9275
vn 0.0100 0.3641 -0.9313
vn -0.3248 0.2397 -0.9149
vn 0.0014 0.2829 -0.9591
vn 0.1028 0.2900 -0.9514
vn -0.2762 0.5614 -0.7801
vn 0.1404 0.6510 -0.7460
vn 0.1471 0.4883 -0.8602
vn -0.5488 0.1337 0.8252
vn -0.0174 0.8370 0.5470
vn 0.0002 0.8940 -0.4481
vn 0.2712 0.7438 -0.6109
vn 0.2253 0.6021 -0.7660
vn 0.4289 0.7776 -0.4598
vn 0.3407 0.6818 -0.6473
vn 0.6221 0.6818 -0.3847
vn 0.5905 0.7438 -0.3130
vn 0.7485 0.6021 -0.2779
vn 0.7344 0.6509 -0.1919
vn 0.8479 0.4883 -0.2065
vn 0.1750 0.6276 -0.7586
vn 0.2527 0.7577 -0.6016
vn 0.3005 0.7159 -0.6301
vn 0.1172 0.6615 -0.7407
vn 0.0909 0.5024 -0.8598
vn 0.0252 0.5238 -0.8514
vn -0.2763 0.5614 -0.7801
vn 0.0523 0.3590 -0.9319
vn -0.0176 0.3644 -0.9310
vn -0.3199 0.3499 -0.8805
vn 0.0439 0.2863 -0.9571
vn -0.0261 0.2805 -0.9595
vn -0.6479 0.2860 -0.7060
vn -0.2261 -0.1732 0.9586
vn -0.0777 -0.1338 0.9879
vn 0.4252 0.4474 0.7868
vn -0.2068 0.0769 0.9753
vn 0.5992 0.0826 0.7963
vn 0.9518 0.2863 -0.1102
vn 0.9300 0.3645 -0.0472
vn 0.9590 0.2805 -0.0405
vn 0.9352 0.2397 0.2604
vn 0.7897 0.1604 0.5922
vn -0.7198 0.6693 -0.1838
vn 0.9260 0.3590 -0.1168
vn 0.8476 0.5238 -0.0843
vn -0.8360 0.0826 -0.5425
vn 0.8515 0.5023 -0.1502
vn 0.7308 0.6615 -0.1685
vn 0.7447 0.6275 -0.2273
vn 0.5826 0.7577 -0.2939
vn 0.4470 0.8940 -0.0315
vn -0.7302 0.5955 0.3349
vn 0.6077 0.7160 -0.3435
vn 0.4157 0.7928 -0.4457
vn 0.2185 0.9473 -0.2342
vn 0.4524 0.7483 -0.4851
vn -0.5212 0.6450 0.5588
vn -0.4277 0.0741 0.9008
vn -0.0614 0.4636 0.8839
vn -0.3267 -0.0140 0.9450
vn 0.3082 0.5551 -0.7725
vn 0.3016 0.7195 -0.6256
vn 0.0569 0.3628 -0.9301
vn 0.2029 0.2942 -0.9340
vn -0.1143 -0.0613 0.9915
vn -0.2261 -0.1731 0.9586
vn -0.0775 -0.1338 0.9880
vn 0.2843 -0.0263 0.9583
vn -0.0173 0.8370 0.5469
vn -0.8144 0.4473 -0.3695
vn 0.4485 0.7573 0.4746
vn 0.6030 0.7195 -0.3443
vn -0.7850 0.1338 0.6048
vn 0.5220 0.6437 -0.5596
vn -0.6504 0.3016 0.6971
vn -0.5487 0.1338 0.8252
vn -0.2833 0.5955 0.7517
vn -0.3359 0.1930 0.9219
vn -0.3265 -0.0140 0.9451
vn 0.2417 0.4607 -0.8540
vn 0.2032 0.2942 -0.9339
vn 0.1156 0.2829 0.9521
vn -0.2067 0.0769 0.9753
vn 0.9176 0.2941 -0.2675
vn 0.9006 0.3499 0.2580
vn 0.7898 0.1604 0.5920
vn -0.7198 0.6693 -0.1839
vn 0.8959 0.3503 -0.2734
vn 0.8475 0.5076 -0.1548
vn -0.9821 0.0792 -0.1706
vn 0.7394 0.6324 -0.2308
vn 0.7492 0.5551 -0.3612
vn 0.4470 0.8940 -0.0313
vn 0.6417 0.6202 -0.4512
vn 0.2184 0.9473 -0.2341
vn -0.5488 0.1338 0.8251
vn -0.2835 0.5955 0.7516
vn -0.3357 0.1930 0.9220
vn 0.3015 0.7195 -0.6255
vn 0.0003 0.8939 -0.4481
vn -0.3184 0.9293 -0.1870
vn 0.2106 0.3503 -0.9127
vn -0.3200 0.3499 -0.8804
vn -0.6111 0.5304 -0.5875
vn 0.0485 0.2866 -0.9568
vn -0.0708 -0.0441 0.9965
vn -0.1298 -0.1479 0.9804
vn -0.0322 -0.1211 0.9921
vn 0.4253 0.4473 0.7867
vn -0.1694 0.1024 0.9802
vn -0.1627 -0.0846 0.9830
vn 0.5994 0.0826 0.7962
vn -0.0650 0.9954 0.0697
vn 0.9175 0.2942 -0.2675
vn -0.9661 0.1024 0.2371
vn -0.9693 -0.0846 0.2306
vn -0.9484 0.0406 0.3143
vn 0.8351 0.4607 -0.3003
vn -0.9875 -0.1211 0.1010
vn -0.9892 -0.0442 0.1399
vn -0.9690 -0.1479 0.1976
vn -0.9010 0.2254 0.3705
vn -0.8907 0.1461 0.4304
vn 0.7492 0.5551 -0.3611
vn 0.4470 0.8939 -0.0314
vn -0.7302 0.5954 0.3350
vn -0.7909 0.3098 0.5278
vn 0.4501 0.7512 -0.4826
vn -0.7933 0.2184 0.5683
vn -0.6414 0.3402 0.6876
vn -0.6614 0.2445 0.7091
vn -0.5117 0.2185 0.8309
vn -0.4715 0.3098 0.8256
vn -0.3675 0.1461 0.9185
vn -0.3070 0.2254 0.9246
vn 0.2333 0.6694 0.7053
vn -0.2477 0.0406 0.9680
vn 0.5219 0.6437 -0.5596
vn 0.4798 0.7108 -0.5143
s 1
f 3//1 12//2 4//3
f 2//4 11//5 3//1
f 1//6 10//7 2//4
f 11//5 20//8 12//2
f 10//7 19//9 11//5
f 9//10 18//11 10//7
f 19//9 29//12 20//8
f 18//11 28//13 19//9
f 17//14 27//15 18//11
f 28//13 37//16 29//12
f 27//15 36//17 28//13
f 26//18 35//19 27//15
f 330//20 39//21 43//22
f 38//23 25//24 33//25
f 39//21 30//26 38//23
f 325//27 31//28 39//21
f 42//29 33//25 41//30
f 43//22 38//23 42//29
f 83//31 13//32 5//33
f 48//34 53//35 54//36
f 47//37 52//38 53//35
f 46//39 51//40 52//38
f 9//10 65//41 17//14
f 1//6 73//42 9//10
f 1//6 5//33 81//43
f 54//36 61//44 62//45
f 53//35 60//46 61//44
f 52//38 59//47 60//46
f 26//18 49//48 34//49
f 17//14 57//50 26//18
f 71//51 326//52 63//53
f 57//50 50//54 49//48
f 62//45 69//55 70//56
f 61//44 68//57 69//55
f 60//46 67//58 68//57
f 58//59 55//60 50//54
f 63//53 327//61 55//60
f 74//62 71//51 66//63
f 79//64 328//65 71//51
f 70//56 77//66 78//67
f 69//55 76//68 77//66
f 68//57 75//69 76//68
f 65//41 58//59 57//50
f 66//63 63//53 58//59
f 81//43 74//62 73//42
f 82//70 79//64 74//62
f 78//67 85//71 86//72
f 77//66 84//73 85//71
f 76//68 83//31 84//73
f 87//74 329//75 79//64
f 73//42 66//63 65//41
f 85//71 4//3 86//72
f 84//73 3//1 85//71
f 83//31 2//4 84//73
f 7//76 321//77 87//74
f 5//33 82//70 81//43
f 322//78 7//76 15//79
f 15//79 6//80 14//81
f 14//81 5//33 13//32
f 324//82 15//79 23//83
f 23//83 14//81 22//84
f 22//84 13//32 21//85
f 323//86 23//83 31//28
f 31//28 22//84 30//26
f 30//26 21//85 25//24
f 6//80 87//74 82//70
f 75//69 21//85 13//32
f 67//58 25//24 21//85
f 51//40 25//24 59//47
f 45//87 33//25 51//40
f 91//88 80//89 88//90
f 90//91 98//92 91//88
f 89//93 97//94 90//91
f 98//92 72//95 80//89
f 97//94 105//96 98//92
f 96//97 104//11 97//94
f 105//96 64//98 72//95
f 104//11 113//99 105//96
f 103//14 112//100 104//11
f 113//99 56//101 64//98
f 112//100 120//102 113//99
f 111//103 119//19 112//100
f 341//104 122//105 126//106
f 121//107 110//108 117//25
f 122//105 114//109 121//107
f 336//27 115//28 122//105
f 125//110 117//25 124//30
f 126//106 121//107 125//110
f 161//31 99//111 92//112
f 44//113 135//114 40//115
f 130//116 134//117 135//114
f 129//39 133//40 134//117
f 96//97 145//118 103//14
f 89//93 152//119 96//97
f 89//93 92//112 159//43
f 40//115 142//120 32//121
f 135//114 141//122 142//120
f 134//117 140//123 141//122
f 111//103 131//124 118//125
f 103//14 138//126 111//103
f 150//51 337//127 143//128
f 138//126 132//54 131//124
f 32//121 149//129 24//130
f 142//120 148//57 149//129
f 141//122 147//131 148//57
f 139//132 136//133 132//54
f 143//128 338//134 136//133
f 153//135 150//51 146//136
f 157//137 339//65 150//51
f 24//130 156//138 16//139
f 149//129 155//68 156//138
f 148//57 154//140 155//68
f 145//118 139//132 138//126
f 146//136 143//128 139//132
f 159//43 153//135 152//119
f 160//141 157//137 153//135
f 16//139 163//142 8//143
f 156//138 162//144 163//142
f 155//68 161//31 162//144
f 164//74 340//145 157//137
f 152//119 146//136 145//118
f 163//142 88//90 8//143
f 162//144 91//88 163//142
f 161//31 90//91 162//144
f 94//146 332//77 164//74
f 92//112 160//141 159//43
f 333//78 94//146 101//147
f 101//147 93//148 100//149
f 100//149 92//112 99//111
f 335//82 101//147 108//83
f 108//83 100//149 107//150
f 107//150 99//111 106//151
f 334//86 108//83 115//28
f 115//28 107//150 114//109
f 114//109 106//151 110//108
f 93//148 164//74 160//141
f 154//140 106//151 99//111
f 147//131 110//108 106//151
f 133//40 110//108 140//123
f 128//152 117//25 133//40
f 168//88 158//153 165//154
f 167//4 175//155 168//88
f 166//6 174//7 167//4
f 175//155 151//156 158//153
f 174//7 182//157 175//155
f 173//10 181//11 174//7
f 182//157 144//158 151//156
f 181//11 190//99 182//157
f 180//14 189//15 181//11
f 190//99 137//159 144//158
f 189//15 197//160 190//99
f 188//18 196//161 189//15
f 352//162 199//21 203//22
f 198//107 187//108 194//163
f 199//21 191//109 198//107
f 347//164 192//28 199//21
f 202//29 194//163 201//30
f 203//22 198//107 202//29
f 238//165 176//166 169//167
f 127//168 212//169 123//170
f 207//171 211//117 212//169
f 206//172 210//173 211//117
f 173//10 222//41 180//14
f 166//6 229//42 173//10
f 166//6 169//167 236//43
f 123//170 219//174 116//121
f 212//169 218//122 219//174
f 211//117 217//47 218//122
f 188//18 208//175 195//49
f 180//14 215//50 188//18
f 227//176 348//177 220//178
f 215//50 209//179 208//175
f 116//121 226//180 109//181
f 219//174 225//57 226//180
f 218//122 224//182 225//57
f 216//183 213//133 209//179
f 220//178 349//184 213//133
f 230//185 227//176 223//63
f 234//64 350//65 227//176
f 109//181 233//186 102//187
f 226//180 232//188 233//186
f 225//57 231//140 232//188
f 222//41 216//183 215//50
f 223//63 220//178 216//183
f 236//43 230//185 229//42
f 237//70 234//64 230//185
f 102//187 240//189 95//190
f 233//186 239//73 240//189
f 232//188 238//165 239//73
f 241//74 351//191 234//64
f 229//42 223//63 222//41
f 240//189 165//154 95//190
f 239//73 168//88 240//189
f 238//165 167//4 239//73
f 171//146 343//77 241//74
f 169//167 237//70 236//43
f 344//192 171//146 178//79
f 178//79 170//148 177//193
f 177//193 169//167 176//166
f 346//194 178//79 185//195
f 185//195 177//193 184//196
f 184//196 176//166 183//197
f 345//198 185//195 192//28
f 192//28 184//196 191//109
f 191//109 183//197 187//108
f 170//148 241//74 237//70
f 231//140 183//197 176//166
f 224//182 187//108 183//197
f 210//173 187//108 217//47
f 205//87 194//163 210//173
f 245//199 235//89 242//90
f 244//4 252//200 245//199
f 243//93 251//7 244//4
f 252//200 228//201 235//89
f 251//7 259//157 252//200
f 250//202 258//203 251//7
f 259//157 221//158 228//201
f 258//203 267//99 259//157
f 257//204 266//205 258//203
f 267//99 214//206 221//158
f 266//205 274//207 267//99
f 265//208 273//209 266//205
f 281//210 276//211 280//212
f 275//213 264//214 271//215
f 276//211 268//109 275//213
f 277//216 269//217 276//211
f 279//110 271//215 278//218
f 280//212 275//213 279//110
f 315//31 253//166 246//33
f 204//219 289//114 200//220
f 284//221 288//222 289//114
f 283//39 287//223 288//222
f 250//202 299//118 257//204
f 243//93 306//119 250//202
f 243//93 246//33 313//43
f 200//220 296//174 193//224
f 289//114 295//122 296//174
f 288//222 294//47 295//122
f 265//208 285//48 272//125
f 257//204 292//126 265//208
f 304//225 298//226 297//227
f 292//126 286//228 285//48
f 193//224 303//129 186//130
f 296//174 302//57 303//129
f 295//122 301//131 302//57
f 293//132 290//229 286//228
f 297//227 291//230 290//229
f 307//62 304//225 300//231
f 311//232 305//233 304//225
f 186//130 310//186 179//234
f 303//129 309//188 310//186
f 302//57 308//235 309//188
f 299//118 293//132 292//126
f 300//231 297//227 293//132
f 313//43 307//62 306//119
f 314//236 311//232 307//62
f 179//234 317//142 172//143
f 310//186 316//73 317//142
f 309//188 315//31 316//73
f 318//237 312//238 311//232
f 306//119 300//231 299//118
f 317//142 242//90 172//143
f 316//73 245//199 317//142
f 315//31 244//4 316//73
f 248//239 319//240 318//237
f 246//33 314//236 313//43
f 256//241 248//239 255//242
f 255//242 247//80 254//81
f 254//81 246//33 253//166
f 263//243 255//242 262//244
f 262//244 254//81 261//150
f 261//150 253//166 260//151
f 270//245 262//244 269//217
f 269//217 261//150 268//109
f 268//109 260//151 264//214
f 247//80 318//237 314//236
f 308//235 260//151 253//166
f 301//131 264//214 260//151
f 287//223 264//214 294//47
f 282//152 271//215 287//223
f 364//246 355//247 356//248
f 363//249 354//236 355//247
f 362//62 353//43 354//236
f 372//250 363//249 364//246
f 371//251 362//62 363//249
f 370//252 361//119 362//62
f 381//253 371//251 372//250
f 380//254 370//252 371//251
f 379//255 369//41 370//252
f 389//256 380//254 381//253
f 388//257 379//255 380//254
f 387//179 378//258 379//255
f 391//114 682//259 395//260
f 377//261 390//222 385//40
f 382//122 391//114 390//222
f 383//262 677//170 391//114
f 385//40 394//172 393//263
f 390//222 395//260 394//172
f 365//140 435//112 357//31
f 400//264 405//265 399//266
f 399//266 404//107 398//267
f 398//267 403//163 397//268
f 417//14 361//119 369//41
f 425//269 353//43 361//119
f 357//31 353//43 433//93
f 406//270 413//271 405//265
f 405//265 412//26 404//107
f 404//107 411//214 403//163
f 401//272 378//258 386//175
f 409//103 369//41 378//258
f 423//96 678//98 680//201
f 409//103 402//19 410//15
f 414//273 421//274 413//271
f 413//271 420//84 412//26
f 412//26 419//85 411//214
f 410//15 407//102 415//99
f 415//99 679//101 678//98
f 426//7 423//96 431//92
f 431//92 680//201 681//89
f 422//275 429//276 421//274
f 421//274 428//277 420//84
f 420//84 427//166 419//85
f 417//14 410//15 418//11
f 418//11 415//99 423//96
f 433//93 426//7 434//278
f 434//278 431//92 439//88
f 430//279 437//280 429//276
f 429//276 436//281 428//277
f 428//277 435//112 427//166
f 439//88 681//89 673//90
f 425//269 418//11 426//7
f 356//248 437//280 438//282
f 355//247 436//281 437//280
f 354//236 435//112 436//281
f 359//142 673//90 672//143
f 357//31 434//278 358//283
f 359//142 674//187 367//186
f 358//283 367//186 366//68
f 357//31 366//68 365//140
f 367//186 676//284 375//180
f 366//68 375//180 374//285
f 365//140 374//285 373//131
f 375//180 675//286 383//262
f 374//285 383//262 382//122
f 373//131 382//122 377//261
f 358//283 439//88 359//142
f 373//131 427//166 365//140
f 377//261 419//85 373//131
f 377//261 403//163 411//214
f 385//40 397//268 403//163
f 432//287 443//288 440//77
f 450//137 442//236 443//288
f 449//62 441//43 442//236
f 424//65 450//137 432//287
f 457//176 449//62 450//137
f 456//231 448//119 449//62
f 416//177 457//176 424//65
f 465//289 456//231 457//176
f 464//183 455//118 456//231
f 408//290 465//289 416//177
f 472//133 464//183 465//289
f 471//228 463//126 464//183
f 474//291 693//292 478//293
f 462//261 473//117 469//40
f 466//46 474//291 473//117
f 467//262 688//220 474//291
f 469//40 477//294 476//87
f 473//117 478//293 477//294
f 451//295 513//167 444//31
f 396//104 487//21 482//106
f 482//106 486//23 481//110
f 481//110 485//25 480//30
f 497//296 448//119 455//118
f 504//10 441//43 448//119
f 444//31 441//43 511//93
f 392//27 494//28 487//21
f 487//21 493//109 486//23
f 486//23 492//108 485//25
f 483//49 463//126 470//48
f 490//208 455//118 463//126
f 502//96 689//98 691//201
f 490//208 484//19 491//100
f 384//86 501//83 494//28
f 494//28 500//150 493//109
f 493//109 499//297 492//108
f 491//100 488//160 495//99
f 495//99 690//206 689//98
f 505//7 502//96 509//200
f 509//200 691//201 692//89
f 376//194 508//298 501//83
f 501//83 507//81 500//150
f 500//150 506//32 499//297
f 497//296 491//100 498//203
f 498//203 495//99 502//96
f 511//93 505//7 512//4
f 512//4 509//200 516//88
f 368//78 515//76 508//298
f 508//298 514//80 507//81
f 507//81 513//167 506//32
f 516//88 692//89 684//299
f 504//10 498//203 505//7
f 440//77 515//76 360//300
f 443//288 514//80 515//76
f 442//236 513//167 514//80
f 446//301 684//299 683//190
f 444//31 512//4 445//73
f 446//301 685//302 453//186
f 445//73 453//186 452//303
f 444//31 452//303 451//295
f 453//186 687//181 460//304
f 452//303 460//304 459//57
f 451//295 459//57 458//182
f 460//304 686//305 467//262
f 459//57 467//262 466//46
f 458//182 466//46 462//261
f 445//73 516//88 446//301
f 458//182 506//32 451//295
f 462//261 499//297 458//182
f 462//261 485//25 492//108
f 469//40 480//30 485//25
f 510//191 520//288 517//77
f 527//137 519//236 520//288
f 526//62 518//43 519//236
f 503//306 527//137 510//191
f 534//51 526//62 527//137
f 533//252 525//42 526//62
f 496//52 534//51 503//306
f 542//178 533//252 534//51
f 541//183 532//41 533//252
f 489//307 542//178 496//52
f 549//60 541//183 542//178
f 548//54 540//258 541//183
f 551//169 704//113 555//260
f 539//47 550//38 546//223
f 543//308 551//169 550//38
f 544//309 699//220 551//169
f 546//223 554//172 553//263
f 550//38 555//260 554//172
f 528//140 590//167 521//165
f 479//310 564//21 559//106
f 559//106 563//311 558//110
f 558//110 562//163 557//312
f 574//14 525//42 532//41
f 581//313 518//43 525//42
f 521//165 518//43 588//93
f 475//314 571//315 564//21
f 564//21 570//26 563//311
f 563//311 569//24 562//163
f 560//125 540//258 547//48
f 567//208 532//41 540//258
f 579//96 700//158 702//95
f 567//208 561//209 568//316
f 468//86 578//317 571//315
f 571//315 577//196 570//26
f 570//26 576//85 569//24
f 568//316 565//207 572//99
f 572//99 701//206 700//158
f 582//7 579//96 586//92
f 586//92 702//95 703//89
f 461//318 585//79 578//317
f 578//317 584//319 577//196
f 577//196 583//32 576//85
f 574//14 568//316 575//11
f 575//11 572//99 579//96
f 588//93 582//7 589//4
f 589//4 586//92 593//88
f 454//320 592//76 585//79
f 585//79 591//321 584//319
f 584//319 590//167 583//32
f 593//88 703//89 695//299
f 581//313 575//11 582//7
f 517//77 592//76 447//300
f 520//288 591//321 592//76
f 519//236 590//167 591//321
f 523//142 695//299 694//190
f 521//165 589//4 522//144
f 523//142 696//322 530//186
f 522//144 530//186 529//323
f 521//165 529//323 528//140
f 530//186 698//130 537//324
f 529//323 537//324 536//57
f 528//140 536//57 535//131
f 537//324 697//121 544//309
f 536//57 544//309 543//308
f 535//131 543//308 539//47
f 522//144 593//88 523//142
f 535//131 583//32 528//140
f 539//47 576//85 535//131
f 539//47 562//163 569//24
f 546//223 557//312 562//163
f 587//287 597//325 594//77
f 604//137 596//326 597//325
f 603//135 595//327 596//326
f 580//65 604//137 587//287
f 611//51 603//135 604//137
f 610//252 602//119 603//135
f 573//328 611//51 580//65
f 619//128 610//252 611//51
f 618//329 609//330 610//252
f 566//184 619//128 573//328
f 626//331 618//329 619//128
f 625//228 617//50 618//329
f 628//332 633//333 632//334
f 616//335 627//117 623//40
f 620//46 628//332 627//117
f 621//336 629//337 628//332
f 623//40 631//39 630//338
f 627//117 632//334 631//39
f 605//140 667//339 598//31
f 556//340 641//105 636//106
f 636//106 640//23 635//267
f 635//267 639//25 634//268
f 651//296 602//119 609//330
f 658//202 595//327 602//119
f 598//31 595//327 665//6
f 552//27 648//315 641//105
f 641//105 647//26 640//23
f 640//23 646//108 639//25
f 637//125 617//50 624//124
f 644//103 609//330 617//50
f 656//341 650//342 657//343
f 644//103 638//209 645//15
f 545//344 655//195 648//315
f 648//315 654//150 647//26
f 647//26 653//197 646//108
f 645//15 642//345 649//346
f 649//346 643//347 650//342
f 659//94 656//341 663//348
f 663//348 657//343 664//349
f 538//350 662//79 655//195
f 655//195 661//351 654//150
f 654//150 660//166 653//197
f 651//296 645//15 652//203
f 652//203 649//346 656//341
f 665//6 659//94 666//352
f 666//352 663//348 670//353
f 531//78 669//354 662//79
f 662//79 668//281 661//351
f 661//351 667//339 660//166
f 670//353 664//349 671//355
f 658//202 652//203 659//94
f 594//77 669//354 524//300
f 597//325 668//281 669//354
f 596//326 667//339 668//281
f 600//356 671//355 601//357
f 598//31 666//352 599//283
f 600//356 608//358 607//359
f 599//283 607//359 606//68
f 598//31 606//68 605//140
f 607//359 615//360 614//361
f 606//68 614//361 613//285
f 605//140 613//285 612//362
f 614//361 622//363 621//336
f 613//285 621//336 620//46
f 612//362 620//46 616//335
f 599//283 670//353 600//356
f 612//362 660//166 605//140
f 616//335 653//197 612//362
f 616//335 639//25 646//108
f 623//40 634//268 639//25
f 3//1 11//5 12//2
f 2//4 10//7 11//5
f 1//6 9//10 10//7
f 11//5 19//9 20//8
f 10//7 18//11 19//9
f 9//10 17//14 18//11
f 19//9 28//13 29//12
f 18//11 27//15 28//13
f 17//14 26//18 27//15
f 28//13 36//17 37//16
f 27//15 35//19 36//17
f 26//18 34//49 35//19
f 330//20 325//27 39//21
f 38//23 30//26 25//24
f 39//21 31//28 30//26
f 325//27 323//86 31//28
f 42//29 38//23 33//25
f 43//22 39//21 38//23
f 83//31 75//69 13//32
f 48//34 47//37 53//35
f 47//37 46//39 52//38
f 46//39 45//87 51//40
f 9//10 73//42 65//41
f 1//6 81//43 73//42
f 1//6 83//31 5//33
f 54//36 53//35 61//44
f 53//35 52//38 60//46
f 52//38 51//40 59//47
f 26//18 57//50 49//48
f 17//14 65//41 57//50
f 71//51 328//65 326//52
f 57//50 58//59 50//54
f 62//45 61//44 69//55
f 61//44 60//46 68//57
f 60//46 59//47 67//58
f 58//59 63//53 55//60
f 63//53 326//52 327//61
f 74//62 79//64 71//51
f 79//64 329//75 328//65
f 70//56 69//55 77//66
f 69//55 68//57 76//68
f 68//57 67//58 75//69
f 65//41 66//63 58//59
f 66//63 71//51 63//53
f 81//43 82//70 74//62
f 82//70 87//74 79//64
f 78//67 77//66 85//71
f 77//66 76//68 84//73
f 76//68 75//69 83//31
f 87//74 321//77 329//75
f 73//42 74//62 66//63
f 85//71 3//1 4//3
f 84//73 2//4 3//1
f 83//31 1//6 2//4
f 7//76 320//300 321//77
f 5//33 6//80 82//70
f 322//78 320//300 7//76
f 15//79 7//76 6//80
f 14//81 6//80 5//33
f 324//82 322//78 15//79
f 23//83 15//79 14//81
f 22//84 14//81 13//32
f 323//86 324//82 23//83
f 31//28 23//83 22//84
f 30//26 22//84 21//85
f 6//80 7//76 87//74
f 75//69 67//58 21//85
f 67//58 59//47 25//24
f 51//40 33//25 25//24
f 45//87 41//30 33//25
f 91//88 98//92 80//89
f 90//91 97//94 98//92
f 89//93 96//97 97//94
f 98//92 105//96 72//95
f 97//94 104//11 105//96
f 96//97 103//14 104//11
f 105//96 113//99 64//98
f 104//11 112//100 113//99
f 103//14 111//103 112//100
f 113//99 120//102 56//101
f 112//100 119//19 120//102
f 111//103 118//125 119//19
f 341//104 336//27 122//105
f 121//107 114//109 110//108
f 122//105 115//28 114//109
f 336//27 334//86 115//28
f 125//110 121//107 117//25
f 126//106 122//105 121//107
f 161//31 154//140 99//111
f 44//113 130//116 135//114
f 130//116 129//39 134//117
f 129//39 128//152 133//40
f 96//97 152//119 145//118
f 89//93 159//43 152//119
f 89//93 161//31 92//112
f 40//115 135//114 142//120
f 135//114 134//117 141//122
f 134//117 133//40 140//123
f 111//103 138//126 131//124
f 103//14 145//118 138//126
f 150//51 339//65 337//127
f 138//126 139//132 132//54
f 32//121 142//120 149//129
f 142//120 141//122 148//57
f 141//122 140//123 147//131
f 139//132 143//128 136//133
f 143//128 337//127 338//134
f 153//135 157//137 150//51
f 157//137 340//145 339//65
f 24//130 149//129 156//138
f 149//129 148//57 155//68
f 148//57 147//131 154//140
f 145//118 146//136 139//132
f 146//136 150//51 143//128
f 159//43 160//141 153//135
f 160//141 164//74 157//137
f 16//139 156//138 163//142
f 156//138 155//68 162//144
f 155//68 154//140 161//31
f 164//74 332//77 340//145
f 152//119 153//135 146//136
f 163//142 91//88 88//90
f 162//144 90//91 91//88
f 161//31 89//93 90//91
f 94//146 331//364 332//77
f 92//112 93//148 160//141
f 333//78 331//364 94//146
f 101//147 94//146 93//148
f 100//149 93//148 92//112
f 335//82 333//78 101//147
f 108//83 101//147 100//149
f 107//150 100//149 99//111
f 334//86 335//82 108//83
f 115//28 108//83 107//150
f 114//109 107//150 106//151
f 93//148 94//146 164//74
f 154//140 147//131 106//151
f 147//131 140//123 110//108
f 133//40 117//25 110//108
f 128//152 124//30 117//25
f 168//88 175//155 158//153
f 167//4 174//7 175//155
f 166//6 173//10 174//7
f 175//155 182//157 151//156
f 174//7 181//11 182//157
f 173//10 180//14 181//11
f 182//157 190//99 144//158
f 181//11 189//15 190//99
f 180//14 188//18 189//15
f 190//99 197//160 137//159
f 189//15 196//161 197//160
f 188//18 195//49 196//161
f 352//162 347//164 199//21
f 198//107 191//109 187//108
f 199//21 192//28 191//109
f 347//164 345//198 192//28
f 202//29 198//107 194//163
f 203//22 199//21 198//107
f 238//165 231//140 176//166
f 127//168 207//171 212//169
f 207//171 206//172 211//117
f 206//172 205//87 210//173
f 173//10 229//42 222//41
f 166//6 236//43 229//42
f 166//6 238//165 169//167
f 123//170 212//169 219//174
f 212//169 211//117 218//122
f 211//117 210//173 217//47
f 188//18 215//50 208//175
f 180//14 222//41 215//50
f 227//176 350//65 348//177
f 215//50 216//183 209//179
f 116//121 219//174 226//180
f 219//174 218//122 225//57
f 218//122 217//47 224//182
f 216//183 220//178 213//133
f 220//178 348//177 349//184
f 230//185 234//64 227//176
f 234//64 351//191 350//65
f 109//181 226//180 233//186
f 226//180 225//57 232//188
f 225//57 224//182 231//140
f 222//41 223//63 216//183
f 223//63 227//176 220//178
f 236//43 237//70 230//185
f 237//70 241//74 234//64
f 102//187 233//186 240//189
f 233//186 232//188 239//73
f 232//188 231//140 238//165
f 241//74 343//77 351//191
f 229//42 230//185 223//63
f 240//189 168//88 165//154
f 239//73 167//4 168//88
f 238//165 166//6 167//4
f 171//146 342//300 343//77
f 169//167 170//148 237//70
f 344//192 342//300 171//146
f 178//79 171//146 170//148
f 177//193 170//148 169//167
f 346//194 344//192 178//79
f 185//195 178//79 177//193
f 184//196 177//193 176//166
f 345//198 346//194 185//195
f 192//28 185//195 184//196
f 191//109 184//196 183//197
f 170//148 171//146 241//74
f 231//140 224//182 183//197
f 224//182 217//47 187//108
f 210//173 194//163 187//108
f 205//87 201//30 194//163
f 245//199 252//200 235//89
f 244//4 251//7 252//200
f 243//93 250//202 251//7
f 252//200 259//157 228//201
f 251//7 258//203 259//157
f 250//202 257//204 258//203
f 259//157 267//99 221//158
f 258//203 266//205 267//99
f 257//204 265//208 266//205
f 267//99 274//207 214//206
f 266//205 273//209 274//207
f 265//208 272//125 273//209
f 281//210 277//216 276//211
f 275//213 268//109 264//214
f 276//211 269//217 268//109
f 277//216 270//245 269//217
f 279//110 275//213 271//215
f 280//212 276//211 275//213
f 315//31 308//235 253//166
f 204//219 284//221 289//114
f 284//221 283//39 288//222
f 283//39 282//152 287//223
f 250//202 306//119 299//118
f 243//93 313//43 306//119
f 243//93 315//31 246//33
f 200//220 289//114 296//174
f 289//114 288//222 295//122
f 288//222 287//223 294//47
f 265//208 292//126 285//48
f 257//204 299//118 292//126
f 304//225 305//233 298//226
f 292//126 293//132 286//228
f 193//224 296//174 303//129
f 296//174 295//122 302//57
f 295//122 294//47 301//131
f 293//132 297//227 290//229
f 297//227 298//226 291//230
f 307//62 311//232 304//225
f 311//232 312//238 305//233
f 186//130 303//129 310//186
f 303//129 302//57 309//188
f 302//57 301//131 308//235
f 299//118 300//231 293//132
f 300//231 304//225 297//227
f 313//43 314//236 307//62
f 314//236 318//237 311//232
f 179//234 310//186 317//142
f 310//186 309//188 316//73
f 309//188 308//235 315//31
f 318//237 319//240 312//238
f 306//119 307//62 300//231
f 317//142 245//199 242//90
f 316//73 244//4 245//199
f 315//31 243//93 244//4
f 248//239 249//365 319//240
f 246//33 247//80 314//236
f 256//241 249//365 248//239
f 255//242 248//239 247//80
f 254//81 247//80 246//33
f 263//243 256//241 255//242
f 262//244 255//242 254//81
f 261//150 254//81 253//166
f 270//245 263//243 262//244
f 269//217 262//244 261//150
f 268//109 261//150 260//151
f 247//80 248//239 318//237
f 308//235 301//131 260//151
f 301//131 294//47 264//214
f 287//223 271//215 264//214
f 282//152 278//218 271//215
f 364//246 363//249 355//247
f 363//249 362//62 354//236
f 362//62 361//119 353//43
f 372//250 371//251 363//249
f 371//251 370//252 362//62
f 370//252 369//41 361//119
f 381//253 380//254 371//251
f 380//254 379//255 370//252
f 379//255 378//258 369//41
f 389//256 388//257 380//254
f 388//257 387//179 379//255
f 387//179 386//175 378//258
f 391//114 677//170 682//259
f 377//261 382//122 390//222
f 382//122 383//262 391//114
f 383//262 675//286 677//170
f 385//40 390//222 394//172
f 390//222 391//114 395//260
f 365//140 427//166 435//112
f 400//264 406//270 405//265
f 399//266 405//265 404//107
f 398//267 404//107 403//163
f 417//14 425//269 361//119
f 425//269 433//93 353//43
f 357//31 435//112 353//43
f 406//270 414//273 413//271
f 405//265 413//271 412//26
f 404//107 412//26 411//214
f 401//272 409//103 378//258
f 409//103 417//14 369//41
f 423//96 415//99 678//98
f 409//103 401//272 402//19
f 414//273 422//275 421//274
f 413//271 421//274 420//84
f 412//26 420//84 419//85
f 410//15 402//19 407//102
f 415//99 407//102 679//101
f 426//7 418//11 423//96
f 431//92 423//96 680//201
f 422//275 430//279 429//276
f 421//274 429//276 428//277
f 420//84 428//277 427//166
f 417//14 409//103 410//15
f 418//11 410//15 415//99
f 433//93 425//269 426//7
f 434//278 426//7 431//92
f 430//279 438//282 437//280
f 429//276 437//280 436//281
f 428//277 436//281 435//112
f 439//88 431//92 681//89
f 425//269 417//14 418//11
f 356//248 355//247 437//280
f 355//247 354//236 436//281
f 354//236 353//43 435//112
f 359//142 439//88 673//90
f 357//31 433//93 434//278
f 359//142 672//143 674//187
f 358//283 359//142 367//186
f 357//31 358//283 366//68
f 367//186 674//187 676//284
f 366//68 367//186 375//180
f 365//140 366//68 374//285
f 375//180 676//284 675//286
f 374//285 375//180 383//262
f 373//131 374//285 382//122
f 358//283 434//278 439//88
f 373//131 419//85 427//166
f 377//261 411//214 419//85
f 377//261 385//40 403//163
f 385//40 393//263 397//268
f 432//287 450//137 443//288
f 450//137 449//62 442//236
f 449//62 448//119 441//43
f 424//65 457//176 450//137
f 457//176 456//231 449//62
f 456//231 455//118 448//119
f 416//177 465//289 457//176
f 465//289 464//183 456//231
f 464//183 463//126 455//118
f 408//290 472//133 465//289
f 472//133 471//228 464//183
f 471//228 470//48 463//126
f 474//291 688//220 693//292
f 462//261 466//46 473//117
f 466//46 467//262 474//291
f 467//262 686//305 688//220
f 469//40 473//117 477//294
f 473//117 474//291 478//293
f 451//295 506//32 513//167
f 396//104 392//27 487//21
f 482//106 487//21 486//23
f 481//110 486//23 485//25
f 497//296 504//10 448//119
f 504//10 511//93 441//43
f 444//31 513//167 441//43
f 392//27 384//86 494//28
f 487//21 494//28 493//109
f 486//23 493//109 492//108
f 483//49 490//208 463//126
f 490//208 497//296 455//118
f 502//96 495//99 689//98
f 490//208 483//49 484//19
f 384//86 376//194 501//83
f 494//28 501//83 500//150
f 493//109 500//150 499//297
f 491//100 484//19 488//160
f 495//99 488//160 690//206
f 505//7 498//203 502//96
f 509//200 502//96 691//201
f 376//194 368//78 508//298
f 501//83 508//298 507//81
f 500//150 507//81 506//32
f 497//296 490//208 491//100
f 498//203 491//100 495//99
f 511//93 504//10 505//7
f 512//4 505//7 509//200
f 368//78 360//300 515//76
f 508//298 515//76 514//80
f 507//81 514//80 513//167
f 516//88 509//200 692//89
f 504//10 497//296 498//203
f 440//77 443//288 515//76
f 443//288 442//236 514//80
f 442//236 441//43 513//167
f 446//301 516//88 684//299
f 444//31 511//93 512//4
f 446//301 683//190 685//302
f 445//73 446//301 453//186
f 444//31 445//73 452//303
f 453//186 685//302 687//181
f 452//303 453//186 460//304
f 451//295 452//303 459//57
f 460//304 687//181 686//305
f 459//57 460//304 467//262
f 458//182 459//57 466//46
f 445//73 512//4 516//88
f 458//182 499//297 506//32
f 462//261 492//108 499//297
f 462//261 469//40 485//25
f 469//40 476//87 480//30
f 510//191 527//137 520//288
f 527//137 526//62 519//236
f 526//62 525//42 518//43
f 503//306 534//51 527//137
f 534//51 533//252 526//62
f 533//252 532//41 525//42
f 496//52 542//178 534//51
f 542//178 541//183 533//252
f 541//183 540//258 532//41
f 489//307 549//60 542//178
f 549//60 548//54 541//183
f 548//54 547//48 540//258
f 551//169 699//220 704//113
f 539//47 543//308 550//38
f 543//308 544//309 551//169
f 544//309 697//121 699//220
f 546//223 550//38 554//172
f 550//38 551//169 555//260
f 528//140 583//32 590//167
f 479//310 475//314 564//21
f 559//106 564//21 563//311
f 558//110 563//311 562//163
f 574//14 581//313 525//42
f 581//313 588//93 518//43
f 521//165 590//167 518//43
f 475//314 468//86 571//315
f 564//21 571//315 570//26
f 563//311 570//26 569//24
f 560//125 567//208 540//258
f 567//208 574//14 532//41
f 579//96 572//99 700//158
f 567//208 560//125 561//209
f 468//86 461//318 578//317
f 571//315 578//317 577//196
f 570//26 577//196 576//85
f 568//316 561//209 565//207
f 572//99 565//207 701//206
f 582//7 575//11 579//96
f 586//92 579//96 702//95
f 461//318 454//320 585//79
f 578//317 585//79 584//319
f 577//196 584//319 583//32
f 574//14 567//208 568//316
f 575//11 568//316 572//99
f 588//93 581//313 582//7
f 589//4 582//7 586//92
f 454//320 447//300 592//76
f 585//79 592//76 591//321
f 584//319 591//321 590//167
f 593//88 586//92 703//89
f 581//313 574//14 575//11
f 517//77 520//288 592//76
f 520//288 519//236 591//321
f 519//236 518//43 590//167
f 523//142 593//88 695//299
f 521//165 588//93 589//4
f 523//142 694//190 696//322
f 522//144 523//142 530//186
f 521//165 522//144 529//323
f 530//186 696//322 698//130
f 529//323 530//186 537//324
f 528//140 529//323 536//57
f 537//324 698//130 697//121
f 536//57 537//324 544//309
f 535//131 536//57 543//308
f 522//144 589//4 593//88
f 535//131 576//85 583//32
f 539//47 569//24 576//85
f 539//47 546//223 562//163
f 546//223 553//263 557//312
f 587//287 604//137 597//325
f 604//137 603//135 596//326
f 603//135 602//119 595//327
f 580//65 611//51 604//137
f 611//51 610//252 603//135
f 610//252 609//330 602//119
f 573//328 619//128 611//51
f 619//128 618//329 610//252
f 618//329 617//50 609//330
f 566//184 626//331 619//128
f 626//331 625//228 618//329
f 625//228 624//124 617//50
f 628//332 629//337 633//333
f 616//335 620//46 627//117
f 620//46 621//336 628//332
f 621//336 622//363 629//337
f 623//40 627//117 631//39
f 627//117 628//332 632//334
f 605//140 660//166 667//339
f 556//340 552//27 641//105
f 636//106 641//105 640//23
f 635//267 640//23 639//25
f 651//296 658//202 602//119
f 658//202 665//6 595//327
f 598//31 667//339 595//327
f 552//27 545//344 648//315
f 641//105 648//315 647//26
f 640//23 647//26 646//108
f 637//125 644//103 617//50
f 644//103 651//296 609//330
f 656//341 649//346 650//342
f 644//103 637//125 638//209
f 545//344 538//350 655//195
f 648//315 655//195 654//150
f 647//26 654//150 653//197
f 645//15 638//209 642//345
f 649//346 642//345 643//347
f 659//94 652//203 656//341
f 663//348 656//341 657//343
f 538//350 531//78 662//79
f 655//195 662//79 661//351
f 654//150 661//351 660//166
f 651//296 644//103 645//15
f 652//203 645//15 649//346
f 665//6 658//202 659//94
f 666//352 659//94 663//348
f 531//78 524//300 669//354
f 662//79 669//354 668//281
f 661//351 668//281 667//339
f 670//353 663//348 664//349
f 658//202 651//296 652//203
f 594//77 597//325 669//354
f 597//325 596//326 668//281
f 596//326 595//327 667//339
f 600//356 670//353 671//355
f 598//31 665//6 666//352
f 600//356 601//357 608//358
f 599//283 600//356 607//359
f 598//31 599//283 606//68
f 607//359 608//358 615//360
f 606//68 607//359 614//361
f 605//140 606//68 613//285
f 614//361 615//360 622//363
f 613//285 614//361 621//336
f 612//362 613//285 620//46
f 599//283 666//352 670//353
f 612//362 653//197 660//166
f 616//335 646//108 653//197
f 616//335 623//40 639//25
f 623//40 630//338 634//268
