# Blender v2.82 (sub 7) OBJ File: 'Dragon.blend'
# www.blender.org
o SwordDecoration2_Esfera.002
v -1.938678 3.788730 5.917132
v -1.947571 3.789251 5.925433
v -1.956198 3.789732 5.932680
v -1.964229 3.790153 5.938595
v -1.971354 3.790498 5.942951
v -1.977300 3.790755 5.945580
v -1.981838 3.790913 5.946381
v -1.984794 3.790967 5.945323
v -1.938146 3.792610 5.916562
v -1.946526 3.796862 5.924313
v -1.954681 3.800781 5.931054
v -1.962298 3.804216 5.936526
v -1.969084 3.807035 5.940517
v -1.974777 3.809130 5.942876
v -1.979160 3.810420 5.943510
v -1.982064 3.810855 5.942397
v -1.936822 3.796057 5.915143
v -1.943931 3.803624 5.921531
v -1.950913 3.810598 5.927015
v -1.957503 3.816710 5.931385
v -1.963445 3.821727 5.934472
v -1.968512 3.825454 5.936158
v -1.972508 3.827750 5.936379
v -1.975282 3.828525 5.935126
v -1.934838 3.798734 5.913016
v -1.940039 3.808875 5.917358
v -1.945263 3.818221 5.920957
v -1.950311 3.826413 5.923675
v -1.954988 3.833136 5.925406
v -1.959115 3.838131 5.926085
v -1.962533 3.841208 5.925685
v -1.965111 3.842246 5.924222
v -1.932387 3.800378 5.910388
v -1.935231 3.812101 5.912204
v -1.938283 3.822904 5.913475
v -1.941428 3.832374 5.914151
v -1.944543 3.840145 5.914207
v -1.947509 3.845919 5.913642
v -1.950212 3.849475 5.912476
v -1.952548 3.850676 5.910754
v -1.929710 3.800830 5.907517
v -1.929978 3.812986 5.906573
v -1.930658 3.824189 5.905299
v -1.931722 3.834009 5.903746
v -1.933130 3.842068 5.901972
v -1.934827 3.848056 5.900047
v -1.936750 3.851744 5.898044
v -1.938822 3.852989 5.896039
v -1.927067 3.800043 5.904685
v -1.924795 3.811444 5.901016
v -1.923132 3.821950 5.897232
v -1.922144 3.831159 5.893478
v -1.921867 3.838717 5.889898
v -1.922313 3.844332 5.886631
v -1.923464 3.847791 5.883801
v -1.925277 3.848958 5.881518
v -1.924718 3.798096 5.902167
v -1.920188 3.807625 5.896077
v -1.916444 3.816406 5.890061
v -1.913631 3.824103 5.884352
v -1.911857 3.830419 5.879167
v -1.911191 3.835113 5.874707
v -1.911657 3.838003 5.871143
v -1.913238 3.838979 5.868611
v -1.922894 3.795180 5.900210
v -1.916608 3.801903 5.892239
v -1.911247 3.808100 5.884490
v -1.907017 3.813531 5.877261
v -1.904080 3.817988 5.870830
v -1.902549 3.821300 5.865443
v -1.902483 3.823340 5.861308
v -1.903884 3.824028 5.858584
v -1.921771 3.791579 5.899007
v -1.914406 3.794839 5.889879
v -1.908051 3.797844 5.881063
v -1.902949 3.800478 5.872900
v -1.899297 3.802640 5.865701
v -1.897234 3.804246 5.859745
v -1.896840 3.805235 5.855259
v -1.898131 3.805569 5.852416
v -1.921461 3.787645 5.898675
v -1.913798 3.787124 5.889227
v -1.907168 3.786644 5.880117
v -1.901825 3.786222 5.871695
v -1.897975 3.785877 5.864285
v -1.895766 3.785620 5.858171
v -1.895282 3.785462 5.853588
v -1.896542 3.785408 5.850712
v -1.921994 3.783765 5.899246
v -1.914843 3.779513 5.890347
v -1.908685 3.775594 5.881743
v -1.903756 3.772159 5.873765
v -1.900245 3.769340 5.866718
v -1.898288 3.767245 5.860874
v -1.897959 3.765955 5.856458
v -1.899272 3.765520 5.853639
v -1.923317 3.780318 5.900664
v -1.917438 3.772751 5.893129
v -1.912453 3.765777 5.885783
v -1.908551 3.759665 5.878906
v -1.905884 3.754648 5.872764
v -1.904554 3.750921 5.867592
v -1.904611 3.748625 5.863589
v -1.906054 3.747850 5.860910
v -1.925301 3.777641 5.902792
v -1.921330 3.767500 5.897302
v -1.918103 3.758154 5.891840
v -1.915743 3.749962 5.886615
v -1.914340 3.743239 5.881829
v -1.913950 3.738244 5.877665
v -1.914586 3.735168 5.874283
v -1.916224 3.734129 5.871813
v -1.927752 3.775997 5.905419
v -1.926138 3.764274 5.902456
v -1.925083 3.753471 5.899323
v -1.924626 3.744002 5.896139
v -1.924786 3.736230 5.893028
v -1.925557 3.730456 5.890108
v -1.926908 3.726900 5.887493
v -1.928787 3.725699 5.885281
v -1.930430 3.775545 5.908289
v -1.931391 3.763389 5.908087
v -1.932709 3.752186 5.907498
v -1.934332 3.742366 5.906544
v -1.936199 3.734307 5.905263
v -1.938238 3.728319 5.903703
v -1.940370 3.724631 5.901925
v -1.942513 3.723386 5.899996
v -1.933072 3.776332 5.911123
v -1.936574 3.764931 5.913644
v -1.940234 3.754425 5.915565
v -1.943910 3.745216 5.916812
v -1.947461 3.737659 5.917337
v -1.950752 3.732043 5.917119
v -1.953655 3.728584 5.916167
v -1.956059 3.727417 5.914518
v -1.929862 3.788188 5.908097
v -1.935421 3.778279 5.913640
v -1.941181 3.768750 5.918583
v -1.946922 3.759969 5.922736
v -1.952423 3.752272 5.925939
v -1.957471 3.745956 5.928068
v -1.961874 3.741262 5.929043
v -1.965462 3.738372 5.928825
v -1.968097 3.737396 5.927424
v -1.937246 3.781195 5.915597
v -1.944761 3.774472 5.922421
v -1.952119 3.768275 5.928307
v -1.959037 3.762844 5.933029
v -1.965249 3.758387 5.936406
v -1.970516 3.755075 5.938307
v -1.974636 3.753035 5.938661
v -1.977451 3.752347 5.937452
v -1.938368 3.784796 5.916800
v -1.946963 3.781536 5.924781
v -1.955315 3.778531 5.931734
v -1.963105 3.775897 5.937390
v -1.970032 3.773735 5.941534
v -1.975831 3.772129 5.944005
v -1.980279 3.771140 5.944710
v -1.983204 3.770806 5.943619
v -2.034504 3.790967 5.898954
v -2.035764 3.790913 5.896079
v -2.035280 3.790755 5.891496
v -2.033071 3.790498 5.885382
v -2.029221 3.790153 5.877972
v -2.023878 3.789732 5.869549
v -2.017248 3.789251 5.860439
v -2.009585 3.788730 5.850992
v -2.031774 3.810855 5.896028
v -2.033087 3.810420 5.893209
v -2.032758 3.809130 5.888792
v -2.030801 3.807035 5.882948
v -2.027290 3.804216 5.875902
v -2.022361 3.800781 5.867923
v -2.016203 3.796862 5.859320
v -2.009052 3.792610 5.850421
v -2.024992 3.828525 5.888757
v -2.026435 3.827750 5.886077
v -2.026492 3.825454 5.882075
v -2.025162 3.821727 5.876903
v -2.022495 3.816710 5.870761
v -2.018593 3.810598 5.863884
v -2.013608 3.803624 5.856537
v -2.007729 3.796057 5.849002
v -2.014822 3.842246 5.877853
v -2.016460 3.841208 5.875383
v -2.017096 3.838131 5.872002
v -2.016706 3.833136 5.867837
v -2.015303 3.826413 5.863051
v -2.012943 3.818221 5.857826
v -2.009716 3.808875 5.852365
v -2.005745 3.798734 5.846875
v -2.002258 3.850676 5.864385
v -2.004138 3.849475 5.862174
v -2.005489 3.845919 5.859559
v -2.006260 3.840145 5.856639
v -2.006420 3.832373 5.853528
v -2.005963 3.822904 5.850344
v -2.004908 3.812101 5.847210
v -2.003294 3.800378 5.844248
v -1.988532 3.852989 5.849670
v -1.990676 3.851744 5.847742
v -1.992808 3.848056 5.845963
v -1.994847 3.842068 5.844404
v -1.996714 3.834009 5.843122
v -1.998337 3.824189 5.842169
v -1.999655 3.812986 5.841579
v -2.000616 3.800830 5.841377
v -1.974987 3.848958 5.835149
v -1.977391 3.847791 5.833499
v -1.980294 3.844332 5.832548
v -1.983584 3.838717 5.832330
v -1.987136 3.831159 5.832854
v -1.990812 3.821950 5.834101
v -1.994471 3.811444 5.836022
v -1.997974 3.800043 5.838544
v -1.962948 3.838979 5.822243
v -1.965584 3.838003 5.820841
v -1.969172 3.835113 5.820624
v -1.973575 3.830419 5.821599
v -1.978623 3.824103 5.823728
v -1.984124 3.816406 5.826931
v -1.989864 3.807625 5.831083
v -1.995625 3.798096 5.836026
v -1.953595 3.824028 5.812215
v -1.956409 3.823340 5.811006
v -1.960530 3.821300 5.811359
v -1.965797 3.817988 5.813261
v -1.972009 3.813531 5.816638
v -1.978927 3.808100 5.821360
v -1.986285 3.801903 5.827246
v -1.993800 3.795180 5.834070
v -1.947842 3.805569 5.806047
v -1.950767 3.805235 5.804957
v -1.955215 3.804246 5.805661
v -1.961014 3.802640 5.808133
v -1.967941 3.800478 5.812276
v -1.975731 3.797844 5.817933
v -1.984083 3.794839 5.824885
v -1.992678 3.791579 5.832866
v -1.946252 3.785408 5.804343
v -1.949208 3.785462 5.803286
v -1.953746 3.785620 5.804087
v -1.959692 3.785877 5.806716
v -1.966817 3.786222 5.811071
v -1.974848 3.786644 5.816987
v -1.983475 3.787124 5.824234
v -1.992368 3.787645 5.832534
v -1.948982 3.765520 5.807270
v -1.951886 3.765955 5.806156
v -1.956268 3.767245 5.806791
v -1.961962 3.769340 5.809149
v -1.968748 3.772159 5.813141
v -1.976364 3.775594 5.818613
v -1.984520 3.779513 5.825354
v -1.992900 3.783765 5.833105
v -1.955764 3.747850 5.814541
v -1.958537 3.748625 5.813287
v -1.962534 3.750921 5.813508
v -1.967601 3.754648 5.815195
v -1.973543 3.759665 5.818282
v -1.980132 3.765777 5.822652
v -1.987115 3.772751 5.828136
v -1.994223 3.780318 5.834524
v -1.965935 3.734129 5.825444
v -1.968512 3.735168 5.823981
v -1.971931 3.738244 5.823581
v -1.976058 3.743239 5.824260
v -1.980735 3.749962 5.825992
v -1.985783 3.758154 5.828709
v -1.991007 3.767500 5.832308
v -1.996208 3.777641 5.836650
v -1.978498 3.725699 5.838912
v -1.980834 3.726900 5.837191
v -1.983537 3.730456 5.836024
v -1.986503 3.736230 5.835459
v -1.989618 3.744002 5.835515
v -1.992762 3.753471 5.836192
v -1.995815 3.764274 5.837462
v -1.998659 3.775997 5.839278
v -1.992224 3.723386 5.853627
v -1.994296 3.724631 5.851623
v -1.996218 3.728319 5.849619
v -1.997916 3.734307 5.847694
v -1.999324 3.742366 5.845921
v -2.000388 3.752186 5.844367
v -2.001068 3.763389 5.843093
v -2.001336 3.775545 5.842149
v -2.005769 3.727417 5.868149
v -2.007581 3.728584 5.865865
v -2.008733 3.732043 5.863035
v -2.009179 3.737658 5.859768
v -2.008902 3.745216 5.856189
v -2.007914 3.754425 5.852435
v -2.006251 3.764931 5.848651
v -2.003979 3.776332 5.844982
v -2.017808 3.737396 5.881055
v -2.019389 3.738372 5.878523
v -2.019855 3.741262 5.874959
v -2.019188 3.745956 5.870499
v -2.017415 3.752272 5.865315
v -2.014602 3.759969 5.859605
v -2.010858 3.768750 5.853590
v -2.006328 3.778279 5.847500
v -2.027162 3.752347 5.891083
v -2.028563 3.753035 5.888359
v -2.028497 3.755075 5.884223
v -2.026966 3.758387 5.878837
v -2.024029 3.762844 5.872406
v -2.019799 3.768275 5.865176
v -2.014438 3.774472 5.857427
v -2.008152 3.781195 5.849456
v -2.032915 3.770806 5.897250
v -2.034205 3.771140 5.894408
v -2.033812 3.772129 5.889922
v -2.031749 3.773735 5.883965
v -2.028097 3.775897 5.876767
v -2.022995 3.778531 5.868603
v -2.016639 3.781536 5.859787
v -2.009275 3.784796 5.850659
v -2.001184 3.788188 5.841569
vn 0.6162 0.0065 0.7876
vn 0.6653 0.0340 0.7458
vn 0.6228 0.0542 0.7805
vn -0.3358 0.0383 0.9411
vn -0.0649 0.2768 0.9587
vn -0.2969 0.3196 0.8998
vn 0.2820 0.0212 0.9592
vn 0.4733 0.1172 0.8731
vn 0.3037 0.1773 0.9361
vn 0.5547 0.0096 0.8320
vn 0.5644 0.0801 0.8216
vn 0.6612 0.0041 0.7502
vn 0.6997 0.0167 0.7143
vn -0.0986 0.0332 0.9946
vn 0.4589 0.0140 0.8883
vn 0.6756 0.0605 0.7348
vn 0.6391 0.0966 0.7630
vn 0.0183 0.4935 0.8695
vn -0.2972 0.6407 0.7079
vn 0.5086 0.2089 0.8353
vn 0.3571 0.3160 0.8790
vn 0.5886 0.1428 0.7957
vn 0.7047 0.0298 0.7089
vn 0.6909 0.0812 0.7183
vn 0.6636 0.1295 0.7367
vn 0.1435 0.6620 0.7356
vn -0.2247 0.8162 0.5322
vn 0.5616 0.2802 0.7785
vn 0.4373 0.4238 0.7931
vn 0.6248 0.1915 0.7569
vn 0.7122 0.0400 0.7008
vn 0.7099 0.0939 0.6980
vn 0.6938 0.1498 0.7043
vn 0.2981 0.7656 0.5699
vn -0.0342 0.9441 0.3280
vn 0.6270 0.3240 0.7084
vn 0.5363 0.4901 0.6871
vn 0.6695 0.2214 0.7090
vn 0.7216 0.0462 0.6907
vn 0.7269 0.1554 0.6689
vn 0.1739 0.9792 0.1048
vn 0.6444 0.5084 0.5712
vn 0.7184 0.2297 0.6566
vn 0.7306 0.0974 0.6758
vn 0.4669 0.7942 0.3889
vn 0.6985 0.3361 0.6318
vn 0.7595 0.1458 0.6340
vn 0.3886 0.9210 -0.0273
vn 0.7509 0.4769 0.4568
vn 0.7665 0.2155 0.6049
vn 0.7318 0.0480 0.6798
vn 0.7510 0.0914 0.6539
vn 0.6333 0.7448 0.2103
vn 0.7689 0.3153 0.5562
vn 0.7884 0.1219 0.6029
vn 0.6794 0.7188 -0.1473
vn 0.8455 0.3986 0.3552
vn 0.8093 0.1802 0.5590
vn 0.7418 0.0450 0.6691
vn 0.7692 0.0764 0.6344
vn 0.7809 0.6225 0.0518
vn 0.8315 0.2636 0.4890
vn 0.8109 0.0860 0.5788
vn 0.8117 0.5074 -0.2893
vn 0.9189 0.2815 0.2764
vn 0.8425 0.1272 0.5234
vn 0.7508 0.0376 0.6594
vn 0.7833 0.0540 0.6193
vn 0.8954 0.4395 -0.0712
vn 0.8800 0.1861 0.4369
vn 0.8247 0.0418 0.5640
vn 0.8930 0.2465 -0.3765
vn 0.9640 0.1368 0.2280
vn 0.8629 0.0618 0.5015
vn 0.7578 0.0266 0.6519
vn 0.7920 0.0262 0.6100
vn 0.9658 0.2135 -0.1467
vn 0.9099 0.0904 0.4049
vn 0.7943 -0.0041 0.6074
vn 0.8285 -0.0065 0.5600
vn 0.9853 -0.0332 -0.1675
vn 0.9155 -0.0383 -0.4005
vn 0.9181 -0.0140 0.3961
vn 0.9764 -0.0212 0.2147
vn 0.8685 -0.0096 0.4955
vn 0.7632 -0.0020 0.6462
vn 0.7902 -0.0340 0.6119
vn 0.8219 -0.0542 0.5670
vn 0.9519 -0.2768 -0.1315
vn 0.8769 -0.3197 -0.3589
vn 0.9038 -0.1172 0.4115
vn 0.9550 -0.1773 0.2379
vn 0.8588 -0.0801 0.5060
vn 0.7611 -0.0167 0.6484
vn 0.7799 -0.0606 0.6229
vn 0.8055 -0.0966 0.5846
vn 0.8687 -0.4936 -0.0421
vn 0.7808 -0.5700 -0.2557
vn 0.8686 -0.2089 0.4494
vn 0.9016 -0.3160 0.2952
vn 0.8347 -0.1428 0.5319
vn 0.7561 -0.0298 0.6538
vn 0.7646 -0.0812 0.6394
vn 0.7811 -0.1295 0.6108
vn 0.7438 -0.6620 0.0921
vn 0.6367 -0.7645 -0.1008
vn 0.8156 -0.2802 0.5062
vn 0.8216 -0.4238 0.3811
vn 0.7985 -0.1915 0.5708
vn 0.7486 -0.0400 0.6618
vn 0.7456 -0.0939 0.6597
vn 0.7508 -0.1498 0.6433
vn 0.5893 -0.7657 0.2578
vn 0.4584 -0.8842 0.0904
vn 0.7502 -0.3240 0.5763
vn 0.7227 -0.4902 0.4873
vn 0.7537 -0.2214 0.6187
vn 0.7392 -0.0462 0.6718
vn 0.7178 -0.1554 0.6787
vn 0.2633 -0.9170 0.2995
vn 0.6146 -0.5084 0.6031
vn 0.7049 -0.2297 0.6710
vn 0.7249 -0.0974 0.6819
vn 0.4204 -0.7942 0.4388
vn 0.6788 -0.3361 0.6529
vn 0.6852 -0.1458 0.7136
vn 0.0709 -0.8600 0.5053
vn 0.5079 -0.4769 0.7173
vn 0.6567 -0.2155 0.7226
vn 0.7290 -0.0480 0.6829
vn 0.7045 -0.0914 0.7038
vn 0.2538 -0.7448 0.6171
vn 0.6082 -0.3153 0.7284
vn 0.6562 -0.1219 0.7446
vn -0.0998 -0.7187 0.6881
vn 0.4131 -0.3987 0.8188
vn 0.6139 -0.1802 0.7685
vn 0.7189 -0.0450 0.6937
vn 0.6863 -0.0764 0.7233
vn 0.1059 -0.6225 0.7754
vn 0.5456 -0.2636 0.7955
vn 0.6337 -0.0861 0.7687
vn -0.2321 -0.5073 0.8299
vn 0.3397 -0.2814 0.8974
vn 0.5806 -0.1272 0.8041
vn 0.7100 -0.0376 0.7031
vn 0.6722 -0.0540 0.7384
vn -0.0087 -0.4394 0.8982
vn 0.4970 -0.1861 0.8475
vn 0.6200 -0.0418 0.7835
vn -0.3137 -0.2465 0.9170
vn 0.2944 -0.1368 0.9458
vn 0.5602 -0.0618 0.8260
vn 0.7031 -0.0266 0.7106
vn 0.6635 -0.0262 0.7477
vn -0.0793 -0.2135 0.9737
vn 0.4671 -0.0905 0.8795
vn 0.6976 0.0020 0.7165
vn 0.6988 -0.0129 0.7152
vn 0.7313 0.0000 0.6821
vn 0.7620 0.0129 0.6474
vn -0.8285 0.0065 -0.5599
vn -0.7902 0.0339 -0.6119
vn -0.7943 0.0040 -0.6075
vn -0.9181 0.0140 -0.3961
vn -0.8588 0.0801 -0.5060
vn -0.8685 0.0096 -0.4955
vn -0.9853 0.0332 0.1676
vn -0.9550 0.1772 -0.2378
vn -0.9764 0.0212 -0.2147
vn -0.7612 0.0168 -0.6483
vn -0.7632 0.0020 -0.6461
vn -0.8219 0.0542 -0.5670
vn -0.9039 0.1172 -0.4114
vn -0.9154 0.0384 0.4006
vn -0.9519 0.2768 0.1314
vn -0.7799 0.0605 -0.6229
vn -0.8347 0.1428 -0.5319
vn -0.9016 0.3160 -0.2953
vn -0.7561 0.0298 -0.6537
vn -0.8056 0.0966 -0.5846
vn -0.8686 0.2089 -0.4494
vn -0.8769 0.3196 0.3588
vn -0.8687 0.4935 0.0420
vn -0.7646 0.0812 -0.6394
vn -0.7985 0.1915 -0.5707
vn -0.8216 0.4238 -0.3812
vn -0.7485 0.0400 -0.6619
vn -0.7811 0.1295 -0.6108
vn -0.8156 0.2802 -0.5061
vn -0.6855 0.6408 0.3456
vn -0.7438 0.6620 -0.0921
vn -0.7456 0.0939 -0.6597
vn -0.7537 0.2214 -0.6187
vn -0.7227 0.4901 -0.4873
vn -0.7392 0.0463 -0.6719
vn -0.7508 0.1498 -0.6433
vn -0.7502 0.3240 -0.5763
vn -0.5153 0.8162 0.2611
vn -0.5893 0.7656 -0.2578
vn -0.7178 0.1554 -0.6787
vn -0.7249 0.0974 -0.6819
vn -0.6788 0.3360 -0.6529
vn -0.7049 0.2297 -0.6710
vn -0.4204 0.7942 -0.4388
vn -0.6146 0.5084 -0.6032
vn -0.7290 0.0480 -0.6828
vn -0.1166 0.9792 -0.1662
vn -0.6852 0.1458 -0.7136
vn -0.7045 0.0914 -0.7038
vn -0.6083 0.3153 -0.7284
vn -0.6567 0.2155 -0.7226
vn -0.2538 0.7448 -0.6171
vn -0.5079 0.4769 -0.7173
vn -0.7189 0.0450 -0.6937
vn 0.0002 0.9210 -0.3895
vn -0.6562 0.1219 -0.7446
vn -0.6863 0.0764 -0.7233
vn -0.5456 0.2636 -0.7955
vn -0.6139 0.1802 -0.7685
vn -0.1059 0.6225 -0.7754
vn -0.4131 0.3987 -0.8188
vn -0.7100 0.0376 -0.7031
vn 0.0997 0.7187 -0.6880
vn -0.6337 0.0861 -0.7687
vn -0.6722 0.0540 -0.7384
vn -0.4970 0.1861 -0.8475
vn -0.5806 0.1272 -0.8041
vn 0.0088 0.4394 -0.8982
vn -0.3396 0.2815 -0.8974
vn -0.7031 0.0266 -0.7106
vn 0.2321 0.5073 -0.8299
vn -0.6200 0.0418 -0.7835
vn -0.6636 0.0262 -0.7476
vn -0.4671 0.0904 -0.8795
vn -0.5603 0.0618 -0.8260
vn 0.0793 0.2135 -0.9737
vn -0.2945 0.1368 -0.9458
vn -0.6988 0.0129 -0.7152
vn 0.3137 0.2465 -0.9170
vn -0.6612 -0.0041 -0.7502
vn -0.5546 -0.0096 -0.8320
vn -0.2820 -0.0212 -0.9592
vn -0.6976 -0.0020 -0.7165
vn -0.6161 -0.0065 -0.7876
vn -0.4590 -0.0140 -0.8883
vn 0.0988 -0.0332 -0.9945
vn -0.6653 -0.0340 -0.7458
vn -0.5644 -0.0801 -0.8216
vn -0.3036 -0.1773 -0.9361
vn -0.6996 -0.0168 -0.7143
vn -0.6228 -0.0542 -0.7805
vn -0.4732 -0.1172 -0.8731
vn 0.3360 -0.0384 -0.9411
vn 0.0651 -0.2768 -0.9587
vn -0.6756 -0.0605 -0.7348
vn -0.5886 -0.1428 -0.7957
vn -0.3571 -0.3160 -0.8790
vn -0.7046 -0.0298 -0.7089
vn -0.6391 -0.0966 -0.7630
vn -0.5086 -0.2089 -0.8352
vn 0.2972 -0.3197 -0.8997
vn -0.0183 -0.4935 -0.8695
vn -0.6910 -0.0812 -0.7183
vn -0.6248 -0.1915 -0.7569
vn -0.4373 -0.4238 -0.7931
vn -0.7122 -0.0400 -0.7008
vn -0.6636 -0.1295 -0.7367
vn -0.5616 -0.2801 -0.7785
vn 0.2008 -0.5699 -0.7968
vn -0.1436 -0.6620 -0.7356
vn -0.7099 -0.0939 -0.6980
vn -0.6695 -0.2214 -0.7089
vn -0.5363 -0.4902 -0.6871
vn -0.7216 -0.0463 -0.6907
vn -0.6939 -0.1498 -0.7043
vn -0.6270 -0.3240 -0.7084
vn 0.0562 -0.7645 -0.6422
vn -0.2981 -0.7657 -0.5699
vn -0.7269 -0.1554 -0.6689
vn -0.7306 -0.0974 -0.6758
vn -0.6985 -0.3361 -0.6318
vn -0.7184 -0.2297 -0.6566
vn -0.4669 -0.7942 -0.3889
vn -0.6444 -0.5084 -0.5712
vn -0.7317 -0.0480 -0.6798
vn -0.3170 -0.9170 -0.2420
vn -0.7595 -0.1458 -0.6340
vn -0.7511 -0.0914 -0.6539
vn -0.7689 -0.3153 -0.5562
vn -0.7665 -0.2155 -0.6049
vn -0.6333 -0.7448 -0.2103
vn -0.7509 -0.4769 -0.4568
vn -0.7418 -0.0450 -0.6690
vn -0.5090 -0.8600 -0.0357
vn -0.7884 -0.1219 -0.6029
vn -0.7692 -0.0764 -0.6344
vn -0.8314 -0.2636 -0.4891
vn -0.8093 -0.1802 -0.5590
vn -0.7809 -0.6225 -0.0518
vn -0.8455 -0.3987 -0.3553
vn -0.7508 -0.0376 -0.6594
vn -0.6794 -0.7187 0.1473
vn -0.8109 -0.0861 -0.5788
vn -0.7833 -0.0540 -0.6193
vn -0.8800 -0.1861 -0.4369
vn -0.8425 -0.1272 -0.5234
vn -0.8954 -0.4394 0.0712
vn -0.9189 -0.2815 -0.2764
vn -0.7577 -0.0266 -0.6520
vn -0.8117 -0.5073 0.2893
vn -0.8247 -0.0418 -0.5640
vn -0.7920 -0.0262 -0.6100
vn -0.9098 -0.0905 -0.4049
vn -0.8629 -0.0618 -0.5015
vn -0.9658 -0.2135 0.1469
vn -0.9640 -0.1368 -0.2280
vn -0.7620 -0.0129 -0.6474
vn -0.8929 -0.2465 0.3766
vn -0.7312 0.0000 -0.6821
vn -0.3248 0.9441 0.0568
vn -0.1221 -0.8842 -0.4508
s 1
f 3//1 10//2 11//3
f 8//4 15//5 16//6
f 6//7 13//8 14//9
f 4//10 11//3 12//11
f 2//12 9//13 10//2
f 7//14 14//9 15//5
f 5//15 12//11 13//8
f 11//3 18//16 19//17
f 16//6 23//18 24//19
f 14//9 21//20 22//21
f 12//11 19//17 20//22
f 10//2 17//23 18//16
f 15//5 22//21 23//18
f 13//8 20//22 21//20
f 19//17 26//24 27//25
f 24//19 31//26 32//27
f 22//21 29//28 30//29
f 20//22 27//25 28//30
f 18//16 25//31 26//24
f 23//18 30//29 31//26
f 21//20 28//30 29//28
f 27//25 34//32 35//33
f 32//27 39//34 40//35
f 30//29 37//36 38//37
f 28//30 35//33 36//38
f 26//24 33//39 34//32
f 31//26 38//37 39//34
f 29//28 36//38 37//36
f 34//32 43//40 35//33
f 39//34 48//41 40//35
f 37//36 46//42 38//37
f 35//33 44//43 36//38
f 33//39 42//44 34//32
f 38//37 47//45 39//34
f 36//38 45//46 37//36
f 42//44 51//47 43//40
f 47//45 56//48 48//41
f 45//46 54//49 46//42
f 43//40 52//50 44//43
f 41//51 50//52 42//44
f 46//42 55//53 47//45
f 44//43 53//54 45//46
f 50//52 59//55 51//47
f 55//53 64//56 56//48
f 53//54 62//57 54//49
f 51//47 60//58 52//50
f 49//59 58//60 50//52
f 54//49 63//61 55//53
f 52//50 61//62 53//54
f 58//60 67//63 59//55
f 63//61 72//64 64//56
f 61//62 70//65 62//57
f 59//55 68//66 60//58
f 57//67 66//68 58//60
f 62//57 71//69 63//61
f 60//58 69//70 61//62
f 66//68 75//71 67//63
f 71//69 80//72 72//64
f 69//70 78//73 70//65
f 67//63 76//74 68//66
f 65//75 74//76 66//68
f 70//65 79//77 71//69
f 68//66 77//78 69//70
f 75//71 82//79 83//80
f 80//72 87//81 88//82
f 78//73 85//83 86//84
f 76//74 83//80 84//85
f 74//76 81//86 82//79
f 79//77 86//84 87//81
f 77//78 84//85 85//83
f 83//80 90//87 91//88
f 88//82 95//89 96//90
f 86//84 93//91 94//92
f 84//85 91//88 92//93
f 82//79 89//94 90//87
f 87//81 94//92 95//89
f 85//83 92//93 93//91
f 91//88 98//95 99//96
f 96//90 103//97 104//98
f 94//92 101//99 102//100
f 92//93 99//96 100//101
f 90//87 97//102 98//95
f 95//89 102//100 103//97
f 93//91 100//101 101//99
f 99//96 106//103 107//104
f 104//98 111//105 112//106
f 102//100 109//107 110//108
f 100//101 107//104 108//109
f 98//95 105//110 106//103
f 103//97 110//108 111//105
f 101//99 108//109 109//107
f 107//104 114//111 115//112
f 112//106 119//113 120//114
f 110//108 117//115 118//116
f 108//109 115//112 116//117
f 106//103 113//118 114//111
f 111//105 118//116 119//113
f 109//107 116//117 117//115
f 114//111 123//119 115//112
f 119//113 128//120 120//114
f 117//115 126//121 118//116
f 115//112 124//122 116//117
f 113//118 122//123 114//111
f 118//116 127//124 119//113
f 116//117 125//125 117//115
f 122//123 131//126 123//119
f 127//124 136//127 128//120
f 125//125 134//128 126//121
f 123//119 132//129 124//122
f 121//130 130//131 122//123
f 126//121 135//132 127//124
f 124//122 133//133 125//125
f 130//131 140//134 131//126
f 135//132 145//135 136//127
f 133//133 143//136 134//128
f 131//126 141//137 132//129
f 129//138 139//139 130//131
f 134//128 144//140 135//132
f 132//129 142//141 133//133
f 139//139 148//142 140//134
f 144//140 153//143 145//135
f 142//141 151//144 143//136
f 140//134 149//145 141//137
f 138//146 147//147 139//139
f 143//136 152//148 144//140
f 141//137 150//149 142//141
f 147//147 156//150 148//142
f 152//148 161//151 153//143
f 150//149 159//152 151//144
f 148//142 157//153 149//145
f 146//154 155//155 147//147
f 151//144 160//156 152//148
f 149//145 158//157 150//149
f 161//151 7//14 8//4
f 159//152 5//15 6//7
f 157//153 3//1 4//10
f 155//155 1//158 2//12
f 160//156 6//7 7//14
f 158//157 4//10 5//15
f 156//150 2//12 3//1
f 154//159 137//160 1//158
f 1//158 137//160 9//13
f 9//13 137//160 17//23
f 17//23 137//160 25//31
f 25//31 137//160 33//39
f 33//39 137//160 41//51
f 41//51 137//160 49//59
f 49//59 137//160 57//67
f 57//67 137//160 65//75
f 65//75 137//160 73//161
f 73//161 137//160 81//86
f 81//86 137//160 89//94
f 89//94 137//160 97//102
f 97//102 137//160 105//110
f 105//110 137//160 113//118
f 113//118 137//160 121//130
f 121//130 137//160 129//138
f 129//138 137//160 138//146
f 138//146 137//160 146//154
f 146//154 137//160 154//159
f 167//162 176//163 168//164
f 165//165 174//166 166//167
f 163//168 172//169 164//170
f 168//164 177//171 169//172
f 166//167 175//173 167//162
f 164//170 173//174 165//165
f 162//175 171//176 163//168
f 175//173 184//177 176//163
f 173//174 182//178 174//166
f 171//176 180//179 172//169
f 176//163 185//180 177//171
f 174//166 183//181 175//173
f 172//169 181//182 173//174
f 170//183 179//184 171//176
f 183//181 192//185 184//177
f 181//182 190//186 182//178
f 179//184 188//187 180//179
f 184//177 193//188 185//180
f 182//178 191//189 183//181
f 180//179 189//190 181//182
f 178//191 187//192 179//184
f 191//189 200//193 192//185
f 189//190 198//194 190//186
f 187//192 196//195 188//187
f 192//185 201//196 193//188
f 190//186 199//197 191//189
f 188//187 197//198 189//190
f 186//199 195//200 187//192
f 200//193 207//201 208//202
f 198//194 205//203 206//204
f 196//195 203//205 204//206
f 201//196 208//202 209//207
f 199//197 206//204 207//201
f 197//198 204//206 205//203
f 195//200 202//208 203//205
f 208//202 215//209 216//210
f 206//204 213//211 214//212
f 204//206 211//213 212//214
f 209//207 216//210 217//215
f 207//201 214//212 215//209
f 205//203 212//214 213//211
f 203//205 210//216 211//213
f 216//210 223//217 224//218
f 214//212 221//219 222//220
f 212//214 219//221 220//222
f 217//215 224//218 225//223
f 215//209 222//220 223//217
f 213//211 220//222 221//219
f 211//213 218//224 219//221
f 224//218 231//225 232//226
f 222//220 229//227 230//228
f 220//222 227//229 228//230
f 225//223 232//226 233//231
f 223//217 230//228 231//225
f 221//219 228//230 229//227
f 219//221 226//232 227//229
f 232//226 239//233 240//234
f 230//228 237//235 238//236
f 228//230 235//237 236//238
f 233//231 240//234 241//239
f 231//225 238//236 239//233
f 229//227 236//238 237//235
f 227//229 234//240 235//237
f 239//233 248//241 240//234
f 237//235 246//242 238//236
f 235//237 244//243 236//238
f 240//234 249//244 241//239
f 238//236 247//245 239//233
f 236//238 245//246 237//235
f 234//240 243//247 235//237
f 247//245 256//248 248//241
f 245//246 254//249 246//242
f 243//247 252//250 244//243
f 248//241 257//251 249//244
f 246//242 255//252 247//245
f 244//243 253//253 245//246
f 242//254 251//255 243//247
f 255//252 264//256 256//248
f 253//253 262//257 254//249
f 251//255 260//258 252//250
f 256//248 265//259 257//251
f 254//249 263//260 255//252
f 252//250 261//261 253//253
f 250//262 259//263 251//255
f 263//260 272//264 264//256
f 261//261 270//265 262//257
f 259//263 268//266 260//258
f 264//256 273//267 265//259
f 262//257 271//268 263//260
f 260//258 269//269 261//261
f 258//270 267//271 259//263
f 271//268 280//272 272//264
f 269//269 278//273 270//265
f 267//271 276//274 268//266
f 272//264 281//275 273//267
f 270//265 279//276 271//268
f 268//266 277//277 269//269
f 266//278 275//279 267//271
f 280//272 287//280 288//281
f 278//273 285//282 286//283
f 276//274 283//284 284//285
f 281//275 288//281 289//286
f 279//276 286//283 287//280
f 277//277 284//285 285//282
f 275//279 282//287 283//284
f 288//281 295//288 296//289
f 286//283 293//290 294//291
f 284//285 291//292 292//293
f 289//286 296//289 297//294
f 287//280 294//291 295//288
f 285//282 292//293 293//290
f 283//284 290//295 291//292
f 296//289 303//296 304//297
f 294//291 301//298 302//299
f 292//293 299//300 300//301
f 297//294 304//297 305//302
f 295//288 302//299 303//296
f 293//290 300//301 301//298
f 291//292 298//303 299//300
f 304//297 311//304 312//305
f 302//299 309//306 310//307
f 300//301 307//308 308//309
f 305//302 312//305 313//310
f 303//296 310//307 311//304
f 301//298 308//309 309//306
f 299//300 306//311 307//308
f 312//305 319//312 320//313
f 310//307 317//314 318//315
f 308//309 315//316 316//317
f 313//310 320//313 321//318
f 311//304 318//315 319//312
f 309//306 316//317 317//314
f 307//308 314//319 315//316
f 320//313 169//172 321//318
f 318//315 167//162 319//312
f 316//317 165//165 317//314
f 314//319 163//168 315//316
f 322//320 321//318 169//172
f 319//312 168//164 320//313
f 317//314 166//167 318//315
f 315//316 164//170 316//317
f 322//320 169//172 177//171
f 322//320 177//171 185//180
f 322//320 185//180 193//188
f 322//320 193//188 201//196
f 322//320 201//196 209//207
f 322//320 209//207 217//215
f 322//320 217//215 225//223
f 322//320 225//223 233//231
f 322//320 233//231 241//239
f 322//320 241//239 249//244
f 322//320 249//244 257//251
f 322//320 257//251 265//259
f 322//320 265//259 273//267
f 322//320 273//267 281//275
f 322//320 281//275 289//286
f 322//320 289//286 297//294
f 322//320 297//294 305//302
f 322//320 305//302 313//310
f 322//320 313//310 321//318
f 32//27 178//191 24//19
f 40//35 186//199 32//27
f 48//41 194//321 40//35
f 56//48 202//208 48//41
f 3//1 2//12 10//2
f 8//4 7//14 15//5
f 6//7 5//15 13//8
f 4//10 3//1 11//3
f 2//12 1//158 9//13
f 7//14 6//7 14//9
f 5//15 4//10 12//11
f 11//3 10//2 18//16
f 16//6 15//5 23//18
f 14//9 13//8 21//20
f 12//11 11//3 19//17
f 10//2 9//13 17//23
f 15//5 14//9 22//21
f 13//8 12//11 20//22
f 19//17 18//16 26//24
f 24//19 23//18 31//26
f 22//21 21//20 29//28
f 20//22 19//17 27//25
f 18//16 17//23 25//31
f 23//18 22//21 30//29
f 21//20 20//22 28//30
f 27//25 26//24 34//32
f 32//27 31//26 39//34
f 30//29 29//28 37//36
f 28//30 27//25 35//33
f 26//24 25//31 33//39
f 31//26 30//29 38//37
f 29//28 28//30 36//38
f 34//32 42//44 43//40
f 39//34 47//45 48//41
f 37//36 45//46 46//42
f 35//33 43//40 44//43
f 33//39 41//51 42//44
f 38//37 46//42 47//45
f 36//38 44//43 45//46
f 42//44 50//52 51//47
f 47//45 55//53 56//48
f 45//46 53//54 54//49
f 43//40 51//47 52//50
f 41//51 49//59 50//52
f 46//42 54//49 55//53
f 44//43 52//50 53//54
f 50//52 58//60 59//55
f 55//53 63//61 64//56
f 53//54 61//62 62//57
f 51//47 59//55 60//58
f 49//59 57//67 58//60
f 54//49 62//57 63//61
f 52//50 60//58 61//62
f 58//60 66//68 67//63
f 63//61 71//69 72//64
f 61//62 69//70 70//65
f 59//55 67//63 68//66
f 57//67 65//75 66//68
f 62//57 70//65 71//69
f 60//58 68//66 69//70
f 66//68 74//76 75//71
f 71//69 79//77 80//72
f 69//70 77//78 78//73
f 67//63 75//71 76//74
f 65//75 73//161 74//76
f 70//65 78//73 79//77
f 68//66 76//74 77//78
f 75//71 74//76 82//79
f 80//72 79//77 87//81
f 78//73 77//78 85//83
f 76//74 75//71 83//80
f 74//76 73//161 81//86
f 79//77 78//73 86//84
f 77//78 76//74 84//85
f 83//80 82//79 90//87
f 88//82 87//81 95//89
f 86//84 85//83 93//91
f 84//85 83//80 91//88
f 82//79 81//86 89//94
f 87//81 86//84 94//92
f 85//83 84//85 92//93
f 91//88 90//87 98//95
f 96//90 95//89 103//97
f 94//92 93//91 101//99
f 92//93 91//88 99//96
f 90//87 89//94 97//102
f 95//89 94//92 102//100
f 93//91 92//93 100//101
f 99//96 98//95 106//103
f 104//98 103//97 111//105
f 102//100 101//99 109//107
f 100//101 99//96 107//104
f 98//95 97//102 105//110
f 103//97 102//100 110//108
f 101//99 100//101 108//109
f 107//104 106//103 114//111
f 112//106 111//105 119//113
f 110//108 109//107 117//115
f 108//109 107//104 115//112
f 106//103 105//110 113//118
f 111//105 110//108 118//116
f 109//107 108//109 116//117
f 114//111 122//123 123//119
f 119//113 127//124 128//120
f 117//115 125//125 126//121
f 115//112 123//119 124//122
f 113//118 121//130 122//123
f 118//116 126//121 127//124
f 116//117 124//122 125//125
f 122//123 130//131 131//126
f 127//124 135//132 136//127
f 125//125 133//133 134//128
f 123//119 131//126 132//129
f 121//130 129//138 130//131
f 126//121 134//128 135//132
f 124//122 132//129 133//133
f 130//131 139//139 140//134
f 135//132 144//140 145//135
f 133//133 142//141 143//136
f 131//126 140//134 141//137
f 129//138 138//146 139//139
f 134//128 143//136 144//140
f 132//129 141//137 142//141
f 139//139 147//147 148//142
f 144//140 152//148 153//143
f 142//141 150//149 151//144
f 140//134 148//142 149//145
f 138//146 146//154 147//147
f 143//136 151//144 152//148
f 141//137 149//145 150//149
f 147//147 155//155 156//150
f 152//148 160//156 161//151
f 150//149 158//157 159//152
f 148//142 156//150 157//153
f 146//154 154//159 155//155
f 151//144 159//152 160//156
f 149//145 157//153 158//157
f 161//151 160//156 7//14
f 159//152 158//157 5//15
f 157//153 156//150 3//1
f 155//155 154//159 1//158
f 160//156 159//152 6//7
f 158//157 157//153 4//10
f 156//150 155//155 2//12
f 167//162 175//173 176//163
f 165//165 173//174 174//166
f 163//168 171//176 172//169
f 168//164 176//163 177//171
f 166//167 174//166 175//173
f 164//170 172//169 173//174
f 162//175 170//183 171//176
f 175//173 183//181 184//177
f 173//174 181//182 182//178
f 171//176 179//184 180//179
f 176//163 184//177 185//180
f 174//166 182//178 183//181
f 172//169 180//179 181//182
f 170//183 178//191 179//184
f 183//181 191//189 192//185
f 181//182 189//190 190//186
f 179//184 187//192 188//187
f 184//177 192//185 193//188
f 182//178 190//186 191//189
f 180//179 188//187 189//190
f 178//191 186//199 187//192
f 191//189 199//197 200//193
f 189//190 197//198 198//194
f 187//192 195//200 196//195
f 192//185 200//193 201//196
f 190//186 198//194 199//197
f 188//187 196//195 197//198
f 186//199 194//321 195//200
f 200//193 199//197 207//201
f 198//194 197//198 205//203
f 196//195 195//200 203//205
f 201//196 200//193 208//202
f 199//197 198//194 206//204
f 197//198 196//195 204//206
f 195//200 194//321 202//208
f 208//202 207//201 215//209
f 206//204 205//203 213//211
f 204//206 203//205 211//213
f 209//207 208//202 216//210
f 207//201 206//204 214//212
f 205//203 204//206 212//214
f 203//205 202//208 210//216
f 216//210 215//209 223//217
f 214//212 213//211 221//219
f 212//214 211//213 219//221
f 217//215 216//210 224//218
f 215//209 214//212 222//220
f 213//211 212//214 220//222
f 211//213 210//216 218//224
f 224//218 223//217 231//225
f 222//220 221//219 229//227
f 220//222 219//221 227//229
f 225//223 224//218 232//226
f 223//217 222//220 230//228
f 221//219 220//222 228//230
f 219//221 218//224 226//232
f 232//226 231//225 239//233
f 230//228 229//227 237//235
f 228//230 227//229 235//237
f 233//231 232//226 240//234
f 231//225 230//228 238//236
f 229//227 228//230 236//238
f 227//229 226//232 234//240
f 239//233 247//245 248//241
f 237//235 245//246 246//242
f 235//237 243//247 244//243
f 240//234 248//241 249//244
f 238//236 246//242 247//245
f 236//238 244//243 245//246
f 234//240 242//254 243//247
f 247//245 255//252 256//248
f 245//246 253//253 254//249
f 243//247 251//255 252//250
f 248//241 256//248 257//251
f 246//242 254//249 255//252
f 244//243 252//250 253//253
f 242//254 250//262 251//255
f 255//252 263//260 264//256
f 253//253 261//261 262//257
f 251//255 259//263 260//258
f 256//248 264//256 265//259
f 254//249 262//257 263//260
f 252//250 260//258 261//261
f 250//262 258//270 259//263
f 263//260 271//268 272//264
f 261//261 269//269 270//265
f 259//263 267//271 268//266
f 264//256 272//264 273//267
f 262//257 270//265 271//268
f 260//258 268//266 269//269
f 258//270 266//278 267//271
f 271//268 279//276 280//272
f 269//269 277//277 278//273
f 267//271 275//279 276//274
f 272//264 280//272 281//275
f 270//265 278//273 279//276
f 268//266 276//274 277//277
f 266//278 274//322 275//279
f 280//272 279//276 287//280
f 278//273 277//277 285//282
f 276//274 275//279 283//284
f 281//275 280//272 288//281
f 279//276 278//273 286//283
f 277//277 276//274 284//285
f 275//279 274//322 282//287
f 288//281 287//280 295//288
f 286//283 285//282 293//290
f 284//285 283//284 291//292
f 289//286 288//281 296//289
f 287//280 286//283 294//291
f 285//282 284//285 292//293
f 283//284 282//287 290//295
f 296//289 295//288 303//296
f 294//291 293//290 301//298
f 292//293 291//292 299//300
f 297//294 296//289 304//297
f 295//288 294//291 302//299
f 293//290 292//293 300//301
f 291//292 290//295 298//303
f 304//297 303//296 311//304
f 302//299 301//298 309//306
f 300//301 299//300 307//308
f 305//302 304//297 312//305
f 303//296 302//299 310//307
f 301//298 300//301 308//309
f 299//300 298//303 306//311
f 312//305 311//304 319//312
f 310//307 309//306 317//314
f 308//309 307//308 315//316
f 313//310 312//305 320//313
f 311//304 310//307 318//315
f 309//306 308//309 316//317
f 307//308 306//311 314//319
f 320//313 168//164 169//172
f 318//315 166//167 167//162
f 316//317 164//170 165//165
f 314//319 162//175 163//168
f 319//312 167//162 168//164
f 317//314 165//165 166//167
f 315//316 163//168 164//170
f 32//27 186//199 178//191
f 40//35 194//321 186//199
f 48//41 202//208 194//321
f 56//48 210//216 202//208
