# Blender v2.82 (sub 7) OBJ File: 'Dragon.blend'
# www.blender.org
o Teeth_Cubo.002
v 0.396439 10.301701 4.836302
v 0.369866 10.375777 4.847087
v 0.396433 10.301701 4.785488
v 0.369858 10.375777 4.786826
v 0.426969 10.301701 4.831568
v 0.406072 10.375777 4.841473
v 0.426963 10.301701 4.780754
v 0.406064 10.375777 4.781212
v 0.424982 10.244485 4.781211
v 0.424984 10.244485 4.798066
v 0.435109 10.244485 4.779641
v 0.435111 10.244485 4.796496
v 0.372713 10.224539 5.036587
v 0.340935 10.310127 5.062819
v 0.372705 10.233789 4.976529
v 0.340926 10.321097 4.991595
v 0.409222 10.225401 5.030992
v 0.384232 10.311150 5.056183
v 0.409214 10.234652 4.970934
v 0.384223 10.322119 4.984960
v 0.406846 10.166944 4.961059
v 0.406848 10.163876 4.980980
v 0.418956 10.167230 4.959203
v 0.418959 10.164162 4.979124
v 0.284535 10.085130 5.289099
v 0.263319 10.199434 5.308391
v 0.312002 10.096653 5.219505
v 0.295893 10.213100 5.225859
v 0.329399 10.086203 5.299318
v 0.316524 10.200707 5.320510
v 0.356866 10.097727 5.229724
v 0.349097 10.214374 5.237978
v 0.321596 9.986494 5.205177
v 0.312485 9.982672 5.228262
v 0.336478 9.986850 5.208568
v 0.327367 9.983027 5.231652
v -0.457363 10.301701 4.836302
v -0.430790 10.375777 4.847087
v -0.457356 10.301701 4.785488
v -0.430782 10.375777 4.786826
v -0.487893 10.301701 4.831568
v -0.466995 10.375777 4.841473
v -0.487886 10.301701 4.780754
v -0.466988 10.375777 4.781212
v -0.485906 10.244485 4.781211
v -0.485908 10.244485 4.798066
v -0.496033 10.244485 4.779641
v -0.496035 10.244485 4.796496
v -0.433637 10.224539 5.036587
v -0.401859 10.310127 5.062819
v -0.433629 10.233789 4.976529
v -0.401850 10.321097 4.991595
v -0.470146 10.225401 5.030992
v -0.445156 10.311150 5.056183
v -0.470138 10.234652 4.970934
v -0.445146 10.322119 4.984960
v -0.467769 10.166944 4.961059
v -0.467772 10.163876 4.980979
v -0.479880 10.167230 4.959203
v -0.479882 10.164162 4.979124
v -0.345459 10.085130 5.289099
v -0.324243 10.199434 5.308391
v -0.372926 10.096653 5.219505
v -0.356816 10.213100 5.225859
v -0.390323 10.086203 5.299318
v -0.377447 10.200707 5.320510
v -0.417789 10.097727 5.229724
v -0.410021 10.214374 5.237978
v -0.382520 9.986494 5.205177
v -0.373409 9.982672 5.228262
v -0.397401 9.986850 5.208568
v -0.388290 9.983027 5.231652
v 0.382015 10.338965 4.845739
v 0.363074 10.375777 4.818009
v 0.382007 10.338965 4.786658
v 0.390712 10.301701 4.811783
v 0.387960 10.375777 4.772720
v 0.417503 10.338965 4.781155
v 0.411697 10.301701 4.773593
v 0.412857 10.375777 4.810290
v 0.417511 10.338965 4.840235
v 0.432691 10.301701 4.805274
v 0.387970 10.375777 4.855579
v 0.411706 10.301701 4.843463
v 0.426102 10.240261 4.787827
v 0.431400 10.240261 4.778186
v 0.436701 10.240261 4.786184
v 0.431403 10.240261 4.795826
v 0.432860 10.266121 4.812366
v 0.413360 10.266121 4.815390
v 0.432856 10.266121 4.779910
v 0.413356 10.266121 4.782934
v 0.355463 10.266864 5.054524
v 0.332813 10.315420 5.028451
v 0.355454 10.277619 4.984696
v 0.365864 10.229003 5.007607
v 0.362573 10.323665 4.974923
v 0.397902 10.278622 4.978191
v 0.390958 10.235954 4.962471
v 0.392345 10.316826 5.019327
v 0.397911 10.267866 5.048018
v 0.416064 10.230187 4.999914
v 0.362585 10.308581 5.072855
v 0.390969 10.223235 5.045050
v 0.408185 10.160748 4.968110
v 0.414521 10.162503 4.956714
v 0.420859 10.161047 4.966167
v 0.414523 10.159291 4.977563
v 0.416267 10.186845 5.001819
v 0.392948 10.186295 5.005393
v 0.416262 10.192753 4.963459
v 0.392943 10.192203 4.967033
v 0.272373 10.144578 5.304996
v 0.269630 10.206028 5.264852
v 0.304308 10.157976 5.224082
v 0.289857 10.090690 5.252386
v 0.328603 10.216299 5.216443
v 0.356469 10.159225 5.235963
v 0.339584 10.099351 5.211566
v 0.342786 10.207779 5.281516
v 0.324534 10.145826 5.316878
v 0.351544 10.092166 5.266438
v 0.283814 10.197508 5.329925
v 0.301817 10.083506 5.307257
v 0.316782 9.976250 5.212831
v 0.329337 9.978436 5.202526
v 0.332357 9.976623 5.216379
v 0.319802 9.974436 5.226686
v 0.329263 10.023306 5.262092
v 0.300608 10.022620 5.255565
v 0.346807 10.030666 5.217642
v 0.318152 10.029981 5.211114
v -0.442938 10.338965 4.845739
v -0.423997 10.375777 4.818009
v -0.442931 10.338965 4.786658
v -0.451635 10.301701 4.811783
v -0.448883 10.375777 4.772720
v -0.478427 10.338965 4.781155
v -0.472620 10.301701 4.773593
v -0.473780 10.375777 4.810290
v -0.478435 10.338965 4.840235
v -0.493614 10.301701 4.805274
v -0.448894 10.375777 4.855579
v -0.472629 10.301701 4.843463
v -0.487026 10.240261 4.787827
v -0.492324 10.240261 4.778186
v -0.497624 10.240261 4.786184
v -0.492326 10.240261 4.795826
v -0.493784 10.266121 4.812366
v -0.474284 10.266121 4.815390
v -0.493780 10.266121 4.779910
v -0.474280 10.266121 4.782934
v -0.416387 10.266864 5.054524
v -0.393736 10.315420 5.028451
v -0.416378 10.277619 4.984696
v -0.426787 10.229003 5.007607
v -0.423496 10.323665 4.974923
v -0.458826 10.278622 4.978191
v -0.451882 10.235954 4.962471
v -0.453269 10.316826 5.019327
v -0.458835 10.267866 5.048018
v -0.476987 10.230187 4.999914
v -0.423509 10.308581 5.072855
v -0.451893 10.223235 5.045050
v -0.469108 10.160748 4.968110
v -0.475444 10.162503 4.956714
v -0.481783 10.161047 4.966167
v -0.475447 10.159291 4.977563
v -0.477190 10.186845 5.001819
v -0.453871 10.186295 5.005393
v -0.477185 10.192753 4.963459
v -0.453866 10.192203 4.967033
v -0.333296 10.144578 5.304996
v -0.330554 10.206028 5.264852
v -0.365231 10.157976 5.224082
v -0.350780 10.090690 5.252386
v -0.389526 10.216299 5.216443
v -0.417393 10.159225 5.235963
v -0.400508 10.099351 5.211566
v -0.403710 10.207779 5.281516
v -0.385458 10.145826 5.316878
v -0.412468 10.092166 5.266438
v -0.344738 10.197508 5.329925
v -0.362741 10.083506 5.307258
v -0.377706 9.976250 5.212831
v -0.390261 9.978436 5.202526
v -0.393280 9.976623 5.216379
v -0.380725 9.974436 5.226685
v -0.390187 10.023306 5.262092
v -0.361531 10.022620 5.255565
v -0.407730 10.030666 5.217642
v -0.379075 10.029981 5.211114
v 0.375355 10.338965 4.817231
v 0.399754 10.338965 4.772829
v 0.424163 10.338965 4.809663
v 0.399764 10.338965 4.854064
v 0.423245 10.265705 4.819481
v 0.434244 10.231399 4.783128
v 0.436468 10.265705 4.795417
v 0.423239 10.265705 4.775454
v 0.410015 10.265705 4.799519
v 0.347500 10.272054 5.020830
v 0.376676 10.280137 4.968351
v 0.405866 10.273432 5.011885
v 0.376689 10.265348 5.064363
v 0.404768 10.185058 5.010154
v 0.417921 10.151128 4.960942
v 0.420581 10.189438 4.981711
v 0.404761 10.193072 4.958117
v 0.388948 10.188691 4.986559
v 0.278560 10.151043 5.262311
v 0.336376 10.161113 5.214851
v 0.350282 10.152760 5.278648
v 0.292466 10.142690 5.326109
v 0.311817 10.020830 5.266377
v 0.324754 9.958967 5.206612
v 0.343152 10.026288 5.240655
v 0.335615 10.030815 5.206078
v 0.304280 10.025357 5.231801
v -0.436279 10.338965 4.817231
v -0.460677 10.338965 4.772829
v -0.485086 10.338965 4.809663
v -0.460688 10.338965 4.854064
v -0.484168 10.265705 4.819481
v -0.495168 10.231399 4.783128
v -0.497392 10.265705 4.795417
v -0.484163 10.265705 4.775454
v -0.470939 10.265705 4.799519
v -0.408423 10.272054 5.020830
v -0.437600 10.280137 4.968351
v -0.466789 10.273432 5.011885
v -0.437612 10.265348 5.064363
v -0.465691 10.185058 5.010154
v -0.478845 10.151128 4.960942
v -0.481505 10.189438 4.981711
v -0.465685 10.193072 4.958117
v -0.449871 10.188691 4.986559
v -0.339483 10.151043 5.262311
v -0.397300 10.161113 5.214851
v -0.411206 10.152760 5.278648
v -0.353389 10.142690 5.326109
v -0.372740 10.020830 5.266377
v -0.385677 9.958967 5.206612
v -0.404076 10.026288 5.240655
v -0.396539 10.030815 5.206078
v -0.365204 10.025357 5.231801
vn -0.7721 -0.2758 0.5725
vn -0.9371 -0.3488 0.0133
vn -0.7172 -0.3334 0.6119
vn -0.8315 -0.2722 -0.4842
vn -0.9485 -0.3166 0.0094
vn -0.8114 -0.2817 -0.5121
vn -0.9036 -0.4283 0.0120
vn -0.6630 -0.4975 0.5593
vn -0.2094 -0.0699 -0.9753
vn 0.7208 0.2250 -0.6556
vn -0.1070 -0.0457 -0.9932
vn 0.7574 0.2173 -0.6156
vn -0.1044 -0.0681 -0.9922
vn -0.8008 -0.3197 -0.5063
vn 0.9559 0.2936 -0.0053
vn 0.8260 0.1537 0.5422
vn 0.9665 0.2568 0.0001
vn 0.8367 -0.0436 0.5459
vn 0.9870 0.1605 0.0042
vn 0.7686 0.1702 -0.6166
vn 0.8003 0.2301 0.5536
vn 0.1194 -0.1169 0.9859
vn 0.0088 -0.0383 0.9992
vn 0.1400 -0.3606 0.9221
vn 0.1423 -0.5678 0.8108
vn 0.8288 -0.2172 0.5156
vn -0.6067 -0.6303 0.4843
vn -0.5447 -0.7216 0.4272
vn 0.1238 -0.8123 0.5698
vn 0.8037 -0.3789 0.4588
vn -0.7385 -0.6741 0.0083
vn -0.0016 -0.4739 -0.8806
vn 0.2429 -0.9331 -0.2650
vn 0.9721 -0.2339 -0.0187
vn 0.9981 0.0610 -0.0020
vn 0.7724 0.1153 -0.6246
vn 0.7714 -0.0941 -0.6294
vn -0.7846 -0.3586 -0.5058
vn -0.1017 -0.1016 -0.9896
vn -0.7253 -0.4693 -0.5036
vn -0.8658 -0.5003 0.0023
vn -0.7721 -0.3597 0.5239
vn -0.9371 -0.3467 -0.0399
vn -0.7172 -0.4226 0.5540
vn -0.8315 -0.1953 -0.5200
vn -0.9485 -0.3144 -0.0389
vn -0.8114 -0.2004 -0.5490
vn -0.9036 -0.4251 -0.0534
vn -0.6631 -0.5769 0.4770
vn -0.2094 0.0793 -0.9746
vn 0.7208 0.3222 -0.6137
vn -0.1071 0.1060 -0.9886
vn 0.7574 0.3085 -0.5754
vn -0.1044 0.0837 -0.9910
vn -0.8008 -0.2390 -0.5491
vn 0.9559 0.2911 0.0395
vn 0.8260 0.0694 0.5593
vn 0.9665 0.2538 0.0392
vn 0.8367 -0.1262 0.5329
vn 0.9870 0.1580 0.0286
vn 0.7686 0.2621 -0.5835
vn 0.8003 0.1431 0.5821
vn 0.1194 -0.2656 0.9566
vn 0.0088 -0.1899 0.9817
vn 0.1400 -0.4967 0.8565
vn 0.1423 -0.6846 0.7149
vn 0.8288 -0.2932 0.4765
vn -0.6067 -0.6967 0.3827
vn -0.5447 -0.7782 0.3124
vn 0.1238 -0.8896 0.4395
vn 0.8037 -0.4443 0.3957
vn -0.7385 -0.6675 -0.0944
vn -0.0015 -0.3343 -0.9424
vn 0.2429 -0.8819 -0.4039
vn 0.9721 -0.2283 -0.0541
vn 0.9981 0.0606 0.0073
vn 0.7723 0.2091 -0.5998
vn 0.7714 0.0027 -0.6363
vn -0.7846 -0.2774 -0.5545
vn -0.1018 0.0502 -0.9935
vn -0.7253 -0.3872 -0.5691
vn -0.8658 -0.4948 -0.0738
vn -0.9519 -0.1727 0.2532
vn -0.9219 -0.1227 -0.3674
vn -0.9297 -0.2175 0.2971
vn -0.9148 -0.1309 -0.3821
vn -0.5831 -0.0384 -0.8115
vn -0.9255 -0.1028 -0.3645
vn -0.9077 -0.3190 0.2725
vn 0.2270 0.0600 -0.9720
vn -0.5818 -0.0627 -0.8109
vn 0.9373 0.1370 -0.3205
vn 0.2769 0.0670 -0.9585
vn 0.9556 0.0875 -0.2813
vn 0.2778 0.0630 -0.9586
vn -0.5892 0.0160 -0.8078
vn 0.9245 0.1069 0.3659
vn 0.5791 0.0306 0.8147
vn 0.9287 0.0262 0.3699
vn 0.5880 -0.2990 0.7515
vn 0.9286 -0.1462 0.3411
vn 0.9556 -0.0257 -0.2934
vn -0.2411 -0.2154 0.9463
vn 0.5872 -0.0776 0.8057
vn -0.2967 -0.1128 0.9483
vn -0.2167 -0.4352 0.8738
vn -0.2012 -0.5963 0.7771
vn 0.5709 -0.4627 0.6782
vn -0.8548 -0.4804 0.1960
vn -0.1960 -0.8253 0.5295
vn 0.5441 -0.5745 0.6115
vn -0.8860 -0.2915 -0.3606
vn 0.2725 -0.2919 -0.9168
vn 0.0000 -0.9307 -0.3657
vn 0.8425 -0.4935 0.2159
vn 0.9095 -0.2834 0.3040
vn 0.9413 -0.1185 -0.3162
vn 0.9052 -0.2396 -0.3510
vn 0.2644 0.0530 -0.9630
vn -0.5910 0.0547 -0.8048
vn -0.5764 -0.0336 -0.8165
vn -0.8907 -0.3897 0.2340
vn -0.9253 -0.0880 -0.3689
vn 0.7721 -0.2758 0.5725
vn 0.9371 -0.3488 0.0133
vn 0.9485 -0.3166 0.0094
vn 0.6630 -0.4975 0.5593
vn 0.7172 -0.3334 0.6119
vn 0.9036 -0.4283 0.0120
vn 0.8114 -0.2817 -0.5121
vn 0.8315 -0.2722 -0.4842
vn 0.2094 -0.0699 -0.9753
vn 0.8008 -0.3197 -0.5063
vn 0.1070 -0.0457 -0.9932
vn 0.1044 -0.0681 -0.9922
vn -0.7574 0.2173 -0.6156
vn -0.7208 0.2250 -0.6556
vn -0.9559 0.2936 -0.0053
vn -0.9870 0.1605 0.0042
vn -0.9665 0.2568 0.0001
vn -0.8367 -0.0436 0.5459
vn -0.8260 0.1537 0.5422
vn -0.8003 0.2301 0.5536
vn -0.1194 -0.1169 0.9859
vn -0.0088 -0.0383 0.9992
vn -0.1400 -0.3605 0.9221
vn -0.1423 -0.5678 0.8108
vn -0.8037 -0.3789 0.4588
vn -0.8288 -0.2172 0.5156
vn 0.5447 -0.7216 0.4272
vn 0.6067 -0.6303 0.4843
vn -0.1238 -0.8123 0.5698
vn 0.7385 -0.6741 0.0083
vn -0.9721 -0.2339 -0.0187
vn -0.2429 -0.9331 -0.2650
vn 0.0016 -0.4739 -0.8806
vn 0.7253 -0.4693 -0.5036
vn -0.7686 0.1702 -0.6167
vn -0.9981 0.0610 -0.0020
vn -0.7714 -0.0941 -0.6294
vn -0.7724 0.1153 -0.6246
vn 0.7846 -0.3586 -0.5058
vn 0.1017 -0.1016 -0.9896
vn 0.8658 -0.5003 0.0023
vn 0.7721 -0.3597 0.5239
vn 0.9371 -0.3467 -0.0399
vn 0.9485 -0.3144 -0.0389
vn 0.6630 -0.5769 0.4770
vn 0.7172 -0.4226 0.5540
vn 0.9036 -0.4251 -0.0533
vn 0.8114 -0.2004 -0.5490
vn 0.8315 -0.1953 -0.5200
vn 0.2094 0.0793 -0.9746
vn 0.8008 -0.2390 -0.5491
vn 0.1071 0.1060 -0.9886
vn 0.1044 0.0837 -0.9910
vn -0.7574 0.3085 -0.5754
vn -0.7208 0.3222 -0.6137
vn -0.9559 0.2911 0.0395
vn -0.9870 0.1580 0.0286
vn -0.9665 0.2538 0.0392
vn -0.8367 -0.1262 0.5329
vn -0.8260 0.0693 0.5593
vn -0.8003 0.1431 0.5821
vn -0.1194 -0.2656 0.9566
vn -0.0088 -0.1899 0.9817
vn -0.1400 -0.4967 0.8565
vn -0.1423 -0.6846 0.7149
vn -0.8037 -0.4444 0.3957
vn -0.8288 -0.2932 0.4765
vn 0.5448 -0.7782 0.3124
vn 0.6067 -0.6967 0.3827
vn -0.1238 -0.8896 0.4396
vn 0.7385 -0.6675 -0.0944
vn -0.9721 -0.2283 -0.0541
vn -0.2429 -0.8819 -0.4039
vn 0.0016 -0.3343 -0.9424
vn 0.7253 -0.3872 -0.5692
vn -0.7686 0.2621 -0.5835
vn -0.9981 0.0606 0.0073
vn -0.7714 0.0027 -0.6363
vn -0.7723 0.2091 -0.5998
vn 0.7846 -0.2774 -0.5545
vn 0.1018 0.0502 -0.9935
vn 0.8658 -0.4948 -0.0738
vn 0.9519 -0.1727 0.2532
vn 0.9219 -0.1227 -0.3674
vn 0.9148 -0.1309 -0.3821
vn 0.9077 -0.3190 0.2725
vn 0.9297 -0.2175 0.2971
vn 0.9255 -0.1028 -0.3645
vn 0.5831 -0.0384 -0.8115
vn 0.5818 -0.0627 -0.8109
vn -0.2270 0.0600 -0.9720
vn 0.5892 0.0160 -0.8078
vn -0.2769 0.0670 -0.9585
vn -0.2778 0.0630 -0.9586
vn -0.9556 0.0875 -0.2813
vn -0.9373 0.1370 -0.3205
vn -0.9245 0.1069 0.3659
vn -0.9286 -0.1462 0.3411
vn -0.9287 0.0262 0.3699
vn -0.5880 -0.2990 0.7515
vn -0.5872 -0.0776 0.8057
vn -0.5791 0.0306 0.8147
vn 0.2411 -0.2154 0.9463
vn 0.2967 -0.1128 0.9483
vn 0.2167 -0.4352 0.8738
vn 0.2013 -0.5963 0.7771
vn -0.5441 -0.5745 0.6115
vn -0.5709 -0.4627 0.6782
vn 0.8548 -0.4804 0.1960
vn 0.8907 -0.3897 0.2340
vn 0.1960 -0.8253 0.5295
vn 0.8860 -0.2915 -0.3606
vn -0.8425 -0.4935 0.2159
vn -0.2724 -0.2919 -0.9168
vn 0.5764 -0.0336 -0.8164
vn -0.9556 -0.0257 -0.2934
vn -0.9095 -0.2834 0.3040
vn -0.9052 -0.2396 -0.3510
vn -0.9413 -0.1185 -0.3162
vn -0.2644 0.0530 -0.9630
vn 0.5910 0.0547 -0.8048
vn 0.9253 -0.0880 -0.3689
s 1
f 2//1 193//2 73//3
f 4//4 193//2 74//5
f 75//6 76//7 193//2
f 193//2 1//8 73//3
f 77//9 75//6 4//4
f 8//10 194//11 77//9
f 78//12 79//13 194//11
f 194//11 3//14 75//6
f 80//15 78//12 8//10
f 80//15 81//16 195//17
f 195//17 5//18 82//19
f 78//12 82//19 7//20
f 6//21 196//22 81//16
f 83//23 73//3 196//22
f 196//22 1//8 84//24
f 81//16 84//24 5//18
f 5//18 197//25 89//26
f 84//24 90//27 197//25
f 197//25 10//28 88//29
f 197//25 12//30 89//26
f 85//31 88//29 10//28
f 85//31 86//32 198//33
f 86//32 87//34 198//33
f 88//29 87//34 12//30
f 7//20 199//35 91//36
f 82//19 89//26 199//35
f 199//35 12//30 87//34
f 199//35 11//37 91//36
f 79//13 92//38 3//14
f 7//20 200//39 79//13
f 200//39 11//37 86//32
f 200//39 9//40 92//38
f 76//7 90//27 1//8
f 3//14 201//41 76//7
f 201//41 9//40 85//31
f 201//41 10//28 90//27
f 14//42 202//43 93//44
f 16//45 202//43 94//46
f 95//47 96//48 202//43
f 202//43 13//49 93//44
f 97//50 95//47 16//45
f 20//51 203//52 97//50
f 98//53 99//54 203//52
f 203//52 15//55 95//47
f 100//56 98//53 20//51
f 100//56 101//57 204//58
f 204//58 17//59 102//60
f 98//53 102//60 19//61
f 18//62 205//63 101//57
f 103//64 93//44 205//63
f 205//63 13//49 104//65
f 101//57 104//65 17//59
f 17//59 206//66 109//67
f 104//65 110//68 206//66
f 206//66 22//69 108//70
f 206//66 24//71 109//67
f 105//72 108//70 22//69
f 105//72 106//73 207//74
f 106//73 107//75 207//74
f 108//70 107//75 24//71
f 19//61 208//76 111//77
f 102//60 109//67 208//76
f 208//76 24//71 107//75
f 208//76 23//78 111//77
f 99//54 112//79 15//55
f 19//61 209//80 99//54
f 209//80 23//78 106//73
f 209//80 21//81 112//79
f 96//48 110//68 13//49
f 15//55 210//82 96//48
f 210//82 21//81 105//72
f 210//82 22//69 110//68
f 26//83 211//84 113//85
f 114//86 115//87 211//84
f 115//87 116//88 211//84
f 211//84 25//89 113//85
f 117//90 115//87 28//91
f 32//92 212//93 117//90
f 118//94 119//95 212//93
f 212//93 27//96 115//87
f 120//97 118//94 32//92
f 30//98 213//99 120//97
f 213//99 29//100 122//101
f 118//94 122//101 31//102
f 30//98 214//103 121//104
f 123//105 113//85 214//103
f 113//85 124//106 214//103
f 121//104 124//106 29//100
f 29//100 215//107 129//108
f 25//89 215//107 124//106
f 215//107 34//109 128//110
f 215//107 36//111 129//108
f 125//112 128//110 34//109
f 125//112 126//113 216//114
f 126//113 127//115 216//114
f 128//110 127//115 36//111
f 31//102 217//116 131//117
f 122//101 129//108 217//116
f 217//116 36//111 127//115
f 217//116 35//118 131//117
f 27//96 218//119 132//120
f 119//95 131//117 218//119
f 218//119 35//118 126//113
f 218//119 33//121 132//120
f 116//88 130//122 25//89
f 27//96 219//123 116//88
f 219//123 33//121 125//112
f 219//123 34//109 130//122
f 38//124 220//125 134//126
f 37//127 220//125 133//128
f 136//129 135//130 220//125
f 220//125 40//131 134//126
f 135//130 137//132 40//131
f 39//133 221//134 135//130
f 139//135 138//136 221//134
f 221//134 44//137 137//132
f 138//136 140//138 44//137
f 138//136 142//139 222//140
f 222//140 41//141 141//142
f 140//138 141//142 42//143
f 42//143 223//144 143//145
f 141//142 144//146 223//144
f 223//144 37//127 133//128
f 143//145 133//128 38//124
f 41//141 224//147 144//146
f 48//148 224//147 149//149
f 224//147 46//150 150//151
f 144//146 150//151 37//127
f 148//152 145//153 46//150
f 148//152 147//154 225//155
f 147//154 146//156 225//155
f 145//153 146//156 45//157
f 43//158 226//159 142//139
f 47//160 226//159 151//161
f 226//159 48//148 149//149
f 142//139 149//149 41//141
f 152//162 139//135 39//133
f 45//157 227//163 152//162
f 227//163 47//160 151//161
f 227//163 43//158 139//135
f 150//151 136//129 37//127
f 46//150 228//164 150//151
f 228//164 45//157 152//162
f 228//164 39//133 136//129
f 50//165 229//166 154//167
f 49//168 229//166 153//169
f 156//170 155//171 229//166
f 229//166 52//172 154//167
f 155//171 157//173 52//172
f 51//174 230//175 155//171
f 159//176 158//177 230//175
f 230//175 56//178 157//173
f 158//177 160//179 56//178
f 158//177 162//180 231//181
f 231//181 53//182 161//183
f 160//179 161//183 54//184
f 54//184 232//185 163//186
f 161//183 164//187 232//185
f 232//185 49//168 153//169
f 163//186 153//169 50//165
f 53//182 233//188 164//187
f 60//189 233//188 169//190
f 233//188 58//191 170//192
f 164//187 170//192 49//168
f 168//193 165//194 58//191
f 168//193 167//195 234//196
f 167//195 166//197 234//196
f 165//194 166//197 57//198
f 55//199 235//200 162//180
f 59//201 235//200 171//202
f 235//200 60//189 169//190
f 162//180 169//190 53//182
f 172//203 159//176 51//174
f 57//198 236//204 172//203
f 236//204 59//201 171//202
f 236//204 55//199 159//176
f 170//192 156//170 49//168
f 58//191 237//205 170//192
f 237//205 57//198 172//203
f 237//205 51//174 156//170
f 62//206 238//207 174//208
f 61//209 238//207 173//210
f 176//211 175//212 238//207
f 174//208 175//212 64//213
f 175//212 177//214 64//213
f 63//215 239//216 175//212
f 179//217 178//218 239//216
f 239//216 68//219 177//214
f 178//218 180//220 68//219
f 178//218 182//221 240//222
f 240//222 65//223 181//224
f 240//222 66//225 180//220
f 66//225 241//226 183//227
f 181//224 184//228 241//226
f 184//228 173//210 241//226
f 183//227 173//210 62//206
f 65//223 242//229 184//228
f 72//230 242//229 189//231
f 242//229 70//232 190//233
f 242//229 61//209 184//228
f 188//234 185//235 70//232
f 188//234 187//236 243//114
f 187//236 186//237 243//114
f 185//235 186//237 69//238
f 67//239 244//240 182//221
f 71//241 244//240 191//242
f 244//240 72//230 189//231
f 182//221 189//231 65//223
f 63//215 245//243 179//217
f 69//238 245//243 192//244
f 245//243 71//241 191//242
f 179//217 191//242 67//239
f 190//233 176//211 61//209
f 70//232 246//245 190//233
f 246//245 69//238 192//244
f 246//245 63//215 176//211
f 2//1 74//5 193//2
f 4//4 75//6 193//2
f 75//6 3//14 76//7
f 193//2 76//7 1//8
f 77//9 194//11 75//6
f 8//10 78//12 194//11
f 78//12 7//20 79//13
f 194//11 79//13 3//14
f 80//15 195//17 78//12
f 80//15 6//21 81//16
f 195//17 81//16 5//18
f 78//12 195//17 82//19
f 6//21 83//23 196//22
f 83//23 2//1 73//3
f 196//22 73//3 1//8
f 81//16 196//22 84//24
f 5//18 84//24 197//25
f 84//24 1//8 90//27
f 197//25 90//27 10//28
f 197//25 88//29 12//30
f 85//31 198//33 88//29
f 85//31 9//40 86//32
f 86//32 11//37 87//34
f 88//29 198//33 87//34
f 7//20 82//19 199//35
f 82//19 5//18 89//26
f 199//35 89//26 12//30
f 199//35 87//34 11//37
f 79//13 200//39 92//38
f 7//20 91//36 200//39
f 200//39 91//36 11//37
f 200//39 86//32 9//40
f 76//7 201//41 90//27
f 3//14 92//38 201//41
f 201//41 92//38 9//40
f 201//41 85//31 10//28
f 14//42 94//46 202//43
f 16//45 95//47 202//43
f 95//47 15//55 96//48
f 202//43 96//48 13//49
f 97//50 203//52 95//47
f 20//51 98//53 203//52
f 98//53 19//61 99//54
f 203//52 99//54 15//55
f 100//56 204//58 98//53
f 100//56 18//62 101//57
f 204//58 101//57 17//59
f 98//53 204//58 102//60
f 18//62 103//64 205//63
f 103//64 14//42 93//44
f 205//63 93//44 13//49
f 101//57 205//63 104//65
f 17//59 104//65 206//66
f 104//65 13//49 110//68
f 206//66 110//68 22//69
f 206//66 108//70 24//71
f 105//72 207//74 108//70
f 105//72 21//81 106//73
f 106//73 23//78 107//75
f 108//70 207//74 107//75
f 19//61 102//60 208//76
f 102//60 17//59 109//67
f 208//76 109//67 24//71
f 208//76 107//75 23//78
f 99//54 209//80 112//79
f 19//61 111//77 209//80
f 209//80 111//77 23//78
f 209//80 106//73 21//81
f 96//48 210//82 110//68
f 15//55 112//79 210//82
f 210//82 112//79 21//81
f 210//82 105//72 22//69
f 26//83 114//86 211//84
f 114//86 28//91 115//87
f 115//87 27//96 116//88
f 211//84 116//88 25//89
f 117//90 212//93 115//87
f 32//92 118//94 212//93
f 118//94 31//102 119//95
f 212//93 119//95 27//96
f 120//97 213//99 118//94
f 30//98 121//104 213//99
f 213//99 121//104 29//100
f 118//94 213//99 122//101
f 30//98 123//105 214//103
f 123//105 26//83 113//85
f 113//85 25//89 124//106
f 121//104 214//103 124//106
f 29//100 124//106 215//107
f 25//89 130//122 215//107
f 215//107 130//122 34//109
f 215//107 128//110 36//111
f 125//112 216//114 128//110
f 125//112 33//121 126//113
f 126//113 35//118 127//115
f 128//110 216//114 127//115
f 31//102 122//101 217//116
f 122//101 29//100 129//108
f 217//116 129//108 36//111
f 217//116 127//115 35//118
f 27//96 119//95 218//119
f 119//95 31//102 131//117
f 218//119 131//117 35//118
f 218//119 126//113 33//121
f 116//88 219//123 130//122
f 27//96 132//120 219//123
f 219//123 132//120 33//121
f 219//123 125//112 34//109
f 38//124 133//128 220//125
f 37//127 136//129 220//125
f 136//129 39//133 135//130
f 220//125 135//130 40//131
f 135//130 221//134 137//132
f 39//133 139//135 221//134
f 139//135 43//158 138//136
f 221//134 138//136 44//137
f 138//136 222//140 140//138
f 138//136 43//158 142//139
f 222//140 142//139 41//141
f 140//138 222//140 141//142
f 42//143 141//142 223//144
f 141//142 41//141 144//146
f 223//144 144//146 37//127
f 143//145 223//144 133//128
f 41//141 149//149 224//147
f 48//148 148//152 224//147
f 224//147 148//152 46//150
f 144//146 224//147 150//151
f 148//152 225//155 145//153
f 148//152 48//148 147//154
f 147//154 47//160 146//156
f 145//153 225//155 146//156
f 43//158 151//161 226//159
f 47//160 147//154 226//159
f 226//159 147//154 48//148
f 142//139 226//159 149//149
f 152//162 227//163 139//135
f 45//157 146//156 227//163
f 227//163 146//156 47//160
f 227//163 151//161 43//158
f 150//151 228//164 136//129
f 46//150 145//153 228//164
f 228//164 145//153 45//157
f 228//164 152//162 39//133
f 50//165 153//169 229//166
f 49//168 156//170 229//166
f 156//170 51//174 155//171
f 229//166 155//171 52//172
f 155//171 230//175 157//173
f 51//174 159//176 230//175
f 159//176 55//199 158//177
f 230//175 158//177 56//178
f 158//177 231//181 160//179
f 158//177 55//199 162//180
f 231//181 162//180 53//182
f 160//179 231//181 161//183
f 54//184 161//183 232//185
f 161//183 53//182 164//187
f 232//185 164//187 49//168
f 163//186 232//185 153//169
f 53//182 169//190 233//188
f 60//189 168//193 233//188
f 233//188 168//193 58//191
f 164//187 233//188 170//192
f 168//193 234//196 165//194
f 168//193 60//189 167//195
f 167//195 59//201 166//197
f 165//194 234//196 166//197
f 55//199 171//202 235//200
f 59//201 167//195 235//200
f 235//200 167//195 60//189
f 162//180 235//200 169//190
f 172//203 236//204 159//176
f 57//198 166//197 236//204
f 236//204 166//197 59//201
f 236//204 171//202 55//199
f 170//192 237//205 156//170
f 58//191 165//194 237//205
f 237//205 165//194 57//198
f 237//205 172//203 51//174
f 62//206 173//210 238//207
f 61//209 176//211 238//207
f 176//211 63//215 175//212
f 174//208 238//207 175//212
f 175//212 239//216 177//214
f 63//215 179//217 239//216
f 179//217 67//239 178//218
f 239//216 178//218 68//219
f 178//218 240//222 180//220
f 178//218 67//239 182//221
f 240//222 182//221 65//223
f 240//222 181//224 66//225
f 66//225 181//224 241//226
f 181//224 65//223 184//228
f 184//228 61//209 173//210
f 183//227 241//226 173//210
f 65//223 189//231 242//229
f 72//230 188//234 242//229
f 242//229 188//234 70//232
f 242//229 190//233 61//209
f 188//234 243//114 185//235
f 188//234 72//230 187//236
f 187//236 71//241 186//237
f 185//235 243//114 186//237
f 67//239 191//242 244//240
f 71//241 187//236 244//240
f 244//240 187//236 72//230
f 182//221 244//240 189//231
f 63//215 192//244 245//243
f 69//238 186//237 245//243
f 245//243 186//237 71//241
f 179//217 245//243 191//242
f 190//233 246//245 176//211
f 70//232 185//235 246//245
f 246//245 185//235 69//238
f 246//245 192//244 63//215
