# Blender v2.82 (sub 7) OBJ File: 'living_room.blend'
# www.blender.org
o Candles_Cylinder.002
v -1.780640 1.326073 3.012301
v -1.780640 1.336073 3.012301
v -1.776645 1.326073 3.012681
v -1.776645 1.336073 3.012681
v -1.772805 1.326073 3.013806
v -1.772805 1.336073 3.013806
v -1.769265 1.326073 3.015632
v -1.769265 1.336073 3.015632
v -1.766163 1.326073 3.018091
v -1.766163 1.336073 3.018091
v -1.763616 1.326073 3.021086
v -1.763616 1.336073 3.021086
v -1.761724 1.326073 3.024504
v -1.761724 1.336073 3.024504
v -1.760559 1.326073 3.028213
v -1.760559 1.336073 3.028213
v -1.760166 1.326073 3.032069
v -1.760166 1.336073 3.032069
v -1.760559 1.326073 3.035926
v -1.760559 1.336073 3.035926
v -1.761724 1.326073 3.039634
v -1.761724 1.336073 3.039634
v -1.763616 1.326073 3.043052
v -1.763616 1.336073 3.043052
v -1.766163 1.326073 3.046047
v -1.766163 1.336073 3.046047
v -1.769265 1.326073 3.048506
v -1.769265 1.336073 3.048506
v -1.772805 1.326073 3.050333
v -1.772805 1.336073 3.050333
v -1.776645 1.326073 3.051458
v -1.776645 1.336073 3.051458
v -1.780640 1.326073 3.051837
v -1.780640 1.336073 3.051837
v -1.784634 1.326073 3.051458
v -1.784634 1.336073 3.051458
v -1.788474 1.326073 3.050333
v -1.788474 1.336073 3.050333
v -1.792014 1.326073 3.048506
v -1.792014 1.336073 3.048506
v -1.795116 1.326073 3.046047
v -1.795116 1.336073 3.046047
v -1.797663 1.326073 3.043052
v -1.797663 1.336073 3.043052
v -1.799555 1.326073 3.039634
v -1.799555 1.336073 3.039634
v -1.800720 1.326073 3.035926
v -1.800720 1.336073 3.035926
v -1.801113 1.326073 3.032069
v -1.801113 1.336073 3.032069
v -1.800720 1.326073 3.028213
v -1.800720 1.336073 3.028213
v -1.799554 1.326073 3.024504
v -1.799554 1.336073 3.024504
v -1.797663 1.326073 3.021086
v -1.797663 1.336073 3.021086
v -1.795116 1.326073 3.018091
v -1.795116 1.336073 3.018091
v -1.792014 1.326073 3.015632
v -1.792014 1.336073 3.015632
v -1.788474 1.326073 3.013806
v -1.788474 1.336073 3.013806
v -1.784634 1.326073 3.012681
v -1.784634 1.336073 3.012681
v -1.780307 1.342584 3.113270
v -1.780307 1.352584 3.113270
v -1.776313 1.342584 3.113650
v -1.776313 1.352584 3.113650
v -1.772472 1.342584 3.114775
v -1.772472 1.352584 3.114775
v -1.768933 1.342584 3.116602
v -1.768933 1.352584 3.116602
v -1.765830 1.342584 3.119060
v -1.765830 1.352584 3.119060
v -1.763284 1.342584 3.122056
v -1.763284 1.352584 3.122056
v -1.761392 1.342584 3.125474
v -1.761392 1.352584 3.125474
v -1.760227 1.342584 3.129182
v -1.760227 1.352584 3.129182
v -1.759834 1.342584 3.133039
v -1.759834 1.352584 3.133039
v -1.760227 1.342584 3.136895
v -1.760227 1.352584 3.136895
v -1.761392 1.342584 3.140604
v -1.761392 1.352584 3.140604
v -1.763284 1.342584 3.144021
v -1.763284 1.352584 3.144021
v -1.765830 1.342584 3.147017
v -1.765830 1.352584 3.147017
v -1.768933 1.342584 3.149475
v -1.768933 1.352584 3.149475
v -1.772472 1.342584 3.151302
v -1.772472 1.352584 3.151302
v -1.776313 1.342584 3.152427
v -1.776313 1.352584 3.152427
v -1.780307 1.342584 3.152807
v -1.780307 1.352584 3.152807
v -1.784301 1.342584 3.152427
v -1.784301 1.352584 3.152427
v -1.788142 1.342584 3.151302
v -1.788142 1.352584 3.151302
v -1.791682 1.342584 3.149475
v -1.791682 1.352584 3.149475
v -1.794784 1.342584 3.147017
v -1.794784 1.352584 3.147017
v -1.797330 1.342584 3.144021
v -1.797330 1.352584 3.144021
v -1.799222 1.342584 3.140604
v -1.799222 1.352584 3.140604
v -1.800387 1.342584 3.136895
v -1.800387 1.352584 3.136895
v -1.800781 1.342584 3.133039
v -1.800781 1.352584 3.133039
v -1.800387 1.342584 3.129182
v -1.800387 1.352584 3.129182
v -1.799222 1.342584 3.125474
v -1.799222 1.352584 3.125474
v -1.797330 1.342584 3.122056
v -1.797330 1.352584 3.122056
v -1.794784 1.342584 3.119060
v -1.794784 1.352584 3.119060
v -1.791682 1.342584 3.116602
v -1.791682 1.352584 3.116602
v -1.788142 1.342584 3.114775
v -1.788142 1.352584 3.114775
v -1.784301 1.342584 3.113650
v -1.784301 1.352584 3.113650
v -1.780573 1.370010 3.234550
v -1.780573 1.380010 3.234550
v -1.776579 1.370010 3.234930
v -1.776579 1.380010 3.234930
v -1.772738 1.370010 3.236055
v -1.772738 1.380010 3.236055
v -1.769198 1.370010 3.237882
v -1.769198 1.380010 3.237882
v -1.766096 1.370010 3.240340
v -1.766096 1.380010 3.240340
v -1.763550 1.370010 3.243336
v -1.763550 1.380010 3.243336
v -1.761658 1.370010 3.246753
v -1.761658 1.380010 3.246753
v -1.760493 1.370010 3.250462
v -1.760493 1.380010 3.250462
v -1.760099 1.370010 3.254318
v -1.760099 1.380010 3.254318
v -1.760493 1.370010 3.258175
v -1.760493 1.380010 3.258175
v -1.761658 1.370010 3.261883
v -1.761658 1.380010 3.261883
v -1.763550 1.370010 3.265301
v -1.763550 1.380010 3.265301
v -1.766096 1.370010 3.268297
v -1.766096 1.380010 3.268297
v -1.769198 1.370010 3.270755
v -1.769198 1.380010 3.270755
v -1.772738 1.370010 3.272582
v -1.772738 1.380010 3.272582
v -1.776579 1.370010 3.273707
v -1.776579 1.380010 3.273707
v -1.780573 1.370010 3.274087
v -1.780573 1.380010 3.274087
v -1.784567 1.370010 3.273707
v -1.784567 1.380010 3.273707
v -1.788408 1.370010 3.272582
v -1.788408 1.380010 3.272582
v -1.791947 1.370010 3.270755
v -1.791947 1.380010 3.270755
v -1.795050 1.370010 3.268297
v -1.795050 1.380010 3.268297
v -1.797596 1.370010 3.265301
v -1.797596 1.380010 3.265301
v -1.799488 1.370010 3.261883
v -1.799488 1.380010 3.261883
v -1.800653 1.370010 3.258175
v -1.800653 1.380010 3.258175
v -1.801046 1.370010 3.254318
v -1.801046 1.380010 3.254318
v -1.800653 1.370010 3.250462
v -1.800653 1.380010 3.250462
v -1.799488 1.370010 3.246753
v -1.799488 1.380010 3.246753
v -1.797596 1.370010 3.243336
v -1.797596 1.380010 3.243336
v -1.795050 1.370010 3.240340
v -1.795050 1.380010 3.240340
v -1.791947 1.370010 3.237882
v -1.791947 1.380010 3.237882
v -1.788408 1.370010 3.236055
v -1.788408 1.380010 3.236055
v -1.784567 1.370010 3.234930
v -1.784567 1.380010 3.234930
vt 1.000000 1.000000
vt 0.968750 0.500000
vt 1.000000 0.500000
vt 0.968750 1.000000
vt 0.937500 0.500000
vt 0.937500 1.000000
vt 0.906250 0.500000
vt 0.906250 1.000000
vt 0.875000 0.500000
vt 0.875000 1.000000
vt 0.843750 0.500000
vt 0.843750 1.000000
vt 0.812500 0.500000
vt 0.812500 1.000000
vt 0.781250 0.500000
vt 0.781250 1.000000
vt 0.750000 0.500000
vt 0.750000 1.000000
vt 0.718750 0.500000
vt 0.718750 1.000000
vt 0.687500 0.500000
vt 0.687500 1.000000
vt 0.656250 0.500000
vt 0.656250 1.000000
vt 0.625000 0.500000
vt 0.625000 1.000000
vt 0.593750 0.500000
vt 0.593750 1.000000
vt 0.562500 0.500000
vt 0.562500 1.000000
vt 0.531250 0.500000
vt 0.531250 1.000000
vt 0.500000 0.500000
vt 0.500000 1.000000
vt 0.468750 0.500000
vt 0.468750 1.000000
vt 0.437500 0.500000
vt 0.437500 1.000000
vt 0.406250 0.500000
vt 0.406250 1.000000
vt 0.375000 0.500000
vt 0.375000 1.000000
vt 0.343750 0.500000
vt 0.343750 1.000000
vt 0.312500 0.500000
vt 0.312500 1.000000
vt 0.281250 0.500000
vt 0.281250 1.000000
vt 0.250000 0.500000
vt 0.250000 1.000000
vt 0.218750 0.500000
vt 0.218750 1.000000
vt 0.187500 0.500000
vt 0.187500 1.000000
vt 0.156250 0.500000
vt 0.156250 1.000000
vt 0.125000 0.500000
vt 0.125000 1.000000
vt 0.093750 0.500000
vt 0.093750 1.000000
vt 0.062500 0.500000
vt 0.028269 0.341844
vt 0.158156 0.028269
vt 0.471731 0.158156
vt 0.062500 1.000000
vt 0.031250 0.500000
vt 0.031250 1.000000
vt 0.000000 0.500000
vt 0.985388 0.296822
vt 0.796822 0.014612
vt 0.514611 0.203179
vt 1.000000 1.000000
vt 0.968750 0.500000
vt 1.000000 0.500000
vt 0.968750 1.000000
vt 0.937500 0.500000
vt 0.937500 1.000000
vt 0.906250 0.500000
vt 0.906250 1.000000
vt 0.875000 0.500000
vt 0.875000 1.000000
vt 0.843750 0.500000
vt 0.843750 1.000000
vt 0.812500 0.500000
vt 0.812500 1.000000
vt 0.781250 0.500000
vt 0.781250 1.000000
vt 0.750000 0.500000
vt 0.750000 1.000000
vt 0.718750 0.500000
vt 0.718750 1.000000
vt 0.687500 0.500000
vt 0.687500 1.000000
vt 0.656250 0.500000
vt 0.656250 1.000000
vt 0.625000 0.500000
vt 0.625000 1.000000
vt 0.593750 0.500000
vt 0.593750 1.000000
vt 0.562500 0.500000
vt 0.562500 1.000000
vt 0.531250 0.500000
vt 0.531250 1.000000
vt 0.500000 0.500000
vt 0.500000 1.000000
vt 0.468750 0.500000
vt 0.468750 1.000000
vt 0.437500 0.500000
vt 0.437500 1.000000
vt 0.406250 0.500000
vt 0.406250 1.000000
vt 0.375000 0.500000
vt 0.375000 1.000000
vt 0.343750 0.500000
vt 0.343750 1.000000
vt 0.312500 0.500000
vt 0.312500 1.000000
vt 0.281250 0.500000
vt 0.281250 1.000000
vt 0.250000 0.500000
vt 0.250000 1.000000
vt 0.218750 0.500000
vt 0.218750 1.000000
vt 0.187500 0.500000
vt 0.187500 1.000000
vt 0.156250 0.500000
vt 0.156250 1.000000
vt 0.125000 0.500000
vt 0.125000 1.000000
vt 0.093750 0.500000
vt 0.093750 1.000000
vt 0.062500 0.500000
vt 0.158156 0.028269
vt 0.471731 0.158156
vt 0.341844 0.471731
vt 0.062500 1.000000
vt 0.031250 0.500000
vt 0.031250 1.000000
vt 0.000000 0.500000
vt 0.796822 0.014612
vt 0.514611 0.203179
vt 0.703179 0.485389
vt 1.000000 1.000000
vt 0.968750 0.500000
vt 1.000000 0.500000
vt 0.968750 1.000000
vt 0.937500 0.500000
vt 0.937500 1.000000
vt 0.906250 0.500000
vt 0.906250 1.000000
vt 0.875000 0.500000
vt 0.875000 1.000000
vt 0.843750 0.500000
vt 0.843750 1.000000
vt 0.812500 0.500000
vt 0.812500 1.000000
vt 0.781250 0.500000
vt 0.781250 1.000000
vt 0.750000 0.500000
vt 0.750000 1.000000
vt 0.718750 0.500000
vt 0.718750 1.000000
vt 0.687500 0.500000
vt 0.687500 1.000000
vt 0.656250 0.500000
vt 0.656250 1.000000
vt 0.625000 0.500000
vt 0.625000 1.000000
vt 0.593750 0.500000
vt 0.593750 1.000000
vt 0.562500 0.500000
vt 0.562500 1.000000
vt 0.531250 0.500000
vt 0.531250 1.000000
vt 0.500000 0.500000
vt 0.500000 1.000000
vt 0.468750 0.500000
vt 0.468750 1.000000
vt 0.437500 0.500000
vt 0.437500 1.000000
vt 0.406250 0.500000
vt 0.406250 1.000000
vt 0.375000 0.500000
vt 0.375000 1.000000
vt 0.343750 0.500000
vt 0.343750 1.000000
vt 0.312500 0.500000
vt 0.312500 1.000000
vt 0.281250 0.500000
vt 0.281250 1.000000
vt 0.250000 0.500000
vt 0.250000 1.000000
vt 0.218750 0.500000
vt 0.218750 1.000000
vt 0.187500 0.500000
vt 0.187500 1.000000
vt 0.156250 0.500000
vt 0.156250 1.000000
vt 0.125000 0.500000
vt 0.125000 1.000000
vt 0.093750 0.500000
vt 0.093750 1.000000
vt 0.062500 0.500000
vt 0.158156 0.028269
vt 0.471731 0.158156
vt 0.341844 0.471731
vt 0.062500 1.000000
vt 0.031250 0.500000
vt 0.031250 1.000000
vt 0.000000 0.500000
vt 0.796822 0.014612
vt 0.514611 0.203179
vt 0.703179 0.485389
vt 0.341844 0.471731
vt 0.296822 0.485388
vt 0.250000 0.490000
vt 0.203179 0.485389
vt 0.158156 0.471731
vt 0.116663 0.449553
vt 0.080295 0.419706
vt 0.050447 0.383337
vt 0.014612 0.296822
vt 0.010000 0.250000
vt 0.014611 0.203179
vt 0.028269 0.158156
vt 0.050447 0.116663
vt 0.080294 0.080294
vt 0.116663 0.050447
vt 0.203178 0.014612
vt 0.250000 0.010000
vt 0.296822 0.014612
vt 0.341844 0.028269
vt 0.383337 0.050447
vt 0.419706 0.080294
vt 0.449553 0.116663
vt 0.485388 0.203178
vt 0.490000 0.250000
vt 0.485388 0.296822
vt 0.471731 0.341844
vt 0.449553 0.383337
vt 0.419706 0.419706
vt 0.383337 0.449553
vt 0.000000 1.000000
vt 0.703179 0.485389
vt 0.750000 0.490000
vt 0.796822 0.485388
vt 0.841844 0.471731
vt 0.883337 0.449553
vt 0.919706 0.419706
vt 0.949553 0.383337
vt 0.971731 0.341844
vt 0.990000 0.250000
vt 0.985388 0.203178
vt 0.971731 0.158156
vt 0.949553 0.116663
vt 0.919706 0.080294
vt 0.883337 0.050447
vt 0.841844 0.028269
vt 0.750000 0.010000
vt 0.703178 0.014612
vt 0.658156 0.028269
vt 0.616663 0.050447
vt 0.580294 0.080294
vt 0.550447 0.116663
vt 0.528269 0.158156
vt 0.510000 0.250000
vt 0.514612 0.296822
vt 0.528269 0.341844
vt 0.550447 0.383337
vt 0.580295 0.419706
vt 0.616663 0.449553
vt 0.658156 0.471731
vt 0.296822 0.485388
vt 0.250000 0.490000
vt 0.203179 0.485389
vt 0.158156 0.471731
vt 0.116663 0.449553
vt 0.080295 0.419706
vt 0.050447 0.383337
vt 0.028269 0.341844
vt 0.014612 0.296822
vt 0.010000 0.250000
vt 0.014611 0.203179
vt 0.028269 0.158156
vt 0.050447 0.116663
vt 0.080294 0.080294
vt 0.116663 0.050447
vt 0.203178 0.014612
vt 0.250000 0.010000
vt 0.296822 0.014612
vt 0.341844 0.028269
vt 0.383337 0.050447
vt 0.419706 0.080294
vt 0.449553 0.116663
vt 0.485388 0.203178
vt 0.490000 0.250000
vt 0.485388 0.296822
vt 0.471731 0.341844
vt 0.449553 0.383337
vt 0.419706 0.419706
vt 0.383337 0.449553
vt 0.000000 1.000000
vt 0.750000 0.490000
vt 0.796822 0.485388
vt 0.841844 0.471731
vt 0.883337 0.449553
vt 0.919706 0.419706
vt 0.985388 0.296822
vt 0.949553 0.383337
vt 0.971731 0.341844
vt 0.990000 0.250000
vt 0.985388 0.203178
vt 0.971731 0.158156
vt 0.949553 0.116663
vt 0.919706 0.080294
vt 0.883337 0.050447
vt 0.841844 0.028269
vt 0.750000 0.010000
vt 0.703178 0.014612
vt 0.658156 0.028269
vt 0.616663 0.050447
vt 0.580294 0.080294
vt 0.550447 0.116663
vt 0.528269 0.158156
vt 0.510000 0.250000
vt 0.514612 0.296822
vt 0.528269 0.341844
vt 0.550447 0.383337
vt 0.580295 0.419706
vt 0.616663 0.449553
vt 0.658156 0.471731
vt 0.296822 0.485388
vt 0.250000 0.490000
vt 0.203179 0.485389
vt 0.158156 0.471731
vt 0.116663 0.449553
vt 0.080295 0.419706
vt 0.050447 0.383337
vt 0.028269 0.341844
vt 0.014612 0.296822
vt 0.010000 0.250000
vt 0.014611 0.203179
vt 0.028269 0.158156
vt 0.050447 0.116663
vt 0.080294 0.080294
vt 0.116663 0.050447
vt 0.203178 0.014612
vt 0.250000 0.010000
vt 0.296822 0.014612
vt 0.341844 0.028269
vt 0.383337 0.050447
vt 0.419706 0.080294
vt 0.449553 0.116663
vt 0.485388 0.203178
vt 0.490000 0.250000
vt 0.485388 0.296822
vt 0.471731 0.341844
vt 0.449553 0.383337
vt 0.419706 0.419706
vt 0.383337 0.449553
vt 0.000000 1.000000
vt 0.750000 0.490000
vt 0.796822 0.485388
vt 0.841844 0.471731
vt 0.883337 0.449553
vt 0.919706 0.419706
vt 0.985388 0.296822
vt 0.949553 0.383337
vt 0.971731 0.341844
vt 0.990000 0.250000
vt 0.985388 0.203178
vt 0.971731 0.158156
vt 0.949553 0.116663
vt 0.919706 0.080294
vt 0.883337 0.050447
vt 0.841844 0.028269
vt 0.750000 0.010000
vt 0.616663 0.050447
vt 0.703178 0.014612
vt 0.658156 0.028269
vt 0.580294 0.080294
vt 0.550447 0.116663
vt 0.528269 0.158156
vt 0.510000 0.250000
vt 0.514612 0.296822
vt 0.528269 0.341844
vt 0.550447 0.383337
vt 0.580295 0.419706
vt 0.616663 0.449553
vt 0.658156 0.471731
vn 0.0946 0.0000 -0.9955
vn 0.2811 0.0000 -0.9597
vn 0.4586 0.0000 -0.8886
vn 0.6211 0.0000 -0.7838
vn 0.7619 0.0000 -0.6476
vn 0.8749 0.0000 -0.4843
vn 0.9540 0.0000 -0.2997
vn 0.9948 0.0000 -0.1015
vn 0.9948 0.0000 0.1015
vn 0.9540 0.0000 0.2997
vn 0.8749 0.0000 0.4843
vn 0.7619 0.0000 0.6476
vn 0.6211 0.0000 0.7837
vn 0.4586 0.0000 0.8886
vn 0.2810 0.0000 0.9597
vn 0.0947 0.0000 0.9955
vn -0.0946 0.0000 0.9955
vn -0.2811 0.0000 0.9597
vn -0.4587 0.0000 0.8886
vn -0.6211 0.0000 0.7838
vn -0.7619 0.0000 0.6476
vn -0.8749 0.0000 0.4843
vn -0.9540 0.0000 0.2997
vn -0.9948 0.0000 0.1015
vn -0.9948 0.0000 -0.1015
vn -0.9540 0.0000 -0.2997
vn -0.8749 0.0000 -0.4843
vn -0.7619 0.0000 -0.6476
vn -0.6211 0.0000 -0.7837
vn -0.4586 0.0000 -0.8886
vn 0.0000 1.0000 0.0000
vn -0.2810 0.0000 -0.9597
vn -0.0947 0.0000 -0.9955
vn 0.0000 -1.0000 0.0000
vn 0.0945 0.0000 -0.9955
vn 0.2810 0.0000 -0.9597
vn 0.4587 0.0000 -0.8886
vn 0.6211 0.0000 -0.7837
vn 0.7620 0.0000 -0.6476
vn 0.7620 0.0000 0.6476
vn 0.4587 0.0000 0.8886
vn 0.2809 0.0000 0.9597
vn -0.0947 0.0000 0.9955
vn -0.4588 0.0000 0.8885
vn -0.6210 0.0000 0.7838
vn -0.7619 0.0000 0.6477
vn -0.6210 0.0000 -0.7838
vn -0.4586 0.0000 -0.8887
vn -0.2812 0.0000 -0.9596
vn -0.0948 0.0000 -0.9955
vn 0.0947 0.0000 -0.9955
vn 0.7619 0.0000 -0.6477
vn 0.7619 0.0000 0.6477
vn 0.4585 0.0000 0.8887
vn 0.2811 0.0000 0.9597
vn -0.4586 0.0000 0.8886
vn -0.6211 0.0000 0.7837
vn -0.7620 0.0000 0.6476
vn -0.8749 0.0000 0.4842
vn -0.7620 0.0000 -0.6476
vn -0.2809 0.0000 -0.9597
vn 0.6211 0.0000 0.7838
vn 0.0946 0.0000 0.9955
vn -0.2810 0.0000 0.9597
vn -0.9540 0.0000 -0.2998
vn -0.6211 0.0000 -0.7838
vn 0.0000 1.0000 0.0003
vn 0.0000 1.0000 -0.0001
vn 0.0000 1.0000 -0.0003
vn 0.0000 1.0000 0.0001
vn -0.2811 0.0000 -0.9597
vn -0.0946 0.0000 -0.9955
vn 0.0000 -1.0000 0.0003
vn 0.0000 -1.0000 0.0001
vn 0.0000 -1.0000 -0.0003
vn 0.0000 -1.0000 -0.0001
vn 0.0000 -1.0000 0.0002
vn 0.0948 0.0000 -0.9955
vn 0.2812 0.0000 -0.9596
vn 0.4586 0.0000 -0.8887
vn 0.6210 0.0000 -0.7838
vn 0.6210 0.0000 0.7838
vn 0.4588 0.0000 0.8885
vn -0.2809 0.0000 0.9597
vn -0.7620 0.0000 -0.6475
vn 0.0000 1.0000 -0.0002
vn 0.0000 1.0000 0.0002
vn -0.0945 0.0000 -0.9955
vn 0.0000 -1.0000 -0.0002
vn 0.2809 0.0000 -0.9597
vn -0.4585 0.0000 0.8887
vn -0.7619 0.0000 -0.6477
s off
f 2/1/1 3/2/1 1/3/1
f 4/4/2 5/5/2 3/2/2
f 6/6/3 7/7/3 5/5/3
f 8/8/4 9/9/4 7/7/4
f 10/10/5 11/11/5 9/9/5
f 12/12/6 13/13/6 11/11/6
f 14/14/7 15/15/7 13/13/7
f 16/16/8 17/17/8 15/15/8
f 18/18/9 19/19/9 17/17/9
f 20/20/10 21/21/10 19/19/10
f 22/22/11 23/23/11 21/21/11
f 24/24/12 25/25/12 23/23/12
f 26/26/13 27/27/13 25/25/13
f 28/28/14 29/29/14 27/27/14
f 30/30/15 31/31/15 29/29/15
f 32/32/16 33/33/16 31/31/16
f 34/34/17 35/35/17 33/33/17
f 36/36/18 37/37/18 35/35/18
f 38/38/19 39/39/19 37/37/19
f 40/40/20 41/41/20 39/39/20
f 42/42/21 43/43/21 41/41/21
f 44/44/22 45/45/22 43/43/22
f 46/46/23 47/47/23 45/45/23
f 48/48/24 49/49/24 47/47/24
f 50/50/25 51/51/25 49/49/25
f 52/52/26 53/53/26 51/51/26
f 54/54/27 55/55/27 53/53/27
f 56/56/28 57/57/28 55/55/28
f 58/58/29 59/59/29 57/57/29
f 60/60/30 61/61/30 59/59/30
f 54/62/31 38/63/31 22/64/31
f 62/65/32 63/66/32 61/61/32
f 64/67/33 1/68/33 63/66/33
f 15/69/34 31/70/34 47/71/34
f 66/72/35 67/73/35 65/74/35
f 68/75/36 69/76/36 67/73/36
f 70/77/37 71/78/37 69/76/37
f 72/79/38 73/80/38 71/78/38
f 74/81/39 75/82/39 73/80/39
f 76/83/6 77/84/6 75/82/6
f 78/85/7 79/86/7 77/84/7
f 80/87/8 81/88/8 79/86/8
f 82/89/9 83/90/9 81/88/9
f 84/91/10 85/92/10 83/90/10
f 86/93/11 87/94/11 85/92/11
f 88/95/40 89/96/40 87/94/40
f 90/97/13 91/98/13 89/96/13
f 92/99/41 93/100/41 91/98/41
f 94/101/42 95/102/42 93/100/42
f 96/103/16 97/104/16 95/102/16
f 98/105/43 99/106/43 97/104/43
f 100/107/18 101/108/18 99/106/18
f 102/109/44 103/110/44 101/108/44
f 104/111/45 105/112/45 103/110/45
f 106/113/46 107/114/46 105/112/46
f 108/115/22 109/116/22 107/114/22
f 110/117/23 111/118/23 109/116/23
f 112/119/24 113/120/24 111/118/24
f 114/121/25 115/122/25 113/120/25
f 116/123/26 117/124/26 115/122/26
f 118/125/27 119/126/27 117/124/27
f 120/127/28 121/128/28 119/126/28
f 122/129/47 123/130/47 121/128/47
f 124/131/48 125/132/48 123/130/48
f 102/133/31 86/134/31 70/135/31
f 126/136/49 127/137/49 125/132/49
f 128/138/50 65/139/50 127/137/50
f 95/140/34 111/141/34 127/142/34
f 130/143/51 131/144/51 129/145/51
f 132/146/2 133/147/2 131/144/2
f 134/148/3 135/149/3 133/147/3
f 136/150/38 137/151/38 135/149/38
f 138/152/52 139/153/52 137/151/52
f 140/154/6 141/155/6 139/153/6
f 142/156/7 143/157/7 141/155/7
f 144/158/8 145/159/8 143/157/8
f 146/160/9 147/161/9 145/159/9
f 148/162/10 149/163/10 147/161/10
f 150/164/11 151/165/11 149/163/11
f 152/166/53 153/167/53 151/165/53
f 154/168/13 155/169/13 153/167/13
f 156/170/54 157/171/54 155/169/54
f 158/172/55 159/173/55 157/171/55
f 160/174/16 161/175/16 159/173/16
f 162/176/43 163/177/43 161/175/43
f 164/178/18 165/179/18 163/177/18
f 166/180/56 167/181/56 165/179/56
f 168/182/57 169/183/57 167/181/57
f 170/184/58 171/185/58 169/183/58
f 172/186/59 173/187/59 171/185/59
f 174/188/23 175/189/23 173/187/23
f 176/190/24 177/191/24 175/189/24
f 178/192/25 179/193/25 177/191/25
f 180/194/26 181/195/26 179/193/26
f 182/196/27 183/197/27 181/195/27
f 184/198/60 185/199/60 183/197/60
f 186/200/29 187/201/29 185/199/29
f 188/202/30 189/203/30 187/201/30
f 166/204/31 150/205/31 134/206/31
f 190/207/61 191/208/61 189/203/61
f 192/209/33 129/210/33 191/208/33
f 159/211/34 175/212/34 191/213/34
f 2/1/51 4/4/51 3/2/51
f 4/4/36 6/6/36 5/5/36
f 6/6/3 8/8/3 7/7/3
f 8/8/38 10/10/38 9/9/38
f 10/10/5 12/12/5 11/11/5
f 12/12/6 14/14/6 13/13/6
f 14/14/7 16/16/7 15/15/7
f 16/16/8 18/18/8 17/17/8
f 18/18/9 20/20/9 19/19/9
f 20/20/10 22/22/10 21/21/10
f 22/22/11 24/24/11 23/23/11
f 24/24/12 26/26/12 25/25/12
f 26/26/62 28/28/62 27/27/62
f 28/28/14 30/30/14 29/29/14
f 30/30/55 32/32/55 31/31/55
f 32/32/63 34/34/63 33/33/63
f 34/34/43 36/36/43 35/35/43
f 36/36/64 38/38/64 37/37/64
f 38/38/56 40/40/56 39/39/56
f 40/40/57 42/42/57 41/41/57
f 42/42/21 44/44/21 43/43/21
f 44/44/22 46/46/22 45/45/22
f 46/46/23 48/48/23 47/47/23
f 48/48/24 50/50/24 49/49/24
f 50/50/25 52/52/25 51/51/25
f 52/52/65 54/54/65 53/53/65
f 54/54/27 56/56/27 55/55/27
f 56/56/28 58/58/28 57/57/28
f 58/58/66 60/60/66 59/59/66
f 60/60/30 62/65/30 61/61/30
f 6/214/67 4/215/67 2/216/67
f 2/216/31 64/217/31 6/214/31
f 64/217/31 62/218/31 6/214/31
f 62/218/31 60/219/31 58/220/31
f 58/220/31 56/221/31 54/62/31
f 54/62/68 52/222/68 50/223/68
f 50/223/31 48/224/31 54/62/31
f 48/224/31 46/225/31 54/62/31
f 46/225/31 44/226/31 38/63/31
f 44/226/31 42/227/31 38/63/31
f 42/227/31 40/228/31 38/63/31
f 38/63/69 36/229/69 34/230/69
f 34/230/69 32/231/69 30/232/69
f 30/232/31 28/233/31 26/234/31
f 26/234/31 24/235/31 22/64/31
f 22/64/70 20/236/70 18/237/70
f 18/237/31 16/238/31 22/64/31
f 16/238/31 14/239/31 22/64/31
f 14/239/31 12/240/31 10/241/31
f 10/241/31 8/242/31 6/214/31
f 62/218/31 58/220/31 6/214/31
f 58/220/31 54/62/31 6/214/31
f 38/63/31 34/230/31 22/64/31
f 34/230/31 30/232/31 22/64/31
f 30/232/31 26/234/31 22/64/31
f 14/239/31 10/241/31 22/64/31
f 10/241/31 6/214/31 22/64/31
f 54/62/31 46/225/31 38/63/31
f 6/214/31 54/62/31 22/64/31
f 62/65/71 64/67/71 63/66/71
f 64/67/72 2/243/72 1/68/72
f 63/244/73 1/245/73 3/246/73
f 3/246/34 5/247/34 7/248/34
f 7/248/73 9/249/73 11/250/73
f 11/250/34 13/251/34 7/248/34
f 13/251/34 15/69/34 7/248/34
f 15/69/34 17/252/34 19/253/34
f 19/253/34 21/254/34 15/69/34
f 21/254/34 23/255/34 15/69/34
f 23/255/74 25/256/74 31/70/74
f 25/256/34 27/257/34 31/70/34
f 27/257/34 29/258/34 31/70/34
f 31/70/34 33/259/34 35/260/34
f 35/260/73 37/261/73 39/262/73
f 39/262/75 41/263/75 43/264/75
f 43/264/76 45/265/76 47/71/76
f 47/71/34 49/266/34 51/267/34
f 51/267/77 53/268/77 55/269/77
f 55/269/76 57/270/76 63/244/76
f 57/270/34 59/271/34 63/244/34
f 59/271/34 61/272/34 63/244/34
f 63/244/76 3/246/76 7/248/76
f 31/70/34 35/260/34 47/71/34
f 35/260/34 39/262/34 47/71/34
f 39/262/34 43/264/34 47/71/34
f 47/71/34 51/267/34 63/244/34
f 51/267/34 55/269/34 63/244/34
f 63/244/34 7/248/34 15/69/34
f 15/69/34 23/255/34 31/70/34
f 63/244/34 15/69/34 47/71/34
f 66/72/78 68/75/78 67/73/78
f 68/75/79 70/77/79 69/76/79
f 70/77/80 72/79/80 71/78/80
f 72/79/81 74/81/81 73/80/81
f 74/81/5 76/83/5 75/82/5
f 76/83/6 78/85/6 77/84/6
f 78/85/7 80/87/7 79/86/7
f 80/87/8 82/89/8 81/88/8
f 82/89/9 84/91/9 83/90/9
f 84/91/10 86/93/10 85/92/10
f 86/93/11 88/95/11 87/94/11
f 88/95/53 90/97/53 89/96/53
f 90/97/82 92/99/82 91/98/82
f 92/99/83 94/101/83 93/100/83
f 94/101/55 96/103/55 95/102/55
f 96/103/16 98/105/16 97/104/16
f 98/105/43 100/107/43 99/106/43
f 100/107/84 102/109/84 101/108/84
f 102/109/56 104/111/56 103/110/56
f 104/111/57 106/113/57 105/112/57
f 106/113/58 108/115/58 107/114/58
f 108/115/22 110/117/22 109/116/22
f 110/117/23 112/119/23 111/118/23
f 112/119/24 114/121/24 113/120/24
f 114/121/25 116/123/25 115/122/25
f 116/123/26 118/125/26 117/124/26
f 118/125/27 120/127/27 119/126/27
f 120/127/85 122/129/85 121/128/85
f 122/129/29 124/131/29 123/130/29
f 124/131/30 126/136/30 125/132/30
f 70/135/69 68/273/69 66/274/69
f 66/274/31 128/275/31 70/135/31
f 128/275/31 126/276/31 70/135/31
f 126/276/31 124/277/31 122/278/31
f 122/278/31 120/279/31 118/280/31
f 118/280/31 116/281/31 114/282/31
f 114/282/31 112/283/31 118/280/31
f 112/283/31 110/284/31 118/280/31
f 110/284/31 108/285/31 102/133/31
f 108/285/31 106/286/31 102/133/31
f 106/286/31 104/287/31 102/133/31
f 102/133/69 100/288/69 98/289/69
f 98/289/67 96/290/67 94/291/67
f 94/291/67 92/292/67 90/293/67
f 90/293/86 88/294/86 86/134/86
f 86/134/31 84/295/31 82/296/31
f 82/296/31 80/297/31 78/298/31
f 78/298/87 76/299/87 74/300/87
f 74/300/69 72/301/69 70/135/69
f 126/276/31 122/278/31 70/135/31
f 122/278/31 118/280/31 70/135/31
f 102/133/31 98/289/31 94/291/31
f 94/291/31 90/293/31 102/133/31
f 90/293/31 86/134/31 102/133/31
f 86/134/31 82/296/31 78/298/31
f 78/298/31 74/300/31 86/134/31
f 74/300/31 70/135/31 86/134/31
f 118/280/31 110/284/31 102/133/31
f 70/135/31 118/280/31 102/133/31
f 126/136/32 128/138/32 127/137/32
f 128/138/88 66/302/88 65/139/88
f 127/142/34 65/303/34 67/304/34
f 67/304/75 69/305/75 71/306/75
f 71/306/76 73/307/76 79/308/76
f 73/307/34 75/309/34 79/308/34
f 75/309/76 77/310/76 79/308/76
f 79/308/34 81/311/34 83/312/34
f 83/312/34 85/313/34 79/308/34
f 85/313/34 87/314/34 79/308/34
f 87/314/34 89/315/34 95/140/34
f 89/315/34 91/316/34 95/140/34
f 91/316/73 93/317/73 95/140/73
f 95/140/34 97/318/34 99/319/34
f 99/319/34 101/320/34 95/140/34
f 101/320/34 103/321/34 95/140/34
f 103/321/34 105/322/34 107/323/34
f 107/323/74 109/324/74 111/141/74
f 111/141/34 113/325/34 115/326/34
f 115/326/89 117/327/89 119/328/89
f 119/328/34 121/329/34 127/142/34
f 121/329/77 123/330/77 127/142/77
f 123/330/75 125/331/75 127/142/75
f 127/142/74 67/304/74 71/306/74
f 103/321/34 107/323/34 95/140/34
f 107/323/34 111/141/34 95/140/34
f 111/141/34 115/326/34 119/328/34
f 127/142/34 71/306/34 79/308/34
f 79/308/34 87/314/34 127/142/34
f 87/314/34 95/140/34 127/142/34
f 111/141/34 119/328/34 127/142/34
f 130/143/51 132/146/51 131/144/51
f 132/146/90 134/148/90 133/147/90
f 134/148/3 136/150/3 135/149/3
f 136/150/38 138/152/38 137/151/38
f 138/152/39 140/154/39 139/153/39
f 140/154/6 142/156/6 141/155/6
f 142/156/7 144/158/7 143/157/7
f 144/158/8 146/160/8 145/159/8
f 146/160/9 148/162/9 147/161/9
f 148/162/10 150/164/10 149/163/10
f 150/164/11 152/166/11 151/165/11
f 152/166/40 154/168/40 153/167/40
f 154/168/13 156/170/13 155/169/13
f 156/170/14 158/172/14 157/171/14
f 158/172/55 160/174/55 159/173/55
f 160/174/16 162/176/16 161/175/16
f 162/176/43 164/178/43 163/177/43
f 164/178/18 166/180/18 165/179/18
f 166/180/91 168/182/91 167/181/91
f 168/182/57 170/184/57 169/183/57
f 170/184/46 172/186/46 171/185/46
f 172/186/22 174/188/22 173/187/22
f 174/188/23 176/190/23 175/189/23
f 176/190/24 178/192/24 177/191/24
f 178/192/25 180/194/25 179/193/25
f 180/194/26 182/196/26 181/195/26
f 182/196/27 184/198/27 183/197/27
f 184/198/92 186/200/92 185/199/92
f 186/200/29 188/202/29 187/201/29
f 188/202/30 190/207/30 189/203/30
f 134/206/31 132/332/31 130/333/31
f 130/333/31 192/334/31 134/206/31
f 192/334/87 190/335/87 134/206/87
f 190/335/31 188/336/31 186/337/31
f 186/337/86 184/338/86 182/339/86
f 182/339/31 180/340/31 178/341/31
f 178/341/31 176/342/31 182/339/31
f 176/342/31 174/343/31 182/339/31
f 174/343/31 172/344/31 166/204/31
f 172/344/86 170/345/86 166/204/86
f 170/345/31 168/346/31 166/204/31
f 166/204/31 164/347/31 162/348/31
f 162/348/31 160/349/31 158/350/31
f 158/350/31 156/351/31 150/205/31
f 156/351/68 154/352/68 150/205/68
f 154/352/87 152/353/87 150/205/87
f 150/205/31 148/354/31 146/355/31
f 146/355/31 144/356/31 150/205/31
f 144/356/31 142/357/31 150/205/31
f 142/357/86 140/358/86 138/359/86
f 138/359/31 136/360/31 134/206/31
f 190/335/31 186/337/31 182/339/31
f 166/204/31 162/348/31 150/205/31
f 162/348/31 158/350/31 150/205/31
f 142/357/31 138/359/31 150/205/31
f 138/359/31 134/206/31 150/205/31
f 134/206/31 190/335/31 166/204/31
f 190/335/31 182/339/31 166/204/31
f 182/339/31 174/343/31 166/204/31
f 190/207/71 192/209/71 191/208/71
f 192/209/33 130/361/33 129/210/33
f 191/213/34 129/362/34 131/363/34
f 131/363/34 133/364/34 135/365/34
f 135/365/74 137/366/74 143/367/74
f 137/366/74 139/368/74 143/367/74
f 139/368/89 141/369/89 143/367/89
f 143/367/34 145/370/34 147/371/34
f 147/371/34 149/372/34 143/367/34
f 149/372/74 151/373/74 143/367/74
f 151/373/75 153/374/75 155/375/75
f 155/375/34 157/376/34 159/211/34
f 159/211/34 161/377/34 167/378/34
f 161/377/34 163/379/34 167/378/34
f 163/379/34 165/380/34 167/378/34
f 167/378/89 169/381/89 171/382/89
f 171/382/77 173/383/77 175/212/77
f 175/212/34 177/384/34 179/385/34
f 179/385/89 181/386/89 183/387/89
f 183/387/73 185/388/73 187/389/73
f 187/389/34 189/390/34 183/387/34
f 189/390/34 191/213/34 183/387/34
f 191/213/34 131/363/34 135/365/34
f 151/373/34 155/375/34 143/367/34
f 155/375/34 159/211/34 143/367/34
f 167/378/74 171/382/74 159/211/74
f 171/382/34 175/212/34 159/211/34
f 175/212/34 179/385/34 191/213/34
f 179/385/34 183/387/34 191/213/34
f 191/213/34 135/365/34 143/367/34
f 191/213/34 143/367/34 159/211/34
