# Blender v2.82 (sub 7) OBJ File: 'living_room.blend'
# www.blender.org
o Floor_Mesh_(141)
v 0.878496 0.028752 1.287980
v 1.886390 0.028752 1.287980
v 1.886390 0.028752 1.025680
v 0.878496 0.028752 1.025680
v -0.452989 0.028752 1.287980
v -0.452989 0.028752 1.025680
v -1.460890 0.028752 1.287980
v -1.460890 0.028752 1.025680
v -0.452989 0.028752 0.520960
v -0.515713 0.028752 0.520960
v 0.878496 0.028752 0.520960
v 0.941220 0.028752 0.520960
v 3.014910 0.028752 2.215140
v 3.014910 0.028752 1.287980
v 1.886390 0.028752 2.215140
v 0.878496 0.028752 2.215140
v -0.452989 0.028752 2.215140
v -1.267000 0.028752 2.215140
v 1.886390 0.028751 3.519450
v 1.886390 0.028751 8.052170
v 3.014910 0.028751 8.052170
v 3.014910 0.028751 3.519450
v 0.878496 0.028751 3.519450
v 0.878496 0.028751 8.052170
v -0.452989 0.028751 3.519450
v -0.452989 0.028751 8.052170
v -1.267000 0.028751 3.519450
v -1.460890 0.028751 8.052170
v -2.455510 0.028752 2.215140
v -1.924290 0.028752 2.215140
v -1.924290 0.028752 1.287980
v -2.455510 0.028752 1.287980
v -2.455510 0.028751 8.052170
v -1.924290 0.028751 8.052170
v -1.924290 0.028751 3.519450
v -2.455510 0.028751 3.519450
v 1.886390 0.028752 2.480610
v 3.014910 0.028752 2.480610
v 1.886390 0.028751 3.253980
v 3.014910 0.028751 3.253980
v 0.878496 0.028752 2.480610
v 0.878496 0.028751 3.253980
v -0.452989 0.028752 2.480610
v -0.452989 0.028751 3.253980
v -1.267000 0.028752 2.480610
v -1.267000 0.028751 3.253980
v -1.924290 0.028751 3.253980
v -1.924290 0.028752 2.480610
vt 1.279630 0.375998
vt 1.279630 0.139024
vt 1.341300 0.139024
vt 1.341300 0.375998
vt 1.279630 0.689053
vt 1.341300 0.689053
vt 1.279630 0.926027
vt 1.341300 0.926027
vt 1.459970 0.689053
vt 1.459970 0.703800
vt 1.459970 0.375998
vt 1.459970 0.361251
vt 1.061640 -0.126308
vt 1.279630 -0.126308
vt 1.061640 0.139024
vt 1.061640 0.375998
vt 1.061640 0.689053
vt 1.061640 0.880441
vt 0.754974 0.139024
vt -0.310745 0.139024
vt -0.310745 -0.126308
vt 0.754974 -0.126308
vt 0.754974 0.375998
vt -0.310745 0.375998
vt 0.754974 0.689053
vt -0.310745 0.689053
vt 0.754974 0.880441
vt -0.310745 0.926027
vt 1.061640 1.159880
vt 1.061640 1.034980
vt 1.279630 1.034980
vt 1.279630 1.159880
vt -0.310745 1.159880
vt -0.310745 1.034980
vt 0.754974 1.034980
vt 0.754974 1.159880
vt 0.999223 0.139024
vt 0.999223 -0.126308
vt 0.817391 0.139024
vt 0.817391 -0.126308
vt 0.999223 0.375998
vt 0.817391 0.375998
vt 0.999223 0.689053
vt 0.817391 0.689053
vt 0.999223 0.880441
vt 0.817391 0.880441
vt 0.817391 1.034980
vt 0.999223 1.034980
vn 0.0000 1.0000 0.0000
s 1
f 1/1/1 2/2/1 3/3/1
f 1/1/1 3/3/1 4/4/1
f 5/5/1 1/1/1 4/4/1
f 5/5/1 4/4/1 6/6/1
f 7/7/1 5/5/1 6/6/1
f 7/7/1 6/6/1 8/8/1
f 8/8/1 6/6/1 9/9/1
f 8/8/1 9/9/1 10/10/1
f 6/6/1 4/4/1 11/11/1
f 6/6/1 11/11/1 9/9/1
f 4/4/1 3/3/1 12/12/1
f 4/4/1 12/12/1 11/11/1
f 13/13/1 14/14/1 2/2/1
f 13/13/1 2/2/1 15/15/1
f 1/1/1 16/16/1 15/15/1
f 1/1/1 15/15/1 2/2/1
f 5/5/1 17/17/1 16/16/1
f 5/5/1 16/16/1 1/1/1
f 7/7/1 18/18/1 17/17/1
f 7/7/1 17/17/1 5/5/1
f 19/19/1 20/20/1 21/21/1
f 19/19/1 21/21/1 22/22/1
f 23/23/1 24/24/1 20/20/1
f 23/23/1 20/20/1 19/19/1
f 25/25/1 26/26/1 24/24/1
f 25/25/1 24/24/1 23/23/1
f 27/27/1 28/28/1 26/26/1
f 27/27/1 26/26/1 25/25/1
f 29/29/1 30/30/1 31/31/1
f 29/29/1 31/31/1 32/32/1
f 30/30/1 18/18/1 7/7/1
f 30/30/1 7/7/1 31/31/1
f 33/33/1 34/34/1 35/35/1
f 33/33/1 35/35/1 36/36/1
f 34/34/1 28/28/1 27/27/1
f 34/34/1 27/27/1 35/35/1
f 15/15/1 37/37/1 38/38/1
f 15/15/1 38/38/1 13/13/1
f 37/37/1 39/39/1 40/40/1
f 37/37/1 40/40/1 38/38/1
f 39/39/1 19/19/1 22/22/1
f 39/39/1 22/22/1 40/40/1
f 16/16/1 41/41/1 37/37/1
f 16/16/1 37/37/1 15/15/1
f 41/41/1 42/42/1 39/39/1
f 41/41/1 39/39/1 37/37/1
f 42/42/1 23/23/1 19/19/1
f 42/42/1 19/19/1 39/39/1
f 17/17/1 43/43/1 41/41/1
f 17/17/1 41/41/1 16/16/1
f 43/43/1 44/44/1 42/42/1
f 43/43/1 42/42/1 41/41/1
f 44/44/1 25/25/1 23/23/1
f 44/44/1 23/23/1 42/42/1
f 18/18/1 45/45/1 43/43/1
f 18/18/1 43/43/1 17/17/1
f 45/45/1 46/46/1 44/44/1
f 45/45/1 44/44/1 43/43/1
f 46/46/1 27/27/1 25/25/1
f 46/46/1 25/25/1 44/44/1
f 27/27/1 46/46/1 47/47/1
f 27/27/1 47/47/1 35/35/1
f 46/46/1 45/45/1 48/48/1
f 46/46/1 48/48/1 47/47/1
f 45/45/1 18/18/1 30/30/1
f 45/45/1 30/30/1 48/48/1
