# Blender v2.82 (sub 7) OBJ File: 'living_room.blend'
# www.blender.org
o FloorTrims_Mesh_(143)
v -2.426280 0.024274 3.548920
v -2.426280 0.024274 7.002100
v -2.444280 0.024274 7.002100
v -2.444280 0.024274 3.530920
v -2.426790 0.131266 3.548410
v -2.426790 0.131266 7.002100
v -2.426280 0.130485 7.002100
v -2.426280 0.130485 3.548920
v -2.426790 0.131266 3.548410
v -2.427970 0.131323 3.547240
v -2.427970 0.131323 7.002100
v -2.426790 0.131266 7.002100
v -2.426280 0.024274 3.548920
v -2.426280 0.130485 3.548920
v -2.426280 0.130485 7.002100
v -2.426280 0.024274 7.002100
v -2.427970 0.131323 3.547240
v -2.427970 0.132085 3.547240
v -2.427970 0.132085 7.002100
v -2.427970 0.131323 7.002100
v -2.427970 0.132085 3.547240
v -2.426340 0.134373 3.548860
v -2.426340 0.134373 7.002100
v -2.427970 0.132085 7.002100
v -2.426340 0.134373 3.548860
v -2.426340 0.137423 3.548860
v -2.426340 0.137423 7.002100
v -2.426340 0.134373 7.002100
v -2.426340 0.137423 3.548860
v -2.427310 0.140854 3.547880
v -2.427310 0.140854 7.002100
v -2.426340 0.137423 7.002100
v -2.431220 0.151529 3.543980
v -2.431220 0.151529 7.002100
v -2.433830 0.159037 3.541370
v -2.433830 0.159037 7.002100
v -2.435000 0.167770 3.540200
v -2.435000 0.167770 7.002100
v -2.435270 0.174664 3.539940
v -2.435270 0.174664 7.002100
v -2.435280 0.175936 3.539920
v -2.435280 0.175936 7.002100
v -2.435280 0.175936 3.539920
v -2.434470 0.175973 3.540730
v -2.434470 0.175973 7.002100
v -2.435280 0.175936 7.002100
v -2.434470 0.175973 3.540730
v -2.433920 0.176748 3.541280
v -2.433920 0.176748 7.002100
v -2.434470 0.175973 7.002100
v -2.433920 0.176748 3.541280
v -2.433930 0.180165 3.541270
v -2.433930 0.180165 7.002100
v -2.433920 0.176748 7.002100
v -2.433930 0.180165 3.541270
v -2.434720 0.180778 3.540480
v -2.434720 0.180778 7.002100
v -2.433930 0.180165 7.002100
v -2.434720 0.180778 3.540480
v -2.436290 0.180778 3.538920
v -2.436290 0.180778 7.002100
v -2.434720 0.180778 7.002100
v -2.436290 0.180778 3.538920
v -2.436290 0.181697 3.538920
v -2.436290 0.181697 7.002100
v -2.436290 0.180778 7.002100
v -2.436290 0.181697 3.538920
v -2.434980 0.183229 3.540220
v -2.434980 0.183229 7.002100
v -2.436290 0.181697 7.002100
v -2.433410 0.185681 3.541790
v -2.433410 0.185681 7.002100
v -2.433410 0.185681 3.541790
v -2.433150 0.188944 3.542050
v -2.433150 0.188944 7.002100
v -2.433410 0.185681 7.002100
v -2.433490 0.192293 3.541710
v -2.433490 0.192293 7.002100
v -2.433490 0.192293 3.541710
v -2.435110 0.195343 3.540090
v -2.435110 0.195343 7.002100
v -2.433490 0.192293 7.002100
v -2.444280 0.195343 3.530920
v -2.444280 0.024274 3.530920
v -2.444280 0.024274 7.002100
v -2.444280 0.195343 7.002100
v -2.435110 0.195343 7.002100
v -2.435110 0.195343 3.540090
v -2.444280 0.195343 3.530920
v -2.444280 0.195343 7.002100
v -1.911370 0.024274 3.530920
v -1.893360 0.024274 3.548920
v -2.426280 0.130485 3.548920
v -1.893360 0.130485 3.548920
v -1.893870 0.131266 3.548410
v -2.426790 0.131266 3.548410
v -1.893870 0.131266 3.548410
v -1.895050 0.131323 3.547240
v -2.426280 0.130485 3.548920
v -2.426280 0.024274 3.548920
v -1.893360 0.024274 3.548920
v -1.893360 0.130485 3.548920
v -2.427970 0.132085 3.547240
v -2.427970 0.131323 3.547240
v -1.895050 0.131323 3.547240
v -1.895050 0.132085 3.547240
v -2.426340 0.134373 3.548860
v -2.427970 0.132085 3.547240
v -1.895050 0.132085 3.547240
v -1.893430 0.134373 3.548860
v -2.426340 0.137423 3.548860
v -2.426340 0.134373 3.548860
v -1.893430 0.134373 3.548860
v -1.893430 0.137423 3.548860
v -2.427310 0.140854 3.547880
v -2.426340 0.137423 3.548860
v -1.893430 0.137423 3.548860
v -1.894400 0.140854 3.547880
v -2.431220 0.151529 3.543980
v -1.898300 0.151529 3.543980
v -2.433830 0.159037 3.541370
v -1.900920 0.159037 3.541370
v -2.435000 0.167770 3.540200
v -1.902090 0.167770 3.540200
v -2.435270 0.174664 3.539940
v -1.902350 0.174664 3.539940
v -2.435280 0.175936 3.539920
v -1.902370 0.175936 3.539920
v -1.902370 0.175936 3.539920
v -1.901560 0.175973 3.540730
v -2.433920 0.176748 3.541280
v -2.434470 0.175973 3.540730
v -1.901560 0.175973 3.540730
v -1.901010 0.176748 3.541280
v -2.433930 0.180165 3.541270
v -2.433920 0.176748 3.541280
v -1.901010 0.176748 3.541280
v -1.901020 0.180165 3.541270
v -2.434720 0.180778 3.540480
v -2.433930 0.180165 3.541270
v -1.901020 0.180165 3.541270
v -1.901810 0.180778 3.540480
v -1.901810 0.180778 3.540480
v -1.903370 0.180778 3.538920
v -2.436290 0.181697 3.538920
v -2.436290 0.180778 3.538920
v -1.903370 0.180778 3.538920
v -1.903370 0.181697 3.538920
v -2.434980 0.183229 3.540220
v -2.436290 0.181697 3.538920
v -1.903370 0.181697 3.538920
v -1.902070 0.183229 3.540220
v -2.433410 0.185681 3.541790
v -1.900500 0.185681 3.541790
v -2.433150 0.188944 3.542050
v -2.433410 0.185681 3.541790
v -1.900500 0.185681 3.541790
v -1.900240 0.188944 3.542050
v -2.433490 0.192293 3.541710
v -1.900580 0.192293 3.541710
v -2.435110 0.195343 3.540090
v -2.433490 0.192293 3.541710
v -1.900580 0.192293 3.541710
v -1.902200 0.195343 3.540090
v -2.444280 0.024274 3.530920
v -2.444280 0.195343 3.530920
v -1.911370 0.195343 3.530920
v -1.911370 0.024274 3.530920
v -1.902200 0.195343 3.540090
v -1.911370 0.195343 3.530920
v -1.902200 0.195343 3.340430
v -1.911370 0.195343 3.340430
v -1.911370 0.024274 3.530920
v -1.911370 0.195343 3.530920
v -1.911370 0.195343 3.340430
v -1.911370 0.024274 3.340430
v -1.902200 0.195343 3.540090
v -1.900580 0.192293 3.541710
v -1.900580 0.192293 3.340430
v -1.902200 0.195343 3.340430
v -1.900580 0.192293 3.541710
v -1.900240 0.188944 3.542050
v -1.900240 0.188944 3.340430
v -1.900580 0.192293 3.340430
v -1.900500 0.185681 3.541790
v -1.900500 0.185681 3.340430
v -1.900500 0.185681 3.541790
v -1.902070 0.183229 3.540220
v -1.902070 0.183229 3.340430
v -1.900500 0.185681 3.340430
v -1.903370 0.181697 3.538920
v -1.903370 0.181697 3.340430
v -1.903370 0.181697 3.538920
v -1.903370 0.180778 3.538920
v -1.903370 0.180778 3.340430
v -1.903370 0.181697 3.340430
v -1.901810 0.180778 3.340430
v -1.903370 0.180778 3.340430
v -1.901810 0.180778 3.540480
v -1.901020 0.180165 3.541270
v -1.901020 0.180165 3.340430
v -1.901810 0.180778 3.340430
v -1.901020 0.180165 3.541270
v -1.901010 0.176748 3.541280
v -1.901010 0.176748 3.340430
v -1.901020 0.180165 3.340430
v -1.901010 0.176748 3.541280
v -1.901560 0.175973 3.540730
v -1.901560 0.175973 3.340430
v -1.901010 0.176748 3.340430
v -1.902370 0.175936 3.340430
v -1.901560 0.175973 3.340430
v -1.902370 0.175936 3.539920
v -1.902350 0.174664 3.539940
v -1.902350 0.174664 3.340430
v -1.902370 0.175936 3.340430
v -1.902090 0.167770 3.540200
v -1.902090 0.167770 3.340430
v -1.900920 0.159037 3.541370
v -1.900920 0.159037 3.340430
v -1.898300 0.151529 3.543980
v -1.898300 0.151529 3.340430
v -1.894400 0.140854 3.547880
v -1.894400 0.140854 3.340430
v -1.893430 0.137423 3.548860
v -1.893430 0.137423 3.340430
v -1.893430 0.137423 3.548860
v -1.893430 0.134373 3.548860
v -1.893430 0.134373 3.340430
v -1.893430 0.137423 3.340430
v -1.893430 0.134373 3.548860
v -1.895050 0.132085 3.547240
v -1.895050 0.132085 3.340430
v -1.893430 0.134373 3.340430
v -1.895050 0.132085 3.547240
v -1.895050 0.131323 3.547240
v -1.895050 0.131323 3.340430
v -1.895050 0.132085 3.340430
v -1.893360 0.130485 3.548920
v -1.893360 0.024274 3.548920
v -1.893360 0.024274 3.340430
v -1.893360 0.130485 3.340430
v -1.893870 0.131266 3.340430
v -1.895050 0.131323 3.340430
v -1.893360 0.130485 3.548920
v -1.893360 0.130485 3.340430
v -1.893870 0.131266 3.340430
v -1.893870 0.131266 3.548410
v -1.911370 0.024274 3.340430
v -1.893360 0.024274 3.340430
v -1.902200 0.195344 2.375180
v -1.911370 0.195344 2.204640
v -1.911370 0.195344 2.375180
v -1.902200 0.195344 2.195470
v -1.911370 0.195344 2.375180
v -1.911370 0.024275 2.204640
v -1.911370 0.024275 2.375180
v -1.911370 0.195344 2.204640
v -1.902200 0.195344 2.375180
v -1.900580 0.192294 2.193840
v -1.902200 0.195344 2.195470
v -1.900580 0.192294 2.375180
v -1.900240 0.188945 2.375180
v -1.900580 0.192294 2.193840
v -1.900580 0.192294 2.375180
v -1.900240 0.188945 2.193510
v -1.900500 0.185682 2.193770
v -1.900500 0.185682 2.375180
v -1.902070 0.183230 2.375180
v -1.900500 0.185682 2.193770
v -1.900500 0.185682 2.375180
v -1.902070 0.183230 2.195330
v -1.903370 0.181698 2.196640
v -1.903370 0.181698 2.375180
v -1.903370 0.181698 2.375180
v -1.903370 0.180779 2.196640
v -1.903370 0.181698 2.196640
v -1.903370 0.180779 2.375180
v -1.903370 0.180779 2.375180
v -1.901810 0.180779 2.195070
v -1.903370 0.180779 2.196640
v -1.901810 0.180779 2.375180
v -1.901020 0.180166 2.375180
v -1.901810 0.180779 2.195070
v -1.901810 0.180779 2.375180
v -1.901020 0.180166 2.194290
v -1.901010 0.176749 2.375180
v -1.901020 0.180166 2.194290
v -1.901020 0.180166 2.375180
v -1.901010 0.176749 2.194280
v -1.901560 0.175974 2.375180
v -1.901010 0.176749 2.194280
v -1.901010 0.176749 2.375180
v -1.901560 0.175974 2.194830
v -1.901560 0.175974 2.375180
v -1.902370 0.175937 2.195640
v -1.901560 0.175974 2.194830
v -1.902370 0.175937 2.375180
v -1.902350 0.174665 2.375180
v -1.902370 0.175937 2.195640
v -1.902370 0.175937 2.375180
v -1.902350 0.174665 2.195620
v -1.902090 0.167771 2.195360
v -1.902090 0.167771 2.375180
v -1.900920 0.159038 2.375180
v -1.900920 0.159038 2.194190
v -1.898300 0.151530 2.375180
v -1.898300 0.151530 2.191570
v -1.894400 0.140855 2.187670
v -1.894400 0.140855 2.375180
v -1.893430 0.137424 2.375180
v -1.893430 0.137424 2.186700
v -1.893430 0.134374 2.375180
v -1.893430 0.137424 2.186700
v -1.893430 0.137424 2.375180
v -1.893430 0.134374 2.186700
v -1.895050 0.132086 2.375180
v -1.893430 0.134374 2.186700
v -1.893430 0.134374 2.375180
v -1.895050 0.132086 2.188320
v -1.895050 0.132086 2.375180
v -1.895050 0.131324 2.188320
v -1.895050 0.132086 2.188320
v -1.895050 0.131324 2.375180
v -1.893360 0.024275 2.375180
v -1.893360 0.130486 2.186630
v -1.893360 0.130486 2.375180
v -1.893360 0.024275 2.186630
v -1.893870 0.131267 2.375180
v -1.895050 0.131324 2.188320
v -1.895050 0.131324 2.375180
v -1.893870 0.131267 2.187140
v -1.893870 0.131267 2.375180
v -1.893360 0.130486 2.186630
v -1.893870 0.131267 2.187140
v -1.893360 0.130486 2.375180
v -1.893360 0.024275 2.375180
v -1.911370 0.024275 2.204640
v -1.893360 0.024275 2.186630
v -1.911370 0.024275 2.375180
v -2.444290 0.024275 2.204640
v -2.426290 0.024275 2.186630
v -1.893870 0.131267 2.187140
v -2.426290 0.130486 2.186630
v -2.426800 0.131267 2.187140
v -1.893360 0.130486 2.186630
v -2.427980 0.131324 2.188320
v -2.426800 0.131267 2.187140
v -1.893360 0.024275 2.186630
v -2.426290 0.130486 2.186630
v -1.893360 0.130486 2.186630
v -2.426290 0.024275 2.186630
v -1.895050 0.132086 2.188320
v -2.427980 0.131324 2.188320
v -2.427980 0.132086 2.188320
v -1.895050 0.131324 2.188320
v -1.895050 0.132086 2.188320
v -2.426350 0.134374 2.186700
v -1.893430 0.134374 2.186700
v -2.427980 0.132086 2.188320
v -1.893430 0.134374 2.186700
v -2.426350 0.137424 2.186700
v -1.893430 0.137424 2.186700
v -2.426350 0.134374 2.186700
v -1.893430 0.137424 2.186700
v -2.427330 0.140855 2.187670
v -1.894400 0.140855 2.187670
v -2.426350 0.137424 2.186700
v -1.898300 0.151530 2.191570
v -2.431230 0.151530 2.191570
v -2.433840 0.159038 2.194190
v -1.900920 0.159038 2.194190
v -2.435010 0.167771 2.195360
v -1.902090 0.167771 2.195360
v -1.902350 0.174665 2.195620
v -2.435280 0.174665 2.195620
v -2.435290 0.175937 2.195640
v -1.902370 0.175937 2.195640
v -2.435290 0.175937 2.195640
v -2.434480 0.175974 2.194830
v -1.901560 0.175974 2.194830
v -2.433930 0.176749 2.194280
v -1.901010 0.176749 2.194280
v -2.434480 0.175974 2.194830
v -1.901010 0.176749 2.194280
v -2.433940 0.180166 2.194290
v -1.901020 0.180166 2.194290
v -2.433930 0.176749 2.194280
v -1.901020 0.180166 2.194290
v -2.434730 0.180779 2.195070
v -1.901810 0.180779 2.195070
v -2.433940 0.180166 2.194290
v -2.434730 0.180779 2.195070
v -2.436300 0.180779 2.196640
v -1.903370 0.181698 2.196640
v -2.436300 0.180779 2.196640
v -2.436300 0.181698 2.196640
v -1.903370 0.180779 2.196640
v -1.902070 0.183230 2.195330
v -2.436300 0.181698 2.196640
v -2.434990 0.183230 2.195330
v -1.903370 0.181698 2.196640
v -2.433420 0.185682 2.193770
v -1.900500 0.185682 2.193770
v -1.900240 0.188945 2.193510
v -2.433420 0.185682 2.193770
v -2.433160 0.188945 2.193510
v -1.900500 0.185682 2.193770
v -2.433500 0.192294 2.193840
v -1.900580 0.192294 2.193840
v -1.902200 0.195344 2.195470
v -2.433500 0.192294 2.193840
v -2.435120 0.195344 2.195470
v -1.900580 0.192294 2.193840
v -1.911370 0.195344 2.204640
v -2.444290 0.024275 2.204640
v -1.911370 0.024275 2.204640
v -2.444290 0.195344 2.204640
v -2.444290 0.195344 2.204640
v -2.435120 0.195344 2.195470
v -2.444290 0.195344 1.298680
v -2.435120 0.195344 1.307850
v -2.444290 0.195344 2.204640
v -2.444290 0.024275 1.298680
v -2.444290 0.024275 2.204640
v -2.444290 0.195344 1.298680
v -2.435120 0.195344 2.195470
v -2.433500 0.192294 1.309480
v -2.435120 0.195344 1.307850
v -2.433500 0.192294 2.193840
v -2.433160 0.188945 2.193510
v -2.433500 0.192294 1.309480
v -2.433500 0.192294 2.193840
v -2.433160 0.188945 1.309810
v -2.433420 0.185682 1.309550
v -2.433420 0.185682 2.193770
v -2.434990 0.183230 2.195330
v -2.433420 0.185682 1.309550
v -2.433420 0.185682 2.193770
v -2.434990 0.183230 1.307980
v -2.436300 0.181698 1.306680
v -2.436300 0.181698 2.196640
v -2.436300 0.181698 2.196640
v -2.436300 0.180779 1.306680
v -2.436300 0.181698 1.306680
v -2.436300 0.180779 2.196640
v -2.434730 0.180779 1.308250
v -2.436300 0.180779 1.306680
v -2.433940 0.180166 2.194290
v -2.434730 0.180779 1.308250
v -2.434730 0.180779 2.195070
v -2.433940 0.180166 1.309030
v -2.433930 0.176749 2.194280
v -2.433940 0.180166 1.309030
v -2.433940 0.180166 2.194290
v -2.433930 0.176749 1.309040
v -2.434480 0.175974 2.194830
v -2.433930 0.176749 1.309040
v -2.433930 0.176749 2.194280
v -2.434480 0.175974 1.308490
v -2.435290 0.175937 1.307680
v -2.434480 0.175974 1.308490
v -2.435280 0.174665 2.195620
v -2.435290 0.175937 1.307680
v -2.435290 0.175937 2.195640
v -2.435280 0.174665 1.307700
v -2.435010 0.167771 1.307960
v -2.435010 0.167771 2.195360
v -2.433840 0.159038 2.194190
v -2.433840 0.159038 1.309130
v -2.431230 0.151530 2.191570
v -2.431230 0.151530 1.311750
v -2.427330 0.140855 1.315650
v -2.427330 0.140855 2.187670
v -2.426350 0.137424 2.186700
v -2.426350 0.137424 1.316620
v -2.426350 0.134374 2.186700
v -2.426350 0.137424 1.316620
v -2.426350 0.137424 2.186700
v -2.426350 0.134374 1.316620
v -2.427980 0.132086 2.188320
v -2.426350 0.134374 1.316620
v -2.426350 0.134374 2.186700
v -2.427980 0.132086 1.315000
v -2.427980 0.132086 2.188320
v -2.427980 0.131324 1.315000
v -2.427980 0.132086 1.315000
v -2.427980 0.131324 2.188320
v -2.426290 0.024275 2.186630
v -2.426290 0.130486 1.316690
v -2.426290 0.130486 2.186630
v -2.426290 0.024275 1.316690
v -2.427980 0.131324 1.315000
v -2.426800 0.131267 1.316180
v -2.426800 0.131267 2.187140
v -2.426290 0.130486 1.316690
v -2.426800 0.131267 1.316180
v -2.426290 0.130486 2.186630
v -2.444290 0.024275 1.298680
v -2.426290 0.024275 1.316690
v -1.440090 0.024275 1.298680
v -1.422090 0.024275 1.316690
v -2.426800 0.131267 1.316180
v -1.422090 0.130486 1.316690
v -1.422600 0.131267 1.316180
v -2.426290 0.130486 1.316690
v -1.423780 0.131324 1.315000
v -1.422600 0.131267 1.316180
v -2.426290 0.024275 1.316690
v -1.422090 0.130486 1.316690
v -2.426290 0.130486 1.316690
v -1.422090 0.024275 1.316690
v -2.427980 0.132086 1.315000
v -1.423780 0.131324 1.315000
v -1.423780 0.132086 1.315000
v -2.427980 0.131324 1.315000
v -2.427980 0.132086 1.315000
v -1.422150 0.134374 1.316620
v -2.426350 0.134374 1.316620
v -1.423780 0.132086 1.315000
v -2.426350 0.134374 1.316620
v -1.422150 0.137424 1.316620
v -2.426350 0.137424 1.316620
v -1.422150 0.134374 1.316620
v -2.426350 0.137424 1.316620
v -1.423130 0.140855 1.315650
v -2.427330 0.140855 1.315650
v -1.422150 0.137424 1.316620
v -2.431230 0.151530 1.311750
v -1.427030 0.151530 1.311750
v -1.429640 0.159038 1.309130
v -2.433840 0.159038 1.309130
v -1.430820 0.167771 1.307960
v -2.435010 0.167771 1.307960
v -2.435280 0.174665 1.307700
v -1.431080 0.174665 1.307700
v -1.431090 0.175937 1.307680
v -2.435290 0.175937 1.307680
v -1.431090 0.175937 1.307680
v -1.430280 0.175974 1.308490
v -2.434480 0.175974 1.308490
v -1.429730 0.176749 1.309040
v -2.433930 0.176749 1.309040
v -1.430280 0.175974 1.308490
v -2.433930 0.176749 1.309040
v -1.429750 0.180166 1.309030
v -2.433940 0.180166 1.309030
v -1.429730 0.176749 1.309040
v -2.433940 0.180166 1.309030
v -1.430530 0.180779 1.308250
v -2.434730 0.180779 1.308250
v -1.429750 0.180166 1.309030
v -1.430530 0.180779 1.308250
v -1.432100 0.180779 1.306680
v -2.436300 0.181698 1.306680
v -1.432100 0.180779 1.306680
v -1.432100 0.181698 1.306680
v -2.436300 0.180779 1.306680
v -2.434990 0.183230 1.307980
v -1.432100 0.181698 1.306680
v -1.430790 0.183230 1.307980
v -2.436300 0.181698 1.306680
v -1.429220 0.185682 1.309550
v -2.433420 0.185682 1.309550
v -2.433160 0.188945 1.309810
v -1.429220 0.185682 1.309550
v -1.428960 0.188945 1.309810
v -2.433420 0.185682 1.309550
v -1.429300 0.192294 1.309480
v -2.433500 0.192294 1.309480
v -2.435120 0.195344 1.307850
v -1.429300 0.192294 1.309480
v -1.430930 0.195344 1.307850
v -2.433500 0.192294 1.309480
v -2.444290 0.195344 1.298680
v -1.440090 0.024275 1.298680
v -2.444290 0.024275 1.298680
v -1.440090 0.195344 1.298680
v -1.440090 0.195344 1.298680
v -1.430930 0.195344 1.307850
v -1.440090 0.195344 1.049550
v -1.430930 0.195344 1.058720
v -1.440090 0.195344 1.298680
v -1.440090 0.024275 1.049550
v -1.440090 0.024275 1.298680
v -1.440090 0.195344 1.049550
v -1.430930 0.195344 1.307850
v -1.429300 0.192294 1.060350
v -1.430930 0.195344 1.058720
v -1.429300 0.192294 1.309480
v -1.428960 0.188945 1.309810
v -1.429300 0.192294 1.060350
v -1.429300 0.192294 1.309480
v -1.428960 0.188945 1.060690
v -1.429220 0.185682 1.060430
v -1.429220 0.185682 1.309550
v -1.430790 0.183230 1.307980
v -1.429220 0.185682 1.060430
v -1.429220 0.185682 1.309550
v -1.430790 0.183230 1.058860
v -1.432100 0.181698 1.057550
v -1.432100 0.181698 1.306680
v -1.432100 0.181698 1.306680
v -1.432100 0.180779 1.057550
v -1.432100 0.181698 1.057550
v -1.432100 0.180779 1.306680
v -1.430530 0.180779 1.059120
v -1.432100 0.180779 1.057550
v -1.429750 0.180166 1.309030
v -1.430530 0.180779 1.059120
v -1.430530 0.180779 1.308250
v -1.429750 0.180166 1.059900
v -1.429730 0.176749 1.309040
v -1.429750 0.180166 1.059900
v -1.429750 0.180166 1.309030
v -1.429730 0.176749 1.059910
v -1.430280 0.175974 1.308490
v -1.429730 0.176749 1.059910
v -1.429730 0.176749 1.309040
v -1.430280 0.175974 1.059360
v -1.431090 0.175937 1.058550
v -1.430280 0.175974 1.059360
v -1.431080 0.174665 1.307700
v -1.431090 0.175937 1.058550
v -1.431090 0.175937 1.307680
v -1.431080 0.174665 1.058570
v -1.430820 0.167771 1.058830
v -1.430820 0.167771 1.307960
v -1.429640 0.159038 1.309130
v -1.429640 0.159038 1.060010
v -1.427030 0.151530 1.311750
v -1.427030 0.151530 1.062620
v -1.423130 0.140855 1.066520
v -1.423130 0.140855 1.315650
v -1.422150 0.137424 1.316620
v -1.422150 0.137424 1.067490
v -1.422150 0.134374 1.316620
v -1.422150 0.137424 1.067490
v -1.422150 0.137424 1.316620
v -1.422150 0.134374 1.067490
v -1.423780 0.132086 1.315000
v -1.422150 0.134374 1.067490
v -1.422150 0.134374 1.316620
v -1.423780 0.132086 1.065870
v -1.423780 0.132086 1.315000
v -1.423780 0.131324 1.065870
v -1.423780 0.132086 1.065870
v -1.423780 0.131324 1.315000
v -1.422090 0.024275 1.316690
v -1.422090 0.130486 1.067560
v -1.422090 0.130486 1.316690
v -1.422090 0.024275 1.067560
v -1.423780 0.131324 1.065870
v -1.422600 0.131267 1.067050
v -1.422600 0.131267 1.316180
v -1.422090 0.130486 1.067560
v -1.422600 0.131267 1.067050
v -1.422090 0.130486 1.316690
v -1.440090 0.024275 1.049550
v -1.422090 0.024275 1.067560
v 1.853370 0.195344 1.058830
v 1.853370 0.195344 1.306040
v 1.860700 0.195344 1.298710
v 1.860700 0.195344 1.049660
v 1.860700 0.195344 1.049660
v 1.860700 0.195344 1.298710
v 1.860700 0.024275 1.298710
v 1.860700 0.024275 1.049660
v 1.853370 0.195344 1.058830
v 1.852070 0.192294 1.060460
v 1.852070 0.192294 1.307340
v 1.853370 0.195344 1.306040
v 1.851800 0.188945 1.060800
v 1.851800 0.188945 1.307610
v 1.852070 0.192294 1.307340
v 1.852070 0.192294 1.060460
v 1.852010 0.185682 1.060530
v 1.852010 0.185682 1.307400
v 1.853260 0.183230 1.058970
v 1.853260 0.183230 1.306150
v 1.852010 0.185682 1.307400
v 1.852010 0.185682 1.060530
v 1.854300 0.181698 1.057660
v 1.854300 0.181698 1.305100
v 1.854300 0.181698 1.057660
v 1.854300 0.180779 1.057660
v 1.854300 0.180779 1.305100
v 1.854300 0.181698 1.305100
v 1.854300 0.180779 1.057660
v 1.853050 0.180779 1.059230
v 1.853050 0.180779 1.306360
v 1.854300 0.180779 1.305100
v 1.852420 0.180166 1.060010
v 1.852420 0.180166 1.306990
v 1.853050 0.180779 1.306360
v 1.853050 0.180779 1.059230
v 1.852410 0.176749 1.060020
v 1.852410 0.176749 1.307000
v 1.852420 0.180166 1.306990
v 1.852420 0.180166 1.060010
v 1.852850 0.175974 1.059470
v 1.852850 0.175974 1.306550
v 1.852410 0.176749 1.307000
v 1.852410 0.176749 1.060020
v 1.852850 0.175974 1.059470
v 1.853500 0.175937 1.058670
v 1.853500 0.175937 1.305910
v 1.852850 0.175974 1.306550
v 1.853490 0.174665 1.058680
v 1.853490 0.174665 1.305920
v 1.853500 0.175937 1.305910
v 1.853500 0.175937 1.058670
v 1.853280 0.167771 1.058940
v 1.853280 0.167771 1.306130
v 1.852340 0.159038 1.060120
v 1.852340 0.159038 1.307070
v 1.850250 0.151530 1.062730
v 1.850250 0.151530 1.309160
v 1.847130 0.140855 1.066630
v 1.847130 0.140855 1.312280
v 1.846350 0.137424 1.067610
v 1.846350 0.137424 1.313060
v 1.846350 0.134374 1.067610
v 1.846350 0.134374 1.313060
v 1.847650 0.132086 1.065980
v 1.847650 0.132086 1.311760
v 1.846350 0.134374 1.313060
v 1.846350 0.134374 1.067610
v 1.847650 0.132086 1.065980
v 1.847650 0.131324 1.065980
v 1.847650 0.131324 1.311760
v 1.847650 0.132086 1.311760
v 1.846300 0.024275 1.067670
v 1.846300 0.024275 1.313110
v 1.846300 0.130486 1.313110
v 1.846300 0.130486 1.067670
v 1.846710 0.131267 1.067160
v 1.846710 0.131267 1.312700
v 1.847650 0.131324 1.311760
v 1.847650 0.131324 1.065980
v 1.846710 0.131267 1.067160
v 1.846300 0.130486 1.067670
v 1.846300 0.130486 1.313110
v 1.846710 0.131267 1.312700
v 1.846300 0.024275 1.067670
v 1.860700 0.024275 1.049660
v 1.860700 0.024275 1.298710
v 1.846300 0.024275 1.313110
v 3.010380 0.024275 1.298710
v 2.995970 0.024275 1.313110
v 1.846710 0.131267 1.312700
v 1.846300 0.130486 1.313110
v 2.995970 0.130486 1.313110
v 2.996380 0.131267 1.312700
v 2.996380 0.131267 1.312700
v 2.997330 0.131324 1.311760
v 1.846300 0.024275 1.313110
v 2.995970 0.024275 1.313110
v 2.995970 0.130486 1.313110
v 1.846300 0.130486 1.313110
v 1.847650 0.132086 1.311760
v 1.847650 0.131324 1.311760
v 2.997330 0.131324 1.311760
v 2.997330 0.132086 1.311760
v 1.847650 0.132086 1.311760
v 2.997330 0.132086 1.311760
v 2.996030 0.134374 1.313060
v 1.846350 0.134374 1.313060
v 1.846350 0.134374 1.313060
v 2.996030 0.134374 1.313060
v 2.996030 0.137424 1.313060
v 1.846350 0.137424 1.313060
v 2.996810 0.140855 1.312280
v 1.847130 0.140855 1.312280
v 1.850250 0.151530 1.309160
v 2.999930 0.151530 1.309160
v 3.002020 0.159038 1.307070
v 1.852340 0.159038 1.307070
v 3.002960 0.167771 1.306130
v 1.853280 0.167771 1.306130
v 1.853490 0.174665 1.305920
v 3.003170 0.174665 1.305920
v 3.003180 0.175937 1.305910
v 1.853500 0.175937 1.305910
v 3.003180 0.175937 1.305910
v 3.002530 0.175974 1.306550
v 1.852850 0.175974 1.306550
v 3.002530 0.175974 1.306550
v 3.002090 0.176749 1.307000
v 1.852410 0.176749 1.307000
v 1.852410 0.176749 1.307000
v 3.002090 0.176749 1.307000
v 3.002100 0.180166 1.306990
v 1.852420 0.180166 1.306990
v 1.852420 0.180166 1.306990
v 3.002100 0.180166 1.306990
v 3.002730 0.180779 1.306360
v 1.853050 0.180779 1.306360
v 3.002730 0.180779 1.306360
v 3.003980 0.180779 1.305100
v 1.854300 0.181698 1.305100
v 1.854300 0.180779 1.305100
v 3.003980 0.180779 1.305100
v 3.003980 0.181698 1.305100
v 1.853260 0.183230 1.306150
v 1.854300 0.181698 1.305100
v 3.003980 0.181698 1.305100
v 3.002930 0.183230 1.306150
v 3.001680 0.185682 1.307400
v 1.852010 0.185682 1.307400
v 1.851800 0.188945 1.307610
v 1.852010 0.185682 1.307400
v 3.001680 0.185682 1.307400
v 3.001470 0.188945 1.307610
v 3.001740 0.192294 1.307340
v 1.852070 0.192294 1.307340
v 1.853370 0.195344 1.306040
v 1.852070 0.192294 1.307340
v 3.001740 0.192294 1.307340
v 3.003040 0.195344 1.306040
v 1.860700 0.195344 1.298710
v 3.010380 0.195344 1.298710
v 3.010380 0.024275 1.298710
v 1.860700 0.024275 1.298710
v 3.003040 0.195344 1.306040
v 3.010380 0.195344 1.298710
v 3.003040 0.195343 5.362570
v 3.010380 0.195343 5.362570
v 3.010380 0.195344 1.298710
v 3.010380 0.195343 5.362570
v 3.010380 0.024274 5.362570
v 3.010380 0.024275 1.298710
v 3.003040 0.195344 1.306040
v 3.001740 0.192294 1.307340
v 3.001740 0.192293 5.362570
v 3.003040 0.195343 5.362570
v 3.001470 0.188945 1.307610
v 3.001470 0.188944 5.362570
v 3.001740 0.192293 5.362570
v 3.001740 0.192294 1.307340
v 3.001680 0.185682 1.307400
v 3.001680 0.185681 5.362570
v 3.002930 0.183230 1.306150
v 3.002930 0.183229 5.362570
v 3.001680 0.185681 5.362570
v 3.001680 0.185682 1.307400
v 3.003980 0.181698 1.305100
v 3.003980 0.181697 5.362570
v 3.003980 0.181698 1.305100
v 3.003980 0.180779 1.305100
v 3.003980 0.180778 5.362570
v 3.003980 0.181697 5.362570
v 3.002730 0.180778 5.362570
v 3.003980 0.180778 5.362570
v 3.002100 0.180166 1.306990
v 3.002100 0.180165 5.362570
v 3.002730 0.180778 5.362570
v 3.002730 0.180779 1.306360
v 3.002090 0.176749 1.307000
v 3.002090 0.176748 5.362570
v 3.002100 0.180165 5.362570
v 3.002100 0.180166 1.306990
v 3.002530 0.175974 1.306550
v 3.002530 0.175973 5.362570
v 3.002090 0.176748 5.362570
v 3.002090 0.176749 1.307000
v 3.003180 0.175936 5.362570
v 3.002530 0.175973 5.362570
v 3.003170 0.174665 1.305920
v 3.003170 0.174664 5.362570
v 3.003180 0.175936 5.362570
v 3.003180 0.175937 1.305910
v 3.002960 0.167771 1.306130
v 3.002960 0.167770 5.362570
v 3.002020 0.159038 1.307070
v 3.002020 0.159037 5.362570
v 2.999930 0.151530 1.309160
v 2.999930 0.151529 5.362570
v 2.996810 0.140855 1.312280
v 2.996810 0.140854 5.362570
v 2.996030 0.137424 1.313060
v 2.996030 0.137423 5.362570
v 2.996030 0.134374 1.313060
v 2.996030 0.134373 5.362570
v 2.997330 0.132086 1.311760
v 2.997330 0.132085 5.362570
v 2.996030 0.134373 5.362570
v 2.996030 0.134374 1.313060
v 2.997330 0.132086 1.311760
v 2.997330 0.131324 1.311760
v 2.997330 0.131323 5.362570
v 2.997330 0.132085 5.362570
v 2.995970 0.024275 1.313110
v 2.995970 0.024274 5.362570
v 2.995970 0.130485 5.362570
v 2.995970 0.130486 1.313110
v 2.996380 0.131266 5.362570
v 2.997330 0.131323 5.362570
v 2.996380 0.131267 1.312700
v 2.995970 0.130486 1.313110
v 2.995970 0.130485 5.362570
v 2.996380 0.131266 5.362570
v 3.010380 0.024274 5.362570
v 2.995970 0.024274 5.362570
vt 0.938819 0.025425
vt 0.936821 0.410892
vt 0.938819 0.410892
vt 0.936821 0.023415
vt 0.389154 0.737319
vt 0.002150 0.719203
vt 0.002150 0.737319
vt 0.389097 0.719203
vt 0.932609 0.025368
vt 0.932745 0.025236
vt 0.932745 0.410892
vt 0.932609 0.410892
vt 0.389154 0.740942
vt 0.002150 0.759058
vt 0.389154 0.759058
vt 0.002150 0.740942
vt 0.389154 0.697464
vt 0.002150 0.715580
vt 0.389154 0.715580
vt 0.002150 0.697464
vt 0.780459 0.697464
vt 0.393454 0.715580
vt 0.780277 0.715580
vt 0.393454 0.697464
vt 0.780459 0.719203
vt 0.393454 0.737319
vt 0.780459 0.737319
vt 0.393454 0.719203
vt 0.779459 0.632246
vt 0.393454 0.633860
vt 0.779568 0.633860
vt 0.393454 0.632246
vt 0.393454 0.638882
vt 0.780004 0.638882
vt 0.393454 0.642413
vt 0.780296 0.642413
vt 0.393454 0.646521
vt 0.780428 0.646521
vt 0.393454 0.649764
vt 0.780457 0.649764
vt 0.393454 0.650362
vt 0.780459 0.650362
vt 0.675951 0.024419
vt 0.676044 0.410892
vt 0.676044 0.024510
vt 0.675951 0.410892
vt 0.780459 0.653986
vt 0.393454 0.672101
vt 0.780397 0.672101
vt 0.393454 0.653986
vt 0.389153 0.675725
vt 0.002150 0.693841
vt 0.389154 0.693841
vt 0.002150 0.675725
vt 0.914855 0.415281
vt 0.932971 0.802198
vt 0.932971 0.415193
vt 0.914855 0.802198
vt 0.802130 0.024482
vt 0.802310 0.024308
vt 0.802310 0.410892
vt 0.802130 0.410892
vt 0.389154 0.632246
vt 0.002150 0.650362
vt 0.389154 0.650362
vt 0.002150 0.632246
vt 0.780459 0.610507
vt 0.393454 0.617474
vt 0.780313 0.617474
vt 0.393454 0.610507
vt 0.393454 0.628623
vt 0.780138 0.628623
vt 0.780450 0.675725
vt 0.393454 0.684665
vt 0.780421 0.684665
vt 0.393454 0.675725
vt 0.393454 0.693841
vt 0.780459 0.693841
vt 0.388973 0.653986
vt 0.002150 0.672101
vt 0.389154 0.672101
vt 0.002150 0.653986
vt 0.002150 0.628623
vt 0.002150 0.610507
vt 0.389154 0.610507
vt 0.389154 0.628623
vt 0.866493 0.410892
vt 0.866493 0.024438
vt 0.867527 0.023415
vt 0.867527 0.410892
vt 0.997962 0.025425
vt 0.995964 0.023415
vt 0.915140 0.806159
vt 0.976223 0.806159
vt 0.976164 0.824275
vt 0.915082 0.824275
vt 0.871603 0.025368
vt 0.871738 0.025236
vt 0.588995 0.954710
vt 0.588995 0.936594
vt 0.650136 0.936594
vt 0.650136 0.954710
vt 0.393342 0.954710
vt 0.393342 0.936594
vt 0.454484 0.936594
vt 0.454484 0.954710
vt 0.937007 0.672101
vt 0.936821 0.653986
vt 0.997776 0.653986
vt 0.997962 0.672101
vt 0.458560 0.954710
vt 0.458560 0.936594
vt 0.519701 0.936594
vt 0.519701 0.954710
vt 0.937720 0.546904
vt 0.937829 0.545290
vt 0.997962 0.545290
vt 0.997852 0.546904
vt 0.937279 0.551925
vt 0.997412 0.551925
vt 0.936984 0.555457
vt 0.997117 0.555457
vt 0.936852 0.559565
vt 0.996984 0.559565
vt 0.936822 0.562807
vt 0.996955 0.562807
vt 0.936821 0.563406
vt 0.996953 0.563406
vt 0.737000 0.024419
vt 0.737092 0.024510
vt 0.936884 0.780797
vt 0.936821 0.762681
vt 0.997899 0.762681
vt 0.997962 0.780797
vt 0.002038 0.954710
vt 0.002040 0.936594
vt 0.063179 0.936594
vt 0.063178 0.954710
vt 0.997962 0.719203
vt 0.997872 0.737319
vt 0.936821 0.737319
vt 0.936910 0.719203
vt 0.741168 0.024482
vt 0.741348 0.024308
vt 0.523777 0.954710
vt 0.523777 0.936594
vt 0.584918 0.936594
vt 0.584918 0.954710
vt 0.936970 0.595734
vt 0.936821 0.588768
vt 0.997634 0.588768
vt 0.997783 0.595734
vt 0.937149 0.606884
vt 0.997962 0.606884
vt 0.915120 0.858578
vt 0.915090 0.849638
vt 0.976193 0.849638
vt 0.976223 0.858578
vt 0.915082 0.867754
vt 0.976184 0.867754
vt 0.936821 0.693841
vt 0.937007 0.675725
vt 0.997962 0.675725
vt 0.997776 0.693841
vt 0.715353 0.936594
vt 0.654212 0.954710
vt 0.715353 0.954710
vt 0.654212 0.936594
vt 0.806386 0.024438
vt 0.807420 0.023415
vt 0.806386 0.002151
vt 0.807420 0.002151
vt 0.106884 0.980072
vt 0.106884 0.998188
vt 0.088768 0.998188
vt 0.088768 0.980072
vt 0.958817 0.976449
vt 0.998024 0.958333
vt 0.958498 0.958333
vt 0.998024 0.976449
vt 0.871608 0.976449
vt 0.911067 0.967273
vt 0.871542 0.967273
vt 0.911067 0.976449
vt 0.911067 0.958333
vt 0.871593 0.958333
vt 0.915020 0.976449
vt 0.954545 0.965300
vt 0.915328 0.965300
vt 0.954545 0.976449
vt 0.954545 0.958333
vt 0.915584 0.958333
vt 0.980072 0.954710
vt 0.998188 0.936594
vt 0.980072 0.936594
vt 0.998188 0.954710
vt 0.741168 0.002151
vt 0.741348 0.002151
vt 0.998188 0.932900
vt 0.980072 0.914855
vt 0.980072 0.932971
vt 0.998188 0.914855
vt 0.045457 0.998188
vt 0.084980 0.980072
vt 0.045454 0.980072
vt 0.084980 0.998188
vt 0.001976 0.998188
vt 0.041502 0.980072
vt 0.002085 0.980072
vt 0.041502 0.998188
vt 0.737000 0.002151
vt 0.737092 0.002151
vt 0.742802 0.976449
vt 0.780632 0.975851
vt 0.742799 0.975851
vt 0.780632 0.976449
vt 0.780632 0.972608
vt 0.742750 0.972608
vt 0.780632 0.968500
vt 0.742527 0.968500
vt 0.780632 0.964969
vt 0.742031 0.964969
vt 0.780632 0.959947
vt 0.741292 0.959947
vt 0.780632 0.958333
vt 0.741107 0.958333
vt 0.697628 0.976449
vt 0.737154 0.958333
vt 0.697628 0.958333
vt 0.737154 0.976449
vt 0.784585 0.976449
vt 0.824111 0.958333
vt 0.784893 0.958333
vt 0.824111 0.976449
vt 0.828063 0.976449
vt 0.867589 0.958333
vt 0.828063 0.958333
vt 0.867589 0.976449
vt 0.654150 0.976449
vt 0.693676 0.958333
vt 0.654150 0.958333
vt 0.693676 0.976449
vt 0.871603 0.002151
vt 0.871738 0.002151
vt 0.610672 0.958333
vt 0.650198 0.976449
vt 0.650198 0.958333
vt 0.610769 0.976449
vt 0.997962 0.002151
vt 0.995964 0.002151
vt 0.843416 0.758756
vt 0.844558 0.739723
vt 0.844558 0.758756
vt 0.843416 0.738699
vt 0.411232 0.998188
vt 0.393116 0.980072
vt 0.411232 0.980072
vt 0.393116 0.998188
vt 0.284420 0.998188
vt 0.302374 0.998188
vt 0.302536 0.980072
vt 0.284420 0.980072
vt 0.240942 0.989013
vt 0.240942 0.998188
vt 0.259024 0.998188
vt 0.259058 0.989013
vt 0.259032 0.980072
vt 0.240942 0.980072
vt 0.262681 0.987039
vt 0.262681 0.998188
vt 0.280797 0.998188
vt 0.280641 0.987039
vt 0.280510 0.980072
vt 0.262681 0.980072
vt 0.371377 0.998188
vt 0.389493 0.998188
vt 0.389493 0.980072
vt 0.371377 0.980072
vt 0.583186 0.889191
vt 0.582990 0.868968
vt 0.583186 0.869144
vt 0.582990 0.889191
vt 0.349638 0.998188
vt 0.367754 0.998188
vt 0.367754 0.980151
vt 0.349638 0.980072
vt 0.327899 0.980072
vt 0.327899 0.998188
vt 0.346013 0.998188
vt 0.346014 0.980072
vt 0.306159 0.980072
vt 0.306159 0.998188
vt 0.324275 0.998188
vt 0.324220 0.980072
vt 0.721313 0.889191
vt 0.721313 0.868925
vt 0.721212 0.869016
vt 0.721212 0.889191
vt 0.153986 0.997590
vt 0.153986 0.998188
vt 0.171242 0.998188
vt 0.171244 0.997590
vt 0.171269 0.994347
vt 0.153986 0.994347
vt 0.153986 0.990239
vt 0.171382 0.990239
vt 0.153986 0.986708
vt 0.171633 0.986708
vt 0.172008 0.981686
vt 0.153986 0.981686
vt 0.153986 0.980072
vt 0.172101 0.980072
vt 0.197464 0.980072
vt 0.197464 0.998188
vt 0.215580 0.998188
vt 0.215580 0.980072
vt 0.175725 0.980072
vt 0.175725 0.998188
vt 0.193841 0.998188
vt 0.193684 0.980072
vt 0.219203 0.998188
vt 0.237319 0.998188
vt 0.237319 0.980072
vt 0.219203 0.980072
vt 0.110507 0.980072
vt 0.110507 0.998188
vt 0.128623 0.998188
vt 0.128623 0.980072
vt 0.061273 0.910930
vt 0.061421 0.889816
vt 0.061421 0.910930
vt 0.061273 0.889682
vt 0.132246 0.998188
vt 0.150313 0.998188
vt 0.150362 0.980072
vt 0.132246 0.980072
vt 0.461440 0.889191
vt 0.461440 0.868148
vt 0.459216 0.870157
vt 0.459216 0.889191
vt 0.395632 0.868148
vt 0.393408 0.870157
vt 0.936879 0.802536
vt 0.997962 0.802536
vt 0.997904 0.784420
vt 0.936821 0.784420
vt 0.128331 0.889816
vt 0.128183 0.889682
vt 0.132473 0.936594
vt 0.132473 0.954710
vt 0.193614 0.954710
vt 0.193614 0.936594
vt 0.328125 0.954710
vt 0.389266 0.954710
vt 0.389266 0.936594
vt 0.328125 0.936594
vt 0.937007 0.610507
vt 0.936821 0.628623
vt 0.997776 0.628623
vt 0.997962 0.610507
vt 0.067255 0.936594
vt 0.067255 0.954710
vt 0.128397 0.954710
vt 0.128397 0.936594
vt 0.936821 0.523551
vt 0.936931 0.525165
vt 0.997063 0.525165
vt 0.996953 0.523551
vt 0.937371 0.530186
vt 0.997503 0.530186
vt 0.937666 0.533718
vt 0.997798 0.533718
vt 0.937798 0.537826
vt 0.997931 0.537826
vt 0.937828 0.541068
vt 0.997960 0.541068
vt 0.937829 0.541667
vt 0.997962 0.541667
vt 0.654379 0.868925
vt 0.654278 0.869016
vt 0.936884 0.740942
vt 0.936821 0.759058
vt 0.997899 0.759058
vt 0.997962 0.740942
vt 0.915082 0.871377
vt 0.915083 0.889493
vt 0.976223 0.889493
vt 0.976221 0.871377
vt 0.936821 0.697464
vt 0.936910 0.715580
vt 0.997962 0.715580
vt 0.997872 0.697464
vt 0.649873 0.868968
vt 0.650070 0.869144
vt 0.197690 0.954710
vt 0.258832 0.954710
vt 0.258832 0.936594
vt 0.197690 0.936594
vt 0.936999 0.573995
vt 0.997813 0.573995
vt 0.997962 0.567029
vt 0.937149 0.567029
vt 0.936821 0.585145
vt 0.997634 0.585145
vt 0.915082 0.836839
vt 0.976184 0.836839
vt 0.976214 0.827899
vt 0.915111 0.827899
vt 0.915120 0.846014
vt 0.976223 0.846014
vt 0.937007 0.650362
vt 0.997962 0.650362
vt 0.997776 0.632246
vt 0.936821 0.632246
vt 0.324049 0.954710
vt 0.262908 0.936594
vt 0.324049 0.936594
vt 0.262908 0.954710
vt 0.910940 0.739723
vt 0.909798 0.738699
vt 0.910940 0.638613
vt 0.909798 0.639636
vt 0.910953 0.432971
vt 0.806438 0.414855
vt 0.910953 0.414855
vt 0.806438 0.432971
vt 0.002090 0.932971
vt 0.106605 0.932971
vt 0.106414 0.914855
vt 0.002282 0.914855
vt 0.328217 0.923795
vt 0.328177 0.932971
vt 0.432692 0.932971
vt 0.432652 0.923795
vt 0.432683 0.914855
vt 0.328186 0.914855
vt 0.806592 0.443560
vt 0.806776 0.454710
vt 0.910616 0.454710
vt 0.910800 0.443560
vt 0.910953 0.436594
vt 0.806438 0.436594
vt 0.784699 0.911232
vt 0.889214 0.911232
vt 0.889214 0.893116
vt 0.784699 0.893116
vt 0.649873 0.769393
vt 0.650070 0.769217
vt 0.936594 0.519556
vt 0.954710 0.519649
vt 0.954710 0.415134
vt 0.936594 0.415226
vt 0.219483 0.914855
vt 0.219482 0.932971
vt 0.323997 0.932971
vt 0.323995 0.914855
vt 0.110786 0.914855
vt 0.110851 0.932971
vt 0.215236 0.932971
vt 0.215301 0.914855
vt 0.654379 0.769329
vt 0.654278 0.769238
vt 0.893397 0.910634
vt 0.893395 0.911232
vt 0.997910 0.911232
vt 0.997908 0.910634
vt 0.997877 0.907391
vt 0.893427 0.907391
vt 0.893566 0.903283
vt 0.997739 0.903283
vt 0.893873 0.899751
vt 0.997431 0.899751
vt 0.996972 0.894730
vt 0.894332 0.894730
vt 0.894447 0.893116
vt 0.996857 0.893116
vt 0.762960 0.914855
vt 0.762960 0.932971
vt 0.867475 0.932971
vt 0.867475 0.914855
vt 0.545569 0.914855
vt 0.545763 0.932971
vt 0.649889 0.932971
vt 0.650084 0.914855
vt 0.436873 0.932971
vt 0.541388 0.932971
vt 0.541388 0.914855
vt 0.436873 0.914855
vt 0.871656 0.914855
vt 0.871656 0.932971
vt 0.976171 0.932971
vt 0.976171 0.914855
vt 0.128331 0.791134
vt 0.128183 0.791267
vt 0.654264 0.932971
vt 0.758779 0.932971
vt 0.758718 0.914855
vt 0.654326 0.914855
vt 0.395632 0.771057
vt 0.393408 0.769048
vt 0.519635 0.771057
vt 0.517412 0.769048
vt 0.132539 0.889493
vt 0.258766 0.871377
vt 0.258702 0.889493
vt 0.132603 0.871377
vt 0.002252 0.791134
vt 0.002104 0.791267
vt 0.262973 0.893116
vt 0.389201 0.911232
vt 0.262973 0.911232
vt 0.389201 0.893116
vt 0.654278 0.911232
vt 0.780505 0.893116
vt 0.780505 0.911232
vt 0.654278 0.893116
vt 0.132539 0.849638
vt 0.258766 0.867754
vt 0.132742 0.867754
vt 0.258562 0.849638
vt 0.132539 0.893116
vt 0.258766 0.911232
vt 0.132539 0.911232
vt 0.258766 0.893116
vt 0.133653 0.827899
vt 0.258644 0.829512
vt 0.133531 0.829512
vt 0.258766 0.827899
vt 0.133045 0.834534
vt 0.258158 0.834534
vt 0.257833 0.838065
vt 0.132720 0.838065
vt 0.257686 0.842173
vt 0.132573 0.842173
vt 0.132541 0.845416
vt 0.257654 0.845416
vt 0.257652 0.846014
vt 0.132539 0.846014
vt 0.780505 0.769329
vt 0.780403 0.769238
vt 0.784712 0.849638
vt 0.910940 0.867754
vt 0.784782 0.867754
vt 0.910870 0.849638
vt 0.784714 0.871377
vt 0.910938 0.889493
vt 0.784712 0.889493
vt 0.910940 0.871377
vt 0.389102 0.867754
vt 0.263072 0.849638
vt 0.389201 0.849638
vt 0.262973 0.867754
vt 0.523843 0.769393
vt 0.524040 0.769217
vt 0.523843 0.911232
vt 0.650070 0.893116
vt 0.650070 0.911232
vt 0.523843 0.893116
vt 0.263137 0.834865
vt 0.388840 0.827899
vt 0.389004 0.834865
vt 0.262973 0.827899
vt 0.389201 0.846014
vt 0.263334 0.846014
vt 0.263016 0.880317
vt 0.389168 0.871377
vt 0.389201 0.880317
vt 0.262983 0.871377
vt 0.389158 0.889493
vt 0.262973 0.889493
vt 0.784712 0.846014
vt 0.910940 0.827899
vt 0.910736 0.846014
vt 0.784916 0.827899
vt 0.519635 0.911232
vt 0.519635 0.893116
vt 0.393408 0.893116
vt 0.393408 0.911232
vt 0.785855 0.638613
vt 0.784712 0.639636
vt 0.785855 0.610809
vt 0.784712 0.611832
vt 0.171937 0.976449
vt 0.132411 0.958333
vt 0.171937 0.958333
vt 0.132411 0.976449
vt 0.958754 0.498188
vt 0.998024 0.498188
vt 0.997767 0.480072
vt 0.958498 0.480072
vt 0.849802 0.945534
vt 0.849856 0.954710
vt 0.889328 0.954710
vt 0.889275 0.945534
vt 0.889316 0.936594
vt 0.849844 0.936594
vt 0.958744 0.465300
vt 0.958498 0.476449
vt 0.997573 0.476449
vt 0.997819 0.465300
vt 0.998024 0.458333
vt 0.958949 0.458333
vt 0.936759 0.954710
vt 0.976285 0.954710
vt 0.976285 0.936594
vt 0.936759 0.936594
vt 0.523843 0.741420
vt 0.524040 0.741244
vt 0.980072 0.845850
vt 0.998188 0.845726
vt 0.998188 0.806324
vt 0.980072 0.806448
vt 0.893281 0.936594
vt 0.893283 0.954710
vt 0.932806 0.954710
vt 0.932804 0.936594
vt 0.762933 0.936594
vt 0.762846 0.954710
vt 0.802284 0.954710
vt 0.802372 0.936594
vt 0.780505 0.741335
vt 0.780403 0.741244
vt 0.959865 0.432373
vt 0.959867 0.432971
vt 0.998024 0.432971
vt 0.998021 0.432373
vt 0.997981 0.429130
vt 0.959825 0.429130
vt 0.959645 0.425022
vt 0.997801 0.425022
vt 0.959245 0.421490
vt 0.997401 0.421490
vt 0.996804 0.416469
vt 0.958647 0.416469
vt 0.958498 0.414855
vt 0.996654 0.414855
vt 0.088933 0.958333
vt 0.088933 0.976449
vt 0.128458 0.976449
vt 0.128458 0.958333
vt 0.958754 0.501812
vt 0.958498 0.519928
vt 0.997768 0.519928
vt 0.998024 0.501812
vt 0.045454 0.976449
vt 0.084980 0.976449
vt 0.084980 0.958333
vt 0.045454 0.958333
vt 0.001976 0.958333
vt 0.001976 0.976449
vt 0.041502 0.976449
vt 0.041502 0.958333
vt 0.002252 0.762983
vt 0.002104 0.763116
vt 0.806405 0.954710
vt 0.845850 0.954710
vt 0.845769 0.936594
vt 0.806324 0.936594
vt 0.519635 0.743254
vt 0.517412 0.741244
vt 0.128331 0.003162
vt 0.128331 0.030328
vt 0.127531 0.029522
vt 0.127531 0.002154
vt 0.215415 0.976449
vt 0.175889 0.976449
vt 0.175889 0.958333
vt 0.215415 0.958333
vt 0.219368 0.976449
vt 0.258893 0.958333
vt 0.219626 0.958333
vt 0.258687 0.976449
vt 0.349856 0.967273
vt 0.389285 0.976449
vt 0.389328 0.967273
vt 0.349802 0.976449
vt 0.389295 0.958333
vt 0.349815 0.958333
vt 0.719574 0.943560
vt 0.758893 0.954710
vt 0.758695 0.943560
vt 0.719822 0.954710
vt 0.758529 0.936594
vt 0.719368 0.936594
vt 0.306324 0.976449
vt 0.345850 0.958333
vt 0.306324 0.958333
vt 0.345850 0.976449
vt 0.389063 0.002154
vt 0.389201 0.002327
vt 0.389201 0.029535
vt 0.389063 0.029397
vt 0.998188 0.849927
vt 0.980072 0.889228
vt 0.998188 0.889328
vt 0.980072 0.849802
vt 0.436761 0.958333
vt 0.476283 0.976449
vt 0.476285 0.958333
vt 0.436759 0.976449
vt 0.262846 0.958333
vt 0.302372 0.976449
vt 0.302301 0.958333
vt 0.262934 0.976449
vt 0.393408 0.002243
vt 0.393479 0.029381
vt 0.393479 0.002154
vt 0.393408 0.029452
vt 0.958500 0.454156
vt 0.996913 0.454710
vt 0.996915 0.454156
vt 0.958498 0.454710
vt 0.996947 0.451151
vt 0.958541 0.451151
vt 0.958724 0.447344
vt 0.997093 0.447344
vt 0.959129 0.444072
vt 0.997418 0.444072
vt 0.997903 0.439419
vt 0.959736 0.439419
vt 0.959887 0.437924
vt 0.998024 0.437924
vt 0.959887 0.436594
vt 0.998024 0.436594
vt 0.393281 0.958333
vt 0.432806 0.976449
vt 0.432599 0.958333
vt 0.393541 0.976449
vt 0.523715 0.976449
vt 0.563241 0.958333
vt 0.523715 0.958333
vt 0.563241 0.976449
vt 0.567194 0.958333
vt 0.606719 0.976449
vt 0.606719 0.958333
vt 0.567194 0.976449
vt 0.650070 0.002285
vt 0.649967 0.029266
vt 0.650070 0.029370
vt 0.649967 0.002154
vt 0.480237 0.976449
vt 0.519763 0.958333
vt 0.480319 0.958333
vt 0.519697 0.976449
vt 0.132539 0.004133
vt 0.134100 0.029522
vt 0.134100 0.002154
vt 0.132539 0.031105
vt 0.258766 0.029522
vt 0.257204 0.031105
vt 0.784757 0.780797
vt 0.784712 0.762681
vt 0.910895 0.762681
vt 0.910940 0.780797
vt 0.523843 0.029266
vt 0.523946 0.029370
vt 0.262973 0.806159
vt 0.389201 0.806159
vt 0.389201 0.824275
vt 0.262973 0.824275
vt 0.784712 0.824275
vt 0.784712 0.806159
vt 0.910940 0.806159
vt 0.910940 0.824275
vt 0.784855 0.458333
vt 0.910940 0.458333
vt 0.910797 0.476449
vt 0.784712 0.476449
vt 0.676017 0.414855
vt 0.801464 0.414855
vt 0.801464 0.416184
vt 0.676017 0.416184
vt 0.801549 0.417680
vt 0.676102 0.417680
vt 0.676442 0.422333
vt 0.801889 0.422333
vt 0.802117 0.425605
vt 0.676670 0.425605
vt 0.802220 0.429412
vt 0.676773 0.429412
vt 0.676796 0.432417
vt 0.802243 0.432417
vt 0.802244 0.432971
vt 0.676797 0.432971
vt 0.519635 0.029381
vt 0.519564 0.029452
vt 0.263022 0.762681
vt 0.389201 0.762681
vt 0.389152 0.780797
vt 0.262973 0.780797
vt 0.262973 0.784420
vt 0.389199 0.784420
vt 0.389201 0.802536
vt 0.262975 0.802536
vt 0.258766 0.780797
vt 0.132607 0.780797
vt 0.132539 0.762681
vt 0.258697 0.762681
vt 0.263111 0.029535
vt 0.262973 0.029397
vt 0.132539 0.824275
vt 0.132539 0.806159
vt 0.258766 0.806159
vt 0.258766 0.824275
vt 0.676154 0.443560
vt 0.676269 0.436594
vt 0.802244 0.436594
vt 0.802130 0.443560
vt 0.801992 0.454710
vt 0.676017 0.454710
vt 0.132539 0.793360
vt 0.132562 0.784420
vt 0.258759 0.784420
vt 0.258736 0.793360
vt 0.258766 0.802536
vt 0.132568 0.802536
vt 0.654420 0.476449
vt 0.654278 0.458333
vt 0.780362 0.458333
vt 0.780505 0.476449
vt 0.910940 0.802536
vt 0.784712 0.784420
vt 0.784712 0.802536
vt 0.910940 0.784420
vt 0.002904 0.030328
vt 0.002104 0.029522
vt 0.002904 0.476107
vt 0.002104 0.476107
vt 0.454368 0.498188
vt 0.002153 0.498188
vt 0.002153 0.480072
vt 0.454368 0.480072
vt 0.002153 0.541667
vt 0.454368 0.523551
vt 0.002298 0.523551
vt 0.454368 0.541667
vt 0.458705 0.554230
vt 0.910890 0.563406
vt 0.910890 0.554230
vt 0.458675 0.563406
vt 0.910890 0.545290
vt 0.458682 0.545290
vt 0.458792 0.487039
vt 0.910890 0.498188
vt 0.910890 0.487039
vt 0.458931 0.498188
vt 0.910890 0.480072
vt 0.458675 0.480072
vt 0.002153 0.519928
vt 0.454368 0.501812
vt 0.002153 0.501812
vt 0.454368 0.519928
vt 0.263111 0.476107
vt 0.262973 0.476107
vt 0.672101 0.002223
vt 0.653986 0.454368
vt 0.672101 0.454368
vt 0.653986 0.002153
vt 0.002155 0.545290
vt 0.454368 0.563406
vt 0.454368 0.545290
vt 0.002153 0.563406
vt 0.458675 0.523551
vt 0.910890 0.541667
vt 0.910890 0.523551
vt 0.458724 0.541667
vt 0.519635 0.476107
vt 0.519564 0.476107
vt 0.458676 0.519373
vt 0.910890 0.519928
vt 0.910890 0.519373
vt 0.458675 0.519928
vt 0.910890 0.516368
vt 0.458700 0.516368
vt 0.458805 0.512562
vt 0.910890 0.512562
vt 0.459038 0.509289
vt 0.910890 0.509289
vt 0.910890 0.504636
vt 0.459385 0.504636
vt 0.459472 0.503141
vt 0.910890 0.503141
vt 0.459472 0.501812
vt 0.910890 0.501812
vt 0.002153 0.567029
vt 0.454368 0.585145
vt 0.454368 0.567029
vt 0.002298 0.585145
vt 0.458675 0.585145
vt 0.910890 0.567029
vt 0.458675 0.567029
vt 0.910890 0.585145
vt 0.458675 0.588768
vt 0.910890 0.606884
vt 0.910890 0.588768
vt 0.458675 0.606884
vt 0.523843 0.476107
vt 0.523946 0.476107
vt 0.002153 0.606884
vt 0.454368 0.588768
vt 0.002199 0.588768
vt 0.454368 0.606884
vt 0.258766 0.476107
vt 0.257204 0.476107
vn -0.0000 1.0000 0.0000
vn -0.8371 -0.5470 -0.0009
vn -0.8374 -0.5466 -0.0011
vn -0.8374 -0.5466 0.0011
vn -0.8377 -0.5462 0.0009
vn 0.0418 0.9991 0.0064
vn 0.0482 0.9988 0.0000
vn -1.0000 0.0000 0.0000
vn -0.8148 0.5798 0.0010
vn -0.8145 0.5802 0.0011
vn -0.8141 0.5807 -0.0010
vn -0.8145 0.5802 -0.0011
vn -0.9624 -0.2718 0.0011
vn -0.9453 -0.3263 0.0000
vn -0.9447 -0.3279 0.0094
vn -0.9623 -0.2720 -0.0013
vn -0.9414 -0.3372 -0.0000
vn -0.9421 -0.3353 0.0007
vn -0.9739 -0.2268 -0.0000
vn -0.9772 -0.2125 -0.0021
vn -0.9958 -0.0917 -0.0000
vn -0.9960 -0.0890 0.0009
vn -0.9994 -0.0340 0.0000
vn -0.9994 -0.0339 0.0006
vn -1.0000 -0.0078 0.0040
vn -1.0000 -0.0079 -0.0040
vn -0.0399 0.9992 -0.0056
vn -0.0456 0.9990 0.0003
vn -0.0456 0.9990 0.0000
vn -0.8147 0.5798 -0.0023
vn -0.8155 0.5787 -0.0027
vn -0.8163 0.5777 0.0023
vn -0.8155 0.5787 0.0027
vn -1.0000 -0.0029 0.0010
vn -1.0000 -0.0029 0.0009
vn -1.0000 -0.0029 -0.0009
vn -0.6111 -0.7916 -0.0030
vn -0.6131 -0.7900 -0.0036
vn -0.6148 -0.7886 0.0030
vn -0.6131 -0.7900 0.0035
vn -0.7603 0.6495 0.0011
vn -0.8107 0.5855 -0.0000
vn -0.7927 0.6095 -0.0111
vn -0.7601 0.6498 -0.0010
vn -0.8422 0.5392 0.0007
vn -0.8419 0.5397 -0.0008
vn -0.9968 0.0793 0.0000
vn -0.9999 -0.0115 -0.0000
vn -0.9999 -0.0122 0.0000
vn -0.9968 0.0795 0.0000
vn -0.9949 -0.1010 -0.0003
vn -0.9949 -0.1010 0.0003
vn -0.8834 -0.4685 0.0012
vn -0.8832 -0.4691 0.0012
vn -0.8829 -0.4695 -0.0012
vn -0.8832 -0.4691 -0.0012
vn 0.0000 0.5475 0.8368
vn -0.0000 0.5473 0.8369
vn 0.0136 0.9993 0.0348
vn 0.0136 0.9993 0.0347
vn 0.0000 0.0000 1.0000
vn 0.0000 -0.5790 0.8153
vn 0.0000 -0.5791 0.8153
vn 0.0000 -0.5791 0.8152
vn -0.0000 0.3310 0.9436
vn 0.0000 0.2733 0.9619
vn 0.0000 0.2735 0.9619
vn 0.0000 0.3213 0.9470
vn -0.0000 0.3358 0.9419
vn 0.0000 0.3386 0.9409
vn 0.0000 0.2123 0.9772
vn -0.0000 0.2405 0.9706
vn -0.0000 0.0889 0.9960
vn 0.0000 0.0940 0.9956
vn 0.0000 0.0338 0.9994
vn -0.0000 0.0340 0.9994
vn 0.0000 0.0127 0.9999
vn -0.0126 0.9994 -0.0330
vn -0.0000 -0.5801 0.8146
vn -0.0000 -0.5801 0.8145
vn 0.0000 0.0038 1.0000
vn -0.0000 0.7878 0.6160
vn 0.0000 -0.6039 0.7971
vn 0.0000 -0.6487 0.7610
vn -0.0000 -0.6487 0.7611
vn 0.0000 -0.5672 0.8236
vn -0.0000 -0.5388 0.8424
vn 0.0000 -0.5392 0.8422
vn 0.0000 0.0120 0.9999
vn 0.0000 -0.0794 0.9968
vn -0.0000 0.0109 0.9999
vn 0.0000 0.1007 0.9949
vn -0.0000 0.1005 0.9949
vn 0.0000 0.4701 0.8826
vn -0.8834 -0.4687 0.0010
vn -0.8832 -0.4690 0.0012
vn -0.8829 -0.4696 -0.0011
vn -0.8832 -0.4690 -0.0013
vn -0.9949 -0.1011 -0.0006
vn -0.9999 -0.0110 0.0000
vn -0.9949 -0.1011 0.0005
vn -0.9968 0.0795 -0.0003
vn -0.8423 0.5390 0.0006
vn -0.8109 0.5852 0.0000
vn -0.8205 0.5715 -0.0087
vn -0.8422 0.5392 -0.0007
vn -0.7625 0.6470 -0.0027
vn -0.7634 0.6459 0.0023
vn -0.6112 -0.7915 -0.0029
vn -0.6148 -0.7887 0.0029
vn -0.6131 -0.7900 0.0036
vn -1.0000 -0.0030 0.0009
vn -1.0000 -0.0030 0.0008
vn -1.0000 -0.0030 -0.0008
vn -1.0000 -0.0030 -0.0009
vn -0.8148 0.5798 -0.0023
vn -0.8156 0.5787 -0.0027
vn -0.8163 0.5776 0.0022
vn -0.8156 0.5787 0.0026
vn -0.9999 -0.0156 -0.0037
vn -0.9994 -0.0338 -0.0000
vn -0.9994 -0.0339 0.0004
vn -0.9999 -0.0157 0.0039
vn -0.9955 -0.0943 0.0011
vn -0.9739 -0.2271 -0.0000
vn -0.9704 -0.2413 -0.0021
vn -0.9410 -0.3384 0.0006
vn -0.9454 -0.3260 -0.0000
vn -0.9483 -0.3172 0.0118
vn -0.9623 -0.2721 0.0012
vn -0.9622 -0.2723 -0.0014
vn -0.8156 0.5786 -0.0015
vn -0.8161 0.5779 -0.0018
vn -0.8166 0.5771 0.0015
vn -0.8161 0.5779 0.0018
vn -0.8371 -0.5471 -0.0005
vn -0.8373 -0.5468 -0.0009
vn -0.8373 -0.5468 0.0009
vn -0.8374 -0.5465 0.0007
vn -0.8831 -0.4691 0.0012
vn -0.8834 -0.4687 -0.0010
vn -0.8829 -0.4696 0.0011
vn -0.8831 -0.4691 -0.0012
vn -0.9949 -0.1011 -0.0007
vn -0.9999 -0.0109 -0.0000
vn -0.8111 0.5850 0.0000
vn -0.8424 0.5389 -0.0006
vn -0.8205 0.5716 0.0084
vn -0.7634 0.6459 -0.0022
vn -0.7625 0.6470 0.0026
vn -0.6113 -0.7914 0.0029
vn -0.6148 -0.7887 -0.0029
vn -0.8155 0.5787 -0.0026
vn -0.8148 0.5798 0.0022
vn -0.8163 0.5777 -0.0022
vn -0.0117 0.9994 0.0338
vn -0.0456 0.9990 -0.0003
vn -0.9999 -0.0159 -0.0041
vn -0.9999 -0.0158 0.0039
vn -0.9994 -0.0340 -0.0004
vn -0.9955 -0.0942 -0.0011
vn -0.9958 -0.0918 -0.0000
vn -0.9738 -0.2272 -0.0000
vn -0.9704 -0.2414 0.0021
vn -0.9414 -0.3373 -0.0000
vn -0.9410 -0.3385 -0.0006
vn -0.9483 -0.3171 -0.0116
vn -0.9453 -0.3261 -0.0000
vn -0.9623 -0.2721 -0.0013
vn -0.9622 -0.2724 0.0013
vn -0.8161 0.5779 -0.0017
vn -0.8156 0.5786 0.0015
vn -0.8166 0.5772 -0.0015
vn 0.0483 0.9988 0.0000
vn 0.0126 0.9993 -0.0357
vn -0.8373 -0.5467 0.0010
vn -0.8374 -0.5466 -0.0006
vn -0.8371 -0.5471 0.0004
vn -0.8373 -0.5467 -0.0010
vn 0.0008 -0.5464 0.8376
vn -0.0008 -0.5471 0.8371
vn 0.0008 -0.5464 0.8375
vn 0.0300 0.9994 -0.0183
vn 0.0013 0.5772 0.8166
vn -0.0013 0.5784 0.8157
vn -0.0012 -0.2724 0.9622
vn 0.0117 -0.3172 0.9483
vn 0.0097 -0.3278 0.9447
vn 0.0012 -0.2717 0.9624
vn 0.0005 -0.3384 0.9410
vn 0.0005 -0.3356 0.9420
vn -0.0025 -0.2407 0.9706
vn -0.0023 -0.2126 0.9771
vn 0.0011 -0.0941 0.9956
vn 0.0011 -0.0889 0.9960
vn 0.0004 -0.0339 0.9994
vn 0.0003 -0.0338 0.9994
vn -0.0032 -0.0158 0.9999
vn 0.0032 -0.0157 0.9999
vn -0.0286 0.9994 0.0169
vn 0.0021 0.5778 0.8162
vn -0.0021 0.5797 0.8148
vn -0.0009 -0.0029 1.0000
vn 0.0009 -0.0029 1.0000
vn 0.0008 -0.0029 1.0000
vn -0.0018 -0.7872 0.6167
vn 0.0018 -0.7854 0.6190
vn -0.0081 0.5712 0.8208
vn -0.0102 0.6091 0.7930
vn 0.0012 0.6493 0.7605
vn -0.0012 0.6505 0.7595
vn -0.0018 0.5376 0.8432
vn 0.0017 0.5360 0.8442
vn 0.0000 -0.0107 0.9999
vn 0.0000 -0.0118 0.9999
vn -0.0007 0.0794 0.9968
vn 0.0005 0.0794 0.9968
vn 0.0022 -0.0978 0.9952
vn -0.0023 -0.0983 0.9952
vn -0.0009 -0.4717 0.8818
vn 0.0009 -0.4710 0.8821
vn -0.0008 -0.4717 0.8818
vn -0.8829 -0.4695 0.0012
vn -0.8829 -0.4697 -0.0010
vn -0.8833 -0.4688 0.0010
vn -0.8834 -0.4685 -0.0012
vn -0.9999 -0.0121 -0.0000
vn -0.9949 -0.1009 -0.0005
vn -0.9949 -0.1009 0.0005
vn -0.9999 -0.0120 0.0000
vn -0.9968 0.0794 0.0000
vn -0.7927 0.6095 0.0109
vn -0.8420 0.5395 0.0004
vn -0.8422 0.5391 0.0000
vn -0.7927 0.6095 -0.0109
vn -0.7605 0.6494 0.0014
vn -0.7605 0.6493 -0.0012
vn -0.6106 -0.7919 0.0036
vn -0.6151 -0.7885 -0.0036
vn -0.6151 -0.7884 0.0034
vn -0.6108 -0.7918 -0.0035
vn -1.0000 -0.0030 -0.0011
vn -1.0000 -0.0030 0.0011
vn -1.0000 -0.0028 -0.0009
vn -1.0000 -0.0028 0.0009
vn -0.8147 0.5798 0.0023
vn -0.8163 0.5776 -0.0023
vn -0.8159 0.5782 0.0014
vn -0.8150 0.5794 -0.0013
vn -0.0214 0.9995 -0.0242
vn -0.9994 -0.0339 -0.0006
vn -1.0000 -0.0077 0.0049
vn -1.0000 -0.0079 -0.0048
vn -0.9960 -0.0889 0.0009
vn -0.9960 -0.0890 -0.0010
vn -0.9772 -0.2124 0.0021
vn -0.9772 -0.2123 -0.0022
vn -0.9421 -0.3353 -0.0009
vn -0.9421 -0.3354 0.0009
vn -0.9446 -0.3281 0.0091
vn -0.9447 -0.3279 -0.0089
vn -0.9614 -0.2751 0.0014
vn -0.9615 -0.2748 -0.0011
vn -0.8149 0.5796 -0.0013
vn -0.8140 0.5808 0.0013
vn -0.8141 0.5807 -0.0012
vn -0.8149 0.5796 0.0012
vn 0.0225 0.9994 0.0258
vn 0.0224 0.9994 0.0259
vn -0.8371 -0.5470 -0.0000
vn -0.8373 -0.5468 -0.0000
vn 0.0096 0.9992 0.0387
vn -0.0000 0.3357 0.9420
vn -0.0000 0.3385 0.9410
vn -0.0001 0.0340 0.9994
vn 0.0000 0.0126 0.9999
vn -0.0093 0.9993 -0.0363
vn 0.0000 -0.5802 0.8145
vn -0.0000 0.7878 0.6159
vn 0.0000 -0.5389 0.8424
vn 0.0000 0.0121 0.9999
vn -0.0000 0.0110 0.9999
vn 0.0000 0.1004 0.9949
vn 0.0000 0.4703 0.8825
vn -0.8818 -0.4717 -0.0009
vn -0.8821 -0.4710 0.0008
vn -0.8821 -0.4710 0.0009
vn -0.9999 -0.0108 0.0000
vn -0.9949 -0.1010 -0.0005
vn -0.9999 -0.0117 0.0000
vn -0.9968 0.0795 -0.0006
vn -0.9968 0.0793 0.0007
vn -0.8201 0.5721 -0.0096
vn -0.8424 0.5388 0.0008
vn -0.8419 0.5396 -0.0008
vn -0.7927 0.6096 -0.0108
vn -0.7604 0.6494 0.0009
vn -0.7596 0.6504 -0.0009
vn -0.6168 -0.7871 -0.0020
vn -0.6193 -0.7851 0.0021
vn -0.6167 -0.7872 -0.0019
vn -0.6190 -0.7854 0.0019
vn -1.0000 -0.0059 0.0021
vn -1.0000 -0.0059 -0.0021
vn -1.0000 -0.0058 0.0020
vn -1.0000 -0.0058 -0.0020
vn -0.8161 0.5779 0.0015
vn -0.8151 0.5793 -0.0016
vn -0.8162 0.5778 0.0016
vn -0.9994 -0.0341 0.0006
vn -1.0000 -0.0080 0.0037
vn -1.0000 -0.0078 -0.0040
vn -0.9960 -0.0890 0.0010
vn -0.9956 -0.0942 0.0010
vn -0.9706 -0.2407 -0.0024
vn -0.9771 -0.2126 -0.0024
vn -0.9410 -0.3383 0.0008
vn -0.9446 -0.3281 0.0090
vn -0.9482 -0.3176 0.0108
vn -0.9616 -0.2743 0.0013
vn -0.9615 -0.2750 -0.0012
vn -0.8148 0.5797 0.0010
vn -0.8142 0.5806 -0.0010
vn -0.8374 -0.5466 0.0005
vn -0.8371 -0.5470 -0.0008
vn -0.8376 -0.5462 0.0008
vn -0.8371 -0.5471 -0.0006
vn 1.0000 0.0000 0.0000
vn 0.9199 -0.3921 -0.0000
vn 1.0000 -0.0097 0.0000
vn 0.9968 -0.0803 -0.0000
vn 1.0000 -0.0088 0.0000
vn 0.9968 -0.0804 -0.0003
vn 0.9979 0.0642 -0.0003
vn 0.9979 0.0643 0.0005
vn 0.8516 0.5242 -0.0084
vn 0.8906 0.4548 -0.0015
vn 0.8728 0.4879 -0.0067
vn 0.8912 0.4536 0.0011
vn 0.8278 0.5610 0.0015
vn 0.8267 0.5627 -0.0018
vn 0.6961 -0.7179 -0.0022
vn 0.6960 -0.7181 -0.0026
vn 0.6987 -0.7154 0.0026
vn 0.6989 -0.7152 0.0023
vn 1.0000 -0.0030 -0.0000
vn 1.0000 -0.0029 -0.0000
vn 1.0000 -0.0029 -0.0003
vn 0.8695 0.4940 -0.0010
vn 0.8692 0.4945 -0.0015
vn 0.8699 0.4932 0.0015
vn 0.8701 0.4929 0.0010
vn 0.0566 0.9984 -0.0002
vn 0.0108 0.9989 -0.0467
vn 0.0568 0.9984 0.0000
vn 0.9996 -0.0270 0.0004
vn 1.0000 -0.0077 0.0016
vn 0.9996 -0.0271 0.0002
vn 1.0000 -0.0080 -0.0013
vn 0.9972 -0.0749 0.0006
vn 0.9975 -0.0713 0.0008
vn 0.9852 -0.1713 -0.0022
vn 0.9813 -0.1925 -0.0019
vn 0.9618 -0.2739 0.0006
vn 0.9610 -0.2764 0.0006
vn 0.9654 -0.2606 0.0078
vn 0.9635 -0.2675 0.0077
vn 0.9918 -0.1275 0.0020
vn 0.9939 -0.1103 0.0016
vn 0.8695 0.4940 0.0000
vn 0.8694 0.4941 0.0000
vn 0.0605 -0.9982 -0.0000
vn 0.0113 -0.9987 -0.0494
vn 0.0113 -0.9987 -0.0493
vn 0.8856 -0.4644 0.0007
vn 0.8856 -0.4645 0.0010
vn 0.8852 -0.4651 -0.0008
vn 0.8851 -0.4654 -0.0010
vn -0.0000 0.4639 0.8859
vn 0.0474 -0.9988 -0.0127
vn 0.0000 -0.4937 0.8696
vn 0.0000 -0.4940 0.8694
vn -0.0000 0.1265 0.9920
vn -0.0000 0.1111 0.9938
vn 0.0000 0.2695 0.9630
vn -0.0000 0.2627 0.9649
vn -0.0000 0.2766 0.9610
vn -0.0000 0.2744 0.9616
vn 0.0000 0.1735 0.9848
vn -0.0000 0.1924 0.9813
vn -0.0000 0.0716 0.9974
vn -0.0000 0.0749 0.9972
vn -0.0000 0.0271 0.9996
vn 0.0001 0.0270 0.9996
vn -0.0000 0.0094 1.0000
vn -0.0000 0.0095 1.0000
vn 0.0451 0.9989 -0.0123
vn -0.0000 -0.4954 0.8687
vn 0.0000 -0.4955 0.8686
vn 0.0000 0.0033 1.0000
vn 0.0000 0.0029 1.0000
vn 0.0000 0.7145 0.6996
vn 0.0000 0.7145 0.6997
vn 0.0000 -0.4845 0.8748
vn -0.0000 -0.5635 0.8261
vn 0.0000 -0.5159 0.8566
vn -0.0000 -0.4553 0.8903
vn 0.0000 -0.4554 0.8903
vn -0.0000 0.0087 1.0000
vn 0.0000 -0.0638 0.9980
vn 0.0000 -0.0639 0.9980
vn 0.0000 0.0804 0.9968
vn 0.0000 0.3921 0.9199
vn 0.9199 -0.3922 -0.0000
vn 1.0000 -0.0096 0.0000
vn 0.9968 -0.0804 0.0003
vn 1.0000 -0.0092 -0.0000
vn 0.9968 -0.0802 -0.0003
vn 0.9979 0.0642 0.0000
vn 0.9979 0.0643 0.0000
vn 0.8537 0.5206 -0.0101
vn 0.8909 0.4541 -0.0013
vn 0.8658 0.5004 0.0000
vn 0.8911 0.4538 0.0011
vn 0.8249 0.5653 -0.0022
vn 0.8255 0.5644 0.0018
vn 0.6975 -0.7166 -0.0029
vn 0.6975 -0.7166 0.0029
vn 0.6986 -0.7155 0.0026
vn 1.0000 -0.0029 0.0003
vn 0.8691 0.4946 -0.0016
vn 0.8695 0.4938 -0.0018
vn 0.8695 0.4938 0.0018
vn 0.9996 -0.0270 0.0003
vn 1.0000 -0.0078 0.0016
vn 0.9996 -0.0271 -0.0000
vn 1.0000 -0.0078 -0.0016
vn 0.9973 -0.0734 -0.0000
vn 0.9974 -0.0717 0.0006
vn 0.9848 -0.1736 -0.0018
vn 0.9831 -0.1831 -0.0000
vn 0.9617 -0.2742 0.0005
vn 0.9613 -0.2755 -0.0000
vn 0.9639 -0.2662 -0.0000
vn 0.9635 -0.2675 0.0066
vn 0.9921 -0.1258 0.0016
vn 0.9929 -0.1188 -0.0000
vn 0.8695 0.4939 0.0000
vn 0.8695 0.4940 0.0003
vn 0.0599 -0.9982 -0.0003
vn 0.0599 -0.9982 -0.0000
vn 0.8857 -0.4643 0.0008
vn 0.8853 -0.4650 0.0012
vn 0.8853 -0.4649 -0.0008
vn 0.8853 -0.4650 -0.0013
s 1
f 1/1/1 3/2/1 2/3/1
f 1/1/1 4/4/1 3/2/1
f 5/5/2 7/6/3 6/7/4
f 5/5/2 8/8/5 7/6/3
f 9/9/6 10/10/6 11/11/7
f 9/9/6 11/11/7 12/12/7
f 13/13/8 15/14/8 14/15/8
f 13/13/8 16/16/8 15/14/8
f 17/17/8 19/18/8 18/19/8
f 17/17/8 20/20/8 19/18/8
f 21/21/9 23/22/10 22/23/11
f 21/21/9 24/24/12 23/22/10
f 25/25/8 27/26/8 26/27/8
f 25/25/8 28/28/8 27/26/8
f 29/29/13 31/30/14 30/31/15
f 29/29/13 32/32/16 31/30/14
f 30/31/15 34/33/17 33/34/18
f 30/31/15 31/30/14 34/33/17
f 33/34/18 36/35/19 35/36/20
f 33/34/18 34/33/17 36/35/19
f 35/36/20 38/37/21 37/38/22
f 35/36/20 36/35/19 38/37/21
f 37/38/22 40/39/23 39/40/24
f 37/38/22 38/37/21 40/39/23
f 39/40/24 42/41/25 41/42/26
f 39/40/24 40/39/23 42/41/25
f 43/43/27 45/44/28 44/45/27
f 43/43/27 46/46/29 45/44/28
f 47/47/30 49/48/31 48/49/32
f 47/47/30 50/50/33 49/48/31
f 51/51/34 53/52/35 52/53/36
f 51/51/34 54/54/36 53/52/35
f 55/55/37 57/56/38 56/57/39
f 55/55/37 58/58/40 57/56/38
f 59/59/1 60/60/1 61/61/1
f 59/59/1 61/61/1 62/62/1
f 63/63/8 65/64/8 64/65/8
f 63/63/8 66/66/8 65/64/8
f 67/67/41 69/68/42 68/69/43
f 67/67/41 70/70/44 69/68/42
f 68/69/43 72/71/45 71/72/46
f 68/69/43 69/68/42 72/71/45
f 73/73/47 75/74/48 74/75/49
f 73/73/47 76/76/50 75/74/48
f 74/75/49 78/77/51 77/78/52
f 74/75/49 75/74/48 78/77/51
f 79/79/53 81/80/54 80/81/55
f 79/79/53 82/82/56 81/80/54
f 83/83/8 84/84/8 85/85/8
f 83/83/8 85/85/8 86/86/8
f 87/87/1 88/88/1 89/89/1
f 87/87/1 89/89/1 90/90/1
f 4/4/1 92/91/1 91/92/1
f 4/4/1 1/1/1 92/91/1
f 93/93/57 94/94/57 95/95/57
f 93/93/57 95/95/57 96/96/58
f 10/10/6 9/9/6 97/97/59
f 10/10/6 97/97/59 98/98/60
f 99/99/61 100/100/61 101/101/61
f 99/99/61 101/101/61 102/102/61
f 103/103/61 104/104/61 105/105/61
f 103/103/61 105/105/61 106/106/61
f 107/107/62 108/108/63 109/109/64
f 107/107/62 109/109/64 110/110/63
f 111/111/61 112/112/61 113/113/61
f 111/111/61 113/113/61 114/114/61
f 115/115/65 116/116/66 117/117/67
f 115/115/65 117/117/67 118/118/68
f 119/119/69 115/115/65 118/118/68
f 119/119/69 118/118/68 120/120/70
f 121/121/71 119/119/69 120/120/70
f 121/121/71 120/120/70 122/122/72
f 123/123/73 121/121/71 122/122/72
f 123/123/73 122/122/72 124/124/74
f 125/125/75 123/123/73 124/124/74
f 125/125/75 124/124/74 126/126/76
f 127/127/77 125/125/75 126/126/76
f 127/127/77 126/126/76 128/128/77
f 44/45/27 129/129/78 43/43/27
f 44/45/27 130/130/78 129/129/78
f 131/131/79 132/132/79 133/133/80
f 131/131/79 133/133/80 134/134/80
f 135/135/81 136/136/81 137/137/81
f 135/135/81 137/137/81 138/138/81
f 139/139/82 140/140/82 141/141/82
f 139/139/82 141/141/82 142/142/82
f 60/60/1 59/59/1 143/143/1
f 60/60/1 143/143/1 144/144/1
f 145/145/61 146/146/61 147/147/61
f 145/145/61 147/147/61 148/148/61
f 149/149/83 150/150/84 151/151/85
f 149/149/83 151/151/85 152/152/86
f 153/153/87 149/149/83 152/152/86
f 153/153/87 152/152/86 154/154/88
f 155/155/89 156/156/90 157/157/90
f 155/155/89 157/157/90 158/158/91
f 159/159/92 155/155/89 158/158/91
f 159/159/92 158/158/91 160/160/93
f 161/161/94 162/162/94 163/163/94
f 161/161/94 163/163/94 164/164/94
f 165/165/61 167/166/61 166/167/61
f 165/165/61 168/168/61 167/166/61
f 88/88/1 169/169/1 170/170/1
f 88/88/1 170/170/1 89/89/1
f 169/169/1 171/171/1 172/172/1
f 169/169/1 172/172/1 170/170/1
f 173/173/8 174/174/8 175/175/8
f 173/173/8 175/175/8 176/176/8
f 177/177/95 179/178/96 178/179/97
f 177/177/95 180/180/98 179/178/96
f 181/181/99 183/182/48 182/183/100
f 181/181/99 184/184/101 183/182/48
f 182/183/100 186/185/102 185/186/50
f 182/183/100 183/182/48 186/185/102
f 187/187/103 189/188/104 188/189/105
f 187/187/103 190/190/106 189/188/104
f 188/189/105 192/191/107 191/192/108
f 188/189/105 189/188/104 192/191/107
f 193/193/8 195/194/8 194/195/8
f 193/193/8 196/196/8 195/194/8
f 144/144/1 143/143/1 197/197/1
f 144/144/1 197/197/1 198/198/1
f 199/199/109 201/200/38 200/201/110
f 199/199/109 202/202/111 201/200/38
f 203/203/112 205/204/113 204/205/114
f 203/203/112 206/206/115 205/204/113
f 207/207/116 209/208/117 208/209/118
f 207/207/116 210/210/119 209/208/117
f 130/130/78 211/211/29 129/129/78
f 130/130/78 212/212/29 211/211/29
f 213/213/120 215/214/121 214/215/122
f 213/213/120 216/216/123 215/214/121
f 214/215/122 218/217/21 217/218/124
f 214/215/122 215/214/121 218/217/21
f 217/218/124 220/219/125 219/220/126
f 217/218/124 218/217/21 220/219/125
f 219/220/126 222/221/17 221/222/127
f 219/220/126 220/219/125 222/221/17
f 221/222/127 224/223/128 223/224/129
f 221/222/127 222/221/17 224/223/128
f 223/224/129 226/225/130 225/226/131
f 223/224/129 224/223/128 226/225/130
f 227/227/8 229/228/8 228/229/8
f 227/227/8 230/230/8 229/228/8
f 231/231/132 233/232/133 232/233/134
f 231/231/132 234/234/135 233/232/133
f 235/235/8 237/236/8 236/237/8
f 235/235/8 238/238/8 237/236/8
f 239/239/8 241/240/8 240/241/8
f 239/239/8 242/242/8 241/240/8
f 98/98/60 97/97/59 243/243/7
f 98/98/60 243/243/7 244/244/7
f 245/245/136 247/246/137 246/247/138
f 245/245/136 248/248/139 247/246/137
f 91/92/1 250/249/1 249/250/1
f 91/92/1 92/91/1 250/249/1
f 251/251/1 252/252/1 253/253/1
f 251/251/1 254/254/1 252/252/1
f 255/255/8 256/256/8 257/257/8
f 255/255/8 258/258/8 256/256/8
f 259/259/140 261/260/141 260/261/142
f 259/259/140 260/261/142 262/262/143
f 263/263/48 265/264/144 264/265/101
f 263/263/48 264/265/101 266/266/145
f 263/263/48 266/266/145 267/267/102
f 263/263/48 267/267/102 268/268/50
f 269/269/146 271/270/45 270/271/147
f 269/269/146 270/271/147 272/272/148
f 269/269/146 272/272/148 273/273/149
f 269/269/146 273/273/149 274/274/150
f 275/275/8 277/276/8 276/277/8
f 275/275/8 276/277/8 278/278/8
f 279/279/1 280/280/1 281/281/1
f 279/279/1 282/282/1 280/280/1
f 283/283/111 285/284/38 284/285/151
f 283/283/111 284/285/151 286/286/152
f 287/287/36 289/288/35 288/289/115
f 287/287/36 288/289/115 290/290/113
f 291/291/33 293/292/153 292/293/154
f 291/291/33 292/293/154 294/294/155
f 295/295/28 297/296/156 296/297/156
f 295/295/28 296/297/156 298/298/157
f 299/299/121 301/300/158 300/301/159
f 299/299/121 300/301/159 302/302/160
f 299/299/121 302/302/160 303/303/161
f 299/299/121 303/303/161 304/304/162
f 305/305/163 304/304/162 303/303/161
f 305/305/163 303/303/161 306/306/164
f 307/307/165 305/305/163 306/306/164
f 307/307/165 306/306/164 308/308/166
f 307/307/165 308/308/166 309/309/167
f 307/307/165 309/309/167 310/310/168
f 311/311/169 310/310/168 309/309/167
f 311/311/169 309/309/167 312/312/170
f 313/313/8 315/314/8 314/315/8
f 313/313/8 314/315/8 316/316/8
f 317/317/135 319/318/171 318/319/172
f 317/317/135 318/319/172 320/320/173
f 321/321/8 323/322/8 322/323/8
f 321/321/8 322/323/8 324/324/8
f 325/325/8 327/326/8 326/327/8
f 325/325/8 326/327/8 328/328/8
f 329/329/174 330/330/175 331/331/174
f 329/329/174 332/332/175 330/330/175
f 333/333/176 335/334/177 334/335/178
f 333/333/176 334/335/178 336/336/179
f 337/337/1 339/338/1 338/339/1
f 337/337/1 338/339/1 340/340/1
f 339/338/1 342/341/1 341/342/1
f 339/338/1 341/342/1 338/339/1
f 343/343/180 345/344/181 344/345/182
f 343/343/180 344/345/182 346/346/181
f 332/332/175 347/347/183 330/330/175
f 332/332/175 348/348/183 347/347/183
f 349/349/61 351/350/61 350/351/61
f 349/349/61 350/351/61 352/352/61
f 353/353/61 355/354/61 354/355/61
f 353/353/61 354/355/61 356/356/61
f 357/357/184 359/358/185 358/359/184
f 357/357/184 358/359/184 360/360/185
f 361/361/61 363/362/61 362/363/61
f 361/361/61 362/363/61 364/364/61
f 365/365/186 367/366/187 366/367/188
f 365/365/186 366/367/188 368/368/189
f 369/369/190 370/370/191 366/367/188
f 369/369/190 366/367/188 367/366/187
f 369/369/190 372/371/192 371/372/193
f 369/369/190 371/372/193 370/370/191
f 372/371/192 374/373/194 373/374/195
f 372/371/192 373/374/195 371/372/193
f 375/375/196 376/376/197 373/374/195
f 375/375/196 373/374/195 374/373/194
f 375/375/196 378/377/198 377/378/199
f 375/375/196 377/378/199 376/376/197
f 297/296/156 380/379/200 379/380/200
f 297/296/156 379/380/200 296/297/156
f 381/381/201 383/382/202 382/383/201
f 381/381/201 382/383/201 384/384/202
f 385/385/203 387/386/204 386/387/203
f 385/385/203 386/387/203 388/388/205
f 389/389/206 391/390/207 390/391/206
f 389/389/206 390/391/206 392/392/207
f 281/281/1 393/393/1 394/394/1
f 281/281/1 280/280/1 393/393/1
f 395/395/61 397/396/61 396/397/61
f 395/395/61 396/397/61 398/398/61
f 399/399/208 401/400/209 400/401/210
f 399/399/208 400/401/210 402/402/211
f 399/399/208 404/403/212 403/404/213
f 399/399/208 403/404/213 401/400/209
f 405/405/214 407/406/215 406/407/216
f 405/405/214 406/407/216 408/408/217
f 405/405/214 410/409/218 409/410/219
f 405/405/214 409/410/219 407/406/215
f 411/411/220 413/412/221 412/413/222
f 411/411/220 412/413/222 414/414/221
f 415/415/61 416/416/61 417/417/61
f 415/415/61 418/418/61 416/416/61
f 254/254/1 419/419/1 252/252/1
f 254/254/1 420/420/1 419/419/1
f 420/420/1 421/421/1 419/419/1
f 420/420/1 422/422/1 421/421/1
f 423/423/8 424/424/8 425/425/8
f 423/423/8 426/426/8 424/424/8
f 427/427/223 429/428/224 428/429/225
f 427/427/223 428/429/225 430/430/226
f 431/431/227 433/432/228 432/433/229
f 431/431/227 432/433/229 434/434/230
f 431/431/227 434/434/230 435/435/231
f 431/431/227 435/435/231 436/436/231
f 437/437/232 439/438/233 438/439/234
f 437/437/232 438/439/234 440/440/235
f 437/437/232 440/440/235 441/441/236
f 437/437/232 441/441/236 442/442/237
f 443/443/8 445/444/8 444/445/8
f 443/443/8 444/445/8 446/446/8
f 394/394/1 447/447/1 448/448/1
f 394/394/1 393/393/1 447/447/1
f 449/449/238 451/450/239 450/451/240
f 449/449/238 450/451/240 452/452/241
f 453/453/242 455/454/243 454/455/244
f 453/453/242 454/455/244 456/456/245
f 457/457/246 459/458/247 458/459/248
f 457/457/246 458/459/248 460/460/249
f 380/379/200 462/461/250 461/462/250
f 380/379/200 461/462/250 379/380/200
f 463/463/251 465/464/252 464/465/253
f 463/463/251 464/465/253 466/466/24
f 463/463/251 466/466/24 467/467/254
f 463/463/251 467/467/254 468/468/255
f 469/469/256 468/468/255 467/467/254
f 469/469/256 467/467/254 470/470/257
f 471/471/258 469/469/256 470/470/257
f 471/471/258 470/470/257 472/472/259
f 471/471/258 472/472/259 473/473/260
f 471/471/258 473/473/260 474/474/261
f 475/475/262 474/474/261 473/473/260
f 475/475/262 473/473/260 476/476/263
f 477/477/8 479/478/8 478/479/8
f 477/477/8 478/479/8 480/480/8
f 481/481/264 483/482/265 482/483/266
f 481/481/264 482/483/266 484/484/267
f 485/485/8 487/486/8 486/487/8
f 485/485/8 486/487/8 488/488/8
f 489/489/8 491/490/8 490/491/8
f 489/489/8 490/491/8 492/492/8
f 348/348/183 493/493/268 347/347/183
f 348/348/183 494/494/269 493/493/268
f 495/495/270 497/496/271 496/497/271
f 495/495/270 496/497/271 498/498/270
f 342/341/1 500/499/1 499/500/1
f 342/341/1 499/500/1 341/342/1
f 500/499/1 502/501/1 501/502/1
f 500/499/1 501/502/1 499/500/1
f 503/503/57 504/504/57 505/505/57
f 503/503/57 506/506/57 504/504/57
f 494/494/269 507/507/272 493/493/268
f 494/494/269 508/508/272 507/507/272
f 509/509/61 510/510/61 511/511/61
f 509/509/61 512/512/61 510/510/61
f 513/513/61 514/514/61 515/515/61
f 513/513/61 516/516/61 514/514/61
f 517/517/62 518/518/63 519/519/63
f 517/517/62 520/520/62 518/518/63
f 521/521/61 522/522/61 523/523/61
f 521/521/61 524/524/61 522/522/61
f 525/525/66 526/526/68 527/527/65
f 525/525/66 528/528/66 526/526/68
f 529/529/273 526/526/68 530/530/274
f 529/529/273 527/527/65 526/526/68
f 529/529/273 531/531/72 532/532/71
f 529/529/273 530/530/274 531/531/72
f 532/532/71 533/533/74 534/534/73
f 532/532/71 531/531/72 533/533/74
f 535/535/75 533/533/74 536/536/275
f 535/535/75 534/534/73 533/533/74
f 535/535/75 537/537/276 538/538/276
f 535/535/75 536/536/275 537/537/276
f 462/461/250 540/539/277 539/540/277
f 462/461/250 539/540/277 461/462/250
f 541/541/278 542/542/278 543/543/278
f 541/541/278 544/544/278 542/542/278
f 545/545/81 546/546/81 547/547/81
f 545/545/81 548/548/81 546/546/81
f 549/549/279 550/550/279 551/551/279
f 549/549/279 552/552/279 550/550/279
f 448/448/1 553/553/1 554/554/1
f 448/448/1 447/447/1 553/553/1
f 555/555/61 556/556/61 557/557/61
f 555/555/61 558/558/61 556/556/61
f 559/559/83 560/560/84 561/561/86
f 559/559/83 562/562/85 560/560/84
f 559/559/83 563/563/280 564/564/87
f 559/559/83 561/561/86 563/563/280
f 565/565/281 566/566/90 567/567/282
f 565/565/281 568/568/90 566/566/90
f 565/565/281 569/569/283 570/570/283
f 565/565/281 567/567/282 569/569/283
f 571/571/284 572/572/284 573/573/284
f 571/571/284 574/574/284 572/572/284
f 575/575/61 577/576/61 576/577/61
f 575/575/61 576/577/61 578/578/61
f 422/422/1 579/579/1 421/421/1
f 422/422/1 580/580/1 579/579/1
f 580/580/1 581/581/1 579/579/1
f 580/580/1 582/582/1 581/581/1
f 583/583/8 584/584/8 585/585/8
f 583/583/8 586/586/8 584/584/8
f 587/587/285 589/588/286 588/589/285
f 587/587/285 588/589/285 590/590/287
f 591/591/288 593/592/289 592/593/229
f 591/591/288 592/593/229 594/594/290
f 591/591/288 594/594/290 595/595/291
f 591/591/288 595/595/291 596/596/292
f 597/597/293 599/598/294 598/599/295
f 597/597/293 598/599/295 600/600/296
f 597/597/293 600/600/296 601/601/297
f 597/597/293 601/601/297 602/602/298
f 603/603/8 605/604/8 604/605/8
f 603/603/8 604/605/8 606/606/8
f 554/554/1 607/607/1 608/608/1
f 554/554/1 553/553/1 607/607/1
f 609/609/299 611/610/300 610/611/301
f 609/609/299 610/611/301 612/612/302
f 613/613/303 615/614/304 614/615/305
f 613/613/303 614/615/305 616/616/306
f 617/617/307 619/618/308 618/619/309
f 617/617/307 618/619/309 620/620/308
f 540/539/277 622/621/29 621/622/29
f 540/539/277 621/622/29 539/540/277
f 623/623/310 625/624/311 624/625/312
f 623/623/310 624/625/312 626/626/24
f 623/623/310 626/626/24 627/627/313
f 623/623/310 627/627/313 628/628/314
f 629/629/315 628/628/314 627/627/313
f 629/629/315 627/627/313 630/630/316
f 631/631/317 629/629/315 630/630/316
f 631/631/317 630/630/316 632/632/259
f 631/631/317 632/632/259 633/633/318
f 631/631/317 633/633/318 634/634/319
f 635/635/320 634/634/319 633/633/318
f 635/635/320 633/633/318 636/636/321
f 637/637/8 639/638/8 638/639/8
f 637/637/8 638/639/8 640/640/8
f 641/641/11 643/642/322 642/643/323
f 641/641/11 642/643/323 644/644/322
f 645/645/8 647/646/8 646/647/8
f 645/645/8 646/647/8 648/648/8
f 649/649/8 651/650/8 650/651/8
f 649/649/8 650/651/8 652/652/8
f 508/508/272 653/653/7 507/507/272
f 508/508/272 654/654/7 653/653/7
f 655/655/324 657/656/325 656/657/326
f 655/655/324 656/657/326 658/658/327
f 502/501/1 660/659/1 659/660/1
f 502/501/1 659/660/1 501/502/1
f 661/661/1 662/662/1 663/663/1
f 661/661/1 663/663/1 664/664/1
f 665/665/328 666/666/328 667/667/328
f 665/665/328 667/667/328 668/668/328
f 669/669/329 671/670/329 670/671/329
f 669/669/329 672/672/329 671/670/329
f 673/673/330 675/674/331 674/675/332
f 673/673/330 676/676/333 675/674/331
f 673/673/330 678/677/334 677/678/335
f 673/673/330 674/675/332 678/677/334
f 679/679/336 681/680/337 680/681/338
f 679/679/336 682/682/339 681/680/337
f 679/679/336 684/683/340 683/684/341
f 679/679/336 680/681/338 684/683/340
f 685/685/328 687/686/328 686/687/328
f 685/685/328 688/688/328 687/686/328
f 689/689/1 690/690/1 691/691/1
f 689/689/1 691/691/1 692/692/1
f 693/693/342 695/694/343 694/695/344
f 693/693/342 696/696/345 695/694/343
f 697/697/346 699/698/347 698/699/348
f 697/697/346 700/700/346 699/698/347
f 701/701/349 703/702/350 702/703/351
f 701/701/349 704/704/352 703/702/350
f 705/705/353 707/706/354 706/707/355
f 705/705/353 708/708/354 707/706/354
f 709/709/356 711/710/357 710/711/358
f 709/709/356 712/712/359 711/710/357
f 709/709/356 714/713/360 713/714/361
f 709/709/356 710/711/358 714/713/360
f 715/715/362 714/713/360 716/716/363
f 715/715/362 713/714/361 714/713/360
f 717/717/364 716/716/363 718/718/365
f 717/717/364 715/715/362 716/716/363
f 717/717/364 720/719/366 719/720/367
f 717/717/364 718/718/365 720/719/366
f 721/721/368 720/719/366 722/722/369
f 721/721/368 719/720/367 720/719/366
f 723/723/328 722/722/369 724/724/328
f 723/723/328 721/721/368 722/722/369
f 725/725/370 727/726/371 726/727/371
f 725/725/370 728/728/370 727/726/371
f 729/729/328 731/730/328 730/731/328
f 729/729/328 732/732/328 731/730/328
f 733/733/328 735/734/328 734/735/328
f 733/733/328 736/736/328 735/734/328
f 737/737/372 739/738/373 738/739/374
f 737/737/372 740/740/372 739/738/373
f 741/741/375 743/742/376 742/743/377
f 741/741/375 744/744/378 743/742/376
f 745/745/1 747/746/1 746/747/1
f 745/745/1 748/748/1 747/746/1
f 748/748/1 749/749/1 747/746/1
f 748/748/1 750/750/1 749/749/1
f 751/751/379 752/752/379 753/753/379
f 751/751/379 753/753/379 754/754/379
f 738/739/374 756/755/380 755/756/380
f 738/739/374 739/738/373 756/755/380
f 757/757/61 758/758/61 759/759/61
f 757/757/61 759/759/61 760/760/61
f 761/761/61 762/762/61 763/763/61
f 761/761/61 763/763/61 764/764/61
f 765/765/381 766/766/381 767/767/381
f 765/765/381 767/767/381 768/768/382
f 769/769/61 770/770/61 771/771/383
f 769/769/61 771/771/383 772/772/384
f 772/772/384 771/771/383 773/773/385
f 772/772/384 773/773/385 774/774/386
f 775/775/387 774/774/386 773/773/385
f 775/775/387 773/773/385 776/776/388
f 775/775/387 776/776/388 777/777/389
f 775/775/387 777/777/389 778/778/390
f 778/778/390 777/777/389 779/779/391
f 778/778/390 779/779/391 780/780/392
f 781/781/393 780/780/392 779/779/391
f 781/781/393 779/779/391 782/782/394
f 781/781/393 782/782/394 783/783/395
f 781/781/393 783/783/395 784/784/396
f 708/708/354 785/785/397 707/706/354
f 708/708/354 786/786/397 785/785/397
f 787/787/398 788/788/399 789/789/398
f 787/787/398 789/789/398 790/790/398
f 791/791/400 792/792/401 793/793/400
f 791/791/400 793/793/400 794/794/401
f 795/795/402 796/796/403 797/797/403
f 795/795/402 797/797/403 798/798/402
f 692/692/1 691/691/1 799/799/1
f 692/692/1 799/799/1 800/800/1
f 801/801/61 802/802/61 803/803/61
f 801/801/61 803/803/61 804/804/61
f 805/805/404 806/806/405 807/807/405
f 805/805/404 807/807/405 808/808/406
f 805/805/404 808/808/406 809/809/407
f 805/805/404 809/809/407 810/810/408
f 811/811/409 812/812/410 813/813/411
f 811/811/409 813/813/411 814/814/395
f 811/811/409 814/814/395 815/815/412
f 811/811/409 815/815/412 816/816/412
f 817/817/413 818/818/413 819/819/413
f 817/817/413 819/819/413 820/820/413
f 821/821/61 823/822/61 822/823/61
f 821/821/61 824/824/61 823/822/61
f 662/662/1 825/825/1 826/826/1
f 662/662/1 826/826/1 663/663/1
f 825/825/1 827/827/1 828/828/1
f 825/825/1 828/828/1 826/826/1
f 829/829/328 830/830/328 831/831/328
f 829/829/328 831/831/328 832/832/328
f 833/833/414 835/834/329 834/835/414
f 833/833/414 836/836/329 835/834/329
f 837/837/415 839/838/416 838/839/417
f 837/837/415 840/840/418 839/838/416
f 837/837/415 842/841/419 841/842/420
f 837/837/415 838/839/417 842/841/419
f 843/843/421 845/844/422 844/845/423
f 843/843/421 846/846/424 845/844/422
f 843/843/421 848/847/425 847/848/426
f 843/843/421 844/845/423 848/847/425
f 849/849/328 851/850/328 850/851/328
f 849/849/328 852/852/328 851/850/328
f 800/800/1 799/799/1 853/853/1
f 800/800/1 853/853/1 854/854/1
f 855/855/343 857/856/427 856/857/428
f 855/855/343 858/858/429 857/856/427
f 859/859/430 861/860/347 860/861/347
f 859/859/430 862/862/348 861/860/347
f 863/863/431 865/864/432 864/865/433
f 863/863/431 866/866/351 865/864/432
f 786/786/397 867/867/355 785/785/397
f 786/786/397 868/868/355 867/867/355
f 869/869/434 871/870/435 870/871/436
f 869/869/434 872/872/437 871/870/435
f 869/869/434 874/873/438 873/874/439
f 869/869/434 870/871/436 874/873/438
f 875/875/440 874/873/438 876/876/441
f 875/875/440 873/874/439 874/873/438
f 877/877/442 876/876/441 878/878/443
f 877/877/442 875/875/440 876/876/441
f 877/877/442 880/879/444 879/880/445
f 877/877/442 878/878/443 880/879/444
f 881/881/446 880/879/444 882/882/447
f 881/881/446 879/880/445 880/879/444
f 883/883/328 882/882/447 884/884/328
f 883/883/328 881/881/446 882/882/447
f 885/885/448 887/886/449 886/887/370
f 885/885/448 888/888/448 887/886/449
f 889/889/328 891/890/328 890/891/328
f 889/889/328 892/892/328 891/890/328
f 893/893/328 895/894/328 894/895/328
f 893/893/328 896/896/328 895/894/328
f 755/756/380 898/897/450 897/898/451
f 755/756/380 756/755/380 898/897/450
f 899/899/452 901/900/453 900/901/454
f 899/899/452 902/902/455 901/900/453
f 750/750/1 903/903/1 749/749/1
f 750/750/1 904/904/1 903/903/1
