# Blender v2.82 (sub 7) OBJ File: 'living_room.blend'
# www.blender.org
o FloorLampDiffuser_WhitePaint.949
v 2.713920 1.264170 1.481550
v 2.671840 1.279990 1.468640
v 2.713920 1.279990 1.481550
v 2.671840 1.264170 1.468640
v 2.671840 1.258720 1.468640
v 2.713920 1.258720 1.481550
v 2.752810 1.258720 1.502170
v 2.752810 1.264170 1.502170
v 2.752810 1.279990 1.502170
v 2.752810 1.311360 1.502170
v 2.786900 1.279990 1.529870
v 2.786900 1.311360 1.529870
v 2.752810 1.363470 1.502170
v 2.786900 1.363470 1.529870
v 2.814580 1.279990 1.563950
v 2.814580 1.311360 1.563950
v 2.814580 1.363470 1.563950
v 2.835210 1.425940 1.602840
v 2.814580 1.425940 1.563950
v 2.835210 1.363470 1.602840
v 2.835210 1.311360 1.602840
v 2.848120 1.363470 1.644920
v 2.848120 1.311360 1.644920
v 2.835210 1.279990 1.602840
v 2.848120 1.279990 1.644920
v 2.852640 1.311360 1.688600
v 2.852640 1.279990 1.688600
v 2.852640 1.363470 1.688600
v 2.848120 1.279990 1.732280
v 2.848120 1.311360 1.732280
v 2.848120 1.363470 1.732280
v 2.835210 1.425940 1.774360
v 2.848120 1.425940 1.732280
v 2.835210 1.363470 1.774360
v 2.835210 1.311360 1.774360
v 2.814580 1.363470 1.813250
v 2.814580 1.311360 1.813250
v 2.835210 1.279990 1.774360
v 2.814580 1.279990 1.813250
v 2.786900 1.311360 1.847330
v 2.786900 1.279990 1.847330
v 2.786900 1.363470 1.847330
v 2.752810 1.279990 1.875020
v 2.752810 1.311360 1.875020
v 2.752810 1.363470 1.875020
v 2.713920 1.425940 1.895650
v 2.752810 1.425940 1.875020
v 2.713920 1.363470 1.895650
v 2.713920 1.311360 1.895650
v 2.671840 1.363470 1.908560
v 2.671840 1.311360 1.908560
v 2.713920 1.279990 1.895650
v 2.671840 1.279990 1.908560
v 2.628160 1.311360 1.913080
v 2.628160 1.279990 1.913080
v 2.628160 1.363470 1.913080
v 2.584480 1.279990 1.908560
v 2.584480 1.311360 1.908560
v 2.584480 1.363470 1.908560
v 2.542400 1.425940 1.895650
v 2.584480 1.425940 1.908560
v 2.542400 1.363470 1.895650
v 2.503510 1.363470 1.875020
v 2.503510 1.311360 1.875020
v 2.542400 1.311360 1.895650
v 2.542400 1.279990 1.895650
v 2.542400 1.264170 1.895650
v 2.503510 1.279990 1.875020
v 2.503510 1.264170 1.875020
v 2.469420 1.279990 1.847330
v 2.469420 1.311360 1.847330
v 2.469420 1.363470 1.847330
v 2.441740 1.279990 1.813250
v 2.441740 1.311360 1.813250
v 2.441740 1.363470 1.813250
v 2.421110 1.425940 1.774360
v 2.441740 1.425940 1.813250
v 2.421110 1.363470 1.774360
v 2.421110 1.311360 1.774360
v 2.408200 1.363470 1.732280
v 2.408200 1.311360 1.732280
v 2.421110 1.279990 1.774360
v 2.408200 1.279990 1.732280
v 2.403680 1.311360 1.688600
v 2.403680 1.279990 1.688600
v 2.403680 1.363470 1.688600
v 2.408200 1.279990 1.644920
v 2.408200 1.311360 1.644920
v 2.408200 1.363470 1.644920
v 2.421110 1.425940 1.602840
v 2.408200 1.425940 1.644920
v 2.421110 1.363470 1.602840
v 2.421110 1.311360 1.602840
v 2.441740 1.363470 1.563950
v 2.441740 1.311360 1.563950
v 2.421110 1.279990 1.602840
v 2.441740 1.279990 1.563950
v 2.469420 1.311360 1.529870
v 2.469420 1.279990 1.529870
v 2.469420 1.363470 1.529870
v 2.441740 1.425940 1.563950
v 2.469420 1.425940 1.529870
v 2.469420 1.488420 1.529870
v 2.441740 1.488420 1.563950
v 2.469420 1.540530 1.529870
v 2.441740 1.540530 1.563950
v 2.441740 1.571900 1.563950
v 2.469420 1.571900 1.529870
v 2.441740 1.587720 1.563950
v 2.469420 1.587720 1.529870
v 2.469420 1.593160 1.529870
v 2.441740 1.593160 1.563950
v 2.469420 1.593430 1.529870
v 2.441740 1.593430 1.563950
v 2.421110 1.593160 1.602840
v 2.421110 1.593430 1.602840
v 2.408200 1.593430 1.644920
v 2.408200 1.593160 1.644920
v 2.403680 1.593430 1.688600
v 2.408200 1.593160 1.732280
v 2.403680 1.593160 1.688600
v 2.408200 1.593430 1.732280
v 2.421110 1.593160 1.774360
v 2.421110 1.593430 1.774360
v 2.441740 1.593430 1.813250
v 2.441740 1.593160 1.813250
v 2.469420 1.593430 1.847330
v 2.503510 1.593160 1.875020
v 2.469420 1.593160 1.847330
v 2.503510 1.593430 1.875020
v 2.542400 1.593160 1.895650
v 2.542400 1.593430 1.895650
v 2.584480 1.593430 1.908560
v 2.584480 1.593160 1.908560
v 2.628160 1.593430 1.913080
v 2.671840 1.593160 1.908560
v 2.628160 1.593160 1.913080
v 2.671840 1.593430 1.908560
v 2.713920 1.593160 1.895650
v 2.713920 1.593430 1.895650
v 2.752810 1.593430 1.875020
v 2.752810 1.593160 1.875020
v 2.786900 1.593430 1.847330
v 2.814580 1.593160 1.813250
v 2.786900 1.593160 1.847330
v 2.814580 1.593430 1.813250
v 2.835210 1.593160 1.774360
v 2.835210 1.593430 1.774360
v 2.848120 1.593430 1.732280
v 2.848120 1.593160 1.732280
v 2.852640 1.593430 1.688600
v 2.848120 1.593160 1.644920
v 2.852640 1.593160 1.688600
v 2.848120 1.593430 1.644920
v 2.835210 1.593160 1.602840
v 2.835210 1.593430 1.602840
v 2.814580 1.593430 1.563950
v 2.814580 1.593160 1.563950
v 2.786900 1.593430 1.529870
v 2.752810 1.593160 1.502170
v 2.786900 1.593160 1.529870
v 2.752810 1.593430 1.502170
v 2.713920 1.593160 1.481550
v 2.713920 1.593430 1.481550
v 2.671840 1.593430 1.468640
v 2.671840 1.593160 1.468640
v 2.628160 1.593430 1.464110
v 2.628160 1.593160 1.464110
v 2.584480 1.593160 1.468640
v 2.584480 1.593430 1.468640
v 2.542400 1.593160 1.481550
v 2.542400 1.593430 1.481550
v 2.503510 1.593430 1.502170
v 2.503510 1.593160 1.502170
v 2.469420 1.593430 1.529870
v 2.469420 1.593160 1.529870
v 2.503510 1.587720 1.502170
v 2.469420 1.587720 1.529870
v 2.469420 1.571900 1.529870
v 2.503510 1.571900 1.502170
v 2.469420 1.540530 1.529870
v 2.503510 1.488420 1.502170
v 2.503510 1.540530 1.502170
v 2.469420 1.488420 1.529870
v 2.503510 1.425940 1.502170
v 2.469420 1.425940 1.529870
v 2.469420 1.363470 1.529870
v 2.503510 1.363470 1.502170
v 2.469420 1.311360 1.529870
v 2.503510 1.279990 1.502170
v 2.503510 1.311360 1.502170
v 2.469420 1.279990 1.529870
v 2.503510 1.264170 1.502170
v 2.469420 1.264170 1.529870
v 2.469420 1.258720 1.529870
v 2.503510 1.258720 1.502170
v 2.469420 1.258460 1.529870
v 2.503510 1.258460 1.502170
v 2.542400 1.258720 1.481550
v 2.542400 1.258460 1.481550
v 2.584480 1.258460 1.468640
v 2.584480 1.258720 1.468640
v 2.628160 1.258460 1.464110
v 2.628160 1.258720 1.464110
v 2.671840 1.258460 1.468640
v 2.713920 1.258460 1.481550
v 2.752810 1.258460 1.502170
v 2.786900 1.258460 1.529870
v 2.786900 1.258720 1.529870
v 2.814580 1.258720 1.563950
v 2.814580 1.258460 1.563950
v 2.835210 1.258720 1.602840
v 2.835210 1.258460 1.602840
v 2.848120 1.258460 1.644920
v 2.848120 1.258720 1.644920
v 2.852640 1.258460 1.688600
v 2.852640 1.258720 1.688600
v 2.848120 1.258720 1.732280
v 2.848120 1.258460 1.732280
v 2.835210 1.258720 1.774360
v 2.835210 1.258460 1.774360
v 2.814580 1.258460 1.813250
v 2.814580 1.258720 1.813250
v 2.786900 1.258460 1.847330
v 2.786900 1.258720 1.847330
v 2.752810 1.258720 1.875020
v 2.752810 1.258460 1.875020
v 2.713920 1.258720 1.895650
v 2.713920 1.258460 1.895650
v 2.671840 1.258460 1.908560
v 2.671840 1.258720 1.908560
v 2.628160 1.258460 1.913080
v 2.628160 1.258720 1.913080
v 2.584480 1.258720 1.908560
v 2.584480 1.258460 1.908560
v 2.542400 1.258720 1.895650
v 2.542400 1.258460 1.895650
v 2.503510 1.258460 1.875020
v 2.503510 1.258720 1.875020
v 2.469420 1.258460 1.847330
v 2.469420 1.258720 1.847330
v 2.441740 1.258720 1.813250
v 2.441740 1.258460 1.813250
v 2.421110 1.258720 1.774360
v 2.421110 1.258460 1.774360
v 2.408200 1.258460 1.732280
v 2.408200 1.258720 1.732280
v 2.403680 1.258460 1.688600
v 2.403680 1.258720 1.688600
v 2.408200 1.258720 1.644920
v 2.408200 1.258460 1.644920
v 2.421110 1.258720 1.602840
v 2.421110 1.258460 1.602840
v 2.441740 1.258460 1.563950
v 2.441740 1.258720 1.563950
v 2.469420 1.258460 1.529870
v 2.469420 1.258720 1.529870
v 2.441740 1.264170 1.563950
v 2.469420 1.264170 1.529870
v 2.421110 1.264170 1.602840
v 2.408200 1.264170 1.644920
v 2.403680 1.264170 1.688600
v 2.408200 1.264170 1.732280
v 2.421110 1.264170 1.774360
v 2.441740 1.264170 1.813250
v 2.469420 1.264170 1.847330
v 2.584480 1.264170 1.908560
v 2.628160 1.264170 1.913080
v 2.671840 1.264170 1.908560
v 2.713920 1.264170 1.895650
v 2.752810 1.264170 1.875020
v 2.786900 1.264170 1.847330
v 2.814580 1.264170 1.813250
v 2.835210 1.264170 1.774360
v 2.848120 1.264170 1.732280
v 2.852640 1.264170 1.688600
v 2.848120 1.264170 1.644920
v 2.835210 1.264170 1.602840
v 2.814580 1.264170 1.563950
v 2.786900 1.264170 1.529870
v 2.628160 1.264170 1.464110
v 2.584480 1.264170 1.468640
v 2.542400 1.264170 1.481550
v 2.584480 1.279990 1.468640
v 2.628160 1.279990 1.464110
v 2.628160 1.311360 1.464110
v 2.671840 1.311360 1.468640
v 2.671840 1.363470 1.468640
v 2.628160 1.363470 1.464110
v 2.584480 1.311360 1.468640
v 2.584480 1.363470 1.468640
v 2.542400 1.425940 1.481550
v 2.542400 1.363470 1.481550
v 2.584480 1.425940 1.468640
v 2.628160 1.425940 1.464110
v 2.584480 1.488420 1.468640
v 2.628160 1.488420 1.464110
v 2.671840 1.425940 1.468640
v 2.671840 1.488420 1.468640
v 2.628160 1.540530 1.464110
v 2.671840 1.540530 1.468640
v 2.671840 1.571900 1.468640
v 2.628160 1.571900 1.464110
v 2.584480 1.540530 1.468640
v 2.584480 1.571900 1.468640
v 2.542400 1.587720 1.481550
v 2.542400 1.571900 1.481550
v 2.584480 1.587720 1.468640
v 2.628160 1.587720 1.464110
v 2.671840 1.587720 1.468640
v 2.713920 1.587720 1.481550
v 2.713920 1.571900 1.481550
v 2.752810 1.571900 1.502170
v 2.752810 1.587720 1.502170
v 2.786900 1.571900 1.529870
v 2.786900 1.587720 1.529870
v 2.814580 1.587720 1.563950
v 2.835210 1.587720 1.602840
v 2.814580 1.571900 1.563950
v 2.835210 1.571900 1.602840
v 2.814580 1.540530 1.563950
v 2.786900 1.540530 1.529870
v 2.752810 1.488420 1.502170
v 2.786900 1.488420 1.529870
v 2.752810 1.540530 1.502170
v 2.814580 1.488420 1.563950
v 2.835210 1.488420 1.602840
v 2.835210 1.540530 1.602840
v 2.848120 1.488420 1.644920
v 2.848120 1.540530 1.644920
v 2.852640 1.540530 1.688600
v 2.848120 1.571900 1.644920
v 2.848120 1.587720 1.644920
v 2.852640 1.571900 1.688600
v 2.852640 1.587720 1.688600
v 2.848120 1.587720 1.732280
v 2.848120 1.571900 1.732280
v 2.835210 1.587720 1.774360
v 2.835210 1.571900 1.774360
v 2.848120 1.540530 1.732280
v 2.835210 1.488420 1.774360
v 2.835210 1.540530 1.774360
v 2.848120 1.488420 1.732280
v 2.852640 1.488420 1.688600
v 2.848120 1.425940 1.644920
v 2.852640 1.425940 1.688600
v 2.814580 1.540530 1.813250
v 2.814580 1.488420 1.813250
v 2.786900 1.540530 1.847330
v 2.814580 1.571900 1.813250
v 2.814580 1.587720 1.813250
v 2.786900 1.571900 1.847330
v 2.786900 1.587720 1.847330
v 2.752810 1.587720 1.875020
v 2.752810 1.571900 1.875020
v 2.713920 1.587720 1.895650
v 2.713920 1.571900 1.895650
v 2.752810 1.540530 1.875020
v 2.713920 1.488420 1.895650
v 2.713920 1.540530 1.895650
v 2.752810 1.488420 1.875020
v 2.786900 1.488420 1.847330
v 2.814580 1.425940 1.813250
v 2.786900 1.425940 1.847330
v 2.671840 1.540530 1.908560
v 2.671840 1.488420 1.908560
v 2.628160 1.540530 1.913080
v 2.671840 1.571900 1.908560
v 2.671840 1.587720 1.908560
v 2.628160 1.571900 1.913080
v 2.628160 1.587720 1.913080
v 2.584480 1.587720 1.908560
v 2.584480 1.571900 1.908560
v 2.542400 1.587720 1.895650
v 2.542400 1.571900 1.895650
v 2.584480 1.540530 1.908560
v 2.542400 1.488420 1.895650
v 2.542400 1.540530 1.895650
v 2.584480 1.488420 1.908560
v 2.628160 1.488420 1.913080
v 2.671840 1.425940 1.908560
v 2.628160 1.425940 1.913080
v 2.503510 1.540530 1.875020
v 2.503510 1.488420 1.875020
v 2.469420 1.540530 1.847330
v 2.503510 1.571900 1.875020
v 2.503510 1.587720 1.875020
v 2.469420 1.571900 1.847330
v 2.469420 1.587720 1.847330
v 2.441740 1.587720 1.813250
v 2.441740 1.571900 1.813250
v 2.421110 1.587720 1.774360
v 2.421110 1.571900 1.774360
v 2.441740 1.540530 1.813250
v 2.421110 1.488420 1.774360
v 2.421110 1.540530 1.774360
v 2.441740 1.488420 1.813250
v 2.469420 1.488420 1.847330
v 2.503510 1.425940 1.875020
v 2.469420 1.425940 1.847330
v 2.408200 1.540530 1.732280
v 2.408200 1.488420 1.732280
v 2.403680 1.540530 1.688600
v 2.408200 1.571900 1.732280
v 2.408200 1.587720 1.732280
v 2.403680 1.571900 1.688600
v 2.403680 1.587720 1.688600
v 2.408200 1.587720 1.644920
v 2.408200 1.571900 1.644920
v 2.421110 1.587720 1.602840
v 2.421110 1.571900 1.602840
v 2.408200 1.540530 1.644920
v 2.421110 1.488420 1.602840
v 2.421110 1.540530 1.602840
v 2.408200 1.488420 1.644920
v 2.403680 1.488420 1.688600
v 2.408200 1.425940 1.732280
v 2.403680 1.425940 1.688600
v 2.713920 1.488420 1.481550
v 2.713920 1.540530 1.481550
v 2.713920 1.425940 1.481550
v 2.713920 1.363470 1.481550
v 2.752810 1.425940 1.502170
v 2.786900 1.425940 1.529870
v 2.713920 1.311360 1.481550
v 2.542400 1.540530 1.481550
v 2.542400 1.488420 1.481550
v 2.542400 1.311360 1.481550
v 2.542400 1.279990 1.481550
vt 0.379880 0.017812
vt 0.316151 0.017812
vt 0.316151 0.040513
vt 0.379880 0.040513
vt 0.438766 0.040513
vt 0.316151 0.009993
vt 0.379880 0.009993
vt 0.438766 0.009993
vt 0.438766 0.017812
vt 0.490385 0.040513
vt 0.438766 0.085537
vt 0.490385 0.085537
vt 0.561235 0.040513
vt 0.509615 0.040513
vt 0.509615 0.085537
vt 0.438766 0.160328
vt 0.490385 0.160328
vt 0.561235 0.160328
vt 0.509615 0.160328
vt 0.561235 0.085537
vt 0.620120 0.250000
vt 0.620120 0.160328
vt 0.561235 0.250000
vt 0.683848 0.160328
vt 0.620120 0.085537
vt 0.683848 0.085537
vt 0.620120 0.040513
vt 0.683848 0.040513
vt 0.749999 0.085537
vt 0.749999 0.040513
vt 0.816150 0.040513
vt 0.749999 0.160328
vt 0.816150 0.160328
vt 0.816150 0.085537
vt 0.879880 0.250000
vt 0.879880 0.160328
vt 0.816150 0.250000
vt 0.938765 0.160328
vt 0.879880 0.085537
vt 0.938765 0.085537
vt 0.879880 0.040513
vt 0.938765 0.040513
vt 0.990385 0.085537
vt 0.990385 0.040513
vt 0.061234 0.540513
vt 0.009615 0.540513
vt 0.009615 0.585537
vt 0.990385 0.160328
vt 0.061234 0.660328
vt 0.009615 0.660328
vt 0.061234 0.585537
vt 0.120120 0.750000
vt 0.120120 0.660328
vt 0.061234 0.750000
vt 0.183849 0.660328
vt 0.120120 0.585537
vt 0.183849 0.585537
vt 0.120120 0.540513
vt 0.183849 0.540513
vt 0.250000 0.585537
vt 0.250000 0.540513
vt 0.316151 0.540513
vt 0.250000 0.660328
vt 0.316151 0.660328
vt 0.316151 0.585537
vt 0.379880 0.750000
vt 0.379880 0.660328
vt 0.316151 0.750000
vt 0.438766 0.660328
vt 0.438766 0.585537
vt 0.379880 0.585537
vt 0.379880 0.540513
vt 0.379880 0.517812
vt 0.438766 0.540513
vt 0.438766 0.517812
vt 0.490385 0.540513
vt 0.490385 0.585537
vt 0.561235 0.540513
vt 0.509615 0.540513
vt 0.509615 0.585537
vt 0.490385 0.660328
vt 0.561235 0.660328
vt 0.509615 0.660328
vt 0.561235 0.585537
vt 0.620120 0.750000
vt 0.620120 0.660328
vt 0.561235 0.750000
vt 0.683850 0.660328
vt 0.620120 0.585537
vt 0.683850 0.585537
vt 0.620120 0.540513
vt 0.683850 0.540513
vt 0.750001 0.585537
vt 0.750001 0.540513
vt 0.816152 0.540513
vt 0.750001 0.660328
vt 0.816152 0.660328
vt 0.816152 0.585537
vt 0.879880 0.750000
vt 0.879880 0.660328
vt 0.816152 0.750000
vt 0.938765 0.660328
vt 0.879880 0.585537
vt 0.938765 0.585537
vt 0.879880 0.540513
vt 0.938765 0.540513
vt 0.990385 0.585537
vt 0.990385 0.540513
vt 0.990385 0.660328
vt 0.938765 0.750000
vt 0.990385 0.750000
vt 0.990385 0.839672
vt 0.938765 0.839672
vt 0.990385 0.914461
vt 0.938765 0.914461
vt 0.938765 0.959487
vt 0.990385 0.959487
vt 0.938765 0.982188
vt 0.990385 0.982188
vt 0.990385 0.990007
vt 0.938765 0.990007
vt 0.990385 0.990385
vt 0.938765 0.990385
vt 0.879880 0.990007
vt 0.879880 0.990385
vt 0.816152 0.990385
vt 0.816152 0.990007
vt 0.750001 0.990385
vt 0.683850 0.990007
vt 0.683850 0.990385
vt 0.750001 0.990007
vt 0.620120 0.990007
vt 0.620120 0.990385
vt 0.561235 0.990385
vt 0.561235 0.990007
vt 0.509615 0.990385
vt 0.438766 0.990007
vt 0.438766 0.990385
vt 0.490385 0.990385
vt 0.490385 0.990007
vt 0.509615 0.990007
vt 0.379880 0.990007
vt 0.379880 0.990385
vt 0.316151 0.990385
vt 0.316151 0.990007
vt 0.250000 0.990385
vt 0.183849 0.990007
vt 0.183849 0.990385
vt 0.250000 0.990007
vt 0.120120 0.990007
vt 0.120120 0.990385
vt 0.061234 0.990385
vt 0.061234 0.990007
vt 0.009615 0.990385
vt 0.938765 0.490007
vt 0.938765 0.490385
vt 0.990385 0.490385
vt 0.990385 0.490007
vt 0.009615 0.990007
vt 0.879880 0.490007
vt 0.879880 0.490385
vt 0.816150 0.490385
vt 0.816150 0.490007
vt 0.749999 0.490385
vt 0.683848 0.490007
vt 0.683848 0.490385
vt 0.749999 0.490007
vt 0.620120 0.490007
vt 0.620120 0.490385
vt 0.561235 0.490385
vt 0.561235 0.490007
vt 0.509615 0.490385
vt 0.438766 0.490007
vt 0.438766 0.490385
vt 0.490385 0.490385
vt 0.490385 0.490007
vt 0.509615 0.490007
vt 0.379880 0.490007
vt 0.379880 0.490385
vt 0.316151 0.490385
vt 0.316151 0.490007
vt 0.250000 0.490385
vt 0.250000 0.490007
vt 0.183849 0.490007
vt 0.183849 0.490385
vt 0.120120 0.490007
vt 0.120120 0.490385
vt 0.061234 0.490385
vt 0.061234 0.490007
vt 0.009615 0.490385
vt 0.009615 0.490007
vt 0.061234 0.482188
vt 0.009615 0.482188
vt 0.009615 0.459487
vt 0.061234 0.459487
vt 0.009615 0.414461
vt 0.061234 0.339672
vt 0.009615 0.339672
vt 0.061234 0.414461
vt 0.061234 0.250000
vt 0.009615 0.250000
vt 0.009615 0.160328
vt 0.061234 0.160328
vt 0.009615 0.085537
vt 0.061234 0.040513
vt 0.009615 0.040513
vt 0.061234 0.085537
vt 0.061234 0.017812
vt 0.009615 0.017812
vt 0.009615 0.009993
vt 0.061234 0.009993
vt 0.009615 0.009615
vt 0.061234 0.009615
vt 0.120120 0.009993
vt 0.120120 0.009615
vt 0.183849 0.009615
vt 0.183849 0.009993
vt 0.250000 0.009615
vt 0.316151 0.009615
vt 0.250000 0.009993
vt 0.379880 0.009615
vt 0.438766 0.009615
vt 0.490385 0.009615
vt 0.490385 0.009993
vt 0.561235 0.009993
vt 0.509615 0.009615
vt 0.509615 0.009993
vt 0.561235 0.009615
vt 0.620120 0.009993
vt 0.620120 0.009615
vt 0.683848 0.009615
vt 0.683848 0.009993
vt 0.749999 0.009615
vt 0.749999 0.009993
vt 0.816150 0.009993
vt 0.816150 0.009615
vt 0.879880 0.009993
vt 0.879880 0.009615
vt 0.938765 0.009615
vt 0.938765 0.009993
vt 0.990385 0.009615
vt 0.990385 0.009993
vt 0.061234 0.509993
vt 0.009615 0.509615
vt 0.009615 0.509993
vt 0.061234 0.509615
vt 0.120120 0.509993
vt 0.120120 0.509615
vt 0.183849 0.509615
vt 0.183849 0.509993
vt 0.250000 0.509615
vt 0.250000 0.509993
vt 0.316151 0.509993
vt 0.316151 0.509615
vt 0.379880 0.509993
vt 0.379880 0.509615
vt 0.438766 0.509615
vt 0.438766 0.509993
vt 0.490385 0.509615
vt 0.490385 0.509993
vt 0.561235 0.509993
vt 0.509615 0.509615
vt 0.509615 0.509993
vt 0.561235 0.509615
vt 0.620120 0.509993
vt 0.620120 0.509615
vt 0.683850 0.509615
vt 0.683850 0.509993
vt 0.750001 0.509615
vt 0.750001 0.509993
vt 0.816152 0.509993
vt 0.816152 0.509615
vt 0.879880 0.509993
vt 0.879880 0.509615
vt 0.938765 0.509615
vt 0.938765 0.509993
vt 0.990385 0.509615
vt 0.990385 0.509993
vt 0.938765 0.517812
vt 0.990385 0.517812
vt 0.879880 0.517812
vt 0.816152 0.517812
vt 0.750001 0.517812
vt 0.683850 0.517812
vt 0.620120 0.517812
vt 0.561235 0.517812
vt 0.509615 0.517812
vt 0.490385 0.517812
vt 0.316151 0.517812
vt 0.250000 0.517812
vt 0.183849 0.517812
vt 0.120120 0.517812
vt 0.061234 0.517812
vt 0.009615 0.517812
vt 0.938765 0.017812
vt 0.990385 0.017812
vt 0.879880 0.017812
vt 0.816150 0.017812
vt 0.749999 0.017812
vt 0.683848 0.017812
vt 0.620120 0.017812
vt 0.561235 0.017812
vt 0.509615 0.017812
vt 0.490385 0.017812
vt 0.250000 0.017812
vt 0.183849 0.017812
vt 0.120120 0.017812
vt 0.183849 0.040513
vt 0.250000 0.040513
vt 0.250000 0.085537
vt 0.316151 0.085537
vt 0.316151 0.160328
vt 0.250000 0.160328
vt 0.183849 0.160328
vt 0.183849 0.085537
vt 0.120120 0.250000
vt 0.183849 0.250000
vt 0.120120 0.160328
vt 0.183849 0.339672
vt 0.250000 0.250000
vt 0.250000 0.339672
vt 0.316151 0.250000
vt 0.316151 0.339672
vt 0.250000 0.414461
vt 0.316151 0.414461
vt 0.316151 0.459487
vt 0.250000 0.459487
vt 0.183849 0.459487
vt 0.183849 0.414461
vt 0.120120 0.482188
vt 0.183849 0.482188
vt 0.120120 0.459487
vt 0.250000 0.482188
vt 0.316151 0.482188
vt 0.379880 0.482188
vt 0.379880 0.459487
vt 0.438766 0.459487
vt 0.438766 0.482188
vt 0.490385 0.459487
vt 0.490385 0.482188
vt 0.561235 0.482188
vt 0.509615 0.459487
vt 0.509615 0.482188
vt 0.620120 0.482188
vt 0.561235 0.459487
vt 0.620120 0.459487
vt 0.561235 0.414461
vt 0.509615 0.414461
vt 0.438766 0.339672
vt 0.438766 0.414461
vt 0.490385 0.414461
vt 0.490385 0.339672
vt 0.561235 0.339672
vt 0.509615 0.339672
vt 0.620120 0.339672
vt 0.683848 0.339672
vt 0.620120 0.414461
vt 0.683848 0.414461
vt 0.749999 0.414461
vt 0.683848 0.459487
vt 0.683848 0.482188
vt 0.749999 0.459487
vt 0.749999 0.482188
vt 0.816150 0.482188
vt 0.816150 0.459487
vt 0.879880 0.482188
vt 0.879880 0.459487
vt 0.816150 0.414461
vt 0.879880 0.339672
vt 0.816150 0.339672
vt 0.879880 0.414461
vt 0.749999 0.339672
vt 0.683848 0.250000
vt 0.749999 0.250000
vt 0.938765 0.414461
vt 0.938765 0.339672
vt 0.990385 0.414461
vt 0.938765 0.459487
vt 0.938765 0.482188
vt 0.990385 0.459487
vt 0.990385 0.482188
vt 0.061234 0.982188
vt 0.009615 0.959487
vt 0.009615 0.982188
vt 0.061234 0.959487
vt 0.009615 0.914461
vt 0.120120 0.982188
vt 0.120120 0.959487
vt 0.061234 0.914461
vt 0.120120 0.839672
vt 0.061234 0.839672
vt 0.120120 0.914461
vt 0.009615 0.839672
vt 0.938765 0.250000
vt 0.990385 0.339672
vt 0.990385 0.250000
vt 0.009615 0.750000
vt 0.183849 0.914461
vt 0.183849 0.839672
vt 0.250000 0.914461
vt 0.183849 0.959487
vt 0.183849 0.982188
vt 0.250000 0.959487
vt 0.250000 0.982188
vt 0.316151 0.982188
vt 0.316151 0.959487
vt 0.379880 0.982188
vt 0.379880 0.959487
vt 0.316151 0.914461
vt 0.379880 0.839672
vt 0.316151 0.839672
vt 0.379880 0.914461
vt 0.250000 0.839672
vt 0.183849 0.750000
vt 0.250000 0.750000
vt 0.438766 0.914461
vt 0.438766 0.839672
vt 0.490385 0.914461
vt 0.438766 0.959487
vt 0.438766 0.982188
vt 0.490385 0.959487
vt 0.490385 0.982188
vt 0.561235 0.982188
vt 0.509615 0.959487
vt 0.509615 0.982188
vt 0.561235 0.959487
vt 0.509615 0.914461
vt 0.620120 0.982188
vt 0.620120 0.959487
vt 0.561235 0.914461
vt 0.620120 0.839672
vt 0.561235 0.839672
vt 0.620120 0.914461
vt 0.509615 0.839672
vt 0.438766 0.750000
vt 0.490385 0.839672
vt 0.490385 0.750000
vt 0.509615 0.750000
vt 0.683850 0.914461
vt 0.683850 0.839672
vt 0.750001 0.914461
vt 0.683850 0.959487
vt 0.683850 0.982188
vt 0.750001 0.959487
vt 0.750001 0.982188
vt 0.816152 0.982188
vt 0.816152 0.959487
vt 0.879880 0.982188
vt 0.879880 0.959487
vt 0.816152 0.914461
vt 0.879880 0.839672
vt 0.816152 0.839672
vt 0.879880 0.914461
vt 0.750001 0.839672
vt 0.683850 0.750000
vt 0.750001 0.750000
vt 0.379880 0.339672
vt 0.379880 0.414461
vt 0.379880 0.250000
vt 0.379880 0.160328
vt 0.438766 0.250000
vt 0.490385 0.250000
vt 0.509615 0.250000
vt 0.379880 0.085537
vt 0.120120 0.414461
vt 0.120120 0.339672
vt 0.120120 0.085537
vt 0.120120 0.040513
vn 0.3826 0.0000 -0.9239
vn 0.1992 0.0000 -0.9800
vn 0.5521 0.0000 -0.8337
vn 0.1991 0.0000 -0.9800
vn 0.3827 0.0000 -0.9239
vn 0.5521 0.0000 -0.8338
vn 0.5522 0.0000 -0.8337
vn 0.7072 0.0000 -0.7070
vn 0.8337 0.0000 -0.5521
vn 0.9239 0.0000 -0.3827
vn 0.9800 0.0000 -0.1991
vn 1.0000 0.0000 -0.0000
vn 0.9800 0.0000 0.1991
vn 0.9239 0.0000 0.3827
vn 0.8337 0.0000 0.5521
vn 0.7071 0.0000 0.7071
vn 0.5522 0.0000 0.8337
vn 0.3827 0.0000 0.9239
vn 0.1991 0.0000 0.9800
vn -0.0000 0.0000 1.0000
vn -0.1991 0.0000 0.9800
vn -0.3827 0.0000 0.9239
vn -0.5522 0.0000 0.8337
vn -0.7071 0.0000 0.7071
vn -0.8337 0.0000 0.5521
vn -0.9239 0.0000 0.3827
vn -0.9800 0.0000 0.1991
vn -1.0000 0.0000 -0.0000
vn -0.9800 0.0000 -0.1991
vn -0.9239 0.0000 -0.3827
vn -0.8337 0.0000 -0.5521
vn -0.8371 0.0000 -0.5471
vn -0.8370 0.0000 -0.5472
vn -0.8338 0.0000 -0.5521
vn -0.7722 -0.1026 -0.6271
vn -0.8339 0.0000 -0.5520
vn -0.9239 0.0000 -0.3828
vn -0.9238 0.0000 -0.3828
vn -0.9238 0.0000 0.3828
vn -0.8337 0.0000 0.5522
vn -0.7072 0.0000 0.7070
vn -0.5521 0.0000 0.8338
vn -0.7072 0.0000 0.7071
vn -0.3826 0.0000 0.9239
vn -0.3825 0.0000 0.9239
vn 0.3826 0.0000 0.9239
vn 0.3825 0.0000 0.9239
vn 0.5521 0.0000 0.8338
vn 0.7072 0.0000 0.7070
vn 0.8337 0.0000 0.5522
vn 0.7072 0.0000 0.7071
vn 0.9238 0.0000 0.3828
vn 0.9239 0.0000 -0.3828
vn 0.9238 0.0000 -0.3828
vn 0.8339 0.0000 -0.5520
vn 0.8338 0.0000 -0.5521
vn 0.7071 0.0000 -0.7071
vn 0.7072 0.0000 -0.7071
vn 0.1993 0.0000 -0.9799
vn 0.0000 0.0000 -1.0000
vn -0.1992 0.0000 -0.9800
vn -0.1993 0.0000 -0.9799
vn -0.3826 0.0000 -0.9239
vn -0.3827 0.0000 -0.9239
vn -0.5521 0.0000 -0.8337
vn -0.6271 -0.1031 -0.7721
vn -0.5473 -0.0000 -0.8370
vn -0.5474 -0.0000 -0.8369
vn -0.5522 0.0000 -0.8337
vn -0.5473 -0.0000 -0.8369
vn -0.5521 0.0000 -0.8338
vn -0.6271 0.1032 -0.7721
vn -0.5520 0.0000 -0.8339
vn -0.3828 0.0000 -0.9238
vn -0.1991 0.0000 -0.9800
vn 0.3828 0.0000 -0.9238
vn 0.5520 0.0000 -0.8339
vn 0.9800 0.0000 -0.1990
vn 0.9800 0.0000 0.1990
vn 0.9237 0.0000 0.3832
vn 0.8339 0.0000 0.5520
vn 0.8338 0.0000 0.5521
vn 0.3821 0.0003 0.9241
vn -0.3822 0.0003 0.9241
vn -0.8338 0.0000 0.5521
vn -0.8339 0.0000 0.5520
vn -0.9237 0.0000 0.3832
vn -0.9800 0.0000 0.1990
vn -0.9800 0.0000 -0.1990
vn -0.7721 0.1029 -0.6271
vn -0.1989 -0.0002 -0.9800
vn 0.1989 -0.0002 -0.9800
s 1
f 1/1/1 4/2/2 2/3/2
f 1/1/1 2/3/2 3/4/1
f 1/1/1 3/4/1 9/5/3
f 1/1/1 5/6/4 4/2/2
f 1/1/1 6/7/5 5/6/4
f 1/1/1 7/8/6 6/7/5
f 1/1/1 8/9/7 7/8/6
f 1/1/1 9/5/3 8/9/7
f 8/9/7 9/5/3 11/10/8
f 3/4/1 10/11/3 9/5/3
f 9/5/3 10/11/3 12/12/8
f 9/5/3 12/12/8 11/10/8
f 15/13/9 11/14/8 12/15/8
f 13/16/3 12/12/8 10/11/3
f 13/16/3 14/17/8 12/12/8
f 17/18/9 12/15/8 14/19/8
f 15/13/9 12/15/8 16/20/9
f 17/18/9 16/20/9 12/15/8
f 18/21/10 20/22/10 17/18/9
f 18/21/10 17/18/9 19/23/9
f 19/23/9 17/18/9 14/19/8
f 20/22/10 16/20/9 17/18/9
f 18/21/10 22/24/11 20/22/10
f 20/22/10 21/25/10 16/20/9
f 20/22/10 23/26/11 21/25/10
f 20/22/10 22/24/11 23/26/11
f 24/27/10 21/25/10 23/26/11
f 24/27/10 23/26/11 25/28/11
f 25/28/11 23/26/11 26/29/12
f 22/24/11 26/29/12 23/26/11
f 25/28/11 26/29/12 27/30/12
f 29/31/13 27/30/12 26/29/12
f 22/24/11 28/32/12 26/29/12
f 31/33/13 26/29/12 28/32/12
f 29/31/13 26/29/12 30/34/13
f 31/33/13 30/34/13 26/29/12
f 32/35/14 34/36/14 31/33/13
f 32/35/14 31/33/13 33/37/13
f 33/37/13 31/33/13 28/32/12
f 34/36/14 30/34/13 31/33/13
f 32/35/14 36/38/15 34/36/14
f 34/36/14 35/39/14 30/34/13
f 34/36/14 37/40/15 35/39/14
f 34/36/14 36/38/15 37/40/15
f 38/41/14 35/39/14 37/40/15
f 38/41/14 37/40/15 39/42/15
f 39/42/15 37/40/15 40/43/16
f 36/38/15 40/43/16 37/40/15
f 39/42/15 40/43/16 41/44/16
f 43/45/17 41/46/16 40/47/16
f 36/38/15 42/48/16 40/43/16
f 45/49/17 40/47/16 42/50/16
f 43/45/17 40/47/16 44/51/17
f 45/49/17 44/51/17 40/47/16
f 46/52/18 48/53/18 45/49/17
f 46/52/18 45/49/17 47/54/17
f 47/54/17 45/49/17 42/50/16
f 48/53/18 44/51/17 45/49/17
f 46/52/18 50/55/19 48/53/18
f 48/53/18 49/56/18 44/51/17
f 48/53/18 51/57/19 49/56/18
f 48/53/18 50/55/19 51/57/19
f 52/58/18 49/56/18 51/57/19
f 52/58/18 51/57/19 53/59/19
f 53/59/19 51/57/19 54/60/20
f 50/55/19 54/60/20 51/57/19
f 53/59/19 54/60/20 55/61/20
f 57/62/21 55/61/20 54/60/20
f 50/55/19 56/63/20 54/60/20
f 59/64/21 54/60/20 56/63/20
f 57/62/21 54/60/20 58/65/21
f 59/64/21 58/65/21 54/60/20
f 60/66/22 62/67/22 59/64/21
f 60/66/22 59/64/21 61/68/21
f 61/68/21 59/64/21 56/63/20
f 62/67/22 58/65/21 59/64/21
f 60/66/22 63/69/23 62/67/22
f 62/67/22 63/69/23 64/70/23
f 62/67/22 64/70/23 65/71/22
f 62/67/22 65/71/22 58/65/21
f 66/72/22 58/65/21 65/71/22
f 66/72/22 65/71/22 64/70/23
f 67/73/22 57/62/21 66/72/22
f 67/73/22 66/72/22 68/74/23
f 66/72/22 64/70/23 68/74/23
f 66/72/22 57/62/21 58/65/21
f 67/73/22 68/74/23 69/75/23
f 69/75/23 68/74/23 70/76/24
f 68/74/23 64/70/23 71/77/24
f 68/74/23 71/77/24 70/76/24
f 73/78/25 70/79/24 71/80/24
f 63/69/23 71/77/24 64/70/23
f 63/69/23 72/81/24 71/77/24
f 75/82/25 71/80/24 72/83/24
f 73/78/25 71/80/24 74/84/25
f 75/82/25 74/84/25 71/80/24
f 76/85/26 78/86/26 75/82/25
f 76/85/26 75/82/25 77/87/25
f 77/87/25 75/82/25 72/83/24
f 78/86/26 74/84/25 75/82/25
f 76/85/26 80/88/27 78/86/26
f 78/86/26 79/89/26 74/84/25
f 78/86/26 81/90/27 79/89/26
f 78/86/26 80/88/27 81/90/27
f 82/91/26 79/89/26 81/90/27
f 82/91/26 81/90/27 83/92/27
f 83/92/27 81/90/27 84/93/28
f 80/88/27 84/93/28 81/90/27
f 83/92/27 84/93/28 85/94/28
f 87/95/29 85/94/28 84/93/28
f 80/88/27 86/96/28 84/93/28
f 89/97/29 84/93/28 86/96/28
f 87/95/29 84/93/28 88/98/29
f 89/97/29 88/98/29 84/93/28
f 90/99/30 92/100/30 89/97/29
f 90/99/30 89/97/29 91/101/29
f 91/101/29 89/97/29 86/96/28
f 92/100/30 88/98/29 89/97/29
f 90/99/30 94/102/31 92/100/30
f 92/100/30 93/103/30 88/98/29
f 92/100/30 95/104/31 93/103/30
f 92/100/30 94/102/31 95/104/31
f 96/105/30 93/103/30 95/104/31
f 96/105/30 95/104/31 97/106/31
f 97/106/31 95/104/31 98/107/32
f 94/102/31 98/107/32 95/104/31
f 97/106/31 98/107/32 99/108/32
f 94/102/31 100/109/32 98/107/32
f 101/110/31 102/111/32 100/109/32
f 101/110/31 100/109/32 94/102/31
f 101/110/31 103/112/32 102/111/32
f 101/110/31 104/113/31 103/112/32
f 104/113/31 105/114/32 103/112/32
f 104/113/31 106/115/31 105/114/32
f 107/116/31 105/114/32 106/115/31
f 107/116/31 108/117/32 105/114/32
f 109/118/31 110/119/32 108/117/32
f 109/118/31 108/117/32 107/116/31
f 109/118/31 111/120/33 110/119/32
f 109/118/31 112/121/34 111/120/33
f 112/121/34 113/122/35 111/120/33
f 112/121/34 114/123/36 113/122/35
f 115/124/37 116/125/38 114/123/36
f 115/124/37 114/123/36 112/121/34
f 115/124/37 117/126/29 116/125/38
f 115/124/37 118/127/29 117/126/29
f 118/127/29 119/128/28 117/126/29
f 120/129/27 122/130/27 119/128/28
f 120/129/27 119/128/28 121/131/28
f 118/127/29 121/131/28 119/128/28
f 123/132/39 124/133/39 122/130/27
f 123/132/39 122/130/27 120/129/27
f 123/132/39 125/134/40 124/133/39
f 123/132/39 126/135/40 125/134/40
f 126/135/40 127/136/41 125/134/40
f 128/137/42 130/138/42 127/139/41
f 128/137/42 127/139/41 129/140/43
f 126/135/40 129/141/43 127/136/41
f 131/142/44 132/143/45 130/138/42
f 131/142/44 130/138/42 128/137/42
f 131/142/44 133/144/21 132/143/45
f 131/142/44 134/145/21 133/144/21
f 134/145/21 135/146/20 133/144/21
f 136/147/19 138/148/19 135/146/20
f 136/147/19 135/146/20 137/149/20
f 134/145/21 137/149/20 135/146/20
f 139/150/46 140/151/47 138/148/19
f 139/150/46 138/148/19 136/147/19
f 139/150/46 141/152/48 140/151/47
f 139/150/46 142/153/48 141/152/48
f 142/153/48 143/154/49 141/152/48
f 144/155/50 146/156/50 143/157/49
f 144/155/50 143/157/49 145/158/51
f 142/153/48 145/159/51 143/154/49
f 147/160/52 148/161/52 146/156/50
f 147/160/52 146/156/50 144/155/50
f 147/160/52 149/162/13 148/161/52
f 147/160/52 150/163/13 149/162/13
f 150/163/13 151/164/12 149/162/13
f 152/165/11 154/166/11 151/164/12
f 152/165/11 151/164/12 153/167/12
f 150/163/13 153/167/12 151/164/12
f 155/168/53 156/169/54 154/166/11
f 155/168/53 154/166/11 152/165/11
f 155/168/53 157/170/55 156/169/54
f 155/168/53 158/171/56 157/170/55
f 158/171/56 159/172/57 157/170/55
f 160/173/3 162/174/3 159/175/57
f 160/173/3 159/175/57 161/176/58
f 158/171/56 161/177/58 159/172/57
f 163/178/1 164/179/5 162/174/3
f 163/178/1 162/174/3 160/173/3
f 163/178/1 165/180/59 164/179/5
f 163/178/1 166/181/2 165/180/59
f 166/181/2 167/182/60 165/180/59
f 166/181/2 168/183/60 167/182/60
f 169/184/61 167/182/60 168/183/60
f 169/184/61 170/185/62 167/182/60
f 171/186/63 172/187/64 170/185/62
f 171/186/63 170/185/62 169/184/61
f 171/186/63 173/188/65 172/187/64
f 171/186/63 174/189/65 173/188/65
f 174/189/65 175/190/66 173/188/65
f 174/189/65 176/191/67 175/190/66
f 177/192/65 178/193/68 176/191/67
f 177/192/65 176/191/67 174/189/65
f 177/192/65 179/194/68 178/193/68
f 177/192/65 180/195/65 179/194/68
f 180/195/65 181/196/68 179/194/68
f 182/197/65 184/198/68 181/196/68
f 182/197/65 181/196/68 183/199/65
f 180/195/65 183/199/65 181/196/68
f 185/200/65 186/201/68 184/198/68
f 185/200/65 184/198/68 182/197/65
f 185/200/65 187/202/68 186/201/68
f 185/200/65 188/203/65 187/202/68
f 188/203/65 189/204/68 187/202/68
f 190/205/65 192/206/68 189/204/68
f 190/205/65 189/204/68 191/207/65
f 188/203/65 191/207/65 189/204/68
f 193/208/69 194/209/68 192/206/68
f 193/208/69 192/206/68 190/205/65
f 193/208/69 195/210/70 194/209/68
f 193/208/69 196/211/71 195/210/70
f 196/211/71 197/212/72 195/210/70
f 196/211/71 198/213/73 197/212/72
f 199/214/64 200/215/74 198/213/73
f 199/214/64 198/213/73 196/211/71
f 199/214/64 201/216/75 200/215/74
f 199/214/64 202/217/75 201/216/75
f 202/217/75 203/218/60 201/216/75
f 5/6/4 205/219/4 203/218/60
f 5/6/4 203/218/60 204/220/60
f 202/217/75 204/220/60 203/218/60
f 6/7/5 206/221/76 205/219/4
f 6/7/5 205/219/4 5/6/4
f 6/7/5 207/222/77 206/221/76
f 6/7/5 7/8/6 207/222/77
f 7/8/6 208/223/57 207/222/77
f 7/8/6 209/224/57 208/223/57
f 210/225/56 208/226/57 209/227/57
f 210/225/56 211/228/55 208/226/57
f 212/229/10 213/230/10 211/228/55
f 212/229/10 211/228/55 210/225/56
f 212/229/10 214/231/78 213/230/10
f 212/229/10 215/232/78 214/231/78
f 215/232/78 216/233/12 214/231/78
f 215/232/78 217/234/12 216/233/12
f 218/235/79 216/233/12 217/234/12
f 218/235/79 219/236/79 216/233/12
f 220/237/14 221/238/80 219/236/79
f 220/237/14 219/236/79 218/235/79
f 220/237/14 222/239/81 221/238/80
f 220/237/14 223/240/82 222/239/81
f 223/240/82 224/241/49 222/239/81
f 223/240/82 225/242/51 224/241/49
f 226/243/48 224/244/49 225/245/51
f 226/243/48 227/246/48 224/244/49
f 228/247/46 229/248/83 227/246/48
f 228/247/46 227/246/48 226/243/48
f 228/247/46 230/249/19 229/248/83
f 228/247/46 231/250/19 230/249/19
f 231/250/19 232/251/20 230/249/19
f 231/250/19 233/252/20 232/251/20
f 234/253/21 232/251/20 233/252/20
f 234/253/21 235/254/21 232/251/20
f 236/255/44 237/256/84 235/254/21
f 236/255/44 235/254/21 234/253/21
f 236/255/44 238/257/42 237/256/84
f 236/255/44 239/258/42 238/257/42
f 239/258/42 240/259/41 238/257/42
f 239/258/42 241/260/43 240/259/41
f 242/261/85 240/262/41 241/263/43
f 242/261/85 243/264/86 240/262/41
f 244/265/26 245/266/87 243/264/86
f 244/265/26 243/264/86 242/261/85
f 244/265/26 246/267/88 245/266/87
f 244/265/26 247/268/88 246/267/88
f 247/268/88 248/269/28 246/267/88
f 247/268/88 249/270/28 248/269/28
f 250/271/89 248/269/28 249/270/28
f 250/271/89 251/272/89 248/269/28
f 252/273/30 253/274/30 251/272/89
f 252/273/30 251/272/89 250/271/89
f 252/273/30 254/275/36 253/274/30
f 252/273/30 255/276/34 254/275/36
f 255/276/34 256/277/90 254/275/36
f 255/276/34 257/278/32 256/277/90
f 258/279/31 259/280/32 257/278/32
f 258/279/31 257/278/32 255/276/34
f 258/279/31 99/108/32 259/280/32
f 260/281/30 97/106/31 258/279/31
f 260/281/30 258/279/31 255/276/34
f 258/279/31 97/106/31 99/108/32
f 260/281/30 261/282/29 87/95/29
f 260/281/30 87/95/29 96/105/30
f 260/281/30 96/105/30 97/106/31
f 260/281/30 250/271/89 261/282/29
f 260/281/30 252/273/30 250/271/89
f 260/281/30 255/276/34 252/273/30
f 261/282/29 85/94/28 87/95/29
f 261/282/29 262/283/28 85/94/28
f 261/282/29 249/270/28 262/283/28
f 261/282/29 250/271/89 249/270/28
f 263/284/27 85/94/28 262/283/28
f 263/284/27 262/283/28 249/270/28
f 264/285/26 83/92/27 263/284/27
f 264/285/26 263/284/27 247/268/88
f 263/284/27 249/270/28 247/268/88
f 263/284/27 83/92/27 85/94/28
f 264/285/26 265/286/25 73/78/25
f 264/285/26 73/78/25 82/91/26
f 264/285/26 82/91/26 83/92/27
f 264/285/26 242/261/85 265/286/25
f 264/285/26 244/265/26 242/261/85
f 264/285/26 247/268/88 244/265/26
f 265/286/25 70/79/24 73/78/25
f 265/286/25 266/287/24 70/79/24
f 265/286/25 241/263/43 266/287/24
f 265/286/25 242/261/85 241/263/43
f 69/75/23 70/76/24 266/288/24
f 69/75/23 266/288/24 241/260/43
f 69/75/23 241/260/43 239/258/42
f 67/73/22 69/75/23 239/258/42
f 67/73/22 239/258/42 236/255/44
f 67/73/22 236/255/44 234/253/21
f 67/73/22 234/253/21 267/289/21
f 267/289/21 234/253/21 233/252/20
f 67/73/22 267/289/21 57/62/21
f 267/289/21 55/61/20 57/62/21
f 267/289/21 268/290/20 55/61/20
f 267/289/21 233/252/20 268/290/20
f 269/291/19 55/61/20 268/290/20
f 269/291/19 268/290/20 233/252/20
f 270/292/18 53/59/19 269/291/19
f 270/292/18 269/291/19 231/250/19
f 269/291/19 233/252/20 231/250/19
f 269/291/19 53/59/19 55/61/20
f 270/292/18 271/293/17 43/45/17
f 270/292/18 43/45/17 52/58/18
f 270/292/18 52/58/18 53/59/19
f 270/292/18 226/243/48 271/293/17
f 270/292/18 228/247/46 226/243/48
f 270/292/18 231/250/19 228/247/46
f 271/293/17 41/46/16 43/45/17
f 271/293/17 272/294/16 41/46/16
f 271/293/17 225/245/51 272/294/16
f 271/293/17 226/243/48 225/245/51
f 273/295/15 41/44/16 272/296/16
f 273/295/15 272/296/16 225/242/51
f 274/297/14 39/42/15 273/295/15
f 274/297/14 273/295/15 223/240/82
f 273/295/15 225/242/51 223/240/82
f 273/295/15 39/42/15 41/44/16
f 274/297/14 275/298/13 29/31/13
f 274/297/14 29/31/13 38/41/14
f 274/297/14 38/41/14 39/42/15
f 274/297/14 218/235/79 275/298/13
f 274/297/14 220/237/14 218/235/79
f 274/297/14 223/240/82 220/237/14
f 275/298/13 27/30/12 29/31/13
f 275/298/13 276/299/12 27/30/12
f 275/298/13 217/234/12 276/299/12
f 275/298/13 218/235/79 217/234/12
f 277/300/11 27/30/12 276/299/12
f 277/300/11 276/299/12 217/234/12
f 278/301/10 25/28/11 277/300/11
f 278/301/10 277/300/11 215/232/78
f 277/300/11 217/234/12 215/232/78
f 277/300/11 25/28/11 27/30/12
f 278/301/10 279/302/9 15/13/9
f 278/301/10 15/13/9 24/27/10
f 278/301/10 24/27/10 25/28/11
f 278/301/10 210/225/56 279/302/9
f 278/301/10 212/229/10 210/225/56
f 278/301/10 215/232/78 212/229/10
f 279/302/9 11/14/8 15/13/9
f 279/302/9 280/303/8 11/14/8
f 279/302/9 209/227/57 280/303/8
f 279/302/9 210/225/56 209/227/57
f 8/9/7 11/10/8 280/304/8
f 8/9/7 280/304/8 209/224/57
f 8/9/7 209/224/57 7/8/6
f 4/2/2 5/6/4 204/220/60
f 4/2/2 204/220/60 281/305/60
f 282/306/61 281/305/60 204/220/60
f 282/306/61 204/220/60 202/217/75
f 283/307/63 284/308/61 282/306/61
f 283/307/63 282/306/61 202/217/75
f 282/306/61 285/309/60 281/305/60
f 282/306/61 284/308/61 285/309/60
f 4/2/2 281/305/60 285/309/60
f 4/2/2 285/309/60 2/3/2
f 2/3/2 285/309/60 286/310/60
f 284/308/61 286/310/60 285/309/60
f 2/3/2 286/310/60 287/311/2
f 288/312/2 287/311/2 286/310/60
f 288/312/2 286/310/60 289/313/60
f 291/314/61 289/313/60 286/310/60
f 284/308/61 290/315/61 286/310/60
f 291/314/61 286/310/60 290/315/61
f 292/316/63 294/317/61 291/314/61
f 292/316/63 291/314/61 293/318/63
f 293/318/63 291/314/61 290/315/61
f 294/317/61 289/313/60 291/314/61
f 292/316/63 296/319/91 294/317/61
f 294/317/61 295/320/60 289/313/60
f 294/317/61 297/321/60 295/320/60
f 294/317/61 296/319/91 297/321/60
f 298/322/2 295/320/60 297/321/60
f 298/322/2 297/321/60 299/323/92
f 299/323/92 297/321/60 300/324/60
f 296/319/91 300/324/60 297/321/60
f 299/323/92 300/324/60 301/325/2
f 302/326/2 301/325/2 300/324/60
f 302/326/2 300/324/60 303/327/60
f 305/328/61 303/327/60 300/324/60
f 296/319/91 304/329/61 300/324/60
f 305/328/61 300/324/60 304/329/61
f 306/330/63 308/331/61 305/328/61
f 306/330/63 305/328/61 307/332/63
f 307/332/63 305/328/61 304/329/61
f 308/331/61 303/327/60 305/328/61
f 306/330/63 169/184/61 308/331/61
f 308/331/61 309/333/60 303/327/60
f 308/331/61 168/183/60 309/333/60
f 308/331/61 169/184/61 168/183/60
f 310/334/2 303/327/60 309/333/60
f 310/334/2 309/333/60 168/183/60
f 311/335/1 302/326/2 310/334/2
f 311/335/1 310/334/2 166/181/2
f 310/334/2 168/183/60 166/181/2
f 310/334/2 302/326/2 303/327/60
f 311/335/1 166/181/2 163/178/1
f 311/335/1 163/178/1 160/173/3
f 311/335/1 312/336/1 302/326/2
f 311/335/1 313/337/3 312/336/1
f 311/335/1 314/338/3 313/337/3
f 311/335/1 160/173/3 314/338/3
f 314/338/3 315/339/8 313/337/3
f 314/338/3 316/340/8 315/339/8
f 314/338/3 161/176/58 316/340/8
f 314/338/3 160/173/3 161/176/58
f 317/341/9 315/342/8 316/343/8
f 317/341/9 316/343/8 161/177/58
f 318/344/10 319/345/9 317/341/9
f 318/344/10 317/341/9 158/171/56
f 317/341/9 161/177/58 158/171/56
f 317/341/9 319/345/9 315/342/8
f 318/344/10 320/346/10 319/345/9
f 320/346/10 321/347/9 319/345/9
f 319/345/9 321/347/9 322/348/8
f 319/345/9 322/348/8 315/342/8
f 323/349/3 325/350/3 322/351/8
f 323/349/3 322/351/8 324/352/8
f 326/353/9 324/354/8 322/348/8
f 313/337/3 322/351/8 325/350/3
f 313/337/3 315/339/8 322/351/8
f 326/353/9 322/348/8 321/347/9
f 18/21/10 19/23/9 326/353/9
f 18/21/10 326/353/9 327/355/10
f 327/355/10 326/353/9 321/347/9
f 19/23/9 324/354/8 326/353/9
f 18/21/10 327/355/10 329/356/11
f 327/355/10 321/347/9 328/357/10
f 327/355/10 328/357/10 330/358/11
f 327/355/10 330/358/11 329/356/11
f 329/356/11 330/358/11 331/359/12
f 320/346/10 330/358/11 328/357/10
f 332/360/11 331/359/12 330/358/11
f 320/346/10 332/360/11 330/358/11
f 318/344/10 333/361/11 332/360/11
f 318/344/10 332/360/11 320/346/10
f 333/361/11 334/362/12 332/360/11
f 332/360/11 334/362/12 331/359/12
f 333/361/11 335/363/12 334/362/12
f 336/364/13 334/362/12 335/363/12
f 337/365/13 331/359/12 334/362/12
f 336/364/13 337/365/13 334/362/12
f 338/366/14 339/367/14 337/365/13
f 338/366/14 337/365/13 336/364/13
f 339/367/14 340/368/13 337/365/13
f 337/365/13 340/368/13 331/359/12
f 341/369/14 343/370/13 340/368/13
f 341/369/14 340/368/13 342/371/14
f 339/367/14 342/371/14 340/368/13
f 343/370/13 331/359/12 340/368/13
f 32/35/14 33/37/13 343/370/13
f 32/35/14 343/370/13 341/369/14
f 33/37/13 344/372/12 343/370/13
f 343/370/13 344/372/12 331/359/12
f 345/373/11 329/356/11 344/372/12
f 345/373/11 344/372/12 346/374/12
f 33/37/13 346/374/12 344/372/12
f 329/356/11 331/359/12 344/372/12
f 345/373/11 346/374/12 28/32/12
f 33/37/13 28/32/12 346/374/12
f 18/21/10 329/356/11 345/373/11
f 18/21/10 345/373/11 22/24/11
f 345/373/11 28/32/12 22/24/11
f 341/369/14 342/371/14 347/375/15
f 339/367/14 347/375/15 342/371/14
f 341/369/14 347/375/15 348/376/15
f 348/376/15 347/375/15 349/377/16
f 350/378/15 349/377/16 347/375/15
f 339/367/14 350/378/15 347/375/15
f 338/366/14 351/379/15 350/378/15
f 338/366/14 350/378/15 339/367/14
f 351/379/15 352/380/16 350/378/15
f 350/378/15 352/380/16 349/377/16
f 351/379/15 353/381/16 352/380/16
f 354/382/17 352/383/16 353/384/16
f 355/385/17 349/386/16 352/383/16
f 354/382/17 355/385/17 352/383/16
f 356/387/18 357/388/18 355/385/17
f 356/387/18 355/385/17 354/382/17
f 357/388/18 358/389/17 355/385/17
f 355/385/17 358/389/17 349/386/16
f 359/390/18 361/391/17 358/389/17
f 359/390/18 358/389/17 360/392/18
f 357/388/18 360/392/18 358/389/17
f 361/391/17 349/386/16 358/389/17
f 46/52/18 47/54/17 361/391/17
f 46/52/18 361/391/17 359/390/18
f 47/54/17 362/393/16 361/391/17
f 361/391/17 362/393/16 349/386/16
f 363/394/15 348/376/15 362/395/16
f 363/394/15 362/395/16 364/396/16
f 47/54/17 364/397/16 362/393/16
f 348/376/15 349/377/16 362/395/16
f 363/394/15 364/396/16 42/48/16
f 47/54/17 42/50/16 364/397/16
f 32/35/14 348/376/15 363/394/15
f 32/35/14 363/394/15 36/38/15
f 363/394/15 42/48/16 36/38/15
f 359/390/18 360/392/18 365/398/19
f 357/388/18 365/398/19 360/392/18
f 359/390/18 365/398/19 366/399/19
f 366/399/19 365/398/19 367/400/20
f 368/401/19 367/400/20 365/398/19
f 357/388/18 368/401/19 365/398/19
f 356/387/18 369/402/19 368/401/19
f 356/387/18 368/401/19 357/388/18
f 369/402/19 370/403/20 368/401/19
f 368/401/19 370/403/20 367/400/20
f 369/402/19 371/404/20 370/403/20
f 372/405/21 370/403/20 371/404/20
f 373/406/21 367/400/20 370/403/20
f 372/405/21 373/406/21 370/403/20
f 374/407/22 375/408/22 373/406/21
f 374/407/22 373/406/21 372/405/21
f 375/408/22 376/409/21 373/406/21
f 373/406/21 376/409/21 367/400/20
f 377/410/22 379/411/21 376/409/21
f 377/410/22 376/409/21 378/412/22
f 375/408/22 378/412/22 376/409/21
f 379/411/21 367/400/20 376/409/21
f 60/66/22 61/68/21 379/411/21
f 60/66/22 379/411/21 377/410/22
f 61/68/21 380/413/20 379/411/21
f 379/411/21 380/413/20 367/400/20
f 381/414/19 366/399/19 380/413/20
f 381/414/19 380/413/20 382/415/20
f 61/68/21 382/415/20 380/413/20
f 366/399/19 367/400/20 380/413/20
f 381/414/19 382/415/20 56/63/20
f 61/68/21 56/63/20 382/415/20
f 46/52/18 366/399/19 381/414/19
f 46/52/18 381/414/19 50/55/19
f 381/414/19 56/63/20 50/55/19
f 377/410/22 378/412/22 383/416/23
f 375/408/22 383/416/23 378/412/22
f 377/410/22 383/416/23 384/417/23
f 384/417/23 383/416/23 385/418/24
f 386/419/23 385/418/24 383/416/23
f 375/408/22 386/419/23 383/416/23
f 374/407/22 387/420/23 386/419/23
f 374/407/22 386/419/23 375/408/22
f 387/420/23 388/421/24 386/419/23
f 386/419/23 388/421/24 385/418/24
f 387/420/23 389/422/24 388/421/24
f 390/423/25 388/424/24 389/425/24
f 391/426/25 385/427/24 388/424/24
f 390/423/25 391/426/25 388/424/24
f 392/428/26 393/429/26 391/426/25
f 392/428/26 391/426/25 390/423/25
f 393/429/26 394/430/25 391/426/25
f 391/426/25 394/430/25 385/427/24
f 395/431/26 397/432/25 394/430/25
f 395/431/26 394/430/25 396/433/26
f 393/429/26 396/433/26 394/430/25
f 397/432/25 385/427/24 394/430/25
f 76/85/26 77/87/25 397/432/25
f 76/85/26 397/432/25 395/431/26
f 77/87/25 398/434/24 397/432/25
f 397/432/25 398/434/24 385/427/24
f 399/435/23 384/417/23 398/436/24
f 399/435/23 398/436/24 400/437/24
f 77/87/25 400/438/24 398/434/24
f 384/417/23 385/418/24 398/436/24
f 399/435/23 400/437/24 72/81/24
f 77/87/25 72/83/24 400/438/24
f 60/66/22 384/417/23 399/435/23
f 60/66/22 399/435/23 63/69/23
f 399/435/23 72/81/24 63/69/23
f 395/431/26 396/433/26 401/439/27
f 393/429/26 401/439/27 396/433/26
f 395/431/26 401/439/27 402/440/27
f 402/440/27 401/439/27 403/441/28
f 404/442/27 403/441/28 401/439/27
f 393/429/26 404/442/27 401/439/27
f 392/428/26 405/443/27 404/442/27
f 392/428/26 404/442/27 393/429/26
f 405/443/27 406/444/28 404/442/27
f 404/442/27 406/444/28 403/441/28
f 405/443/27 407/445/28 406/444/28
f 408/446/29 406/444/28 407/445/28
f 409/447/29 403/441/28 406/444/28
f 408/446/29 409/447/29 406/444/28
f 410/448/30 411/449/30 409/447/29
f 410/448/30 409/447/29 408/446/29
f 411/449/30 412/450/29 409/447/29
f 409/447/29 412/450/29 403/441/28
f 413/451/30 415/452/29 412/450/29
f 413/451/30 412/450/29 414/453/30
f 411/449/30 414/453/30 412/450/29
f 415/452/29 403/441/28 412/450/29
f 90/99/30 91/101/29 415/452/29
f 90/99/30 415/452/29 413/451/30
f 91/101/29 416/454/28 415/452/29
f 415/452/29 416/454/28 403/441/28
f 417/455/27 402/440/27 416/454/28
f 417/455/27 416/454/28 418/456/28
f 91/101/29 418/456/28 416/454/28
f 402/440/27 403/441/28 416/454/28
f 417/455/27 418/456/28 86/96/28
f 91/101/29 86/96/28 418/456/28
f 76/85/26 402/440/27 417/455/27
f 76/85/26 417/455/27 80/88/27
f 417/455/27 86/96/28 80/88/27
f 413/451/30 414/453/30 106/115/31
f 411/449/30 106/115/31 414/453/30
f 90/99/30 413/451/30 104/113/31
f 413/451/30 106/115/31 104/113/31
f 410/448/30 107/116/31 411/449/30
f 411/449/30 107/116/31 106/115/31
f 410/448/30 408/446/29 118/127/29
f 410/448/30 118/127/29 115/124/37
f 410/448/30 115/124/37 112/121/34
f 410/448/30 109/118/31 107/116/31
f 410/448/30 112/121/34 109/118/31
f 408/446/29 121/131/28 118/127/29
f 408/446/29 407/445/28 121/131/28
f 405/443/27 121/131/28 407/445/28
f 392/428/26 120/129/27 405/443/27
f 405/443/27 120/129/27 121/131/28
f 76/85/26 395/431/26 402/440/27
f 392/428/26 390/423/25 126/135/40
f 392/428/26 126/135/40 123/132/39
f 392/428/26 123/132/39 120/129/27
f 390/423/25 129/141/43 126/135/40
f 390/423/25 389/425/24 129/141/43
f 387/420/23 129/140/43 389/422/24
f 374/407/22 128/137/42 387/420/23
f 387/420/23 128/137/42 129/140/43
f 60/66/22 377/410/22 384/417/23
f 374/407/22 372/405/21 134/145/21
f 374/407/22 134/145/21 131/142/44
f 374/407/22 131/142/44 128/137/42
f 372/405/21 137/149/20 134/145/21
f 372/405/21 371/404/20 137/149/20
f 369/402/19 137/149/20 371/404/20
f 356/387/18 136/147/19 369/402/19
f 369/402/19 136/147/19 137/149/20
f 46/52/18 359/390/18 366/399/19
f 356/387/18 354/382/17 142/153/48
f 356/387/18 142/153/48 139/150/46
f 356/387/18 139/150/46 136/147/19
f 354/382/17 145/159/51 142/153/48
f 354/382/17 353/384/16 145/159/51
f 351/379/15 145/158/51 353/381/16
f 338/366/14 144/155/50 351/379/15
f 351/379/15 144/155/50 145/158/51
f 32/35/14 341/369/14 348/376/15
f 338/366/14 336/364/13 150/163/13
f 338/366/14 150/163/13 147/160/52
f 338/366/14 147/160/52 144/155/50
f 336/364/13 153/167/12 150/163/13
f 336/364/13 335/363/12 153/167/12
f 333/361/11 153/167/12 335/363/12
f 318/344/10 152/165/11 333/361/11
f 333/361/11 152/165/11 153/167/12
f 320/346/10 328/357/10 321/347/9
f 419/457/1 420/458/1 325/350/3
f 419/457/1 325/350/3 323/349/3
f 312/336/1 325/350/3 420/458/1
f 312/336/1 313/337/3 325/350/3
f 419/457/1 301/325/2 420/458/1
f 312/336/1 420/458/1 301/325/2
f 421/459/1 419/457/1 323/349/3
f 421/459/1 299/323/92 419/457/1
f 419/457/1 299/323/92 301/325/2
f 421/459/1 298/322/2 299/323/92
f 421/459/1 288/312/2 298/322/2
f 421/459/1 422/460/1 288/312/2
f 421/459/1 13/16/3 422/460/1
f 421/459/1 423/461/3 13/16/3
f 421/459/1 323/349/3 423/461/3
f 423/461/3 14/17/8 13/16/3
f 423/461/3 424/462/8 14/17/8
f 423/461/3 324/352/8 424/462/8
f 423/461/3 323/349/3 324/352/8
f 19/23/9 14/19/8 424/463/8
f 19/23/9 424/463/8 324/354/8
f 422/460/1 287/311/2 288/312/2
f 422/460/1 425/464/1 287/311/2
f 422/460/1 10/11/3 425/464/1
f 422/460/1 13/16/3 10/11/3
f 3/4/1 425/464/1 10/11/3
f 3/4/1 287/311/2 425/464/1
f 318/344/10 158/171/56 155/168/53
f 318/344/10 155/168/53 152/165/11
f 312/336/1 301/325/2 302/326/2
f 306/330/63 307/332/63 180/195/65
f 307/332/63 183/199/65 180/195/65
f 307/332/63 426/465/63 183/199/65
f 307/332/63 304/329/61 426/465/63
f 427/466/63 426/465/63 304/329/61
f 427/466/63 183/199/65 426/465/63
f 292/316/63 427/466/63 296/319/91
f 292/316/63 182/197/65 427/466/63
f 427/466/63 182/197/65 183/199/65
f 427/466/63 304/329/61 296/319/91
f 306/330/63 177/192/65 174/189/65
f 306/330/63 174/189/65 171/186/63
f 306/330/63 171/186/63 169/184/61
f 306/330/63 180/195/65 177/192/65
f 298/322/2 289/313/60 295/320/60
f 298/322/2 288/312/2 289/313/60
f 292/316/63 293/318/63 188/203/65
f 293/318/63 191/207/65 188/203/65
f 293/318/63 428/467/63 191/207/65
f 293/318/63 290/315/61 428/467/63
f 429/468/63 428/467/63 290/315/61
f 429/468/63 191/207/65 428/467/63
f 283/307/63 429/468/63 284/308/61
f 283/307/63 190/205/65 429/468/63
f 429/468/63 190/205/65 191/207/65
f 429/468/63 290/315/61 284/308/61
f 292/316/63 185/200/65 182/197/65
f 292/316/63 188/203/65 185/200/65
f 3/4/1 2/3/2 287/311/2
f 283/307/63 193/208/69 190/205/65
f 283/307/63 196/211/71 193/208/69
f 283/307/63 199/214/64 196/211/71
f 283/307/63 202/217/75 199/214/64
f 90/99/30 104/113/31 101/110/31
f 90/99/30 101/110/31 94/102/31
f 96/105/30 87/95/29 88/98/29
f 96/105/30 88/98/29 93/103/30
f 82/91/26 73/78/25 74/84/25
f 82/91/26 74/84/25 79/89/26
f 52/58/18 43/45/17 44/51/17
f 52/58/18 44/51/17 49/56/18
f 38/41/14 29/31/13 30/34/13
f 38/41/14 30/34/13 35/39/14
f 24/27/10 15/13/9 16/20/9
f 24/27/10 16/20/9 21/25/10
