# Blender v2.82 (sub 7) OBJ File: 'living_room.blend'
# www.blender.org
o FrameM_WhitePaint.575
v -2.428920 1.524460 1.963870
v -2.415410 2.151610 1.963870
v -2.416460 2.119860 1.933840
v -2.428590 1.556220 1.933840
v -2.416370 2.153150 1.964870
v -2.429940 1.522970 1.964870
v -2.439090 1.523160 1.964870
v -2.425520 2.153340 1.964870
v -2.429940 1.522970 1.518840
v -2.416360 2.153150 1.518840
v -2.425520 2.153340 1.518840
v -2.439090 1.523160 1.518840
v -2.416340 2.154150 1.519840
v -2.416340 2.154150 1.963870
v -2.425500 2.154340 1.963870
v -2.425500 2.154340 1.519840
v -2.429960 1.521970 1.963870
v -2.429960 1.521970 1.519840
v -2.439110 1.522160 1.519840
v -2.439110 1.522160 1.963870
v -2.417480 2.119280 1.550880
v -2.429590 1.556850 1.550880
v -2.437970 1.557030 1.550880
v -2.425860 2.119460 1.550880
v -2.439000 1.556450 1.549880
v -2.440040 1.524700 1.519840
v -2.426540 2.151850 1.519840
v -2.426860 2.120090 1.549880
v -2.429590 1.556850 1.932840
v -2.417480 2.119280 1.932830
v -2.425860 2.119460 1.932830
v -2.437970 1.557030 1.932840
v -2.429610 1.555850 1.551880
v -2.429610 1.555850 1.931840
v -2.437990 1.556030 1.931840
v -2.437990 1.556030 1.551880
v -2.417460 2.120280 1.931840
v -2.417460 2.120280 1.551880
v -2.425840 2.120460 1.551880
v -2.425840 2.120460 1.931840
v -2.415380 2.153130 1.962550
v -2.415380 2.153130 1.521160
v -2.416430 2.121260 1.551310
v -2.416430 2.121260 1.932400
v -2.428950 1.522950 1.521160
v -2.428950 1.522950 1.962550
v -2.428620 1.554830 1.932400
v -2.428620 1.554830 1.551310
v -2.439030 1.555050 1.932400
v -2.440080 1.523190 1.962550
v -2.440080 1.523190 1.521160
v -2.439030 1.555050 1.551310
v -2.426830 2.121480 1.551310
v -2.426510 2.153370 1.521160
v -2.426510 2.153370 1.962550
v -2.426830 2.121480 1.932400
v -2.426860 2.120090 1.933840
v -2.426540 2.151850 1.963870
v -2.440040 1.524700 1.963870
v -2.439000 1.556450 1.933840
v -2.416370 2.153150 1.964870
v -2.416340 2.154150 1.963870
v -2.415380 2.153130 1.962550
v -2.415410 2.151610 1.963870
v -2.428590 1.556220 1.549880
v -2.428620 1.554830 1.551310
v -2.429610 1.555850 1.551880
v -2.429590 1.556850 1.550880
v -2.425840 2.120460 1.931840
v -2.426830 2.121480 1.932400
v -2.426860 2.120090 1.933840
v -2.425860 2.119460 1.932830
v -2.429960 1.521970 1.519840
v -2.429960 1.521970 1.963870
v -2.428950 1.522950 1.962550
v -2.428950 1.522950 1.521160
v -2.416360 2.153150 1.518840
v -2.429940 1.522970 1.518840
v -2.428920 1.524460 1.519840
v -2.415410 2.151610 1.519840
v -2.415380 2.153130 1.521160
v -2.415380 2.153130 1.962550
v -2.416340 2.154150 1.963870
v -2.416340 2.154150 1.519840
v -2.429940 1.522970 1.964870
v -2.416370 2.153150 1.964870
v -2.415410 2.151610 1.963870
v -2.428920 1.524460 1.963870
v -2.415380 2.153130 1.962550
v -2.416430 2.121260 1.932400
v -2.416460 2.119860 1.933840
v -2.415410 2.151610 1.963870
v -2.417480 2.119280 1.932830
v -2.429590 1.556850 1.932840
v -2.428590 1.556220 1.933840
v -2.416460 2.119860 1.933840
v -2.428920 1.524460 1.963870
v -2.428590 1.556220 1.933840
v -2.428620 1.554830 1.932400
v -2.428950 1.522950 1.962550
v -2.415410 2.151610 1.519840
v -2.416460 2.119860 1.549880
v -2.416430 2.121260 1.551310
v -2.415380 2.153130 1.521160
v -2.416430 2.121260 1.932400
v -2.416430 2.121260 1.551310
v -2.417460 2.120280 1.551880
v -2.417460 2.120280 1.931840
v -2.428950 1.522950 1.521160
v -2.428620 1.554830 1.551310
v -2.428590 1.556220 1.549880
v -2.428920 1.524460 1.519840
v -2.429590 1.556850 1.550880
v -2.417480 2.119280 1.550880
v -2.416460 2.119860 1.549880
v -2.428590 1.556220 1.549880
v -2.429610 1.555850 1.931840
v -2.429610 1.555850 1.551880
v -2.428620 1.554830 1.551310
v -2.428620 1.554830 1.932400
v -2.437990 1.556030 1.551880
v -2.437990 1.556030 1.931840
v -2.439030 1.555050 1.932400
v -2.439030 1.555050 1.551310
v -2.429610 1.555850 1.551880
v -2.437990 1.556030 1.551880
v -2.437970 1.557030 1.550880
v -2.429590 1.556850 1.550880
v -2.425860 2.119460 1.550880
v -2.437970 1.557030 1.550880
v -2.439000 1.556450 1.549880
v -2.426860 2.120090 1.549880
v -2.417480 2.119280 1.550880
v -2.425860 2.119460 1.550880
v -2.425840 2.120460 1.551880
v -2.417460 2.120280 1.551880
v -2.426830 2.121480 1.551310
v -2.426830 2.121480 1.932400
v -2.425840 2.120460 1.931840
v -2.425840 2.120460 1.551880
v -2.417460 2.120280 1.931840
v -2.425840 2.120460 1.931840
v -2.425860 2.119460 1.932830
v -2.417480 2.119280 1.932830
v -2.437970 1.557030 1.932840
v -2.425860 2.119460 1.932830
v -2.426860 2.120090 1.933840
v -2.439000 1.556450 1.933840
v -2.426510 2.153370 1.962550
v -2.426510 2.153370 1.521160
v -2.425500 2.154340 1.519840
v -2.425500 2.154340 1.963870
v -2.439090 1.523160 1.518840
v -2.425520 2.153340 1.518840
v -2.426540 2.151850 1.519840
v -2.440040 1.524700 1.519840
v -2.439110 1.522160 1.963870
v -2.439110 1.522160 1.519840
v -2.440080 1.523190 1.521160
v -2.440080 1.523190 1.962550
v -2.426830 2.121480 1.932400
v -2.426510 2.153370 1.962550
v -2.426540 2.151850 1.963870
v -2.426860 2.120090 1.933840
v -2.439000 1.556450 1.933840
v -2.440040 1.524700 1.963870
v -2.440080 1.523190 1.962550
v -2.439030 1.555050 1.932400
v -2.426860 2.120090 1.549880
v -2.426540 2.151850 1.519840
v -2.426510 2.153370 1.521160
v -2.426830 2.121480 1.551310
v -2.439030 1.555050 1.551310
v -2.440080 1.523190 1.521160
v -2.440040 1.524700 1.519840
v -2.439000 1.556450 1.549880
v -2.415410 2.151610 1.519840
v -2.428920 1.524460 1.519840
v -2.428590 1.556220 1.549880
v -2.416460 2.119860 1.549880
v -2.416340 2.154150 1.519840
v -2.416360 2.153150 1.518840
v -2.415410 2.151610 1.519840
v -2.415380 2.153130 1.521160
v -2.416430 2.121260 1.551310
v -2.416460 2.119860 1.549880
v -2.417480 2.119280 1.550880
v -2.417460 2.120280 1.551880
v -2.425860 2.119460 1.550880
v -2.426860 2.120090 1.549880
v -2.426830 2.121480 1.551310
v -2.425840 2.120460 1.551880
v -2.425500 2.154340 1.519840
v -2.426510 2.153370 1.521160
v -2.426540 2.151850 1.519840
v -2.425520 2.153340 1.518840
v -2.416340 2.154150 1.519840
v -2.425500 2.154340 1.519840
v -2.425520 2.153340 1.518840
v -2.416360 2.153150 1.518840
v -2.416460 2.119860 1.933840
v -2.416430 2.121260 1.932400
v -2.417460 2.120280 1.931840
v -2.417480 2.119280 1.932830
v -2.428950 1.522950 1.962550
v -2.429960 1.521970 1.963870
v -2.429940 1.522970 1.964870
v -2.428920 1.524460 1.963870
v -2.428590 1.556220 1.933840
v -2.429590 1.556850 1.932840
v -2.429610 1.555850 1.931840
v -2.428620 1.554830 1.932400
v -2.437990 1.556030 1.931840
v -2.437970 1.557030 1.932840
v -2.439000 1.556450 1.933840
v -2.439030 1.555050 1.932400
v -2.439090 1.523160 1.964870
v -2.439110 1.522160 1.963870
v -2.440080 1.523190 1.962550
v -2.440040 1.524700 1.963870
v -2.429590 1.556850 1.932840
v -2.437970 1.557030 1.932840
v -2.437990 1.556030 1.931840
v -2.429610 1.555850 1.931840
v -2.429960 1.521970 1.963870
v -2.439110 1.522160 1.963870
v -2.439090 1.523160 1.964870
v -2.429940 1.522970 1.964870
v -2.425520 2.153340 1.964870
v -2.439090 1.523160 1.964870
v -2.440040 1.524700 1.963870
v -2.426540 2.151850 1.963870
v -2.429940 1.522970 1.518840
v -2.429960 1.521970 1.519840
v -2.428950 1.522950 1.521160
v -2.428920 1.524460 1.519840
v -2.437990 1.556030 1.551880
v -2.439030 1.555050 1.551310
v -2.439000 1.556450 1.549880
v -2.437970 1.557030 1.550880
v -2.439090 1.523160 1.518840
v -2.440040 1.524700 1.519840
v -2.440080 1.523190 1.521160
v -2.439110 1.522160 1.519840
v -2.429940 1.522970 1.518840
v -2.439090 1.523160 1.518840
v -2.439110 1.522160 1.519840
v -2.429960 1.521970 1.519840
v -2.425520 2.153340 1.964870
v -2.426540 2.151850 1.963870
v -2.426510 2.153370 1.962550
v -2.425500 2.154340 1.963870
v -2.416370 2.153150 1.964870
v -2.425520 2.153340 1.964870
v -2.425500 2.154340 1.963870
v -2.416340 2.154150 1.963870
vt 0.305785 0.003005
vt 0.305785 0.724267
vt 0.360882 0.687754
vt 0.360880 0.039537
vt 0.058081 0.754335
vt 0.032828 0.003242
vt 0.043000 0.003006
vt 0.047911 0.754570
vt 0.017607 0.003006
vt 0.002525 0.754335
vt 0.012696 0.754570
vt 0.027778 0.003241
vt 0.638889 0.002995
vt 0.664141 0.512156
vt 0.638889 0.512156
vt 0.664141 0.002995
vt 0.724747 0.512156
vt 0.724747 0.002995
vt 0.699495 0.002995
vt 0.699495 0.512156
vt 0.573232 0.663451
vt 0.547980 0.003214
vt 0.558307 0.003003
vt 0.562905 0.663664
vt 0.300275 0.039519
vt 0.245179 0.724267
vt 0.245179 0.003005
vt 0.300275 0.687735
vt 0.593208 0.003003
vt 0.578283 0.663451
vt 0.588610 0.663664
vt 0.603535 0.003214
vt 0.820707 0.002990
vt 0.845960 0.451555
vt 0.820707 0.451555
vt 0.845960 0.002990
vt 0.815657 0.451555
vt 0.815657 0.002990
vt 0.790404 0.002990
vt 0.790404 0.451555
vt 0.002995 0.845730
vt 0.512156 0.845730
vt 0.477382 0.790634
vt 0.037770 0.790634
vt 0.512156 0.851240
vt 0.002995 0.851240
vt 0.037770 0.906336
vt 0.477382 0.906336
vt 0.477382 0.966942
vt 0.002995 0.911846
vt 0.512156 0.911846
vt 0.037770 0.966942
vt 0.219588 0.730028
vt 0.693975 0.785124
vt 0.184813 0.785124
vt 0.659200 0.730028
vt 0.184573 0.687736
vt 0.239669 0.003005
vt 0.239669 0.724267
vt 0.184575 0.039519
vt 0.881313 0.260237
vt 0.892188 0.270202
vt 0.906566 0.260028
vt 0.892188 0.244949
vt 0.997475 0.292708
vt 0.979419 0.275253
vt 0.972222 0.288010
vt 0.984848 0.300505
vt 0.941919 0.287749
vt 0.949116 0.300505
vt 0.967172 0.283051
vt 0.954545 0.275253
vt 0.608586 0.002995
vt 0.608586 0.512156
vt 0.633838 0.510641
vt 0.633838 0.004511
vt 0.088384 0.754570
vt 0.088357 0.003006
vt 0.063131 0.004786
vt 0.063131 0.752740
vt 0.934883 0.669192
vt 0.428753 0.669192
vt 0.427237 0.694444
vt 0.936399 0.694444
vt 0.093434 0.003006
vt 0.093434 0.754570
vt 0.118687 0.752740
vt 0.118687 0.004786
vt 0.853554 0.239669
vt 0.906336 0.186887
vt 0.903832 0.184573
vt 0.851240 0.237163
vt 0.459039 0.662983
vt 0.482323 0.003734
vt 0.480403 0.003003
vt 0.457071 0.663664
vt 0.911846 0.005260
vt 0.964437 0.057851
vt 0.966942 0.055538
vt 0.914160 0.002755
vt 0.906336 0.176557
vt 0.853743 0.123967
vt 0.851240 0.126282
vt 0.904021 0.179063
vt 0.755050 0.451555
vt 0.755050 0.002990
vt 0.729798 0.003660
vt 0.729798 0.450884
vt 0.904021 0.063361
vt 0.851240 0.116144
vt 0.853743 0.118457
vt 0.906336 0.065866
vt 0.487374 0.003734
vt 0.510658 0.662984
vt 0.512626 0.663664
vt 0.489294 0.003003
vt 0.518812 0.845960
vt 0.966036 0.845960
vt 0.966707 0.820707
vt 0.518142 0.820707
vt 0.760101 0.003661
vt 0.785354 0.451555
vt 0.760101 0.450885
vt 0.785354 0.002990
vt 0.972286 0.179293
vt 0.997412 0.154040
vt 0.997475 0.179293
vt 0.972222 0.154040
vt 0.542929 0.662933
vt 0.517677 0.003003
vt 0.519647 0.003683
vt 0.541009 0.663664
vt 0.997412 0.214646
vt 0.972222 0.218519
vt 0.972285 0.239899
vt 0.997475 0.236047
vt 0.518142 0.815657
vt 0.966036 0.790433
vt 0.966707 0.815657
vt 0.518812 0.790404
vt 0.972222 0.205722
vt 0.997412 0.209596
vt 0.997475 0.188212
vt 0.972285 0.184343
vt 0.450050 0.003683
vt 0.428688 0.663664
vt 0.426768 0.662932
vt 0.452020 0.003003
vt 0.694444 0.510641
vt 0.669192 0.002995
vt 0.694444 0.004511
vt 0.669192 0.512156
vt 0.123764 0.003006
vt 0.148990 0.752792
vt 0.123737 0.754570
vt 0.148990 0.004836
vt 0.936399 0.699495
vt 0.428753 0.724747
vt 0.427237 0.699495
vt 0.934883 0.724747
vt 0.911846 0.065674
vt 0.966942 0.115952
vt 0.964627 0.118457
vt 0.914350 0.063361
vt 0.914351 0.239669
vt 0.964627 0.184573
vt 0.966942 0.187078
vt 0.911846 0.237355
vt 0.903832 0.002755
vt 0.853554 0.057851
vt 0.851240 0.055346
vt 0.906336 0.005069
vt 0.966942 0.176749
vt 0.911846 0.126472
vt 0.914160 0.123967
vt 0.964438 0.179063
vt 0.421488 0.724267
vt 0.421488 0.003005
vt 0.366391 0.039537
vt 0.366391 0.687753
vt 0.865387 0.270202
vt 0.876263 0.260237
vt 0.865387 0.244949
vt 0.851010 0.260028
vt 0.858198 0.361111
vt 0.876263 0.343264
vt 0.863630 0.335859
vt 0.851010 0.348625
vt 0.893946 0.305556
vt 0.899378 0.330808
vt 0.881313 0.313340
vt 0.906566 0.318037
vt 0.892189 0.300505
vt 0.892189 0.275253
vt 0.906566 0.290591
vt 0.881313 0.290366
vt 0.972222 0.084224
vt 0.997475 0.067286
vt 0.997417 0.088384
vt 0.972280 0.063131
vt 0.911616 0.312974
vt 0.929672 0.330808
vt 0.936869 0.318322
vt 0.924243 0.305556
vt 0.936869 0.285167
vt 0.922491 0.275253
vt 0.911616 0.285380
vt 0.922491 0.300505
vt 0.851010 0.323011
vt 0.863636 0.330808
vt 0.876263 0.318313
vt 0.869078 0.305556
vt 0.972222 0.318047
vt 0.997475 0.323399
vt 0.984849 0.330808
vt 0.979406 0.305556
vt 0.936869 0.254919
vt 0.911616 0.255128
vt 0.925994 0.244949
vt 0.925994 0.270202
vt 0.972222 0.145138
vt 0.997412 0.148990
vt 0.997475 0.127610
vt 0.972286 0.123737
vt 0.997417 0.093434
vt 0.972280 0.118687
vt 0.972222 0.093434
vt 0.997475 0.118687
vt 0.179293 0.754570
vt 0.154040 0.004835
vt 0.179293 0.003006
vt 0.154040 0.752792
vt 0.876263 0.285380
vt 0.865394 0.275253
vt 0.851010 0.285167
vt 0.865394 0.300505
vt 0.967172 0.318047
vt 0.941919 0.323399
vt 0.959975 0.305556
vt 0.954546 0.330808
vt 0.941919 0.254910
vt 0.967172 0.255128
vt 0.952788 0.270202
vt 0.952788 0.244949
vt 0.972222 0.053920
vt 0.997417 0.058081
vt 0.997475 0.036986
vt 0.972280 0.032828
vt 0.997475 0.260063
vt 0.972222 0.260288
vt 0.986600 0.244949
vt 0.986600 0.270202
vt 0.997414 0.002525
vt 0.972280 0.027778
vt 0.972222 0.006680
vt 0.997475 0.023619
vn -0.9997 0.0215 0.0118
vn -0.9997 0.0215 0.0122
vn 0.0000 -0.0000 1.0000
vn 0.0213 0.9998 0.0000
vn 0.0214 0.9998 0.0000
vn 0.0208 0.9998 -0.0007
vn 0.0208 0.9998 0.0006
vn -0.9997 0.0215 0.0119
vn -0.9997 0.0215 0.0121
vn 0.0001 0.0000 1.0000
vn 0.0215 0.9998 0.0000
vn -0.9995 0.0329 0.0000
vn -0.9999 0.0104 0.0000
vn -0.9999 0.0100 0.0000
vn -0.9997 0.0215 -0.0121
vn -0.9997 0.0215 -0.0119
vn -0.8715 -0.3214 -0.3703
vn -0.8576 -0.3598 -0.3675
vn -0.8714 -0.3209 -0.3710
vn -0.8821 -0.2892 -0.3720
vn -0.7537 -0.4612 -0.4682
vn -0.7474 -0.4717 -0.4678
vn -0.7538 -0.4607 -0.4685
vn -0.7595 -0.4485 -0.4712
vn 0.7537 0.4608 0.4686
vn 0.7446 0.4778 0.4662
vn 0.7535 0.4613 0.4684
vn 0.7643 0.4398 0.4716
vn -0.6961 0.7180 -0.0004
vn -0.6961 0.7179 0.0005
vn -0.6968 0.7173 -0.0005
vn -0.6966 0.7174 0.0004
vn -0.7117 0.0171 0.7023
vn -0.7113 0.0153 0.7027
vn -0.7144 0.0136 0.6996
vn -0.7298 -0.6836 0.0023
vn -0.7292 -0.6842 -0.0019
vn -0.7268 -0.6869 0.0019
vn -0.7269 -0.6868 -0.0023
vn -0.7113 0.0153 -0.7028
vn -0.7106 0.0138 -0.7035
vn -0.7081 0.0168 -0.7059
vn -0.9997 0.0251 0.0061
vn -0.9996 0.0275 0.0058
vn -0.9996 0.0274 0.0059
vn -0.9996 0.0270 0.0086
vn -0.7099 0.0222 0.7040
vn -0.7022 0.0151 0.7119
vn -0.7023 0.0147 0.7117
vn -0.7060 0.0083 0.7082
vn -0.9999 0.0157 0.0044
vn -0.9999 0.0157 0.0060
vn -0.9999 0.0157 0.0052
vn -0.9999 0.0153 0.0061
vn -0.9996 0.0270 -0.0084
vn -0.9996 0.0274 -0.0059
vn -0.9997 0.0251 -0.0059
vn -0.6886 0.7252 -0.0021
vn -0.6887 0.7251 0.0021
vn -0.6899 0.7239 -0.0021
vn -0.6897 0.7241 0.0020
vn -0.9999 0.0151 -0.0061
vn -0.9999 0.0157 -0.0054
vn -0.9999 0.0160 -0.0061
vn -0.9999 0.0157 -0.0043
vn -0.7021 0.0157 -0.7120
vn -0.7049 0.0173 -0.7091
vn -0.7037 0.0130 -0.7104
vn -0.7025 0.0144 -0.7115
vn -0.7173 -0.6967 -0.0009
vn -0.7174 -0.6966 0.0008
vn -0.7178 -0.6962 -0.0007
vn -0.7178 -0.6962 0.0008
vn -0.6877 0.7260 0.0000
vn -0.6876 0.7261 0.0000
vn 0.0152 0.7070 0.7071
vn 0.0152 0.7069 0.7071
vn 0.0152 0.7069 0.7072
vn -0.7029 0.0151 0.7112
vn -0.7026 0.0151 0.7114
vn -0.7028 0.0151 0.7112
vn 0.0152 0.7068 -0.7072
vn 0.0152 0.7072 -0.7069
vn 0.0152 0.7071 -0.7069
vn 0.0152 0.7068 -0.7073
vn -0.7182 -0.6958 -0.0000
vn -0.7183 -0.6957 0.0000
vn -0.7183 -0.6958 -0.0000
vn 0.0098 0.7036 0.7105
vn 0.0200 0.7032 0.7107
vn 0.0102 0.7034 0.7108
vn 0.0204 0.7034 0.7105
vn -0.7026 0.0151 -0.7114
vn -0.7025 0.0151 -0.7115
vn -0.7025 0.0151 -0.7116
vn -0.6961 0.7180 0.0000
vn -0.7112 0.0153 -0.7028
vn -0.7113 0.0153 -0.7027
vn -0.7262 -0.6875 -0.0000
vn -0.9999 0.0159 -0.0060
vn -0.9999 0.0158 -0.0059
vn -0.9999 0.0157 -0.0058
vn -0.9996 0.0275 -0.0058
vn -0.9996 0.0273 -0.0060
vn -0.9996 0.0274 -0.0058
vn -0.9999 0.0159 0.0061
vn -0.9999 0.0158 0.0060
vn -0.9999 0.0155 0.0059
vn -0.9996 0.0275 0.0057
vn -0.9996 0.0272 0.0060
vn -0.9996 0.0274 0.0057
vn -0.9997 0.0215 -0.0122
vn -0.9997 0.0215 -0.0118
vn -0.8736 -0.3180 0.3683
vn -0.8941 -0.3196 0.3136
vn -0.8734 -0.3182 0.3687
vn -0.8596 -0.3158 0.4017
vn -0.7337 0.4894 -0.4714
vn -0.7368 0.4952 -0.4604
vn -0.7342 0.4891 -0.4708
vn -0.7262 0.4919 -0.4803
vn -0.7526 -0.4607 0.4705
vn -0.7525 -0.4608 0.4706
vn -0.7527 -0.4606 0.4704
vn -0.8577 0.3586 -0.3683
vn -0.8577 0.3586 -0.3685
vn -0.8577 0.3586 -0.3684
vn 0.0152 0.7073 -0.7068
vn 0.0151 0.7068 -0.7072
vn 0.0150 0.7068 -0.7073
vn 0.0152 0.7073 -0.7067
vn -0.7327 0.4931 0.4691
vn -0.7265 0.5036 0.4676
vn -0.7332 0.4929 0.4684
vn -0.7468 0.4689 0.4717
vn -0.8572 0.3583 -0.3698
vn -0.8372 0.4052 -0.3674
vn -0.8571 0.3586 -0.3697
vn -0.8694 0.3250 -0.3721
vn -0.7539 -0.4612 0.4679
vn -0.7595 -0.4483 0.4713
vn -0.7537 -0.4607 0.4688
vn -0.7444 -0.4779 0.4663
vn -0.7321 0.4927 -0.4704
vn -0.7321 0.4926 -0.4705
vn -0.8723 -0.3214 0.3684
vn -0.8724 -0.3214 0.3684
vn -0.0152 -0.7070 0.7071
vn -0.0152 -0.7069 0.7072
vn -0.0152 -0.7069 0.7071
vn -0.0153 -0.7069 0.7071
vn -0.0150 -0.7069 0.7071
vn -0.7113 0.0153 0.7028
vn -0.7111 0.0153 0.7030
vn -0.8571 0.3587 0.3697
vn -0.8372 0.4051 0.3674
vn -0.8572 0.3583 0.3699
vn -0.8694 0.3249 0.3723
vn -0.7320 0.4926 0.4706
vn -0.7321 0.4926 0.4706
vn -0.8723 -0.3215 -0.3684
vn 0.0146 0.7067 0.7074
vn 0.0148 0.7072 0.7068
vn 0.0146 0.7066 0.7075
vn 0.0147 0.7073 0.7068
vn -0.8577 0.3586 0.3685
vn -0.8578 0.3587 0.3683
vn -0.8576 0.3586 0.3686
vn 0.0151 0.7067 0.7073
vn 0.0151 0.7071 0.7069
vn 0.0152 0.7072 0.7068
vn 0.0151 0.7067 0.7074
s 1
f 1/1/1 2/2/2 3/3/2
f 1/1/1 3/3/2 4/4/1
f 5/5/3 7/6/3 6/7/3
f 5/5/3 8/8/3 7/6/3
f 9/9/3 10/10/3 11/11/3
f 9/9/3 11/11/3 12/12/3
f 13/13/4 15/14/5 14/15/5
f 13/13/4 16/16/4 15/14/5
f 17/17/6 18/18/7 19/19/6
f 17/17/6 19/19/6 20/20/7
f 21/21/3 23/22/3 22/23/3
f 21/21/3 24/24/3 23/22/3
f 25/25/8 27/26/9 26/27/8
f 25/25/8 28/28/9 27/26/9
f 29/29/3 30/30/3 31/31/3
f 29/29/3 31/31/3 32/32/10
f 33/33/11 35/34/11 34/35/11
f 33/33/11 36/36/11 35/34/11
f 37/37/11 38/38/11 39/39/11
f 37/37/11 39/39/11 40/40/11
f 41/41/12 42/42/12 43/43/12
f 41/41/12 43/43/12 44/44/12
f 45/45/13 46/46/13 47/47/13
f 45/45/13 47/47/13 48/48/13
f 49/49/12 51/50/12 50/51/12
f 49/49/12 52/52/12 51/50/12
f 53/53/14 55/54/14 54/55/14
f 53/53/14 56/56/14 55/54/14
f 57/57/15 59/58/16 58/59/15
f 57/57/15 60/60/16 59/58/16
f 61/61/17 62/62/18 63/63/19
f 61/61/17 63/63/19 64/64/20
f 65/65/21 66/66/22 67/67/23
f 65/65/21 67/67/23 68/68/24
f 69/69/25 70/70/26 71/71/27
f 69/69/25 71/71/27 72/72/28
f 73/73/29 74/74/30 75/75/31
f 73/73/29 75/75/31 76/76/32
f 77/77/33 78/78/34 79/79/34
f 77/77/33 79/79/34 80/80/35
f 81/81/36 82/82/37 83/83/38
f 81/81/36 83/83/38 84/84/39
f 85/85/40 86/86/41 87/87/42
f 85/85/40 87/87/42 88/88/40
f 89/89/43 90/90/44 91/91/45
f 89/89/43 91/91/45 92/92/46
f 93/93/47 94/94/48 95/95/49
f 93/93/47 95/95/49 96/96/50
f 97/97/51 98/98/52 99/99/53
f 97/97/51 99/99/53 100/100/54
f 101/101/55 102/102/56 103/103/56
f 101/101/55 103/103/56 104/104/57
f 105/105/58 106/106/59 107/107/60
f 105/105/58 107/107/60 108/108/61
f 109/109/62 110/110/63 111/111/64
f 109/109/62 111/111/64 112/112/65
f 113/113/66 114/114/67 115/115/68
f 113/113/66 115/115/68 116/116/69
f 117/117/70 118/118/71 119/119/72
f 117/117/70 119/119/72 120/120/73
f 121/121/74 123/122/75 122/123/74
f 121/121/74 124/124/74 123/122/75
f 125/125/76 127/126/77 126/127/78
f 125/125/76 128/128/76 127/126/77
f 129/129/79 131/130/80 130/131/80
f 129/129/79 132/132/81 131/130/80
f 133/133/82 134/134/83 135/135/84
f 133/133/82 135/135/84 136/136/85
f 137/137/86 139/138/86 138/139/87
f 137/137/86 140/140/88 139/138/86
f 141/141/89 142/142/90 143/143/91
f 141/141/89 143/143/91 144/144/92
f 145/145/93 147/146/94 146/147/95
f 145/145/93 148/148/93 147/146/94
f 149/149/96 151/150/96 150/151/96
f 149/149/96 152/152/96 151/150/96
f 153/153/97 155/154/98 154/155/98
f 153/153/97 156/156/97 155/154/98
f 157/157/99 159/158/99 158/159/99
f 157/157/99 160/160/99 159/158/99
f 161/161/100 163/162/101 162/163/100
f 161/161/100 164/164/102 163/162/101
f 165/165/103 167/166/104 166/167/104
f 165/165/103 168/168/105 167/166/104
f 169/169/106 171/170/107 170/171/107
f 169/169/106 172/172/108 171/170/107
f 173/173/109 175/174/110 174/175/110
f 173/173/109 176/176/111 175/174/110
f 177/177/112 178/178/113 179/179/113
f 177/177/112 179/179/113 180/180/112
f 181/181/114 182/182/115 183/183/116
f 181/181/114 183/183/116 184/184/117
f 185/185/118 186/186/119 187/187/120
f 185/185/118 187/187/120 188/188/121
f 189/189/122 191/190/122 190/191/123
f 189/189/122 192/192/124 191/190/122
f 193/193/125 195/194/126 194/195/126
f 193/193/125 196/196/127 195/194/126
f 197/197/128 199/198/129 198/199/130
f 197/197/128 200/200/131 199/198/129
f 201/201/132 202/202/133 203/203/134
f 201/201/132 203/203/134 204/204/135
f 205/205/136 206/206/137 207/207/138
f 205/205/136 207/207/138 208/208/139
f 209/209/140 210/210/141 211/211/142
f 209/209/140 211/211/142 212/212/143
f 213/213/144 215/214/144 214/215/144
f 213/213/144 216/216/145 215/214/144
f 217/217/146 219/218/147 218/219/146
f 217/217/146 220/220/147 219/218/147
f 221/221/148 222/222/149 223/223/150
f 221/221/148 223/223/150 224/224/148
f 225/225/151 227/226/150 226/227/152
f 225/225/151 228/228/152 227/226/150
f 229/229/153 231/230/154 230/231/154
f 229/229/153 232/232/153 231/230/154
f 233/233/155 234/234/156 235/235/157
f 233/233/155 235/235/157 236/236/158
f 237/237/159 239/238/159 238/239/159
f 237/237/159 240/240/160 239/238/159
f 241/241/161 243/242/161 242/243/161
f 241/241/161 244/244/161 243/242/161
f 245/245/162 246/246/163 247/247/164
f 245/245/162 247/247/164 248/248/165
f 249/249/166 251/250/166 250/251/167
f 249/249/166 252/252/168 251/250/166
f 253/253/169 255/254/170 254/255/171
f 253/253/169 256/256/172 255/254/170
