# Blender v2.82 (sub 7) OBJ File: 'living_room.blend'
# www.blender.org
o PictureFrameS1_Mesh_(92)
v -2.434440 1.969799 3.985560
v -2.434440 1.969799 4.146360
v -2.438420 1.734119 4.146360
v -2.438420 1.734119 3.985560
vt 0.983316 0.987554
vt 0.012264 0.009184
vt 0.012264 0.987554
vt 0.983316 0.009184
vn -0.9999 0.0169 0.0000
s 1
f 1/1/1 3/2/1 2/3/1
f 1/1/1 4/4/1 3/2/1
