# Blender v2.82 (sub 7) OBJ File: 'living_room.blend'
# www.blender.org
o PictureFrameS3_Mesh_(110)
v -2.436210 1.662189 3.985560
v -2.436210 1.662189 4.146360
v -2.438700 1.426489 4.146360
v -2.438700 1.426489 3.985560
vt 0.983316 0.989385
vt 0.012264 0.011015
vt 0.012264 0.989385
vt 0.983316 0.011015
vn -0.9999 0.0106 0.0000
s 1
f 1/1/1 3/2/1 2/3/1
f 1/1/1 4/4/1 3/2/1
