# Blender v2.82 (sub 7) OBJ File: 'living_room.blend'
# www.blender.org
o StoreWires_Mesh_(123)
v -0.983393 2.377360 0.746277
v -0.982534 2.377360 0.746299
v -0.982534 2.059410 0.746299
v -0.983393 2.059410 0.746277
v -0.982086 2.377360 0.745567
v -0.982086 2.059410 0.745567
v -0.982496 2.377360 0.744812
v -0.982496 2.059410 0.744812
v -0.983803 2.377360 0.745522
v -0.983354 2.377360 0.744790
v -0.983354 2.059410 0.744790
v -0.983803 2.059410 0.745522
v 0.214752 2.469350 0.469402
v 0.215496 2.469350 0.469831
v 0.215496 2.151400 0.469831
v 0.214752 2.151400 0.469402
v 0.216240 2.469350 0.469402
v 0.216240 2.151400 0.469402
v 0.216240 2.469350 0.468543
v 0.216240 2.151400 0.468543
v 0.214752 2.469350 0.468543
v 0.215496 2.469350 0.468114
v 0.215496 2.151400 0.468114
v 0.214752 2.151400 0.468543
v 1.410660 2.398710 0.739927
v 1.411110 2.398710 0.740661
v 1.411110 2.080770 0.740661
v 1.410660 2.080770 0.739927
v 1.411960 2.398710 0.740640
v 1.411960 2.080770 0.740640
v 1.412380 2.398710 0.739886
v 1.412380 2.080770 0.739886
v 1.411070 2.398710 0.739173
v 1.411930 2.398710 0.739153
v 1.411930 2.080770 0.739153
v 1.411070 2.080770 0.739173
vt 0.329490 0.980769
vt 0.216667 0.019231
vt 0.216667 0.980769
vt 0.329490 0.019231
vt 0.183333 0.980769
vt 0.101289 0.019231
vt 0.101289 0.980769
vt 0.183333 0.019231
vt 0.016667 0.019231
vt 0.016667 0.980769
vt 0.583333 0.980769
vt 0.416667 0.980769
vt 0.416667 0.019231
vt 0.583333 0.019231
vt 0.383333 0.980769
vt 0.383333 0.019231
vt 0.783333 0.980769
vt 0.616667 0.019231
vt 0.616667 0.980769
vt 0.783333 0.019231
vt 0.183333 0.980769
vt 0.100000 0.019231
vt 0.100000 0.980769
vt 0.183333 0.019231
vt 0.016667 0.019231
vt 0.016667 0.980769
vt 0.383333 0.980769
vt 0.272180 0.019231
vt 0.272180 0.980769
vt 0.383333 0.019231
vt 0.583333 0.980769
vt 0.416667 0.980769
vt 0.416667 0.019231
vt 0.583333 0.019231
vt 0.783333 0.980769
vt 0.616667 0.019231
vt 0.616667 0.980769
vt 0.783333 0.019231
vt 0.216667 0.019231
vt 0.216667 0.980769
vt 0.098882 0.980769
vt 0.016667 0.019231
vt 0.016667 0.980769
vt 0.098882 0.019231
vt 0.583333 0.980769
vt 0.416667 0.019231
vt 0.416667 0.980769
vt 0.583333 0.019231
vt 0.783333 0.980769
vt 0.698821 0.019231
vt 0.698821 0.980769
vt 0.783333 0.019231
vt 0.383333 0.980769
vt 0.216667 0.980769
vt 0.216667 0.019231
vt 0.383333 0.019231
vt 0.183333 0.980769
vt 0.183333 0.019231
vt 0.616667 0.019231
vt 0.616667 0.980769
vn -0.5222 0.0000 0.8528
vn 0.4776 0.0000 0.8786
vn 0.4777 0.0000 0.8785
vn -0.5223 0.0000 0.8528
vn 0.9997 0.0000 0.0258
vn 0.9997 0.0000 0.0259
vn 0.5222 0.0000 -0.8528
vn 0.5223 0.0000 -0.8528
vn -0.9997 0.0000 -0.0263
vn -0.4772 0.0000 -0.8788
vn -0.9997 0.0000 -0.0264
vn -0.8659 -0.0000 0.5003
vn -0.0000 -0.0000 1.0000
vn -0.8659 -0.0000 0.5002
vn 0.8659 -0.0000 0.5003
vn 0.8659 -0.0000 0.5002
vn 0.8659 0.0000 -0.5003
vn 0.8659 0.0000 -0.5002
vn -0.8659 0.0000 -0.5002
vn 0.0000 0.0000 -1.0000
vn -0.8659 0.0000 -0.5003
vn -0.9997 0.0009 0.0235
vn -0.4758 -0.0008 0.8795
vn -0.4786 0.0004 0.8780
vn -0.9996 -0.0007 0.0278
vn 0.5168 -0.0031 0.8561
vn 0.5182 0.0062 0.8553
vn 0.9997 0.0065 -0.0249
vn 0.9998 -0.0048 -0.0184
vn -0.5205 -0.0000 -0.8538
vn 0.4795 0.0009 -0.8776
vn 0.4773 -0.0014 -0.8787
vn -0.5210 0.0006 -0.8536
s 1
f 1/1/1 3/2/2 2/3/3
f 1/1/1 4/4/4 3/2/2
f 2/5/3 6/6/5 5/7/6
f 2/5/3 3/8/2 6/6/5
f 5/7/6 8/9/7 7/10/8
f 5/7/6 6/6/5 8/9/7
f 9/11/9 10/12/10 11/13/10
f 9/11/9 11/13/10 12/14/11
f 9/15/9 4/4/4 1/1/1
f 9/15/9 12/16/11 4/4/4
f 7/17/8 11/18/10 10/19/10
f 7/17/8 8/20/7 11/18/10
f 13/21/12 15/22/13 14/23/13
f 13/21/12 16/24/14 15/22/13
f 14/23/13 18/25/15 17/26/16
f 14/23/13 15/22/13 18/25/15
f 17/27/16 20/28/17 19/29/18
f 17/27/16 18/30/15 20/28/17
f 21/31/19 22/32/20 23/33/20
f 21/31/19 23/33/20 24/34/21
f 21/35/19 16/36/14 13/37/12
f 21/35/19 24/38/21 16/36/14
f 19/29/18 23/39/20 22/40/20
f 19/29/18 20/28/17 23/39/20
f 25/41/22 27/42/23 26/43/24
f 25/41/22 28/44/25 27/42/23
f 26/45/24 30/46/26 29/47/27
f 26/45/24 27/48/23 30/46/26
f 29/49/27 32/50/28 31/51/29
f 29/49/27 30/52/26 32/50/28
f 33/53/30 34/54/31 35/55/32
f 33/53/30 35/55/32 36/56/33
f 33/57/30 28/44/25 25/41/22
f 33/57/30 36/58/33 28/44/25
f 31/51/29 35/59/32 34/60/31
f 31/51/29 32/50/28 35/59/32
