# Blender v2.82 (sub 7) OBJ File: 'living_room.blend'
# www.blender.org
o StoreBars_Mesh_(177)
v 1.657610 2.771850 0.912356
v 1.656350 2.773190 0.912300
v 1.652940 2.768520 0.918539
v 1.654430 2.767490 0.918179
v 1.656200 2.766120 0.917578
v 1.659080 2.770060 0.912311
v 1.662450 2.771520 0.906139
v 1.661340 2.773460 0.905535
v 1.660340 2.774920 0.904991
v 1.652340 2.760860 0.922004
v 1.650710 2.761420 0.922637
v 1.654310 2.760120 0.921039
v 1.653610 2.753090 0.922318
v 1.651570 2.753090 0.923417
v 1.649880 2.753090 0.924151
v 1.652340 2.745310 0.922004
v 1.650710 2.744760 0.922637
v 1.652940 2.737650 0.918539
v 1.654430 2.738680 0.918179
v 1.656200 2.740050 0.917578
v 1.654310 2.746050 0.921039
v 1.657610 2.734320 0.912356
v 1.656350 2.732980 0.912300
v 1.660340 2.731260 0.904991
v 1.661340 2.732710 0.905535
v 1.662450 2.734650 0.906139
v 1.659080 2.736110 0.912311
v 1.665070 2.734320 0.898713
v 1.664340 2.732980 0.897681
v 1.667740 2.737650 0.891442
v 1.668240 2.738680 0.892890
v 1.668690 2.740050 0.894699
v 1.665820 2.736110 0.899967
v 1.670330 2.745310 0.889066
v 1.669980 2.744760 0.887344
v 1.670580 2.746050 0.891239
v 1.671280 2.753090 0.889961
v 1.671110 2.753090 0.887652
v 1.670810 2.753090 0.885830
v 1.670330 2.760860 0.889066
v 1.669980 2.761420 0.887344
v 1.667740 2.768520 0.891442
v 1.668240 2.767490 0.892890
v 1.668690 2.766120 0.894699
v 1.670580 2.760120 0.891239
v 1.665070 2.771850 0.898713
v 1.664340 2.773190 0.897681
v 1.665820 2.770060 0.899967
v 1.651950 2.773640 0.910105
v 1.649070 2.773640 0.908533
v 1.645580 2.768870 0.914911
v 1.648460 2.768870 0.916483
v 1.650790 2.768870 0.917753
v 1.654270 2.773640 0.911375
v 1.658350 2.775400 0.903903
v 1.656030 2.775400 0.902633
v 1.653150 2.775400 0.901061
v 1.655490 2.773640 0.912040
v 1.652010 2.768870 0.918418
v 1.659570 2.775400 0.904568
v 1.646180 2.761600 0.920672
v 1.643300 2.761600 0.919100
v 1.648500 2.761600 0.921942
v 1.647660 2.753090 0.923490
v 1.645330 2.753090 0.922220
v 1.642450 2.753090 0.920648
v 1.649720 2.761600 0.922607
v 1.648870 2.753090 0.924154
v 1.646180 2.744570 0.920672
v 1.643300 2.744570 0.919100
v 1.645580 2.737310 0.914911
v 1.648460 2.737310 0.916483
v 1.650790 2.737310 0.917753
v 1.648500 2.744570 0.921942
v 1.649720 2.744570 0.922607
v 1.652010 2.737310 0.918418
v 1.651950 2.732530 0.910105
v 1.649070 2.732530 0.908533
v 1.653150 2.730770 0.901061
v 1.656030 2.730770 0.902633
v 1.658350 2.730770 0.903903
v 1.654270 2.732530 0.911375
v 1.655490 2.732530 0.912040
v 1.659570 2.730770 0.904568
v 1.660110 2.732530 0.895161
v 1.657230 2.732530 0.893589
v 1.660710 2.737310 0.887211
v 1.663590 2.737310 0.888784
v 1.665920 2.737310 0.890053
v 1.662430 2.732530 0.896431
v 1.663650 2.732530 0.897096
v 1.667130 2.737310 0.890718
v 1.665880 2.744570 0.884595
v 1.663000 2.744570 0.883022
v 1.668200 2.744570 0.885864
v 1.669050 2.753090 0.884317
v 1.666720 2.753090 0.883047
v 1.663840 2.753090 0.881475
v 1.669420 2.744570 0.886530
v 1.670270 2.753090 0.884981
v 1.665880 2.761600 0.884595
v 1.663000 2.761600 0.883022
v 1.660710 2.768870 0.887212
v 1.663590 2.768870 0.888784
v 1.665920 2.768870 0.890053
v 1.668200 2.761600 0.885864
v 1.669420 2.761600 0.886530
v 1.667130 2.768870 0.890718
v 1.660110 2.773640 0.895161
v 1.657230 2.773640 0.893589
v 1.662430 2.773640 0.896432
v 1.663650 2.773640 0.897096
v 1.133410 2.771850 0.626078
v 1.130230 2.767490 0.631902
v 1.130730 2.768520 0.633348
v 1.134140 2.773190 0.627109
v 1.138130 2.774920 0.619800
v 1.137130 2.773460 0.619256
v 1.136030 2.771520 0.618652
v 1.132660 2.770060 0.624824
v 1.129780 2.766120 0.630093
v 1.128140 2.760860 0.635726
v 1.128490 2.761420 0.637446
v 1.127670 2.753090 0.638960
v 1.127370 2.753090 0.637138
v 1.127190 2.753090 0.634830
v 1.127890 2.760120 0.633552
v 1.128140 2.745310 0.635726
v 1.130230 2.738680 0.631901
v 1.130730 2.737650 0.633348
v 1.128490 2.744760 0.637446
v 1.127890 2.746050 0.633552
v 1.129780 2.740050 0.630092
v 1.133410 2.734320 0.626078
v 1.137130 2.732710 0.619256
v 1.138130 2.731260 0.619800
v 1.134140 2.732980 0.627109
v 1.132660 2.736110 0.624824
v 1.136030 2.734650 0.618652
v 1.140860 2.734320 0.612434
v 1.144040 2.738680 0.606611
v 1.145530 2.737650 0.606251
v 1.142120 2.732980 0.612490
v 1.139400 2.736110 0.612480
v 1.142270 2.740050 0.607212
v 1.146130 2.745310 0.602787
v 1.147770 2.744760 0.602153
v 1.148590 2.753090 0.600639
v 1.146900 2.753090 0.601374
v 1.144860 2.753090 0.602474
v 1.144160 2.746050 0.603752
v 1.146130 2.760860 0.602787
v 1.144040 2.767490 0.606611
v 1.145530 2.768520 0.606251
v 1.147770 2.761420 0.602153
v 1.144160 2.760120 0.603752
v 1.142270 2.766120 0.607212
v 1.140860 2.771850 0.612435
v 1.142120 2.773190 0.612490
v 1.139400 2.770060 0.612480
v 1.138370 2.773640 0.629629
v 1.134880 2.768870 0.636007
v 1.137760 2.768870 0.637580
v 1.141240 2.773640 0.631202
v 1.145320 2.775400 0.623730
v 1.142450 2.775400 0.622158
v 1.140120 2.775400 0.620888
v 1.136040 2.773640 0.628360
v 1.132560 2.768870 0.634737
v 1.134820 2.773640 0.627696
v 1.131340 2.768870 0.634073
v 1.138900 2.775400 0.620223
v 1.132590 2.761600 0.640197
v 1.135470 2.761600 0.641769
v 1.134630 2.753090 0.643316
v 1.131750 2.753090 0.641744
v 1.129420 2.753090 0.640474
v 1.130270 2.761600 0.638927
v 1.129050 2.761600 0.638262
v 1.128210 2.753090 0.639809
v 1.132590 2.744570 0.640197
v 1.134880 2.737310 0.636007
v 1.137760 2.737310 0.637579
v 1.135470 2.744570 0.641769
v 1.130270 2.744570 0.638927
v 1.132560 2.737310 0.634737
v 1.129050 2.744570 0.638262
v 1.131340 2.737310 0.634073
v 1.138370 2.732530 0.629629
v 1.142450 2.730770 0.622158
v 1.145320 2.730770 0.623730
v 1.141240 2.732530 0.631202
v 1.136040 2.732530 0.628360
v 1.140120 2.730770 0.620888
v 1.134820 2.732530 0.627695
v 1.138900 2.730770 0.620223
v 1.146530 2.732530 0.614685
v 1.150010 2.737310 0.608308
v 1.152890 2.737310 0.609880
v 1.149410 2.732530 0.616258
v 1.144200 2.732530 0.613416
v 1.147680 2.737310 0.607038
v 1.142980 2.732530 0.612751
v 1.146470 2.737310 0.606373
v 1.152300 2.744570 0.604118
v 1.155180 2.744570 0.605691
v 1.156020 2.753090 0.604144
v 1.153140 2.753090 0.602571
v 1.150820 2.753090 0.601301
v 1.149970 2.744570 0.602849
v 1.148750 2.744570 0.602184
v 1.149600 2.753090 0.600636
v 1.152300 2.761600 0.604118
v 1.150010 2.768870 0.608308
v 1.152890 2.768870 0.609880
v 1.155180 2.761600 0.605691
v 1.149970 2.761600 0.602849
v 1.147680 2.768870 0.607038
v 1.148750 2.761600 0.602184
v 1.146470 2.768870 0.606373
v 1.146530 2.773640 0.614685
v 1.149410 2.773640 0.616259
v 1.144200 2.773640 0.613416
v 1.142980 2.773640 0.612751
v -0.704588 2.771850 0.632320
v -0.705319 2.773190 0.633349
v -0.701926 2.768520 0.639596
v -0.701420 2.767490 0.638149
v -0.700968 2.766120 0.636341
v -0.703834 2.770060 0.631067
v -0.707191 2.771520 0.624888
v -0.708298 2.773460 0.625490
v -0.709295 2.774920 0.626031
v -0.699340 2.760860 0.641979
v -0.699696 2.761420 0.643699
v -0.699086 2.760120 0.639805
v -0.698391 2.753090 0.641086
v -0.698571 2.753090 0.643393
v -0.698873 2.753090 0.645214
v -0.699340 2.745310 0.641979
v -0.699696 2.744760 0.643699
v -0.701926 2.737650 0.639596
v -0.701420 2.738680 0.638149
v -0.700968 2.740050 0.636341
v -0.699086 2.746050 0.639805
v -0.704588 2.734320 0.632320
v -0.705319 2.732980 0.633349
v -0.709295 2.731260 0.626031
v -0.708298 2.732710 0.625490
v -0.707191 2.734650 0.624888
v -0.703834 2.736110 0.631067
v -0.712009 2.734320 0.618660
v -0.713271 2.732980 0.618713
v -0.716665 2.737650 0.612467
v -0.715176 2.738680 0.612830
v -0.713413 2.740050 0.613435
v -0.710548 2.736110 0.618709
v -0.717257 2.745310 0.609001
v -0.718894 2.744760 0.608364
v -0.715295 2.746050 0.609970
v -0.715991 2.753090 0.608691
v -0.718025 2.753090 0.607587
v -0.719718 2.753090 0.606848
v -0.717257 2.760860 0.609001
v -0.718894 2.761420 0.608364
v -0.716665 2.768520 0.612467
v -0.715176 2.767490 0.612830
v -0.713413 2.766120 0.613435
v -0.715295 2.760120 0.609970
v -0.712009 2.771850 0.618660
v -0.713271 2.773190 0.618713
v -0.710548 2.770060 0.618710
v -0.709553 2.773640 0.635861
v -0.712435 2.773640 0.637426
v -0.708966 2.768870 0.643812
v -0.706084 2.768870 0.642246
v -0.703756 2.768870 0.640981
v -0.707225 2.773640 0.634596
v -0.711290 2.775400 0.627115
v -0.713617 2.775400 0.628380
v -0.716500 2.775400 0.629945
v -0.706006 2.773640 0.633933
v -0.702537 2.768870 0.640319
v -0.710071 2.775400 0.626453
v -0.703805 2.761600 0.646441
v -0.706687 2.761600 0.648006
v -0.701477 2.761600 0.645175
v -0.700636 2.753090 0.646724
v -0.702963 2.753090 0.647989
v -0.705846 2.753090 0.649556
v -0.700258 2.761600 0.644513
v -0.699417 2.753090 0.646062
v -0.703805 2.744570 0.646441
v -0.706687 2.744570 0.648006
v -0.708966 2.737310 0.643812
v -0.706084 2.737310 0.642246
v -0.703756 2.737310 0.640981
v -0.701477 2.744570 0.645175
v -0.700258 2.744570 0.644513
v -0.702537 2.737310 0.640319
v -0.709553 2.732530 0.635860
v -0.712435 2.732530 0.637426
v -0.716500 2.730770 0.629945
v -0.713617 2.730770 0.628380
v -0.711290 2.730770 0.627115
v -0.707225 2.732530 0.634596
v -0.706006 2.732530 0.633933
v -0.710071 2.730770 0.626453
v -0.717682 2.732530 0.620899
v -0.720564 2.732530 0.622465
v -0.724033 2.737310 0.616079
v -0.721151 2.737310 0.614513
v -0.718823 2.737310 0.613249
v -0.715354 2.732530 0.619634
v -0.714135 2.732530 0.618972
v -0.717604 2.737310 0.612586
v -0.723430 2.744570 0.610319
v -0.726312 2.744570 0.611885
v -0.721102 2.744570 0.609055
v -0.721944 2.753090 0.607506
v -0.724271 2.753090 0.608770
v -0.727154 2.753090 0.610336
v -0.719883 2.744570 0.608392
v -0.720725 2.753090 0.606843
v -0.723430 2.761600 0.610319
v -0.726312 2.761600 0.611885
v -0.724033 2.768870 0.616079
v -0.721151 2.768870 0.614513
v -0.718823 2.768870 0.613249
v -0.721102 2.761600 0.609055
v -0.719883 2.761600 0.608392
v -0.717604 2.768870 0.612586
v -0.717682 2.773640 0.620899
v -0.720564 2.773640 0.622465
v -0.715354 2.773640 0.619634
v -0.714135 2.773640 0.618972
v -1.229410 2.771850 0.917461
v -1.226250 2.767490 0.923290
v -1.224760 2.768520 0.923653
v -1.228150 2.773190 0.917407
v -1.232130 2.774920 0.910089
v -1.233120 2.773460 0.910630
v -1.234230 2.771520 0.911232
v -1.230880 2.770060 0.917412
v -1.228010 2.766120 0.922686
v -1.224170 2.760860 0.927119
v -1.222530 2.761420 0.927756
v -1.221710 2.753090 0.929272
v -1.223400 2.753090 0.928534
v -1.225430 2.753090 0.927429
v -1.226130 2.760120 0.926149
v -1.224170 2.745310 0.927119
v -1.226250 2.738680 0.923290
v -1.224760 2.737650 0.923653
v -1.222530 2.744760 0.927756
v -1.226130 2.746050 0.926149
v -1.228010 2.740050 0.922685
v -1.229410 2.734320 0.917460
v -1.233120 2.732710 0.910630
v -1.232130 2.731260 0.910089
v -1.228150 2.732980 0.917407
v -1.230880 2.736110 0.917411
v -1.234230 2.734650 0.911232
v -1.236840 2.734320 0.903800
v -1.240000 2.738680 0.897970
v -1.239500 2.737650 0.896524
v -1.236100 2.732980 0.902770
v -1.237590 2.736110 0.905053
v -1.240460 2.740050 0.899779
v -1.242080 2.745310 0.894141
v -1.241730 2.744760 0.892421
v -1.242550 2.753090 0.890905
v -1.242850 2.753090 0.892727
v -1.243030 2.753090 0.895036
v -1.242340 2.746050 0.896315
v -1.242080 2.760860 0.894141
v -1.240000 2.767490 0.897970
v -1.239500 2.768520 0.896524
v -1.241730 2.761420 0.892421
v -1.242340 2.760120 0.896315
v -1.240460 2.766120 0.899779
v -1.236840 2.771850 0.903800
v -1.236100 2.773190 0.902770
v -1.237590 2.770060 0.905053
v -1.223740 2.773640 0.915221
v -1.220270 2.768870 0.921606
v -1.217390 2.768870 0.920040
v -1.220860 2.773640 0.913655
v -1.224920 2.775400 0.906174
v -1.227810 2.775400 0.907740
v -1.230130 2.775400 0.909005
v -1.226070 2.773640 0.916487
v -1.222600 2.768870 0.922871
v -1.227290 2.773640 0.917148
v -1.223820 2.768870 0.923533
v -1.231350 2.775400 0.909667
v -1.217990 2.761600 0.925801
v -1.215110 2.761600 0.924235
v -1.214270 2.753090 0.925784
v -1.217150 2.753090 0.927350
v -1.219480 2.753090 0.928615
v -1.220320 2.761600 0.927065
v -1.221540 2.761600 0.927728
v -1.220700 2.753090 0.929277
v -1.217990 2.744570 0.925801
v -1.220270 2.737310 0.921606
v -1.217390 2.737310 0.920040
v -1.215110 2.744570 0.924235
v -1.220320 2.744570 0.927065
v -1.222600 2.737310 0.922871
v -1.221540 2.744570 0.927728
v -1.223820 2.737310 0.923533
v -1.223740 2.732530 0.915221
v -1.227810 2.730770 0.907740
v -1.224920 2.730770 0.906174
v -1.220860 2.732530 0.913655
v -1.226070 2.732530 0.916486
v -1.230130 2.730770 0.909005
v -1.227290 2.732530 0.917148
v -1.231350 2.730770 0.909667
v -1.231870 2.732530 0.900259
v -1.235340 2.737310 0.893874
v -1.232460 2.737310 0.892308
v -1.228990 2.732530 0.898694
v -1.234200 2.732530 0.901524
v -1.237670 2.737310 0.895139
v -1.235420 2.732530 0.902186
v -1.238890 2.737310 0.895801
v -1.237620 2.744570 0.889681
v -1.234740 2.744570 0.888114
v -1.235580 2.753090 0.886566
v -1.238460 2.753090 0.888131
v -1.240790 2.753090 0.889395
v -1.239950 2.744570 0.890945
v -1.241170 2.744570 0.891607
v -1.242010 2.753090 0.890058
v -1.237620 2.761600 0.889681
v -1.235340 2.768870 0.893874
v -1.232460 2.768870 0.892308
v -1.234740 2.761600 0.888114
v -1.239950 2.761600 0.890945
v -1.237670 2.768870 0.895139
v -1.241170 2.761600 0.891607
v -1.238890 2.768870 0.895801
v -1.231870 2.773640 0.900259
v -1.228990 2.773640 0.898694
v -1.234200 2.773640 0.901524
v -1.235420 2.773640 0.902186
v 0.637426 2.771850 0.502651
v 0.636292 2.773190 0.503208
v 0.636292 2.768520 0.510316
v 0.637426 2.767490 0.509286
v 0.638687 2.766120 0.507913
v 0.638687 2.770060 0.501911
v 0.638687 2.771520 0.494879
v 0.637426 2.773460 0.494879
v 0.636292 2.774920 0.494879
v 0.637426 2.760860 0.513644
v 0.636292 2.761420 0.514986
v 0.638687 2.760120 0.511856
v 0.638687 2.753090 0.513312
v 0.637426 2.753090 0.515254
v 0.636292 2.753090 0.516710
v 0.637426 2.745310 0.513644
v 0.636292 2.744760 0.514986
v 0.636292 2.737650 0.510316
v 0.637426 2.738680 0.509286
v 0.638687 2.740050 0.507913
v 0.638687 2.746050 0.511856
v 0.637426 2.734320 0.502651
v 0.636292 2.732980 0.503207
v 0.636292 2.731260 0.494879
v 0.637426 2.732710 0.494879
v 0.638687 2.734650 0.494879
v 0.638687 2.736110 0.501911
v 0.637426 2.734320 0.487106
v 0.636292 2.732980 0.486550
v 0.636292 2.737650 0.479441
v 0.637426 2.738680 0.480471
v 0.638687 2.740050 0.481844
v 0.638687 2.736110 0.487846
v 0.637426 2.745310 0.476113
v 0.636292 2.744760 0.474772
v 0.638687 2.746050 0.477902
v 0.638687 2.753090 0.476445
v 0.637426 2.753090 0.474503
v 0.636292 2.753090 0.473047
v 0.637426 2.760860 0.476113
v 0.636292 2.761420 0.474772
v 0.636292 2.768520 0.479441
v 0.637426 2.767490 0.480471
v 0.638687 2.766120 0.481844
v 0.638687 2.760120 0.477902
v 0.637426 2.771850 0.487106
v 0.636292 2.773190 0.486550
v 0.638687 2.770060 0.487846
v 0.631373 2.773640 0.503392
v 0.628093 2.773640 0.503392
v 0.628093 2.768870 0.510659
v 0.631373 2.768870 0.510659
v 0.634022 2.768870 0.510659
v 0.634022 2.773640 0.503392
v 0.634022 2.775400 0.494879
v 0.631373 2.775400 0.494879
v 0.628093 2.775400 0.494879
v 0.635409 2.773640 0.503392
v 0.635409 2.768870 0.510659
v 0.635409 2.775400 0.494879
v 0.631373 2.761600 0.515432
v 0.628093 2.761600 0.515432
v 0.634022 2.761600 0.515432
v 0.634022 2.753090 0.517196
v 0.631373 2.753090 0.517196
v 0.628093 2.753090 0.517196
v 0.635409 2.761600 0.515432
v 0.635409 2.753090 0.517196
v 0.631373 2.744570 0.515432
v 0.628093 2.744570 0.515432
v 0.628093 2.737310 0.510659
v 0.631373 2.737310 0.510659
v 0.634022 2.737310 0.510659
v 0.634022 2.744570 0.515432
v 0.635409 2.744570 0.515432
v 0.635409 2.737310 0.510659
v 0.631373 2.732530 0.503392
v 0.628093 2.732530 0.503392
v 0.628093 2.730770 0.494879
v 0.631373 2.730770 0.494879
v 0.634022 2.730770 0.494879
v 0.634022 2.732530 0.503392
v 0.635409 2.732530 0.503392
v 0.635409 2.730770 0.494879
v 0.631373 2.732530 0.486365
v 0.628093 2.732530 0.486365
v 0.628093 2.737310 0.479098
v 0.631373 2.737310 0.479098
v 0.634022 2.737310 0.479098
v 0.634022 2.732530 0.486365
v 0.635409 2.732530 0.486365
v 0.635409 2.737310 0.479098
v 0.631373 2.744570 0.474325
v 0.628093 2.744570 0.474325
v 0.634022 2.744570 0.474325
v 0.634022 2.753090 0.472562
v 0.631373 2.753090 0.472562
v 0.628093 2.753090 0.472562
v 0.635409 2.744570 0.474325
v 0.635409 2.753090 0.472562
v 0.631373 2.761600 0.474325
v 0.628093 2.761600 0.474325
v 0.628093 2.768870 0.479098
v 0.631373 2.768870 0.479098
v 0.634022 2.768870 0.479098
v 0.634022 2.761600 0.474325
v 0.635409 2.761600 0.474325
v 0.635409 2.768870 0.479098
v 0.631373 2.773640 0.486365
v 0.628093 2.773640 0.486365
v 0.634022 2.773640 0.486365
v 0.635409 2.773640 0.486365
v -0.206434 2.771850 0.502651
v -0.206434 2.767490 0.509286
v -0.205299 2.768520 0.510316
v -0.205299 2.773190 0.503208
v -0.205299 2.774920 0.494879
v -0.206434 2.773460 0.494879
v -0.207694 2.771520 0.494879
v -0.207694 2.770060 0.501911
v -0.207694 2.766120 0.507913
v -0.206434 2.760860 0.513644
v -0.205299 2.761420 0.514986
v -0.205299 2.753090 0.516710
v -0.206434 2.753090 0.515254
v -0.207694 2.753090 0.513312
v -0.207694 2.760120 0.511856
v -0.206434 2.745310 0.513644
v -0.206434 2.738680 0.509286
v -0.205299 2.737650 0.510316
v -0.205299 2.744760 0.514986
v -0.207694 2.746050 0.511856
v -0.207694 2.740050 0.507913
v -0.206434 2.734320 0.502651
v -0.206434 2.732710 0.494879
v -0.205299 2.731260 0.494879
v -0.205299 2.732980 0.503207
v -0.207694 2.736110 0.501911
v -0.207694 2.734650 0.494879
v -0.206434 2.734320 0.487106
v -0.206434 2.738680 0.480471
v -0.205299 2.737650 0.479441
v -0.205299 2.732980 0.486550
v -0.207694 2.736110 0.487846
v -0.207694 2.740050 0.481844
v -0.206434 2.745310 0.476113
v -0.205299 2.744760 0.474772
v -0.205299 2.753090 0.473047
v -0.206434 2.753090 0.474503
v -0.207694 2.753090 0.476445
v -0.207694 2.746050 0.477901
v -0.206434 2.760860 0.476113
v -0.206434 2.767490 0.480471
v -0.205299 2.768520 0.479441
v -0.205299 2.761420 0.474772
v -0.207694 2.760120 0.477901
v -0.207694 2.766120 0.481844
v -0.206434 2.771850 0.487106
v -0.205299 2.773190 0.486550
v -0.207694 2.770060 0.487846
v -0.200380 2.773640 0.503392
v -0.200380 2.768870 0.510659
v -0.197100 2.768870 0.510659
v -0.197100 2.773640 0.503392
v -0.197100 2.775400 0.494879
v -0.200380 2.775400 0.494879
v -0.203030 2.775400 0.494879
v -0.203030 2.773640 0.503392
v -0.203030 2.768870 0.510659
v -0.204417 2.773640 0.503392
v -0.204417 2.768870 0.510659
v -0.204417 2.775400 0.494879
v -0.200380 2.761600 0.515432
v -0.197100 2.761600 0.515432
v -0.197100 2.753090 0.517195
v -0.200380 2.753090 0.517195
v -0.203030 2.753090 0.517195
v -0.203030 2.761600 0.515432
v -0.204417 2.761600 0.515432
v -0.204417 2.753090 0.517195
v -0.200380 2.744570 0.515432
v -0.200380 2.737310 0.510659
v -0.197100 2.737310 0.510659
v -0.197100 2.744570 0.515432
v -0.203030 2.744570 0.515432
v -0.203030 2.737310 0.510659
v -0.204417 2.744570 0.515432
v -0.204417 2.737310 0.510659
v -0.200380 2.732530 0.503392
v -0.200380 2.730770 0.494879
v -0.197100 2.730770 0.494879
v -0.197100 2.732530 0.503392
v -0.203030 2.732530 0.503392
v -0.203030 2.730770 0.494879
v -0.204417 2.732530 0.503392
v -0.204417 2.730770 0.494879
v -0.200380 2.732530 0.486365
v -0.200380 2.737310 0.479098
v -0.197100 2.737310 0.479098
v -0.197100 2.732530 0.486365
v -0.203030 2.732530 0.486365
v -0.203030 2.737310 0.479098
v -0.204417 2.732530 0.486365
v -0.204417 2.737310 0.479098
v -0.200380 2.744570 0.474325
v -0.197100 2.744570 0.474325
v -0.197100 2.753090 0.472562
v -0.200380 2.753090 0.472562
v -0.203030 2.753090 0.472562
v -0.203030 2.744570 0.474325
v -0.204417 2.744570 0.474325
v -0.204417 2.753090 0.472562
v -0.200380 2.761600 0.474325
v -0.200380 2.768870 0.479098
v -0.197100 2.768870 0.479098
v -0.197100 2.761600 0.474325
v -0.203030 2.761600 0.474325
v -0.203030 2.768870 0.479098
v -0.204417 2.761600 0.474325
v -0.204417 2.768870 0.479098
v -0.200380 2.773640 0.486365
v -0.197100 2.773640 0.486365
v -0.203030 2.773640 0.486365
v -0.204417 2.773640 0.486365
vt 0.177271 0.780641
vt 0.163038 0.793548
vt 0.124599 0.748595
vt 0.141404 0.738689
vt 0.161301 0.725472
vt 0.193750 0.763419
vt 0.425254 0.366366
vt 0.425641 0.350505
vt 0.478624 0.363422
vt 0.483810 0.380640
vt 0.488480 0.393548
vt 0.425735 0.378254
vt 0.117842 0.674820
vt 0.099357 0.680172
vt 0.139983 0.667687
vt 0.132111 0.599997
vt 0.109135 0.599997
vt 0.090041 0.599997
vt 0.117842 0.525171
vt 0.099357 0.519828
vt 0.124599 0.451396
vt 0.141404 0.461311
vt 0.161301 0.474528
vt 0.139983 0.532304
vt 0.425254 0.033634
vt 0.425735 0.021744
vt 0.488480 0.006452
vt 0.483810 0.019360
vt 0.478624 0.036576
vt 0.425641 0.049485
vt 0.177271 0.419361
vt 0.193750 0.436572
vt 0.163038 0.406452
vt 0.542373 0.033634
vt 0.551233 0.021744
vt 0.604791 0.063137
vt 0.592361 0.072268
vt 0.576832 0.084441
vt 0.531608 0.049485
vt 0.625197 0.131082
vt 0.639971 0.126162
vt 0.606534 0.137652
vt 0.617505 0.199996
vt 0.637327 0.199996
vt 0.652968 0.199996
vt 0.625197 0.268907
vt 0.639971 0.273836
vt 0.604791 0.336852
vt 0.592361 0.327729
vt 0.576832 0.315557
vt 0.606534 0.262338
vt 0.542373 0.366366
vt 0.551233 0.378254
vt 0.531608 0.350505
vt 0.739918 0.591945
vt 0.764278 0.579201
vt 0.793750 0.630906
vt 0.769389 0.643650
vt 0.749716 0.653946
vt 0.720244 0.602241
vt 0.685712 0.541667
vt 0.705394 0.531372
vt 0.729746 0.518628
vt 0.709946 0.607632
vt 0.739409 0.659337
vt 0.731473 0.660317
vt 0.702635 0.609739
vt 0.668857 0.550487
vt 0.675415 0.547058
vt 0.048252 0.681953
vt 0.041586 0.751907
vt 0.015780 0.681953
vt 0.074058 0.751907
vt 0.100281 0.751907
vt 0.074475 0.681953
vt 0.064945 0.599997
vt 0.038721 0.599997
vt 0.006250 0.599997
vt 0.088214 0.681953
vt 0.114020 0.751907
vt 0.078682 0.599997
vt 0.048252 0.518049
vt 0.015780 0.518049
vt 0.041586 0.448096
vt 0.074058 0.448096
vt 0.100281 0.448096
vt 0.074475 0.518049
vt 0.088214 0.518049
vt 0.114020 0.448096
vt 0.660082 0.858612
vt 0.635722 0.845868
vt 0.670254 0.785294
vt 0.694606 0.798038
vt 0.714288 0.808334
vt 0.679756 0.868907
vt 0.650284 0.920612
vt 0.630611 0.910317
vt 0.606250 0.897573
vt 0.690054 0.874298
vt 0.724586 0.813725
vt 0.731143 0.817154
vt 0.697365 0.876406
vt 0.668527 0.926984
vt 0.660591 0.926003
vt 0.729138 0.737464
vt 0.704777 0.724721
vt 0.734249 0.673016
vt 0.758609 0.685768
vt 0.778283 0.696055
vt 0.748810 0.747760
vt 0.759117 0.753151
vt 0.788588 0.701446
vt 0.793750 0.707315
vt 0.764913 0.757893
vt 0.928392 0.080209
vt 0.993939 0.006410
vt 0.964915 0.080209
vt 0.957418 0.006410
vt 0.927923 0.006410
vt 0.898898 0.080209
vt 0.888180 0.166662
vt 0.917673 0.166662
vt 0.954196 0.166662
vt 0.883460 0.080209
vt 0.912472 0.006410
vt 0.646967 0.124524
vt 0.611007 0.060098
vt 0.660256 0.199996
vt 0.872727 0.166662
vt 0.928392 0.253124
vt 0.964915 0.253124
vt 0.993939 0.326923
vt 0.957418 0.326923
vt 0.927923 0.326923
vt 0.898898 0.253124
vt 0.883460 0.253124
vt 0.912472 0.326923
vt 0.646967 0.275476
vt 0.611007 0.339902
vt 0.670862 0.470798
vt 0.665751 0.406349
vt 0.695223 0.458054
vt 0.641391 0.419101
vt 0.621717 0.429388
vt 0.651190 0.481094
vt 0.640883 0.486484
vt 0.611412 0.434779
vt 0.606250 0.440649
vt 0.635087 0.491227
vt 0.209046 0.366366
vt 0.259035 0.327729
vt 0.271457 0.336852
vt 0.217896 0.378254
vt 0.155150 0.393548
vt 0.150480 0.380640
vt 0.145295 0.363422
vt 0.198280 0.350505
vt 0.243505 0.315557
vt 0.291871 0.268907
vt 0.306637 0.273836
vt 0.319635 0.199996
vt 0.303993 0.199996
vt 0.284179 0.199996
vt 0.273208 0.262338
vt 0.291871 0.131082
vt 0.259035 0.072268
vt 0.271457 0.063137
vt 0.306637 0.126162
vt 0.273208 0.137652
vt 0.243505 0.084441
vt 0.209046 0.033634
vt 0.150480 0.019360
vt 0.155150 0.006452
vt 0.217896 0.021744
vt 0.198280 0.049485
vt 0.145295 0.036576
vt 0.843938 0.019361
vt 0.808072 0.061310
vt 0.791267 0.051396
vt 0.829704 0.006452
vt 0.091915 0.033634
vt 0.092396 0.021744
vt 0.092310 0.049485
vt 0.860417 0.036572
vt 0.827967 0.074528
vt 0.784510 0.125171
vt 0.766024 0.119828
vt 0.756708 0.199997
vt 0.775803 0.199997
vt 0.798777 0.199997
vt 0.806662 0.132304
vt 0.784510 0.274820
vt 0.808072 0.338690
vt 0.791267 0.348595
vt 0.766024 0.280172
vt 0.806662 0.267687
vt 0.827967 0.325472
vt 0.843938 0.380641
vt 0.829704 0.393548
vt 0.091915 0.366366
vt 0.092396 0.378254
vt 0.092310 0.350505
vt 0.860417 0.363419
vt 0.529137 0.645588
vt 0.558609 0.710840
vt 0.534248 0.726923
vt 0.504776 0.661680
vt 0.470253 0.585236
vt 0.494605 0.569153
vt 0.514279 0.556159
vt 0.548810 0.632604
vt 0.578282 0.697847
vt 0.559116 0.625801
vt 0.588588 0.691054
vt 0.524585 0.549356
vt 0.531134 0.545028
vt 0.564912 0.619806
vt 0.593750 0.683636
vt 0.928392 0.586457
vt 0.993939 0.660256
vt 0.957417 0.660256
vt 0.964915 0.586457
vt 0.954196 0.499995
vt 0.917673 0.499995
vt 0.888178 0.499995
vt 0.898898 0.586457
vt 0.927923 0.660256
vt 0.883446 0.586457
vt 0.912471 0.660256
vt 0.872727 0.499995
vt 0.313642 0.275476
vt 0.326923 0.199996
vt 0.277681 0.339902
vt 0.928392 0.413543
vt 0.957417 0.339744
vt 0.993939 0.339744
vt 0.964915 0.413543
vt 0.898898 0.413543
vt 0.927923 0.339744
vt 0.883446 0.413543
vt 0.912471 0.339744
vt 0.313642 0.124524
vt 0.277681 0.060098
vt 0.270863 0.645588
vt 0.305395 0.569153
vt 0.329747 0.585236
vt 0.295224 0.661680
vt 0.265752 0.726923
vt 0.241391 0.710840
vt 0.221718 0.697847
vt 0.251190 0.632604
vt 0.285721 0.556159
vt 0.240884 0.625801
vt 0.275415 0.549356
vt 0.211412 0.691054
vt 0.206250 0.683636
vt 0.235088 0.619806
vt 0.268866 0.545028
vt 0.339918 0.492697
vt 0.369390 0.427455
vt 0.393750 0.443538
vt 0.364279 0.508791
vt 0.320245 0.479715
vt 0.349716 0.414462
vt 0.309938 0.472911
vt 0.339410 0.407659
vt 0.302636 0.470241
vt 0.331473 0.406410
vt 0.714919 0.118049
vt 0.708254 0.048095
vt 0.740725 0.048095
vt 0.682447 0.118049
vt 0.672917 0.199997
vt 0.705389 0.199997
vt 0.731612 0.199997
vt 0.741143 0.118049
vt 0.766949 0.048095
vt 0.754880 0.118049
vt 0.780686 0.048095
vt 0.745350 0.199997
vt 0.714919 0.281953
vt 0.740725 0.351907
vt 0.708254 0.351907
vt 0.682447 0.281953
vt 0.741143 0.281953
vt 0.766949 0.351907
vt 0.754880 0.281953
vt 0.780686 0.351907
vt 0.460082 0.492697
vt 0.406250 0.443538
vt 0.430610 0.427455
vt 0.435721 0.508791
vt 0.479755 0.479715
vt 0.450284 0.414462
vt 0.490062 0.472911
vt 0.460590 0.407659
vt 0.497364 0.470241
vt 0.468527 0.406410
vt 0.133145 0.392535
vt 0.123689 0.405272
vt 0.066285 0.360913
vt 0.079581 0.351139
vt 0.096196 0.338096
vt 0.144659 0.375541
vt 0.201438 0.389380
vt 0.195907 0.407829
vt 0.190936 0.421659
vt 0.044388 0.288115
vt 0.028582 0.293396
vt 0.064364 0.281076
vt 0.052602 0.214281
vt 0.031394 0.214281
vt 0.014660 0.214281
vt 0.044388 0.140445
vt 0.028582 0.135173
vt 0.066285 0.067647
vt 0.079581 0.077430
vt 0.096196 0.090473
vt 0.064364 0.147484
vt 0.133145 0.036036
vt 0.123689 0.023297
vt 0.190936 0.006912
vt 0.195907 0.020743
vt 0.201438 0.039189
vt 0.144659 0.053019
vt 0.024371 0.449316
vt 0.039639 0.435484
vt 0.080698 0.483638
vt 0.062684 0.494261
vt 0.041356 0.508423
vt 0.006696 0.467756
vt 0.258669 0.036036
vt 0.258218 0.053019
vt 0.258181 0.023297
vt 0.087860 0.562683
vt 0.107663 0.556958
vt 0.064124 0.570325
vt 0.072544 0.642853
vt 0.097151 0.642853
vt 0.117631 0.642853
vt 0.087860 0.723022
vt 0.107663 0.728756
vt 0.080698 0.802066
vt 0.062684 0.791453
vt 0.041356 0.777292
vt 0.064124 0.715379
vt 0.024371 0.836401
vt 0.039639 0.850230
vt 0.006696 0.817949
vt 0.258669 0.392535
vt 0.258218 0.375541
vt 0.258181 0.405272
vt 0.576005 0.638451
vt 0.602195 0.652046
vt 0.570671 0.707483
vt 0.544482 0.693888
vt 0.523326 0.682907
vt 0.554850 0.627478
vt 0.591790 0.562535
vt 0.612936 0.573516
vt 0.639135 0.587102
vt 0.543773 0.621723
vt 0.512249 0.677160
vt 0.506696 0.670883
vt 0.537530 0.616653
vt 0.573661 0.553124
vt 0.580713 0.556788
vt 0.433828 0.699776
vt 0.363636 0.778846
vt 0.394632 0.699776
vt 0.402833 0.778846
vt 0.434495 0.778846
vt 0.465490 0.699776
vt 0.476927 0.607138
vt 0.445280 0.607138
vt 0.406070 0.607138
vt 0.482068 0.699776
vt 0.451073 0.778846
vt 0.021102 0.295153
vt 0.059641 0.364181
vt 0.006868 0.214281
vt 0.493506 0.607138
vt 0.433828 0.514510
vt 0.394632 0.514510
vt 0.363636 0.435440
vt 0.402833 0.435440
vt 0.434495 0.435440
vt 0.465490 0.514510
vt 0.482068 0.514510
vt 0.451073 0.435440
vt 0.021102 0.133418
vt 0.059641 0.064390
vt 0.852566 0.924165
vt 0.826376 0.937760
vt 0.789437 0.872816
vt 0.815635 0.859231
vt 0.836782 0.848249
vt 0.873721 0.913192
vt 0.905245 0.968621
vt 0.884090 0.979603
vt 0.857900 0.993197
vt 0.884799 0.907437
vt 0.847859 0.842502
vt 0.854911 0.838839
vt 0.891042 0.902367
vt 0.921875 0.956598
vt 0.916323 0.962874
vt 0.778696 0.794288
vt 0.752506 0.807882
vt 0.720982 0.752444
vt 0.747172 0.738850
vt 0.768327 0.727877
vt 0.799851 0.783306
vt 0.810928 0.777559
vt 0.779405 0.722122
vt 0.787937 0.721088
vt 0.818779 0.775311
vt 0.162537 0.555053
vt 0.169833 0.480102
vt 0.197403 0.555053
vt 0.134967 0.480102
vt 0.106804 0.480102
vt 0.134374 0.555053
vt 0.144560 0.642853
vt 0.172712 0.642853
vt 0.207589 0.642853
vt 0.119628 0.555053
vt 0.092057 0.480102
vt 0.129814 0.642853
vt 0.162537 0.730664
vt 0.197403 0.730664
vt 0.169833 0.805614
vt 0.134967 0.805614
vt 0.106804 0.805614
vt 0.134374 0.730664
vt 0.119628 0.730664
vt 0.092057 0.805614
vt 0.649876 0.508573
vt 0.707589 0.466730
vt 0.676066 0.522168
vt 0.681400 0.453136
vt 0.660245 0.442163
vt 0.628721 0.497591
vt 0.617643 0.491845
vt 0.649167 0.436407
vt 0.640634 0.435374
vt 0.609792 0.489596
vt 0.738658 0.407830
vt 0.776974 0.362882
vt 0.794987 0.373495
vt 0.753926 0.421659
vt 0.615811 0.392535
vt 0.615324 0.405272
vt 0.548078 0.421659
vt 0.553049 0.407829
vt 0.558581 0.389380
vt 0.615361 0.375541
vt 0.720982 0.389377
vt 0.755643 0.348720
vt 0.802150 0.294450
vt 0.821954 0.300185
vt 0.831911 0.214282
vt 0.811442 0.214282
vt 0.786833 0.214282
vt 0.778413 0.286808
vt 0.802150 0.134111
vt 0.776974 0.065690
vt 0.794987 0.055067
vt 0.821954 0.128387
vt 0.778413 0.141754
vt 0.755643 0.079851
vt 0.615811 0.036036
vt 0.553049 0.020743
vt 0.548078 0.006912
vt 0.615324 0.023297
vt 0.738658 0.020744
vt 0.753926 0.006912
vt 0.720982 0.039184
vt 0.615361 0.053019
vt 0.558581 0.039189
vt 0.490288 0.036036
vt 0.436716 0.077430
vt 0.423428 0.067647
vt 0.480823 0.023297
vt 0.501802 0.053019
vt 0.453339 0.090473
vt 0.401530 0.140445
vt 0.385725 0.135173
vt 0.371795 0.214281
vt 0.388537 0.214281
vt 0.409746 0.214281
vt 0.421498 0.147484
vt 0.401530 0.288115
vt 0.436716 0.351139
vt 0.423428 0.360913
vt 0.385725 0.293396
vt 0.421498 0.281076
vt 0.453339 0.338096
vt 0.490288 0.392535
vt 0.480823 0.405272
vt 0.501802 0.375541
vt 0.564408 0.919998
vt 0.532885 0.975427
vt 0.506696 0.961833
vt 0.538220 0.906404
vt 0.575148 0.841460
vt 0.601345 0.855055
vt 0.622500 0.866036
vt 0.585562 0.930980
vt 0.554039 0.986409
vt 0.596639 0.936727
vt 0.565117 0.992156
vt 0.633577 0.871784
vt 0.640619 0.875447
vt 0.604490 0.938975
vt 0.573649 0.993197
vt 0.876833 0.302093
vt 0.884129 0.377043
vt 0.849261 0.377043
vt 0.911700 0.302093
vt 0.921875 0.214282
vt 0.887008 0.214282
vt 0.858842 0.214282
vt 0.848667 0.302093
vt 0.821096 0.377043
vt 0.833920 0.302093
vt 0.806348 0.377043
vt 0.844095 0.214282
vt 0.876833 0.126481
vt 0.849261 0.051531
vt 0.884129 0.051531
vt 0.911700 0.126481
vt 0.848667 0.126481
vt 0.821096 0.051531
vt 0.833920 0.126481
vt 0.806348 0.051531
vt 0.864163 0.634284
vt 0.827226 0.569341
vt 0.853423 0.555746
vt 0.890352 0.620689
vt 0.921875 0.676118
vt 0.895687 0.689713
vt 0.874532 0.700694
vt 0.843010 0.645266
vt 0.806072 0.580322
vt 0.831933 0.651012
vt 0.794994 0.586069
vt 0.863455 0.706441
vt 0.854922 0.707483
vt 0.824081 0.653261
vt 0.787952 0.589733
vt 0.790296 0.504398
vt 0.758774 0.448969
vt 0.784962 0.435374
vt 0.816485 0.490811
vt 0.769143 0.515379
vt 0.737621 0.459950
vt 0.758066 0.521126
vt 0.726543 0.465697
vt 0.751823 0.526196
vt 0.720982 0.471974
vt 0.290963 0.514510
vt 0.220779 0.435440
vt 0.259972 0.435440
vt 0.251770 0.514510
vt 0.263220 0.607138
vt 0.302413 0.607138
vt 0.334072 0.607138
vt 0.322622 0.514510
vt 0.291629 0.435440
vt 0.339199 0.514510
vt 0.308207 0.435440
vt 0.350649 0.607138
vt 0.378245 0.133418
vt 0.364011 0.214281
vt 0.416784 0.064390
vt 0.290963 0.699776
vt 0.259972 0.778846
vt 0.220779 0.778846
vt 0.251770 0.699776
vt 0.322622 0.699776
vt 0.291629 0.778846
vt 0.339199 0.699776
vt 0.308207 0.778846
vt 0.378245 0.295153
vt 0.416784 0.364181
vt 0.638275 0.790112
vt 0.643609 0.721088
vt 0.669797 0.734683
vt 0.612087 0.776526
vt 0.659429 0.801093
vt 0.690951 0.745664
vt 0.670506 0.806840
vt 0.702028 0.751412
vt 0.676748 0.811910
vt 0.707589 0.757688
vt 0.695655 0.147484
vt 0.695655 0.281076
vt 0.569028 0.392535
vt 0.563746 0.405272
vt 0.496219 0.360913
vt 0.506003 0.351139
vt 0.519045 0.338096
vt 0.576057 0.375541
vt 0.642852 0.389380
vt 0.642852 0.407829
vt 0.642852 0.421659
vt 0.464607 0.288115
vt 0.451869 0.293396
vt 0.481591 0.281076
vt 0.467761 0.214281
vt 0.449314 0.214281
vt 0.435484 0.214281
vt 0.464607 0.140445
vt 0.451869 0.135173
vt 0.496219 0.067647
vt 0.506003 0.077430
vt 0.519045 0.090473
vt 0.481591 0.147484
vt 0.569028 0.036036
vt 0.563746 0.023297
vt 0.642852 0.006912
vt 0.642852 0.020743
vt 0.642852 0.039189
vt 0.576057 0.053019
vt 0.716687 0.036036
vt 0.721968 0.023297
vt 0.789495 0.067647
vt 0.779711 0.077430
vt 0.766669 0.090473
vt 0.709657 0.053019
vt 0.821107 0.140445
vt 0.833845 0.135173
vt 0.804114 0.147484
vt 0.817953 0.214281
vt 0.836400 0.214281
vt 0.850230 0.214281
vt 0.821107 0.288115
vt 0.833845 0.293396
vt 0.789495 0.360913
vt 0.779711 0.351139
vt 0.766669 0.338096
vt 0.804114 0.281076
vt 0.716687 0.392535
vt 0.721968 0.405272
vt 0.709657 0.375541
vt 0.227266 0.699776
vt 0.279221 0.699776
vt 0.279221 0.778846
vt 0.227266 0.778846
vt 0.185307 0.778846
vt 0.185307 0.699776
vt 0.185307 0.607149
vt 0.227266 0.607149
vt 0.279221 0.607149
vt 0.163337 0.699776
vt 0.163337 0.778846
vt 0.149351 0.775114
vt 0.149351 0.697764
vt 0.149351 0.607149
vt 0.163337 0.607149
vt 0.772734 0.644829
vt 0.720779 0.707483
vt 0.720779 0.644829
vt 0.772734 0.707483
vt 0.814693 0.707483
vt 0.814693 0.644829
vt 0.814693 0.571424
vt 0.772734 0.571424
vt 0.720779 0.571424
vt 0.836663 0.644829
vt 0.836663 0.707483
vt 0.850649 0.704517
vt 0.850649 0.643234
vt 0.850649 0.571424
vt 0.836663 0.571424
vt 0.772734 0.498028
vt 0.720779 0.498028
vt 0.720779 0.435374
vt 0.772734 0.435374
vt 0.814693 0.435374
vt 0.814693 0.498028
vt 0.836663 0.498028
vt 0.836663 0.435374
vt 0.850649 0.438330
vt 0.850649 0.499621
vt 0.915591 0.628347
vt 0.863636 0.628347
vt 0.863636 0.535720
vt 0.915591 0.535720
vt 0.957550 0.535720
vt 0.957550 0.628347
vt 0.957550 0.707418
vt 0.915591 0.707418
vt 0.863636 0.707418
vt 0.979520 0.628347
vt 0.979520 0.535720
vt 0.993506 0.535720
vt 0.993506 0.626335
vt 0.993506 0.703686
vt 0.979520 0.707418
vt 0.915591 0.443081
vt 0.863636 0.443081
vt 0.863636 0.364011
vt 0.915591 0.364011
vt 0.957550 0.364011
vt 0.957550 0.443081
vt 0.979520 0.443081
vt 0.979520 0.364011
vt 0.993506 0.367743
vt 0.993506 0.445094
vt 0.370124 0.498028
vt 0.422078 0.435374
vt 0.422078 0.498028
vt 0.370124 0.435374
vt 0.328164 0.435374
vt 0.328164 0.498028
vt 0.328164 0.571424
vt 0.370124 0.571424
vt 0.422078 0.571424
vt 0.306194 0.498028
vt 0.306194 0.435374
vt 0.292208 0.438330
vt 0.292208 0.499621
vt 0.292208 0.571424
vt 0.306194 0.571424
vt 0.370124 0.644829
vt 0.422078 0.644829
vt 0.422078 0.707483
vt 0.370124 0.707483
vt 0.328164 0.707483
vt 0.328164 0.644829
vt 0.306194 0.644829
vt 0.306194 0.707483
vt 0.292208 0.704517
vt 0.292208 0.643234
vt 0.227266 0.514510
vt 0.279221 0.435440
vt 0.279221 0.514510
vt 0.227266 0.435440
vt 0.185307 0.435440
vt 0.185307 0.514510
vt 0.163337 0.514510
vt 0.163337 0.435440
vt 0.149351 0.439172
vt 0.149351 0.516523
vt 0.288115 0.392535
vt 0.351140 0.351139
vt 0.360924 0.360913
vt 0.293397 0.405272
vt 0.214291 0.421659
vt 0.214291 0.407829
vt 0.214291 0.389380
vt 0.281086 0.375541
vt 0.338098 0.338096
vt 0.392536 0.288115
vt 0.405274 0.293396
vt 0.421659 0.214281
vt 0.407829 0.214281
vt 0.389382 0.214281
vt 0.375552 0.281076
vt 0.392536 0.140445
vt 0.351140 0.077430
vt 0.360924 0.067647
vt 0.405274 0.135173
vt 0.375552 0.147484
vt 0.338098 0.090473
vt 0.288115 0.036036
vt 0.214291 0.020743
vt 0.214291 0.006912
vt 0.293397 0.023297
vt 0.281086 0.053019
vt 0.214291 0.039189
vt 0.140456 0.036036
vt 0.077432 0.077430
vt 0.067648 0.067647
vt 0.135175 0.023297
vt 0.147485 0.053019
vt 0.090474 0.090473
vt 0.036036 0.140445
vt 0.023298 0.135173
vt 0.006912 0.214281
vt 0.020743 0.214281
vt 0.039189 0.214281
vt 0.053020 0.147484
vt 0.036036 0.288115
vt 0.077432 0.351139
vt 0.067648 0.360913
vt 0.023298 0.293396
vt 0.053020 0.281076
vt 0.090474 0.338096
vt 0.140456 0.392535
vt 0.135175 0.405272
vt 0.147485 0.375541
vt 0.058448 0.699776
vt 0.058448 0.778846
vt 0.006494 0.778846
vt 0.006494 0.699776
vt 0.006494 0.607149
vt 0.058448 0.607149
vt 0.100423 0.607149
vt 0.100423 0.699776
vt 0.100423 0.778846
vt 0.122393 0.699776
vt 0.122393 0.778846
vt 0.122393 0.607149
vt 0.136364 0.607149
vt 0.136364 0.697764
vt 0.136364 0.775114
vt 0.655838 0.644829
vt 0.707792 0.707483
vt 0.655838 0.707483
vt 0.707792 0.644829
vt 0.707792 0.571424
vt 0.655838 0.571424
vt 0.613862 0.571424
vt 0.613862 0.644829
vt 0.613862 0.707483
vt 0.591893 0.644829
vt 0.591893 0.707483
vt 0.591893 0.571424
vt 0.577922 0.571424
vt 0.577922 0.643234
vt 0.577922 0.704517
vt 0.655838 0.498028
vt 0.655838 0.435374
vt 0.707792 0.435374
vt 0.707792 0.498028
vt 0.613862 0.498028
vt 0.613862 0.435374
vt 0.591893 0.498028
vt 0.591893 0.435374
vt 0.577922 0.499621
vt 0.577922 0.438330
vt 0.941552 0.271204
vt 0.941552 0.178577
vt 0.993506 0.178577
vt 0.993506 0.271204
vt 0.993506 0.350275
vt 0.941552 0.350275
vt 0.899577 0.350275
vt 0.899577 0.271204
vt 0.899577 0.178577
vt 0.877607 0.271204
vt 0.877607 0.178577
vt 0.877607 0.350275
vt 0.863636 0.346543
vt 0.863636 0.269192
vt 0.863636 0.178577
vt 0.941552 0.085938
vt 0.941552 0.006868
vt 0.993506 0.006868
vt 0.993506 0.085938
vt 0.899577 0.085938
vt 0.899577 0.006868
vt 0.877607 0.085938
vt 0.877607 0.006868
vt 0.863636 0.087952
vt 0.863636 0.010600
vt 0.487019 0.498028
vt 0.435065 0.435374
vt 0.487019 0.435374
vt 0.435065 0.498028
vt 0.435065 0.571424
vt 0.487019 0.571424
vt 0.528995 0.571424
vt 0.528995 0.498028
vt 0.528995 0.435374
vt 0.550964 0.498028
vt 0.550964 0.435374
vt 0.550964 0.571424
vt 0.564935 0.571424
vt 0.564935 0.499621
vt 0.564935 0.438330
vt 0.487019 0.644829
vt 0.487019 0.707483
vt 0.435065 0.707483
vt 0.435065 0.644829
vt 0.528995 0.644829
vt 0.528995 0.707483
vt 0.550964 0.644829
vt 0.550964 0.707483
vt 0.564935 0.643234
vt 0.564935 0.704517
vt 0.058448 0.514510
vt 0.006494 0.435440
vt 0.058448 0.435440
vt 0.006494 0.514510
vt 0.100423 0.514510
vt 0.100423 0.435440
vt 0.122393 0.514510
vt 0.122393 0.435440
vt 0.136364 0.516523
vt 0.136364 0.439172
vt 0.380426 0.315557
vt 0.350715 0.262338
vt 0.339744 0.199996
vt 0.350715 0.137652
vt 0.380426 0.084441
vt 0.047085 0.315557
vt 0.017382 0.262338
vt 0.006410 0.199996
vt 0.017382 0.137652
vt 0.047085 0.084441
vt 0.306682 0.090473
vt 0.338522 0.147484
vt 0.350275 0.214281
vt 0.338522 0.281076
vt 0.306682 0.338096
vt 0.663824 0.090473
vt 0.707418 0.214281
vt 0.663824 0.338096
vn 0.6060 0.5388 0.5852
vn 0.4640 0.6761 0.5723
vn 0.3440 0.5208 0.7813
vn 0.5184 0.4101 0.7504
vn 0.5513 0.3852 0.7401
vn 0.6326 0.5072 0.5853
vn 0.7361 0.5446 0.4020
vn 0.7151 0.5798 0.3905
vn 0.5933 0.7369 0.3241
vn 0.4546 0.2232 0.8622
vn 0.2745 0.2804 0.9198
vn 0.4916 0.2096 0.8452
vn 0.4746 -0.0000 0.8802
vn 0.4371 -0.0000 0.8994
vn 0.2402 0.0001 0.9707
vn 0.4546 -0.2232 0.8622
vn 0.2743 -0.2801 0.9200
vn 0.3439 -0.5209 0.7813
vn 0.5185 -0.4100 0.7503
vn 0.5512 -0.3852 0.7401
vn 0.4938 -0.2086 0.8442
vn 0.6059 -0.5389 0.5853
vn 0.4640 -0.6760 0.5725
vn 0.5935 -0.7367 0.3242
vn 0.7150 -0.5798 0.3905
vn 0.7361 -0.5447 0.4019
vn 0.6280 -0.5127 0.5854
vn 0.8199 -0.5389 0.1934
vn 0.7324 -0.6760 0.0810
vn 0.8431 -0.5211 -0.1332
vn 0.9116 -0.4100 0.0307
vn 0.9206 -0.3854 0.0633
vn 0.8359 -0.5037 0.2182
vn 0.9712 -0.2232 -0.0835
vn 0.9221 -0.2801 -0.2670
vn 0.9768 -0.2096 -0.0430
vn 0.9972 0.0000 -0.0754
vn 0.9929 0.0000 -0.1185
vn 0.9466 0.0001 -0.3224
vn 0.9712 0.2232 -0.0836
vn 0.9221 0.2801 -0.2669
vn 0.8432 0.5209 -0.1331
vn 0.9116 0.4100 0.0307
vn 0.9205 0.3855 0.0634
vn 0.9766 0.2102 -0.0447
vn 0.8199 0.5388 0.1935
vn 0.7326 0.6759 0.0805
vn 0.8341 0.5076 0.2158
vn -0.1833 0.9241 0.3354
vn -0.1835 0.9238 0.3359
vn -0.3388 0.7071 0.6207
vn -0.3386 0.7071 0.6208
vn -0.3385 0.7071 0.6208
vn -0.1833 0.9240 0.3357
vn -0.0001 1.0000 0.0001
vn 0.0000 1.0000 -0.0001
vn -0.0000 1.0000 0.0000
vn -0.0051 0.9055 0.4243
vn -0.1549 0.6926 0.7045
vn 0.1765 0.9795 0.0966
vn -0.4430 0.3826 0.8108
vn -0.4427 0.3826 0.8110
vn -0.4429 0.3825 0.8109
vn -0.4792 -0.0000 0.8777
vn -0.4793 0.0000 0.8777
vn -0.4794 -0.0001 0.8776
vn -0.2593 0.3750 0.8900
vn -0.2924 -0.0000 0.9563
vn -0.4430 -0.3828 0.8107
vn -0.4427 -0.3828 0.8109
vn -0.3388 -0.7070 0.6208
vn -0.3390 -0.7072 0.6205
vn -0.3390 -0.7071 0.6205
vn -0.4429 -0.3827 0.8108
vn -0.2593 -0.3753 0.8899
vn -0.1553 -0.6926 0.7045
vn -0.1835 -0.9239 0.3358
vn -0.1834 -0.9238 0.3360
vn -0.0000 -1.0000 0.0000
vn 0.0000 -1.0000 -0.0001
vn -0.0001 -1.0000 0.0001
vn -0.1836 -0.9238 0.3360
vn -0.0051 -0.9055 0.4243
vn 0.1769 -0.9795 0.0968
vn 0.1836 -0.9238 -0.3360
vn 0.1834 -0.9238 -0.3360
vn 0.3389 -0.7070 -0.6207
vn 0.3386 -0.7071 -0.6208
vn 0.3389 -0.7071 -0.6206
vn 0.1835 -0.9238 -0.3361
vn 0.3542 -0.9055 -0.2336
vn 0.5085 -0.6927 -0.5115
vn 0.4430 -0.3827 -0.8107
vn 0.4426 -0.3827 -0.8109
vn 0.4429 -0.3828 -0.8108
vn 0.4789 0.0000 -0.8779
vn 0.4792 0.0000 -0.8777
vn 0.4791 0.0001 -0.8777
vn 0.6083 -0.3750 -0.6995
vn 0.6460 0.0000 -0.7633
vn 0.4430 0.3825 -0.8108
vn 0.4426 0.3825 -0.8110
vn 0.3389 0.7072 -0.6205
vn 0.3390 0.7071 -0.6205
vn 0.3390 0.7071 -0.6206
vn 0.4429 0.3826 -0.8108
vn 0.6084 0.3750 -0.6994
vn 0.5087 0.6926 -0.5113
vn 0.1834 0.9240 -0.3356
vn 0.1836 0.9238 -0.3361
vn 0.1834 0.9239 -0.3358
vn 0.3543 0.9054 -0.2339
vn -0.8199 0.5388 -0.1935
vn -0.9116 0.4100 -0.0306
vn -0.8432 0.5209 0.1331
vn -0.7324 0.6760 -0.0810
vn -0.5933 0.7369 -0.3240
vn -0.7150 0.5800 -0.3905
vn -0.7361 0.5446 -0.4020
vn -0.8343 0.5071 -0.2164
vn -0.9207 0.3848 -0.0645
vn -0.9712 0.2231 0.0835
vn -0.9224 0.2799 0.2662
vn -0.9466 -0.0000 0.3223
vn -0.9930 -0.0000 0.1185
vn -0.9971 0.0000 0.0756
vn -0.9768 0.2097 0.0431
vn -0.9712 -0.2232 0.0835
vn -0.9116 -0.4099 -0.0307
vn -0.8431 -0.5210 0.1331
vn -0.9224 -0.2795 0.2666
vn -0.9771 -0.2089 0.0407
vn -0.9207 -0.3848 -0.0644
vn -0.8199 -0.5389 -0.1934
vn -0.7150 -0.5800 -0.3905
vn -0.5935 -0.7367 -0.3241
vn -0.7323 -0.6761 -0.0813
vn -0.8319 -0.5127 -0.2124
vn -0.7360 -0.5446 -0.4020
vn -0.6060 -0.5388 -0.5852
vn -0.5186 -0.4100 -0.7504
vn -0.3436 -0.5210 -0.7813
vn -0.4640 -0.6760 -0.5724
vn -0.6356 -0.5042 -0.5846
vn -0.5524 -0.3846 -0.7396
vn -0.4547 -0.2232 -0.8622
vn -0.2743 -0.2800 -0.9200
vn -0.2405 -0.0000 -0.9707
vn -0.4374 0.0000 -0.8993
vn -0.4747 0.0000 -0.8802
vn -0.4917 -0.2096 -0.8452
vn -0.4547 0.2232 -0.8622
vn -0.5185 0.4100 -0.7504
vn -0.3437 0.5209 -0.7814
vn -0.2744 0.2803 -0.9198
vn -0.4902 0.2101 -0.8459
vn -0.5524 0.3845 -0.7396
vn -0.6060 0.5388 -0.5852
vn -0.4639 0.6761 -0.5725
vn -0.6326 0.5076 -0.5849
vn -0.1834 0.9238 0.3360
vn -0.3389 0.7071 0.6206
vn -0.3388 0.7073 0.6205
vn -0.1835 0.9239 0.3358
vn 0.0001 1.0000 -0.0001
vn -0.1833 0.9239 0.3359
vn -0.3389 0.7070 0.6208
vn -0.3544 0.9054 0.2338
vn -0.5086 0.6928 0.5112
vn -0.1765 0.9796 -0.0964
vn -0.4430 0.3826 0.8107
vn -0.4430 0.3828 0.8107
vn -0.4792 0.0001 0.8777
vn -0.4794 0.0000 0.8776
vn -0.4427 0.3828 0.8108
vn -0.6086 0.3750 0.6992
vn -0.6463 0.0001 0.7631
vn -0.3387 -0.7071 0.6207
vn -0.3389 -0.7071 0.6206
vn -0.4433 -0.3826 0.8106
vn -0.4427 -0.3830 0.8107
vn -0.3387 -0.7072 0.6206
vn -0.6086 -0.3750 0.6993
vn -0.5086 -0.6925 0.5117
vn 0.0001 -1.0000 -0.0001
vn -0.1835 -0.9239 0.3359
vn -0.1834 -0.9239 0.3359
vn -0.3544 -0.9054 0.2338
vn -0.1770 -0.9795 -0.0965
vn 0.1834 -0.9238 -0.3361
vn 0.3386 -0.7070 -0.6208
vn 0.3388 -0.7070 -0.6207
vn 0.1835 -0.9238 -0.3359
vn 0.1832 -0.9238 -0.3362
vn 0.3390 -0.7071 -0.6206
vn 0.0053 -0.9055 -0.4244
vn 0.1557 -0.6924 -0.7045
vn 0.4428 -0.3827 -0.8108
vn 0.4432 -0.3826 -0.8107
vn 0.4792 0.0001 -0.8777
vn 0.4793 0.0000 -0.8776
vn 0.4795 -0.0002 -0.8776
vn 0.4427 -0.3827 -0.8109
vn 0.2597 -0.3751 -0.8899
vn 0.2928 0.0001 -0.9562
vn 0.4430 0.3827 -0.8108
vn 0.3388 0.7072 -0.6206
vn 0.4429 0.3826 -0.8109
vn 0.4426 0.3827 -0.8109
vn 0.3393 0.7072 -0.6202
vn 0.2596 0.3751 -0.8899
vn 0.1552 0.6927 -0.7043
vn 0.1835 0.9239 -0.3359
vn 0.1835 0.9239 -0.3358
vn 0.1829 0.9240 -0.3358
vn 0.0053 0.9055 -0.4244
vn 0.8223 0.5346 -0.1947
vn 0.7403 0.6665 -0.0880
vn 0.8509 0.5115 0.1198
vn 0.9126 0.4075 -0.0321
vn 0.8843 0.0122 -0.4667
vn 0.8782 -0.0020 -0.4783
vn 0.8785 0.0174 -0.4775
vn 0.7183 0.5760 -0.3902
vn 0.6066 0.7235 -0.3296
vn 0.9718 0.2215 0.0805
vn 0.9266 0.2764 0.2548
vn 0.8824 0.0033 -0.4704
vn 0.8869 -0.0001 -0.4620
vn 0.9933 0.0001 0.1159
vn 0.9520 0.0001 0.3060
vn 0.9718 -0.2215 0.0805
vn 0.9267 -0.2761 0.2551
vn 0.8509 -0.5115 0.1198
vn 0.9127 -0.4075 -0.0322
vn 0.8844 -0.0124 -0.4666
vn 0.8811 -0.0022 -0.4730
vn 0.8223 -0.5347 -0.1947
vn 0.7403 -0.6665 -0.0880
vn 0.6067 -0.7234 -0.3296
vn 0.7183 -0.5760 -0.3902
vn 0.8785 -0.0176 -0.4775
vn 0.8792 -0.0033 -0.4764
vn 0.6108 -0.5347 -0.5839
vn 0.4766 -0.6666 -0.5732
vn 0.3625 -0.5115 -0.7791
vn 0.5237 -0.4074 -0.7482
vn 0.8726 -0.0125 -0.4883
vn 0.8790 0.0018 -0.4768
vn 0.4612 -0.2215 -0.8592
vn 0.2902 -0.2759 -0.9163
vn 0.8747 -0.0035 -0.4846
vn 0.8700 -0.0001 -0.4931
vn 0.4433 0.0001 -0.8964
vn 0.2614 0.0001 -0.9652
vn 0.4612 0.2215 -0.8592
vn 0.2904 0.2761 -0.9162
vn 0.3626 0.5115 -0.7791
vn 0.5236 0.4074 -0.7482
vn 0.8726 0.0123 -0.4883
vn 0.8761 0.0021 -0.4821
vn 0.6109 0.5346 -0.5839
vn 0.4763 0.6665 -0.5735
vn 0.8780 0.0031 -0.4787
vn 0.1827 0.9239 0.3362
vn 0.1826 0.9240 0.3359
vn 0.3376 0.7072 0.6213
vn 0.3375 0.7071 0.6213
vn 0.1826 0.9240 0.3360
vn 0.0000 1.0000 0.0001
vn 0.3607 0.9039 0.2299
vn 0.5141 0.6914 0.5075
vn 0.1835 0.9779 -0.0997
vn 0.4411 0.3826 0.8118
vn 0.4410 0.3826 0.8119
vn 0.4774 0.0001 0.8787
vn 0.4774 -0.0002 0.8787
vn 0.4773 0.0001 0.8787
vn 0.6135 0.3743 0.6953
vn 0.6505 -0.0000 0.7595
vn 0.4411 -0.3828 0.8117
vn 0.3376 -0.7070 0.6214
vn 0.3375 -0.7070 0.6214
vn 0.4410 -0.3828 0.8118
vn 0.6134 -0.3746 0.6953
vn 0.5139 -0.6915 0.5078
vn 0.1827 -0.9238 0.3364
vn 0.1828 -0.9238 0.3363
vn 0.1828 -0.9238 0.3364
vn 0.3607 -0.9039 0.2300
vn 0.1840 -0.9778 -0.1000
vn -0.1828 -0.9238 -0.3364
vn -0.1828 -0.9238 -0.3363
vn -0.3376 -0.7070 -0.6214
vn -0.3375 -0.7070 -0.6214
vn -0.3376 -0.7071 -0.6213
vn -0.1827 -0.9238 -0.3364
vn 0.0033 -0.9039 -0.4278
vn -0.1465 -0.6915 -0.7074
vn -0.4410 -0.3828 -0.8118
vn -0.4411 -0.3828 -0.8117
vn -0.4411 -0.3829 -0.8117
vn -0.4774 0.0001 -0.8787
vn -0.4775 0.0001 -0.8787
vn -0.4773 0.0001 -0.8787
vn -0.2495 -0.3744 -0.8931
vn -0.2831 0.0000 -0.9591
vn -0.4410 0.3826 -0.8119
vn -0.4411 0.3826 -0.8118
vn -0.3376 0.7072 -0.6212
vn -0.3375 0.7072 -0.6213
vn -0.4411 0.3827 -0.8118
vn -0.2495 0.3742 -0.8931
vn -0.1462 0.6915 -0.7075
vn -0.1827 0.9238 -0.3364
vn -0.1825 0.9240 -0.3360
vn 0.0033 0.9039 -0.4278
vn -0.6109 0.5347 0.5839
vn -0.5236 0.4074 0.7482
vn -0.3625 0.5115 0.7791
vn -0.4763 0.6665 0.5734
vn -0.6067 0.7234 0.3297
vn -0.7183 0.5760 0.3903
vn -0.8786 0.0190 0.4772
vn -0.8791 -0.0018 0.4766
vn -0.8723 0.0130 0.4887
vn -0.4613 0.2215 0.8591
vn -0.2903 0.2761 0.9162
vn -0.2615 -0.0000 0.9652
vn -0.4434 -0.0000 0.8963
vn -0.8696 0.0000 0.4937
vn -0.8747 0.0034 0.4847
vn -0.4613 -0.2215 0.8591
vn -0.5237 -0.4074 0.7481
vn -0.3624 -0.5116 0.7791
vn -0.2902 -0.2760 0.9163
vn -0.8761 -0.0023 0.4821
vn -0.8723 -0.0129 0.4887
vn -0.6108 -0.5347 0.5840
vn -0.7183 -0.5760 0.3902
vn -0.6067 -0.7232 0.3298
vn -0.4765 -0.6666 0.5732
vn -0.8780 -0.0033 0.4786
vn -0.8786 -0.0189 0.4772
vn -0.8223 -0.5347 0.1947
vn -0.9127 -0.4073 0.0323
vn -0.8509 -0.5115 -0.1198
vn -0.7402 -0.6666 0.0883
vn -0.8783 0.0019 0.4780
vn -0.8842 -0.0116 0.4670
vn -0.9719 -0.2214 -0.0805
vn -0.9267 -0.2761 -0.2551
vn -0.9521 -0.0000 -0.3058
vn -0.9933 -0.0000 -0.1159
vn -0.8875 0.0001 0.4607
vn -0.8825 -0.0032 0.4702
vn -0.9718 0.2214 -0.0805
vn -0.9127 0.4074 0.0323
vn -0.8509 0.5115 -0.1197
vn -0.9266 0.2764 -0.2548
vn -0.8811 0.0021 0.4728
vn -0.8841 0.0118 0.4671
vn -0.8223 0.5347 0.1947
vn -0.7403 0.6665 0.0879
vn -0.8793 0.0033 0.4762
vn 0.3375 0.7072 0.6213
vn 0.3377 0.7072 0.6211
vn 0.1827 0.9238 0.3365
vn 0.0001 1.0000 0.0001
vn -0.0001 1.0000 -0.0002
vn 0.1824 0.9240 0.3361
vn 0.3373 0.7072 0.6214
vn -0.0033 0.9039 0.4277
vn 0.1460 0.6917 0.7073
vn -0.1836 0.9779 0.0999
vn 0.4413 0.3826 0.8117
vn 0.4777 0.0001 0.8785
vn 0.4773 0.0000 0.8787
vn 0.4412 0.3827 0.8117
vn 0.2495 0.3744 0.8931
vn 0.2830 0.0001 0.9591
vn 0.4409 -0.3828 0.8118
vn 0.3376 -0.7071 0.6214
vn 0.3378 -0.7071 0.6212
vn 0.4413 -0.3828 0.8116
vn 0.4408 -0.3828 0.8119
vn 0.3373 -0.7071 0.6215
vn 0.2495 -0.3744 0.8930
vn 0.1465 -0.6913 0.7075
vn 0.0001 -1.0000 0.0001
vn 0.1828 -0.9239 0.3362
vn 0.1826 -0.9238 0.3365
vn -0.0033 -0.9038 0.4279
vn -0.1840 -0.9778 0.1001
vn -0.1827 -0.9239 -0.3363
vn -0.3378 -0.7070 -0.6213
vn -0.1826 -0.9238 -0.3364
vn -0.3373 -0.7071 -0.6215
vn -0.3608 -0.9038 -0.2301
vn -0.5138 -0.6914 -0.5080
vn -0.4411 -0.3825 -0.8119
vn -0.4413 -0.3827 -0.8116
vn -0.4777 0.0001 -0.8785
vn -0.4773 0.0001 -0.8788
vn -0.4772 0.0001 -0.8788
vn -0.4407 -0.3828 -0.8119
vn -0.6134 -0.3744 -0.6954
vn -0.6507 0.0001 -0.7593
vn -0.3375 0.7072 -0.6212
vn -0.3377 0.7072 -0.6212
vn -0.4414 0.3825 -0.8117
vn -0.4407 0.3826 -0.8120
vn -0.3373 0.7072 -0.6214
vn -0.6135 0.3744 -0.6953
vn -0.5138 0.6917 -0.5075
vn -0.1827 0.9239 -0.3362
vn -0.1825 0.9240 -0.3359
vn -0.1826 0.9239 -0.3362
vn -0.3608 0.9038 -0.2301
vn 0.8155 0.5347 0.2215
vn 0.6924 0.6666 0.2762
vn 0.6904 0.5115 0.5115
vn 0.8173 0.4074 0.4074
vn 0.8387 0.3851 0.3851
vn 0.8379 0.5043 0.2088
vn 0.8388 0.5444 -0.0000
vn 0.8174 0.5761 0.0000
vn 0.6904 0.7235 0.0000
vn 0.8155 0.2215 0.5347
vn 0.6924 0.2765 0.6665
vn 0.8378 0.2090 0.5044
vn 0.8387 0.0001 0.5446
vn 0.8174 0.0001 0.5761
vn 0.6904 0.0001 0.7234
vn 0.8155 -0.2215 0.5347
vn 0.6923 -0.2761 0.6667
vn 0.6904 -0.5115 0.5116
vn 0.8174 -0.4074 0.4073
vn 0.8385 -0.3855 0.3853
vn 0.8378 -0.2089 0.5044
vn 0.8155 -0.5348 0.2215
vn 0.6924 -0.6666 0.2761
vn 0.6905 -0.7234 0.0000
vn 0.8174 -0.5761 -0.0000
vn 0.8388 -0.5444 -0.0000
vn 0.8381 -0.5040 0.2089
vn 0.8155 -0.5348 -0.2215
vn 0.6924 -0.6666 -0.2761
vn 0.6904 -0.5115 -0.5115
vn 0.8174 -0.4074 -0.4073
vn 0.8385 -0.3854 -0.3852
vn 0.8378 -0.5044 -0.2089
vn 0.8155 -0.2215 -0.5347
vn 0.6923 -0.2760 -0.6668
vn 0.8379 -0.2089 -0.5042
vn 0.8387 0.0001 -0.5446
vn 0.8174 0.0001 -0.5761
vn 0.6904 0.0001 -0.7235
vn 0.8155 0.2215 -0.5347
vn 0.6924 0.2761 -0.6666
vn 0.6904 0.5115 -0.5115
vn 0.8174 0.4074 -0.4074
vn 0.8384 0.3854 -0.3853
vn 0.8379 0.2089 -0.5042
vn 0.8155 0.5347 -0.2215
vn 0.6924 0.6665 -0.2764
vn 0.8381 0.5040 -0.2089
vn 0.0000 0.9240 0.3824
vn 0.0000 0.7071 0.7071
vn 0.2071 0.9039 0.3743
vn 0.2093 0.6915 0.6914
vn 0.2089 0.9779 -0.0000
vn 0.0000 0.3827 0.9239
vn 0.0000 0.0001 1.0000
vn 0.2072 0.3744 0.9038
vn 0.2094 -0.0000 0.9778
vn 0.0000 -0.3825 0.9239
vn 0.0000 -0.3829 0.9238
vn 0.0000 -0.7070 0.7072
vn 0.2071 -0.3747 0.9037
vn 0.2089 -0.6915 0.6915
vn 0.0000 -0.9238 0.3828
vn 0.2072 -0.9039 0.3743
vn 0.2094 -0.9778 -0.0000
vn 0.0000 -0.9238 -0.3828
vn 0.0000 -0.7070 -0.7072
vn 0.2071 -0.9039 -0.3743
vn 0.2089 -0.6915 -0.6915
vn 0.0000 -0.3828 -0.9238
vn 0.0000 0.0001 -1.0000
vn 0.2070 -0.3744 -0.9039
vn 0.2090 0.0000 -0.9779
vn 0.0000 0.3826 -0.9239
vn 0.0000 0.7071 -0.7071
vn 0.2072 0.3742 -0.9039
vn 0.2093 0.6915 -0.6914
vn 0.0000 0.9240 -0.3824
vn 0.0000 0.9239 -0.3827
vn 0.2071 0.9039 -0.3744
vn -0.8155 0.5347 0.2215
vn -0.8173 0.4074 0.4074
vn -0.6905 0.5115 0.5115
vn -0.6924 0.6665 0.2764
vn -0.6904 0.7234 -0.0000
vn -0.8174 0.5761 -0.0000
vn -0.9998 0.0175 -0.0000
vn -1.0000 -0.0019 -0.0008
vn -0.9998 0.0123 0.0124
vn -0.8155 0.2215 0.5347
vn -0.6924 0.2761 0.6666
vn -0.6904 -0.0000 0.7235
vn -0.8174 -0.0000 0.5761
vn -0.9998 0.0000 0.0175
vn -1.0000 0.0033 0.0081
vn -0.8155 -0.2215 0.5347
vn -0.8174 -0.4074 0.4073
vn -0.6904 -0.5115 0.5115
vn -0.6923 -0.2759 0.6668
vn -1.0000 -0.0021 0.0052
vn -0.9998 -0.0123 0.0124
vn -0.8155 -0.5348 0.2215
vn -0.8174 -0.5761 -0.0000
vn -0.6905 -0.7233 -0.0000
vn -0.6924 -0.6666 0.2760
vn -1.0000 -0.0032 0.0014
vn -0.9998 -0.0175 -0.0000
vn -0.8155 -0.5348 -0.2215
vn -0.8174 -0.4074 -0.4073
vn -0.6904 -0.5115 -0.5115
vn -0.6924 -0.6666 -0.2760
vn -1.0000 0.0019 0.0008
vn -0.9998 -0.0124 -0.0124
vn -0.8155 -0.2215 -0.5347
vn -0.6923 -0.2762 -0.6667
vn -0.6904 0.0000 -0.7234
vn -0.8174 0.0000 -0.5761
vn -0.9998 -0.0000 -0.0175
vn -1.0000 -0.0033 -0.0081
vn -0.8155 0.2215 -0.5347
vn -0.8173 0.4074 -0.4074
vn -0.6905 0.5115 -0.5115
vn -0.6924 0.2765 -0.6665
vn -1.0000 0.0021 -0.0052
vn -0.9998 0.0124 -0.0124
vn -0.8155 0.5347 -0.2215
vn -0.6924 0.6666 -0.2761
vn -1.0000 0.0032 -0.0013
vn 0.0000 0.7072 0.7071
vn -0.2072 0.9038 0.3744
vn -0.2093 0.6917 0.6912
vn -0.2090 0.9779 0.0000
vn 0.0000 0.3826 0.9239
vn -0.0000 -0.0003 1.0000
vn -0.2072 0.3744 0.9038
vn -0.2090 0.0001 0.9779
vn 0.0000 -0.3828 0.9238
vn -0.2071 -0.3744 0.9038
vn -0.2090 -0.6913 0.6916
vn -0.2073 -0.9038 0.3744
vn -0.2095 -0.9778 0.0000
vn -0.2073 -0.9038 -0.3744
vn -0.2090 -0.6913 -0.6916
vn -0.2071 -0.3744 -0.9039
vn -0.2090 0.0001 -0.9779
vn 0.0000 0.7072 -0.7071
vn -0.2072 0.3743 -0.9038
vn -0.2093 0.6916 -0.6912
vn 0.0000 0.9240 -0.3823
vn -0.2073 0.9038 -0.3744
s 1
f 1/1/1 2/2/2 3/3/3
f 1/1/1 3/3/3 4/4/4
f 1/1/1 4/4/4 5/5/5
f 1/1/1 5/5/5 6/6/6
f 1/7/1 6/8/6 7/9/7
f 1/7/1 7/9/7 8/10/8
f 1/7/1 8/10/8 9/11/9
f 1/7/1 9/11/9 2/12/2
f 10/13/10 3/3/3 11/14/11
f 10/13/10 4/4/4 3/3/3
f 10/13/10 5/5/5 4/4/4
f 10/13/10 12/15/12 5/5/5
f 10/13/10 13/16/13 12/15/12
f 10/13/10 14/17/14 13/16/13
f 10/13/10 15/18/15 14/17/14
f 10/13/10 11/14/11 15/18/15
f 16/19/16 17/20/17 18/21/18
f 16/19/16 18/21/18 19/22/19
f 16/19/16 19/22/19 20/23/20
f 16/19/16 20/23/20 21/24/21
f 16/19/16 21/24/21 13/16/13
f 16/19/16 13/16/13 14/17/14
f 16/19/16 14/17/14 15/18/15
f 16/19/16 15/18/15 17/20/17
f 22/25/22 23/26/23 24/27/24
f 22/25/22 24/27/24 25/28/25
f 22/25/22 25/28/25 26/29/26
f 22/25/22 26/29/26 27/30/27
f 22/31/22 27/32/27 20/23/20
f 22/31/22 20/23/20 19/22/19
f 22/31/22 19/22/19 18/21/18
f 22/31/22 18/21/18 23/33/23
f 28/34/28 29/35/29 30/36/30
f 28/34/28 30/36/30 31/37/31
f 28/34/28 31/37/31 32/38/32
f 28/34/28 32/38/32 33/39/33
f 28/34/28 33/39/33 26/29/26
f 28/34/28 26/29/26 25/28/25
f 28/34/28 25/28/25 24/27/24
f 28/34/28 24/27/24 29/35/29
f 34/40/34 30/36/30 35/41/35
f 34/40/34 31/37/31 30/36/30
f 34/40/34 32/38/32 31/37/31
f 34/40/34 36/42/36 32/38/32
f 34/40/34 37/43/37 36/42/36
f 34/40/34 38/44/38 37/43/37
f 34/40/34 39/45/39 38/44/38
f 34/40/34 35/41/35 39/45/39
f 40/46/40 41/47/41 42/48/42
f 40/46/40 42/48/42 43/49/43
f 40/46/40 43/49/43 44/50/44
f 40/46/40 44/50/44 45/51/45
f 40/46/40 45/51/45 37/43/37
f 40/46/40 37/43/37 38/44/38
f 40/46/40 38/44/38 39/45/39
f 40/46/40 39/45/39 41/47/41
f 46/52/46 42/48/42 47/53/47
f 46/52/46 43/49/43 42/48/42
f 46/52/46 44/50/44 43/49/43
f 46/52/46 48/54/48 44/50/44
f 46/52/46 7/9/7 48/54/48
f 46/52/46 8/10/8 7/9/7
f 46/52/46 9/11/9 8/10/8
f 46/52/46 47/53/47 9/11/9
f 49/55/49 50/56/50 51/57/51
f 49/55/49 51/57/51 52/58/52
f 49/55/49 52/58/52 53/59/53
f 49/55/49 53/59/53 54/60/54
f 49/55/49 54/60/54 55/61/55
f 49/55/49 55/61/55 56/62/56
f 49/55/49 56/62/56 57/63/57
f 49/55/49 57/63/57 50/56/50
f 58/64/58 54/60/54 53/59/53
f 58/64/58 53/59/53 59/65/59
f 58/64/58 59/65/59 3/66/3
f 58/64/58 3/66/3 2/67/2
f 58/64/58 2/67/2 9/68/9
f 58/64/58 9/68/9 60/69/60
f 58/64/58 60/69/60 55/61/55
f 58/64/58 55/61/55 54/60/54
f 61/70/61 51/71/51 62/72/62
f 61/70/61 52/73/52 51/71/51
f 61/70/61 53/74/53 52/73/52
f 61/70/61 63/75/63 53/74/53
f 61/70/61 64/76/64 63/75/63
f 61/70/61 65/77/65 64/76/64
f 61/70/61 66/78/66 65/77/65
f 61/70/61 62/72/62 66/78/66
f 67/79/67 53/74/53 63/75/63
f 67/79/67 59/80/59 53/74/53
f 67/79/67 3/3/3 59/80/59
f 67/79/67 11/14/11 3/3/3
f 67/79/67 15/18/15 11/14/11
f 67/79/67 68/81/68 15/18/15
f 67/79/67 64/76/64 68/81/68
f 67/79/67 63/75/63 64/76/64
f 69/82/69 70/83/70 71/84/71
f 69/82/69 71/84/71 72/85/72
f 69/82/69 72/85/72 73/86/73
f 69/82/69 73/86/73 74/87/74
f 69/82/69 74/87/74 64/76/64
f 69/82/69 64/76/64 65/77/65
f 69/82/69 65/77/65 66/78/66
f 69/82/69 66/78/66 70/83/70
f 75/88/75 74/87/74 73/86/73
f 75/88/75 73/86/73 76/89/76
f 75/88/75 76/89/76 18/21/18
f 75/88/75 18/21/18 17/20/17
f 75/88/75 17/20/17 15/18/15
f 75/88/75 15/18/15 68/81/68
f 75/88/75 68/81/68 64/76/64
f 75/88/75 64/76/64 74/87/74
f 77/90/77 78/91/78 79/92/79
f 77/90/77 79/92/79 80/93/80
f 77/90/77 80/93/80 81/94/81
f 77/90/77 81/94/81 82/95/82
f 77/90/77 82/95/82 73/96/73
f 77/90/77 73/96/73 72/97/72
f 77/90/77 72/97/72 71/98/71
f 77/90/77 71/98/71 78/91/78
f 83/99/83 82/95/82 81/94/81
f 83/99/83 81/94/81 84/100/84
f 83/99/83 84/100/84 24/101/24
f 83/99/83 24/101/24 23/102/23
f 83/99/83 23/102/23 18/103/18
f 83/99/83 18/103/18 76/104/76
f 83/99/83 76/104/76 73/96/73
f 83/99/83 73/96/73 82/95/82
f 85/105/85 86/106/86 87/107/87
f 85/105/85 87/107/87 88/108/88
f 85/105/85 88/108/88 89/109/89
f 85/105/85 89/109/89 90/110/90
f 85/105/85 90/110/90 81/94/81
f 85/105/85 81/94/81 80/93/80
f 85/105/85 80/93/80 79/92/79
f 85/105/85 79/92/79 86/106/86
f 91/111/91 90/110/90 89/109/89
f 91/111/91 89/109/89 92/112/92
f 91/111/91 92/112/92 30/113/30
f 91/111/91 30/113/30 29/114/29
f 91/111/91 29/114/29 24/101/24
f 91/111/91 24/101/24 84/100/84
f 91/111/91 84/100/84 81/94/81
f 91/111/91 81/94/81 90/110/90
f 93/115/93 87/116/87 94/117/94
f 93/115/93 88/118/88 87/116/87
f 93/115/93 89/119/89 88/118/88
f 93/115/93 95/120/95 89/119/89
f 93/115/93 96/121/96 95/120/95
f 93/115/93 97/122/97 96/121/96
f 93/115/93 98/123/98 97/122/97
f 93/115/93 94/117/94 98/123/98
f 99/124/99 89/119/89 95/120/95
f 99/124/99 92/125/92 89/119/89
f 99/126/99 30/36/30 92/127/92
f 99/126/99 35/41/35 30/36/30
f 99/126/99 39/45/39 35/41/35
f 99/126/99 100/128/100 39/45/39
f 99/124/99 96/121/96 100/129/100
f 99/124/99 95/120/95 96/121/96
f 101/130/101 102/131/102 103/132/103
f 101/130/101 103/132/103 104/133/104
f 101/130/101 104/133/104 105/134/105
f 101/130/101 105/134/105 106/135/106
f 101/130/101 106/135/106 96/121/96
f 101/130/101 96/121/96 97/122/97
f 101/130/101 97/122/97 98/123/98
f 101/130/101 98/123/98 102/131/102
f 107/136/107 106/135/106 105/134/105
f 107/136/107 105/134/105 108/137/108
f 107/138/107 108/139/108 42/48/42
f 107/138/107 42/48/42 41/47/41
f 107/138/107 41/47/41 39/45/39
f 107/138/107 39/45/39 100/128/100
f 107/136/107 100/129/100 96/121/96
f 107/136/107 96/121/96 106/135/106
f 109/140/109 103/141/103 110/142/110
f 109/140/109 104/143/104 103/141/103
f 109/140/109 105/144/105 104/143/104
f 109/140/109 111/145/111 105/144/105
f 109/140/109 55/61/55 111/145/111
f 109/140/109 56/62/56 55/61/55
f 109/140/109 57/63/57 56/62/56
f 109/140/109 110/142/110 57/63/57
f 112/146/112 105/144/105 111/145/111
f 112/146/112 108/147/108 105/144/105
f 112/146/112 42/148/42 108/147/108
f 112/146/112 47/149/47 42/148/42
f 112/146/112 9/68/9 47/149/47
f 112/146/112 60/69/60 9/68/9
f 112/146/112 55/61/55 60/69/60
f 112/146/112 111/145/111 55/61/55
f 113/150/113 114/151/114 115/152/115
f 113/150/113 115/152/115 116/153/116
f 113/150/113 116/153/116 117/154/117
f 113/150/113 117/154/117 118/155/118
f 113/150/113 118/155/118 119/156/119
f 113/150/113 119/156/119 120/157/120
f 113/150/113 120/157/120 121/158/121
f 113/150/113 121/158/121 114/151/114
f 122/159/122 115/152/115 114/151/114
f 122/159/122 123/160/123 115/152/115
f 122/159/122 124/161/124 123/160/123
f 122/159/122 125/162/125 124/161/124
f 122/159/122 126/163/126 125/162/125
f 122/159/122 127/164/127 126/163/126
f 122/159/122 121/158/121 127/164/127
f 122/159/122 114/151/114 121/158/121
f 128/165/128 129/166/129 130/167/130
f 128/165/128 130/167/130 131/168/131
f 128/165/128 131/168/131 124/161/124
f 128/165/128 124/161/124 125/162/125
f 128/165/128 125/162/125 126/163/126
f 128/165/128 126/163/126 132/169/132
f 128/165/128 132/169/132 133/170/133
f 128/165/128 133/170/133 129/166/129
f 134/171/134 135/172/135 136/173/136
f 134/171/134 136/173/136 137/174/137
f 134/171/134 137/174/137 130/167/130
f 134/171/134 130/167/130 129/166/129
f 134/171/134 129/166/129 133/170/133
f 134/171/134 133/170/133 138/175/138
f 134/171/134 138/175/138 139/176/139
f 134/171/134 139/176/139 135/172/135
f 140/177/140 141/178/141 142/179/142
f 140/177/140 142/179/142 143/180/143
f 140/181/140 143/182/143 136/173/136
f 140/181/140 136/173/136 135/172/135
f 140/181/140 135/172/135 139/176/139
f 140/181/140 139/176/139 144/183/144
f 140/177/140 144/184/144 145/185/145
f 140/177/140 145/185/145 141/178/141
f 146/186/146 142/179/142 141/178/141
f 146/186/146 147/187/147 142/179/142
f 146/186/146 148/188/148 147/187/147
f 146/186/146 149/189/149 148/188/148
f 146/186/146 150/190/150 149/189/149
f 146/186/146 151/191/151 150/190/150
f 146/186/146 145/185/145 151/191/151
f 146/186/146 141/178/141 145/185/145
f 152/192/152 153/193/153 154/194/154
f 152/192/152 154/194/154 155/195/155
f 152/192/152 155/195/155 148/188/148
f 152/192/152 148/188/148 149/189/149
f 152/192/152 149/189/149 150/190/150
f 152/192/152 150/190/150 156/196/156
f 152/192/152 156/196/156 157/197/157
f 152/192/152 157/197/157 153/193/153
f 158/198/158 154/194/154 153/193/153
f 158/198/158 159/199/159 154/194/154
f 158/200/158 117/154/117 159/201/159
f 158/200/158 118/155/118 117/154/117
f 158/200/158 119/156/119 118/155/118
f 158/200/158 160/202/160 119/156/119
f 158/198/158 157/197/157 160/203/160
f 158/198/158 153/193/153 157/197/157
f 161/204/161 162/205/162 163/206/163
f 161/204/161 163/206/163 164/207/164
f 161/204/161 164/207/164 165/208/55
f 161/204/161 165/208/55 166/209/165
f 161/204/161 166/209/165 167/210/57
f 161/204/161 167/210/57 168/211/166
f 161/204/161 168/211/166 169/212/167
f 161/204/161 169/212/167 162/205/162
f 170/213/168 171/214/169 169/212/167
f 170/213/168 169/212/167 168/211/166
f 170/213/168 168/211/166 167/210/57
f 170/213/168 167/210/57 172/215/170
f 170/213/168 172/215/170 117/216/117
f 170/213/168 117/216/117 116/217/116
f 170/213/168 116/217/116 115/218/115
f 170/213/168 115/218/115 171/214/169
f 173/219/171 163/220/163 162/221/162
f 173/219/171 174/222/172 163/220/163
f 173/219/171 175/223/173 174/222/172
f 173/219/171 176/224/65 175/223/173
f 173/219/171 177/225/174 176/224/65
f 173/219/171 178/226/175 177/225/174
f 173/219/171 169/227/167 178/226/175
f 173/219/171 162/221/162 169/227/167
f 179/228/176 169/227/167 171/229/169
f 179/228/176 178/226/175 169/227/167
f 179/228/176 177/225/174 178/226/175
f 179/228/176 180/230/177 177/225/174
f 179/231/176 124/161/124 180/232/177
f 179/231/176 123/160/123 124/161/124
f 179/231/176 115/152/115 123/160/123
f 179/231/176 171/233/169 115/152/115
f 181/234/69 182/235/178 183/236/179
f 181/234/69 183/236/179 184/237/180
f 181/234/69 184/237/180 175/223/173
f 181/234/69 175/223/173 176/224/65
f 181/234/69 176/224/65 177/225/174
f 181/234/69 177/225/174 185/238/181
f 181/234/69 185/238/181 186/239/182
f 181/234/69 186/239/182 182/235/178
f 187/240/183 188/241/184 186/239/182
f 187/240/183 186/239/182 185/238/181
f 187/240/183 185/238/181 177/225/174
f 187/240/183 177/225/174 180/230/177
f 187/242/183 180/232/177 124/161/124
f 187/242/183 124/161/124 131/168/131
f 187/242/183 131/168/131 130/167/130
f 187/242/183 130/167/130 188/243/184
f 189/244/77 190/245/185 191/246/81
f 189/244/77 191/246/81 192/247/186
f 189/244/77 192/247/186 183/248/179
f 189/244/77 183/248/179 182/249/178
f 189/244/77 182/249/178 186/250/182
f 189/244/77 186/250/182 193/251/187
f 189/244/77 193/251/187 194/252/79
f 189/244/77 194/252/79 190/245/185
f 195/253/188 196/254/189 194/252/79
f 195/253/188 194/252/79 193/251/187
f 195/253/188 193/251/187 186/250/182
f 195/253/188 186/250/182 188/255/184
f 195/253/188 188/255/184 130/256/130
f 195/253/188 130/256/130 137/257/137
f 195/253/188 137/257/137 136/258/136
f 195/253/188 136/258/136 196/254/189
f 197/259/190 198/260/191 199/261/192
f 197/259/190 199/261/192 200/262/193
f 197/259/190 200/262/193 191/246/81
f 197/259/190 191/246/81 190/245/185
f 197/259/190 190/245/185 194/252/79
f 197/259/190 194/252/79 201/263/194
f 197/259/190 201/263/194 202/264/195
f 197/259/190 202/264/195 198/260/191
f 203/265/196 204/266/197 202/264/195
f 203/265/196 202/264/195 201/263/194
f 203/265/196 201/263/194 194/252/79
f 203/265/196 194/252/79 196/254/189
f 203/265/196 196/254/189 136/258/136
f 203/265/196 136/258/136 143/267/143
f 203/265/196 143/267/143 142/268/142
f 203/265/196 142/268/142 204/266/197
f 205/269/198 199/270/192 198/271/191
f 205/269/198 206/272/199 199/270/192
f 205/269/198 207/273/200 206/272/199
f 205/269/198 208/274/201 207/273/200
f 205/269/198 209/275/202 208/274/201
f 205/269/198 210/276/203 209/275/202
f 205/269/198 202/277/195 210/276/203
f 205/269/198 198/271/191 202/277/195
f 211/278/204 202/277/195 204/279/197
f 211/278/204 210/276/203 202/277/195
f 211/278/204 209/275/202 210/276/203
f 211/278/204 212/280/205 209/275/202
f 211/278/204 148/188/148 212/280/205
f 211/278/204 147/187/147 148/188/148
f 211/278/204 142/179/142 147/187/147
f 211/278/204 204/279/197 142/179/142
f 213/281/206 214/282/104 215/283/207
f 213/281/206 215/283/207 216/284/208
f 213/281/206 216/284/208 207/273/200
f 213/281/206 207/273/200 208/274/201
f 213/281/206 208/274/201 209/275/202
f 213/281/206 209/275/202 217/285/209
f 213/281/206 217/285/209 218/286/210
f 213/281/206 218/286/210 214/282/104
f 219/287/211 220/288/212 218/286/210
f 219/287/211 218/286/210 217/285/209
f 219/287/211 217/285/209 209/275/202
f 219/287/211 209/275/202 212/280/205
f 219/287/211 212/280/205 148/188/148
f 219/287/211 148/188/148 155/195/155
f 219/287/211 155/195/155 154/194/154
f 219/287/211 154/194/154 220/288/212
f 221/289/213 215/290/207 214/291/104
f 221/289/213 222/292/214 215/290/207
f 221/289/213 165/208/55 222/292/214
f 221/289/213 166/209/165 165/208/55
f 221/289/213 167/210/57 166/209/165
f 221/289/213 223/293/215 167/210/57
f 221/289/213 218/294/210 223/293/215
f 221/289/213 214/291/104 218/294/210
f 224/295/216 218/294/210 220/296/212
f 224/295/216 223/293/215 218/294/210
f 224/295/216 167/210/57 223/293/215
f 224/295/216 172/215/170 167/210/57
f 224/295/216 117/216/117 172/215/170
f 224/295/216 159/297/159 117/216/117
f 224/295/216 154/298/154 159/297/159
f 224/295/216 220/296/212 154/298/154
f 45/51/45 48/54/48 27/30/27
f 120/157/120 160/202/160 138/175/138
f 225/299/217 226/300/218 227/301/219
f 225/299/217 227/301/219 228/302/220
f 225/299/217 228/302/220 229/303/221
f 225/299/217 229/303/221 230/304/222
f 225/299/217 230/304/222 231/305/223
f 225/299/217 231/305/223 232/306/224
f 225/299/217 232/306/224 233/307/225
f 225/299/217 233/307/225 226/300/218
f 234/308/226 227/301/219 235/309/227
f 234/308/226 228/302/220 227/301/219
f 234/308/226 229/303/221 228/302/220
f 234/308/226 236/310/228 229/303/221
f 234/308/226 237/311/229 236/310/228
f 234/308/226 238/312/230 237/311/229
f 234/308/226 239/313/231 238/312/230
f 234/308/226 235/309/227 239/313/231
f 240/314/232 241/315/233 242/316/234
f 240/314/232 242/316/234 243/317/235
f 240/314/232 243/317/235 244/318/236
f 240/314/232 244/318/236 245/319/237
f 240/314/232 245/319/237 237/311/229
f 240/314/232 237/311/229 238/312/230
f 240/314/232 238/312/230 239/313/231
f 240/314/232 239/313/231 241/315/233
f 246/320/238 247/321/239 248/322/240
f 246/320/238 248/322/240 249/323/241
f 246/320/238 249/323/241 250/324/242
f 246/320/238 250/324/242 251/325/243
f 246/320/238 251/325/243 244/318/236
f 246/320/238 244/318/236 243/317/235
f 246/320/238 243/317/235 242/316/234
f 246/320/238 242/316/234 247/321/239
f 252/326/244 253/327/245 254/328/246
f 252/326/244 254/328/246 255/329/247
f 252/326/244 255/329/247 256/330/248
f 252/326/244 256/330/248 257/331/249
f 252/332/244 257/333/249 250/324/242
f 252/332/244 250/324/242 249/323/241
f 252/332/244 249/323/241 248/322/240
f 252/332/244 248/322/240 253/334/245
f 258/335/250 254/328/246 259/336/251
f 258/335/250 255/329/247 254/328/246
f 258/335/250 256/330/248 255/329/247
f 258/335/250 260/337/252 256/330/248
f 258/335/250 261/338/253 260/337/252
f 258/335/250 262/339/254 261/338/253
f 258/335/250 263/340/255 262/339/254
f 258/335/250 259/336/251 263/340/255
f 264/341/256 265/342/257 266/343/258
f 264/341/256 266/343/258 267/344/259
f 264/341/256 267/344/259 268/345/260
f 264/341/256 268/345/260 269/346/261
f 264/341/256 269/346/261 261/338/253
f 264/341/256 261/338/253 262/339/254
f 264/341/256 262/339/254 263/340/255
f 264/341/256 263/340/255 265/342/257
f 270/347/262 266/343/258 271/348/263
f 270/347/262 267/344/259 266/343/258
f 270/347/262 268/345/260 267/344/259
f 270/347/262 272/349/264 268/345/260
f 270/350/262 231/305/223 272/351/264
f 270/350/262 232/306/224 231/305/223
f 270/350/262 233/307/225 232/306/224
f 270/350/262 271/352/263 233/307/225
f 273/353/265 274/354/266 275/355/267
f 273/353/265 275/355/267 276/356/267
f 273/353/265 276/356/267 277/357/268
f 273/353/265 277/357/268 278/358/269
f 273/353/265 278/358/269 279/359/57
f 273/353/265 279/359/57 280/360/270
f 273/353/265 280/360/270 281/361/57
f 273/353/265 281/361/57 274/354/266
f 282/362/271 278/358/269 277/357/268
f 282/362/271 277/357/268 283/363/272
f 282/362/271 283/363/272 227/364/219
f 282/362/271 227/364/219 226/365/218
f 282/362/271 226/365/218 233/366/225
f 282/362/271 233/366/225 284/367/273
f 282/362/271 284/367/273 279/359/57
f 282/362/271 279/359/57 278/358/269
f 285/368/274 275/369/267 286/370/274
f 285/368/274 276/371/267 275/369/267
f 285/368/274 277/372/268 276/371/267
f 285/368/274 287/373/275 277/372/268
f 285/368/274 288/374/276 287/373/275
f 285/368/274 289/375/277 288/374/276
f 285/368/274 290/376/278 289/375/277
f 285/368/274 286/370/274 290/376/278
f 291/377/279 277/372/268 287/373/275
f 291/377/279 283/378/272 277/372/268
f 291/379/279 227/301/219 283/380/272
f 291/379/279 235/309/227 227/301/219
f 291/379/279 239/313/231 235/309/227
f 291/379/279 292/381/280 239/313/231
f 291/377/279 288/374/276 292/382/280
f 291/377/279 287/373/275 288/374/276
f 293/383/281 294/384/281 295/385/282
f 293/383/281 295/385/282 296/386/282
f 293/383/281 296/386/282 297/387/283
f 293/383/281 297/387/283 298/388/284
f 293/383/281 298/388/284 288/374/276
f 293/383/281 288/374/276 289/375/277
f 293/383/281 289/375/277 290/376/278
f 293/383/281 290/376/278 294/384/281
f 299/389/285 298/388/284 297/387/283
f 299/389/285 297/387/283 300/390/286
f 299/391/285 300/392/286 242/316/234
f 299/391/285 242/316/234 241/315/233
f 299/391/285 241/315/233 239/313/231
f 299/391/285 239/313/231 292/381/280
f 299/389/285 292/382/280 288/374/276
f 299/389/285 288/374/276 298/388/284
f 301/393/287 302/394/288 303/395/79
f 301/393/287 303/395/79 304/396/79
f 301/393/287 304/396/79 305/397/79
f 301/393/287 305/397/79 306/398/289
f 301/393/287 306/398/289 297/399/283
f 301/393/287 297/399/283 296/400/282
f 301/393/287 296/400/282 295/401/282
f 301/393/287 295/401/282 302/394/288
f 307/402/290 306/398/289 305/397/79
f 307/402/290 305/397/79 308/403/291
f 307/402/290 308/403/291 248/404/240
f 307/402/290 248/404/240 247/405/239
f 307/402/290 247/405/239 242/406/234
f 307/402/290 242/406/234 300/407/286
f 307/402/290 300/407/286 297/399/283
f 307/402/290 297/399/283 306/398/289
f 309/408/292 310/409/293 311/410/294
f 309/408/292 311/410/294 312/411/295
f 309/408/292 312/411/295 313/412/296
f 309/408/292 313/412/296 314/413/297
f 309/408/292 314/413/297 305/397/79
f 309/408/292 305/397/79 304/396/79
f 309/408/292 304/396/79 303/395/79
f 309/408/292 303/395/79 310/409/293
f 315/414/298 314/413/297 313/412/296
f 315/414/298 313/412/296 316/415/299
f 315/414/298 316/415/299 254/416/246
f 315/414/298 254/416/246 253/417/245
f 315/414/298 253/417/245 248/404/240
f 315/414/298 248/404/240 308/403/291
f 315/414/298 308/403/291 305/397/79
f 315/414/298 305/397/79 314/413/297
f 317/418/300 311/419/294 318/420/301
f 317/418/300 312/421/295 311/419/294
f 317/418/300 313/422/296 312/421/295
f 317/418/300 319/423/302 313/422/296
f 317/418/300 320/424/303 319/423/302
f 317/418/300 321/425/304 320/424/303
f 317/418/300 322/426/305 321/425/304
f 317/418/300 318/420/301 322/426/305
f 323/427/306 313/422/296 319/423/302
f 323/427/306 316/428/299 313/422/296
f 323/427/306 254/328/246 316/428/299
f 323/427/306 259/336/251 254/328/246
f 323/427/306 263/340/255 259/336/251
f 323/427/306 324/429/307 263/340/255
f 323/427/306 320/424/303 324/429/307
f 323/427/306 319/423/302 320/424/303
f 325/430/308 326/431/309 327/432/310
f 325/430/308 327/432/310 328/433/311
f 325/430/308 328/433/311 329/434/310
f 325/430/308 329/434/310 330/435/312
f 325/430/308 330/435/312 320/424/303
f 325/430/308 320/424/303 321/425/304
f 325/430/308 321/425/304 322/426/305
f 325/430/308 322/426/305 326/431/309
f 331/436/313 330/435/312 329/434/310
f 331/436/313 329/434/310 332/437/314
f 331/436/313 332/437/314 266/343/258
f 331/436/313 266/343/258 265/342/257
f 331/436/313 265/342/257 263/340/255
f 331/436/313 263/340/255 324/429/307
f 331/436/313 324/429/307 320/424/303
f 331/436/313 320/424/303 330/435/312
f 333/438/315 327/439/310 334/440/316
f 333/438/315 328/441/311 327/439/310
f 333/438/315 329/442/310 328/441/311
f 333/438/315 335/443/316 329/442/310
f 333/438/315 279/359/57 335/443/316
f 333/438/315 280/360/270 279/359/57
f 333/438/315 281/361/57 280/360/270
f 333/438/315 334/440/316 281/361/57
f 336/444/317 329/442/310 335/443/316
f 336/444/317 332/445/314 329/442/310
f 336/444/317 266/446/258 332/445/314
f 336/444/317 271/447/263 266/446/258
f 336/444/317 233/366/225 271/447/263
f 336/444/317 284/367/273 233/366/225
f 336/444/317 279/359/57 284/367/273
f 336/444/317 335/443/316 279/359/57
f 337/448/318 338/449/319 339/450/320
f 337/448/318 339/450/320 340/451/321
f 337/452/318 340/453/321 341/454/322
f 337/452/318 341/454/322 342/455/323
f 337/452/318 342/455/323 343/456/324
f 337/452/318 343/456/324 344/457/325
f 337/448/318 344/458/325 345/459/326
f 337/448/318 345/459/326 338/449/319
f 346/460/327 339/450/320 338/449/319
f 346/460/327 347/461/328 339/450/320
f 346/460/327 348/462/329 347/461/328
f 346/460/327 349/463/330 348/462/329
f 346/460/327 350/464/331 349/463/330
f 346/460/327 351/465/332 350/464/331
f 346/460/327 345/459/326 351/465/332
f 346/460/327 338/449/319 345/459/326
f 352/466/333 353/467/334 354/468/335
f 352/466/333 354/468/335 355/469/336
f 352/466/333 355/469/336 348/462/329
f 352/466/333 348/462/329 349/463/330
f 352/466/333 349/463/330 350/464/331
f 352/466/333 350/464/331 356/470/337
f 352/466/333 356/470/337 357/471/338
f 352/466/333 357/471/338 353/467/334
f 358/472/339 359/473/340 360/474/341
f 358/472/339 360/474/341 361/475/342
f 358/476/339 361/477/342 354/468/335
f 358/476/339 354/468/335 353/467/334
f 358/476/339 353/467/334 357/471/338
f 358/476/339 357/471/338 362/478/343
f 358/472/339 362/479/343 363/480/344
f 358/472/339 363/480/344 359/473/340
f 364/481/345 365/482/346 366/483/347
f 364/481/345 366/483/347 367/484/348
f 364/481/345 367/484/348 360/474/341
f 364/481/345 360/474/341 359/473/340
f 364/481/345 359/473/340 363/480/344
f 364/481/345 363/480/344 368/485/349
f 364/481/345 368/485/349 369/486/350
f 364/481/345 369/486/350 365/482/346
f 370/487/351 366/483/347 365/482/346
f 370/487/351 371/488/352 366/483/347
f 370/487/351 372/489/353 371/488/352
f 370/487/351 373/490/354 372/489/353
f 370/487/351 374/491/355 373/490/354
f 370/487/351 375/492/356 374/491/355
f 370/487/351 369/486/350 375/492/356
f 370/487/351 365/482/346 369/486/350
f 376/493/357 377/494/358 378/495/359
f 376/493/357 378/495/359 379/496/360
f 376/493/357 379/496/360 372/489/353
f 376/493/357 372/489/353 373/490/354
f 376/493/357 373/490/354 374/491/355
f 376/493/357 374/491/355 380/497/361
f 376/493/357 380/497/361 381/498/362
f 376/493/357 381/498/362 377/494/358
f 382/499/363 378/495/359 377/494/358
f 382/499/363 383/500/364 378/495/359
f 382/499/363 341/454/322 383/500/364
f 382/499/363 342/455/323 341/454/322
f 382/499/363 343/456/324 342/455/323
f 382/499/363 384/501/365 343/456/324
f 382/499/363 381/498/362 384/501/365
f 382/499/363 377/494/358 381/498/362
f 385/502/269 386/503/366 387/504/367
f 385/502/269 387/504/367 388/505/368
f 385/502/269 388/505/368 389/506/369
f 385/502/269 389/506/369 390/507/270
f 385/502/269 390/507/270 391/508/370
f 385/502/269 391/508/370 392/509/371
f 385/502/269 392/509/371 393/510/372
f 385/502/269 393/510/372 386/503/366
f 394/511/373 395/512/374 393/510/372
f 394/511/373 393/510/372 392/509/371
f 394/511/373 392/509/371 391/508/370
f 394/511/373 391/508/370 396/513/375
f 394/511/373 396/513/375 341/514/322
f 394/511/373 341/514/322 340/515/321
f 394/511/373 340/515/321 339/516/320
f 394/511/373 339/516/320 395/512/374
f 397/517/275 387/518/367 386/519/366
f 397/517/275 398/520/376 387/518/367
f 397/517/275 399/521/377 398/520/376
f 397/517/275 400/522/276 399/521/377
f 397/517/275 401/523/378 400/522/276
f 397/517/275 402/524/379 401/523/378
f 397/517/275 393/525/372 402/524/379
f 397/517/275 386/519/366 393/525/372
f 403/526/380 393/525/372 395/527/374
f 403/526/380 402/524/379 393/525/372
f 403/526/380 401/523/378 402/524/379
f 403/526/380 404/528/381 401/523/378
f 403/526/380 348/462/329 404/528/381
f 403/526/380 347/461/328 348/462/329
f 403/526/380 339/450/320 347/461/328
f 403/526/380 395/527/374 339/450/320
f 405/529/382 406/530/383 407/531/384
f 405/529/382 407/531/384 408/532/385
f 405/529/382 408/532/385 399/521/377
f 405/529/382 399/521/377 400/522/276
f 405/529/382 400/522/276 401/523/378
f 405/529/382 401/523/378 409/533/386
f 405/529/382 409/533/386 410/534/387
f 405/529/382 410/534/387 406/530/383
f 411/535/388 412/536/389 410/534/387
f 411/535/388 410/534/387 409/533/386
f 411/535/388 409/533/386 401/523/378
f 411/535/388 401/523/378 404/528/381
f 411/535/388 404/528/381 348/462/329
f 411/535/388 348/462/329 355/469/336
f 411/535/388 355/469/336 354/468/335
f 411/535/388 354/468/335 412/536/389
f 413/537/289 414/538/390 415/539/390
f 413/537/289 415/539/390 416/540/391
f 413/537/289 416/540/391 407/541/384
f 413/537/289 407/541/384 406/542/383
f 413/537/289 406/542/383 410/543/387
f 413/537/289 410/543/387 417/544/392
f 413/537/289 417/544/392 418/545/390
f 413/537/289 418/545/390 414/538/390
f 419/546/393 420/547/394 418/545/390
f 419/546/393 418/545/390 417/544/392
f 419/546/393 417/544/392 410/543/387
f 419/546/393 410/543/387 412/548/389
f 419/546/393 412/548/389 354/549/335
f 419/546/393 354/549/335 361/550/342
f 419/546/393 361/550/342 360/551/341
f 419/546/393 360/551/341 420/547/394
f 421/552/395 422/553/296 423/554/396
f 421/552/395 423/554/396 424/555/395
f 421/552/395 424/555/395 415/539/390
f 421/552/395 415/539/390 414/538/390
f 421/552/395 414/538/390 418/545/390
f 421/552/395 418/545/390 425/556/397
f 421/552/395 425/556/397 426/557/398
f 421/552/395 426/557/398 422/553/296
f 427/558/399 428/559/400 426/557/398
f 427/558/399 426/557/398 425/556/397
f 427/558/399 425/556/397 418/545/390
f 427/558/399 418/545/390 420/547/394
f 427/558/399 420/547/394 360/551/341
f 427/558/399 360/551/341 367/560/348
f 427/558/399 367/560/348 366/561/347
f 427/558/399 366/561/347 428/559/400
f 429/562/401 423/563/396 422/564/296
f 429/562/401 430/565/402 423/563/396
f 429/562/401 431/566/403 430/565/402
f 429/562/401 432/567/404 431/566/403
f 429/562/401 433/568/405 432/567/404
f 429/562/401 434/569/406 433/568/405
f 429/562/401 426/570/398 434/569/406
f 429/562/401 422/564/296 426/570/398
f 435/571/407 426/570/398 428/572/400
f 435/571/407 434/569/406 426/570/398
f 435/571/407 433/568/405 434/569/406
f 435/571/407 436/573/408 433/568/405
f 435/574/407 372/489/353 436/575/408
f 435/574/407 371/488/352 372/489/353
f 435/574/407 366/483/347 371/488/352
f 435/574/407 428/576/400 366/483/347
f 437/577/309 438/578/409 439/579/410
f 437/577/309 439/579/410 440/580/411
f 437/577/309 440/580/411 431/566/403
f 437/577/309 431/566/403 432/567/404
f 437/577/309 432/567/404 433/568/405
f 437/577/309 433/568/405 441/581/412
f 437/577/309 441/581/412 442/582/413
f 437/577/309 442/582/413 438/578/409
f 443/583/414 444/584/415 442/582/413
f 443/583/414 442/582/413 441/581/412
f 443/583/414 441/581/412 433/568/405
f 443/583/414 433/568/405 436/573/408
f 443/585/414 436/575/408 372/489/353
f 443/585/414 372/489/353 379/496/360
f 443/585/414 379/496/360 378/495/359
f 443/585/414 378/495/359 444/586/415
f 445/587/416 439/588/410 438/589/409
f 445/587/416 446/590/417 439/588/410
f 445/587/416 389/506/369 446/590/417
f 445/587/416 390/507/270 389/506/369
f 445/587/416 391/508/370 390/507/270
f 445/587/416 447/591/418 391/508/370
f 445/587/416 442/592/413 447/591/418
f 445/587/416 438/589/409 442/592/413
f 448/593/419 442/592/413 444/594/415
f 448/593/419 447/591/418 442/592/413
f 448/593/419 391/508/370 447/591/418
f 448/593/419 396/513/375 391/508/370
f 448/593/419 341/514/322 396/513/375
f 448/593/419 383/595/364 341/514/322
f 448/593/419 378/596/359 383/595/364
f 448/593/419 444/594/415 378/596/359
f 272/351/264 230/304/222 257/333/249
f 356/597/337 351/598/332 344/457/325
f 449/599/420 450/600/421 451/601/422
f 449/599/420 451/601/422 452/602/423
f 449/599/420 452/602/423 453/603/424
f 449/599/420 453/603/424 454/604/425
f 449/599/420 454/604/425 455/605/426
f 449/599/420 455/605/426 456/606/427
f 449/599/420 456/606/427 457/607/428
f 449/599/420 457/607/428 450/600/421
f 458/608/429 451/601/422 459/609/430
f 458/608/429 452/602/423 451/601/422
f 458/608/429 453/603/424 452/602/423
f 458/608/429 460/610/431 453/603/424
f 458/608/429 461/611/432 460/610/431
f 458/608/429 462/612/433 461/611/432
f 458/608/429 463/613/434 462/612/433
f 458/608/429 459/609/430 463/613/434
f 464/614/435 465/615/436 466/616/437
f 464/614/435 466/616/437 467/617/438
f 464/614/435 467/617/438 468/618/439
f 464/614/435 468/618/439 469/619/440
f 464/614/435 469/619/440 461/611/432
f 464/614/435 461/611/432 462/612/433
f 464/614/435 462/612/433 463/613/434
f 464/614/435 463/613/434 465/615/436
f 470/620/441 471/621/442 472/622/443
f 470/620/441 472/622/443 473/623/444
f 470/620/441 473/623/444 474/624/445
f 470/620/441 474/624/445 475/625/446
f 470/620/441 475/625/446 468/618/439
f 470/620/441 468/618/439 467/617/438
f 470/620/441 467/617/438 466/616/437
f 470/620/441 466/616/437 471/621/442
f 476/626/447 477/627/448 478/628/449
f 476/626/447 478/628/449 479/629/450
f 476/626/447 479/629/450 480/630/451
f 476/626/447 480/630/451 481/631/452
f 476/626/447 481/631/452 474/624/445
f 476/626/447 474/624/445 473/623/444
f 476/626/447 473/623/444 472/622/443
f 476/626/447 472/622/443 477/627/448
f 482/632/453 478/628/449 483/633/454
f 482/632/453 479/629/450 478/628/449
f 482/632/453 480/630/451 479/629/450
f 482/632/453 484/634/455 480/630/451
f 482/632/453 485/635/456 484/634/455
f 482/632/453 486/636/457 485/635/456
f 482/632/453 487/637/458 486/636/457
f 482/632/453 483/633/454 487/637/458
f 488/638/459 489/639/460 490/640/461
f 488/638/459 490/640/461 491/641/462
f 488/638/459 491/641/462 492/642/463
f 488/638/459 492/642/463 493/643/464
f 488/638/459 493/643/464 485/635/456
f 488/638/459 485/635/456 486/636/457
f 488/638/459 486/636/457 487/637/458
f 488/638/459 487/637/458 489/639/460
f 494/644/465 490/640/461 495/645/466
f 494/644/465 491/641/462 490/640/461
f 494/644/465 492/642/463 491/641/462
f 494/644/465 496/646/467 492/642/463
f 494/644/465 455/605/426 496/646/467
f 494/644/465 456/606/427 455/605/426
f 494/644/465 457/607/428 456/606/427
f 494/644/465 495/645/466 457/607/428
f 497/647/468 498/648/468 499/649/469
f 497/647/468 499/649/469 500/650/469
f 497/647/468 500/650/469 501/651/469
f 497/647/468 501/651/469 502/652/468
f 497/647/468 502/652/468 503/653/57
f 497/647/468 503/653/57 504/654/57
f 497/647/468 504/654/57 505/655/57
f 497/647/468 505/655/57 498/648/468
f 506/656/470 502/652/468 501/651/469
f 506/656/470 501/651/469 507/657/471
f 506/656/470 507/657/471 451/658/422
f 506/656/470 451/658/422 450/659/421
f 506/656/470 450/659/421 457/660/428
f 506/656/470 457/660/428 508/661/472
f 506/656/470 508/661/472 503/653/57
f 506/656/470 503/653/57 502/652/468
f 509/662/473 499/663/469 510/664/473
f 509/662/473 500/665/469 499/663/469
f 509/662/473 501/666/469 500/665/469
f 509/662/473 511/667/473 501/666/469
f 509/662/473 512/668/474 511/667/473
f 509/662/473 513/669/474 512/668/474
f 509/662/473 514/670/474 513/669/474
f 509/662/473 510/664/473 514/670/474
f 515/671/475 501/666/469 511/667/473
f 515/671/475 507/672/471 501/666/469
f 515/671/475 451/673/422 507/672/471
f 515/671/475 459/674/430 451/673/422
f 515/671/475 463/675/434 459/674/430
f 515/671/475 516/676/476 463/675/434
f 515/671/475 512/668/474 516/676/476
f 515/671/475 511/667/473 512/668/474
f 517/677/477 518/678/478 519/679/479
f 517/677/477 519/679/479 520/680/479
f 517/677/477 520/680/479 521/681/479
f 517/677/477 521/681/479 522/682/478
f 517/677/477 522/682/478 512/668/474
f 517/677/477 512/668/474 513/669/474
f 517/677/477 513/669/474 514/670/474
f 517/677/477 514/670/474 518/678/478
f 523/683/480 522/682/478 521/681/479
f 523/683/480 521/681/479 524/684/481
f 523/683/480 524/684/481 466/685/437
f 523/683/480 466/685/437 465/686/436
f 523/683/480 465/686/436 463/675/434
f 523/683/480 463/675/434 516/676/476
f 523/683/480 516/676/476 512/668/474
f 523/683/480 512/668/474 522/682/478
f 525/687/482 526/688/482 527/689/79
f 525/687/482 527/689/79 528/690/79
f 525/687/482 528/690/79 529/691/79
f 525/687/482 529/691/79 530/692/482
f 525/687/482 530/692/482 521/693/479
f 525/687/482 521/693/479 520/694/479
f 525/687/482 520/694/479 519/695/479
f 525/687/482 519/695/479 526/688/482
f 531/696/483 530/692/482 529/691/79
f 531/696/483 529/691/79 532/697/484
f 531/696/483 532/697/484 472/698/443
f 531/696/483 472/698/443 471/699/442
f 531/696/483 471/699/442 466/700/437
f 531/696/483 466/700/437 524/701/481
f 531/696/483 524/701/481 521/693/479
f 531/696/483 521/693/479 530/692/482
f 533/702/485 534/703/485 535/704/486
f 533/702/485 535/704/486 536/705/486
f 533/702/485 536/705/486 537/706/486
f 533/702/485 537/706/486 538/707/485
f 533/702/485 538/707/485 529/691/79
f 533/702/485 529/691/79 528/690/79
f 533/702/485 528/690/79 527/689/79
f 533/702/485 527/689/79 534/703/485
f 539/708/487 538/707/485 537/706/486
f 539/708/487 537/706/486 540/709/488
f 539/708/487 540/709/488 478/710/449
f 539/708/487 478/710/449 477/711/448
f 539/708/487 477/711/448 472/698/443
f 539/708/487 472/698/443 532/697/484
f 539/708/487 532/697/484 529/691/79
f 539/708/487 529/691/79 538/707/485
f 541/712/489 535/713/486 542/714/489
f 541/712/489 536/715/486 535/713/486
f 541/712/489 537/716/486 536/715/486
f 541/712/489 543/717/489 537/716/486
f 541/712/489 544/718/490 543/717/489
f 541/712/489 545/719/490 544/718/490
f 541/712/489 546/720/490 545/719/490
f 541/712/489 542/714/489 546/720/490
f 547/721/491 537/716/486 543/717/489
f 547/721/491 540/722/488 537/716/486
f 547/721/491 478/723/449 540/722/488
f 547/721/491 483/724/454 478/723/449
f 547/721/491 487/725/458 483/724/454
f 547/721/491 548/726/492 487/725/458
f 547/721/491 544/718/490 548/726/492
f 547/721/491 543/717/489 544/718/490
f 549/727/493 550/728/493 551/729/494
f 549/727/493 551/729/494 552/730/494
f 549/727/493 552/730/494 553/731/494
f 549/727/493 553/731/494 554/732/493
f 549/727/493 554/732/493 544/718/490
f 549/727/493 544/718/490 545/719/490
f 549/727/493 545/719/490 546/720/490
f 549/727/493 546/720/490 550/728/493
f 555/733/495 554/732/493 553/731/494
f 555/733/495 553/731/494 556/734/496
f 555/733/495 556/734/496 490/735/461
f 555/733/495 490/735/461 489/736/460
f 555/733/495 489/736/460 487/725/458
f 555/733/495 487/725/458 548/726/492
f 555/733/495 548/726/492 544/718/490
f 555/733/495 544/718/490 554/732/493
f 557/737/497 551/738/494 558/739/498
f 557/737/497 552/740/494 551/738/494
f 557/737/497 553/741/494 552/740/494
f 557/737/497 559/742/498 553/741/494
f 557/737/497 503/653/57 559/742/498
f 557/737/497 504/654/57 503/653/57
f 557/737/497 505/655/57 504/654/57
f 557/737/497 558/739/498 505/655/57
f 560/743/499 553/741/494 559/742/498
f 560/743/499 556/744/496 553/741/494
f 560/743/499 490/745/461 556/744/496
f 560/743/499 495/746/466 490/745/461
f 560/743/499 457/660/428 495/746/466
f 560/743/499 508/661/472 457/660/428
f 560/743/499 503/653/57 508/661/472
f 560/743/499 559/742/498 503/653/57
f 561/747/500 562/748/501 563/749/502
f 561/747/500 563/749/502 564/750/503
f 561/747/500 564/750/503 565/751/504
f 561/747/500 565/751/504 566/752/505
f 561/747/500 566/752/505 567/753/506
f 561/747/500 567/753/506 568/754/507
f 561/747/500 568/754/507 569/755/508
f 561/747/500 569/755/508 562/748/501
f 570/756/509 563/749/502 562/748/501
f 570/756/509 571/757/510 563/749/502
f 570/756/509 572/758/511 571/757/510
f 570/756/509 573/759/512 572/758/511
f 570/756/509 574/760/513 573/759/512
f 570/756/509 575/761/514 574/760/513
f 570/756/509 569/755/508 575/761/514
f 570/756/509 562/748/501 569/755/508
f 576/762/515 577/763/516 578/764/517
f 576/762/515 578/764/517 579/765/518
f 576/762/515 579/765/518 572/758/511
f 576/762/515 572/758/511 573/759/512
f 576/762/515 573/759/512 574/760/513
f 576/762/515 574/760/513 580/766/519
f 576/762/515 580/766/519 581/767/520
f 576/762/515 581/767/520 577/763/516
f 582/768/521 583/769/522 584/770/523
f 582/768/521 584/770/523 585/771/524
f 582/768/521 585/771/524 578/764/517
f 582/768/521 578/764/517 577/763/516
f 582/768/521 577/763/516 581/767/520
f 582/768/521 581/767/520 586/772/525
f 582/768/521 586/772/525 587/773/526
f 582/768/521 587/773/526 583/769/522
f 588/774/527 589/775/528 590/776/529
f 588/774/527 590/776/529 591/777/530
f 588/774/527 591/777/530 584/770/523
f 588/774/527 584/770/523 583/769/522
f 588/774/527 583/769/522 587/773/526
f 588/774/527 587/773/526 592/778/531
f 588/774/527 592/778/531 593/779/532
f 588/774/527 593/779/532 589/775/528
f 594/780/533 590/776/529 589/775/528
f 594/780/533 595/781/534 590/776/529
f 594/780/533 596/782/535 595/781/534
f 594/780/533 597/783/536 596/782/535
f 594/780/533 598/784/537 597/783/536
f 594/780/533 599/785/538 598/784/537
f 594/780/533 593/779/532 599/785/538
f 594/780/533 589/775/528 593/779/532
f 600/786/539 601/787/540 602/788/541
f 600/786/539 602/788/541 603/789/542
f 600/786/539 603/789/542 596/782/535
f 600/786/539 596/782/535 597/783/536
f 600/786/539 597/783/536 598/784/537
f 600/786/539 598/784/537 604/790/543
f 600/786/539 604/790/543 605/791/544
f 600/786/539 605/791/544 601/787/540
f 606/792/545 602/788/541 601/787/540
f 606/792/545 607/793/546 602/788/541
f 606/792/545 565/751/504 607/793/546
f 606/792/545 566/752/505 565/751/504
f 606/792/545 567/753/506 566/752/505
f 606/792/545 608/794/547 567/753/506
f 606/792/545 605/791/544 608/794/547
f 606/792/545 601/787/540 605/791/544
f 609/795/468 610/796/548 611/797/548
f 609/795/468 611/797/548 612/798/468
f 609/795/468 612/798/468 613/799/57
f 609/795/468 613/799/57 614/800/57
f 609/795/468 614/800/57 615/801/57
f 609/795/468 615/801/57 616/802/468
f 609/795/468 616/802/468 617/803/469
f 609/795/468 617/803/469 610/796/548
f 618/804/549 619/805/550 617/803/469
f 618/804/549 617/803/469 616/802/468
f 618/804/549 616/802/468 615/801/57
f 618/804/549 615/801/57 620/806/551
f 618/804/549 620/806/551 565/807/504
f 618/804/549 565/807/504 564/808/503
f 618/804/549 564/808/503 563/809/502
f 618/804/549 563/809/502 619/805/550
f 621/810/552 611/811/548 610/812/548
f 621/810/552 622/813/552 611/811/548
f 621/810/552 623/814/553 622/813/552
f 621/810/552 624/815/474 623/814/553
f 621/810/552 625/816/474 624/815/474
f 621/810/552 626/817/552 625/816/474
f 621/810/552 617/818/469 626/817/552
f 621/810/552 610/812/548 617/818/469
f 627/819/554 617/818/469 619/820/550
f 627/819/554 626/817/552 617/818/469
f 627/819/554 625/816/474 626/817/552
f 627/819/554 628/821/555 625/816/474
f 627/819/554 572/822/511 628/821/555
f 627/819/554 571/823/510 572/822/511
f 627/819/554 563/824/502 571/823/510
f 627/819/554 619/820/550 563/824/502
f 629/825/556 630/826/479 631/827/479
f 629/825/556 631/827/479 632/828/556
f 629/825/556 632/828/556 623/814/553
f 629/825/556 623/814/553 624/815/474
f 629/825/556 624/815/474 625/816/474
f 629/825/556 625/816/474 633/829/556
f 629/825/556 633/829/556 634/830/479
f 629/825/556 634/830/479 630/826/479
f 635/831/557 636/832/558 634/830/479
f 635/831/557 634/830/479 633/829/556
f 635/831/557 633/829/556 625/816/474
f 635/831/557 625/816/474 628/821/555
f 635/831/557 628/821/555 572/822/511
f 635/831/557 572/822/511 579/833/518
f 635/831/557 579/833/518 578/834/517
f 635/831/557 578/834/517 636/832/558
f 637/835/482 638/836/79 639/837/79
f 637/835/482 639/837/79 640/838/482
f 637/835/482 640/838/482 631/839/479
f 637/835/482 631/839/479 630/840/479
f 637/835/482 630/840/479 634/841/479
f 637/835/482 634/841/479 641/842/482
f 637/835/482 641/842/482 642/843/79
f 637/835/482 642/843/79 638/836/79
f 643/844/559 644/845/560 642/843/79
f 643/844/559 642/843/79 641/842/482
f 643/844/559 641/842/482 634/841/479
f 643/844/559 634/841/479 636/846/558
f 643/844/559 636/846/558 578/847/517
f 643/844/559 578/847/517 585/848/524
f 643/844/559 585/848/524 584/849/523
f 643/844/559 584/849/523 644/845/560
f 645/850/485 646/851/486 647/852/486
f 645/850/485 647/852/486 648/853/485
f 645/850/485 648/853/485 639/837/79
f 645/850/485 639/837/79 638/836/79
f 645/850/485 638/836/79 642/843/79
f 645/850/485 642/843/79 649/854/485
f 645/850/485 649/854/485 650/855/486
f 645/850/485 650/855/486 646/851/486
f 651/856/561 652/857/562 650/855/486
f 651/856/561 650/855/486 649/854/485
f 651/856/561 649/854/485 642/843/79
f 651/856/561 642/843/79 644/845/560
f 651/856/561 644/845/560 584/849/523
f 651/856/561 584/849/523 591/858/530
f 651/856/561 591/858/530 590/859/529
f 651/856/561 590/859/529 652/857/562
f 653/860/489 647/861/486 646/862/486
f 653/860/489 654/863/489 647/861/486
f 653/860/489 655/864/490 654/863/489
f 653/860/489 656/865/490 655/864/490
f 653/860/489 657/866/490 656/865/490
f 653/860/489 658/867/489 657/866/490
f 653/860/489 650/868/486 658/867/489
f 653/860/489 646/862/486 650/868/486
f 659/869/563 650/868/486 652/870/562
f 659/869/563 658/867/489 650/868/486
f 659/869/563 657/866/490 658/867/489
f 659/869/563 660/871/564 657/866/490
f 659/869/563 596/872/535 660/871/564
f 659/869/563 595/873/534 596/872/535
f 659/869/563 590/874/529 595/873/534
f 659/869/563 652/870/562 590/874/529
f 661/875/493 662/876/494 663/877/565
f 661/875/493 663/877/565 664/878/493
f 661/875/493 664/878/493 655/864/490
f 661/875/493 655/864/490 656/865/490
f 661/875/493 656/865/490 657/866/490
f 661/875/493 657/866/490 665/879/493
f 661/875/493 665/879/493 666/880/494
f 661/875/493 666/880/494 662/876/494
f 667/881/566 668/882/567 666/880/494
f 667/881/566 666/880/494 665/879/493
f 667/881/566 665/879/493 657/866/490
f 667/881/566 657/866/490 660/871/564
f 667/881/566 660/871/564 596/872/535
f 667/881/566 596/872/535 603/883/542
f 667/881/566 603/883/542 602/884/541
f 667/881/566 602/884/541 668/882/567
f 669/885/497 663/886/565 662/887/494
f 669/885/497 670/888/497 663/886/565
f 669/885/497 613/799/57 670/888/497
f 669/885/497 614/800/57 613/799/57
f 669/885/497 615/801/57 614/800/57
f 669/885/497 671/889/568 615/801/57
f 669/885/497 666/890/494 671/889/568
f 669/885/497 662/887/494 666/890/494
f 672/891/569 666/890/494 668/892/567
f 672/891/569 671/889/568 666/890/494
f 672/891/569 615/801/57 671/889/568
f 672/891/569 620/806/551 615/801/57
f 672/891/569 565/807/504 620/806/551
f 672/891/569 607/893/546 565/807/504
f 672/891/569 602/894/541 607/893/546
f 672/891/569 668/892/567 602/894/541
f 580/766/519 575/761/514 568/754/507
f 48/54/48 7/9/7 6/8/6
f 6/8/6 5/895/5 12/896/12
f 12/896/12 13/897/13 21/898/21
f 21/898/21 20/899/20 27/30/27
f 27/30/27 26/29/26 33/39/33
f 33/39/33 32/38/32 36/42/36
f 36/42/36 37/43/37 45/51/45
f 45/51/45 44/50/44 48/54/48
f 48/54/48 6/8/6 27/30/27
f 6/8/6 12/896/12 27/30/27
f 12/896/12 21/898/21 27/30/27
f 27/30/27 33/39/33 36/42/36
f 36/42/36 45/51/45 27/30/27
f 160/202/160 157/900/157 156/901/156
f 156/901/156 150/902/150 151/903/151
f 151/903/151 145/904/145 144/183/144
f 144/183/144 139/176/139 138/175/138
f 138/175/138 133/170/133 132/169/132
f 132/169/132 126/163/126 127/164/127
f 127/164/127 121/158/121 120/157/120
f 120/157/120 119/156/119 160/202/160
f 160/202/160 156/901/156 138/175/138
f 156/901/156 151/903/151 138/175/138
f 151/903/151 144/183/144 138/175/138
f 138/175/138 132/169/132 127/164/127
f 127/164/127 120/157/120 138/175/138
f 230/304/222 229/303/221 236/310/228
f 236/310/228 237/311/229 245/319/237
f 245/319/237 244/318/236 251/325/243
f 251/325/243 250/324/242 257/333/249
f 257/333/249 256/905/248 260/906/252
f 260/906/252 261/907/253 269/908/261
f 269/908/261 268/909/260 272/351/264
f 272/351/264 231/305/223 230/304/222
f 230/304/222 236/310/228 245/319/237
f 245/319/237 251/325/243 230/304/222
f 251/325/243 257/333/249 230/304/222
f 257/333/249 260/906/252 269/908/261
f 269/908/261 272/351/264 257/333/249
f 344/457/325 343/456/324 384/501/365
f 384/501/365 381/498/362 380/497/361
f 380/497/361 374/491/355 375/492/356
f 375/492/356 369/486/350 368/485/349
f 368/485/349 363/480/344 362/479/343
f 362/479/343 357/910/338 356/597/337
f 356/597/337 350/911/331 351/598/332
f 351/598/332 345/912/326 344/457/325
f 344/457/325 384/501/365 368/485/349
f 384/501/365 380/497/361 368/485/349
f 380/497/361 375/492/356 368/485/349
f 368/485/349 362/479/343 344/457/325
f 362/479/343 356/597/337 344/457/325
f 568/754/507 567/753/506 608/794/547
f 608/794/547 605/791/544 604/790/543
f 604/790/543 598/784/537 599/785/538
f 599/785/538 593/779/532 592/778/531
f 592/778/531 587/773/526 586/772/525
f 586/772/525 581/767/520 580/766/519
f 580/766/519 574/760/513 575/761/514
f 575/761/514 569/755/508 568/754/507
f 568/754/507 608/794/547 592/778/531
f 608/794/547 604/790/543 592/778/531
f 604/790/543 599/785/538 592/778/531
f 592/778/531 586/772/525 568/754/507
f 586/772/525 580/766/519 568/754/507
