# Blender v2.82 (sub 7) OBJ File: 'living_room.blend'
# www.blender.org
o WoodenDecoration_Mesh_(108)
v -2.225470 0.672475 4.008510
v -2.227620 0.672475 4.003320
v -2.227620 0.738433 4.003320
v -2.225470 0.738433 4.008510
v -2.225470 0.672475 4.008510
v -2.220270 0.672475 4.010660
v -2.220270 0.738433 4.010660
v -2.225470 0.738433 4.008510
v -2.215080 0.672475 4.008510
v -2.215080 0.738433 4.008510
v -2.212930 0.672475 4.003320
v -2.212930 0.738433 4.003320
v -2.215080 0.672475 3.998120
v -2.215080 0.738433 3.998120
v -2.220270 0.672475 3.995970
v -2.220270 0.738433 3.995970
v -2.225470 0.672475 3.998120
v -2.225470 0.738433 3.998120
v -2.227620 0.672475 4.003320
v -2.227620 0.738433 4.003320
v -2.213290 0.811355 4.039900
v -2.213290 0.811355 3.996280
v -2.229150 0.811355 3.996280
v -2.229150 0.811355 4.039900
v -2.229510 0.738485 4.039900
v -2.229510 0.810994 4.039900
v -2.229510 0.810994 3.996280
v -2.229510 0.738485 3.996280
v -2.213290 0.738124 3.996280
v -2.213290 0.738124 4.039900
v -2.229150 0.738124 4.039900
v -2.229150 0.738124 3.996280
v -2.212930 0.810994 3.996280
v -2.212930 0.810994 4.039900
v -2.212930 0.738485 4.039900
v -2.212930 0.738485 3.996280
v -2.213290 0.738485 4.040260
v -2.213290 0.810994 4.040260
v -2.229150 0.810994 4.040260
v -2.229150 0.738485 4.040260
v -2.212930 0.810994 3.996280
v -2.213290 0.810994 3.995920
v -2.213290 0.811355 3.996280
v -2.212930 0.738485 3.996280
v -2.213290 0.738124 3.996280
v -2.213290 0.738485 3.995920
v -2.213290 0.738485 4.040260
v -2.213290 0.738124 4.039900
v -2.212930 0.738485 4.039900
v -2.212930 0.810994 4.039900
v -2.213290 0.811355 4.039900
v -2.213290 0.810994 4.040260
v -2.229150 0.810994 4.040260
v -2.229150 0.811355 4.039900
v -2.229510 0.810994 4.039900
v -2.229150 0.738485 4.040260
v -2.229510 0.738485 4.039900
v -2.229150 0.738124 4.039900
v -2.229150 0.738485 3.995920
v -2.229150 0.738124 3.996280
v -2.229510 0.738485 3.996280
v -2.229150 0.811355 3.996280
v -2.229150 0.810994 3.995920
v -2.229510 0.810994 3.996280
v -2.212930 0.738485 3.996280
v -2.212930 0.738485 4.039900
v -2.213290 0.738124 4.039900
v -2.213290 0.738124 3.996280
v -2.212930 0.810994 3.996280
v -2.212930 0.738485 3.996280
v -2.213290 0.738485 3.995920
v -2.213290 0.810994 3.995920
v -2.213290 0.811355 3.996280
v -2.213290 0.811355 4.039900
v -2.212930 0.810994 4.039900
v -2.212930 0.810994 3.996280
v -2.212930 0.738485 4.039900
v -2.212930 0.810994 4.039900
v -2.213290 0.810994 4.040260
v -2.213290 0.738485 4.040260
v -2.213290 0.811355 4.039900
v -2.229150 0.811355 4.039900
v -2.229150 0.810994 4.040260
v -2.213290 0.810994 4.040260
v -2.229510 0.810994 4.039900
v -2.229510 0.738485 4.039900
v -2.229150 0.738485 4.040260
v -2.229150 0.810994 4.040260
v -2.213290 0.738485 4.040260
v -2.229150 0.738485 4.040260
v -2.229150 0.738124 4.039900
v -2.213290 0.738124 4.039900
v -2.213290 0.810994 3.995920
v -2.229150 0.810994 3.995920
v -2.229150 0.811355 3.996280
v -2.213290 0.811355 3.996280
v -2.229150 0.811355 4.039900
v -2.229150 0.811355 3.996280
v -2.229510 0.810994 3.996280
v -2.229510 0.810994 4.039900
v -2.213290 0.738124 3.996280
v -2.229150 0.738124 3.996280
v -2.229150 0.738485 3.995920
v -2.213290 0.738485 3.995920
v -2.229510 0.738485 3.996280
v -2.229510 0.810994 3.996280
v -2.229150 0.810994 3.995920
v -2.229150 0.738485 3.995920
v -2.229510 0.738485 4.039900
v -2.229510 0.738485 3.996280
v -2.229150 0.738124 3.996280
v -2.229150 0.738124 4.039900
v -2.213290 0.810994 3.995920
v -2.213290 0.738485 3.995920
v -2.229150 0.738485 3.995920
v -2.229150 0.810994 3.995920
v -2.216040 0.802666 4.001500
v -2.216040 0.802666 3.951420
v -2.229270 0.802666 3.951420
v -2.229270 0.802666 4.001500
v -2.229630 0.731001 4.001500
v -2.229630 0.802305 4.001500
v -2.229630 0.802305 3.951420
v -2.229630 0.731001 3.951420
v -2.216040 0.730641 3.951420
v -2.216040 0.730641 4.001500
v -2.229270 0.730641 4.001500
v -2.229270 0.730641 3.951420
v -2.215680 0.802305 3.951420
v -2.215680 0.802305 4.001500
v -2.215680 0.731001 4.001500
v -2.215680 0.731001 3.951420
v -2.216040 0.731001 4.001870
v -2.216040 0.802305 4.001870
v -2.229270 0.802305 4.001870
v -2.229270 0.731001 4.001870
v -2.215680 0.802305 3.951420
v -2.216040 0.802305 3.951060
v -2.216040 0.802666 3.951420
v -2.215680 0.731001 3.951420
v -2.216040 0.730641 3.951420
v -2.216040 0.731001 3.951060
v -2.216040 0.731001 4.001870
v -2.216040 0.730641 4.001500
v -2.215680 0.731001 4.001500
v -2.215680 0.802305 4.001500
v -2.216040 0.802666 4.001500
v -2.216040 0.802305 4.001870
v -2.229270 0.802305 4.001870
v -2.229270 0.802666 4.001500
v -2.229630 0.802305 4.001500
v -2.229270 0.731001 4.001870
v -2.229630 0.731001 4.001500
v -2.229270 0.730641 4.001500
v -2.229270 0.731001 3.951060
v -2.229270 0.730641 3.951420
v -2.229630 0.731001 3.951420
v -2.229270 0.802666 3.951420
v -2.229270 0.802305 3.951060
v -2.229630 0.802305 3.951420
v -2.215680 0.731001 3.951420
v -2.215680 0.731001 4.001500
v -2.216040 0.730641 4.001500
v -2.216040 0.730641 3.951420
v -2.215680 0.802305 3.951420
v -2.215680 0.731001 3.951420
v -2.216040 0.731001 3.951060
v -2.216040 0.802305 3.951060
v -2.216040 0.802666 3.951420
v -2.216040 0.802666 4.001500
v -2.215680 0.802305 4.001500
v -2.215680 0.802305 3.951420
v -2.215680 0.731001 4.001500
v -2.215680 0.802305 4.001500
v -2.216040 0.802305 4.001870
v -2.216040 0.731001 4.001870
v -2.229270 0.802305 4.001870
v -2.216040 0.802305 4.001870
v -2.216040 0.802666 4.001500
v -2.229270 0.802666 4.001500
v -2.229270 0.731001 4.001870
v -2.229270 0.802305 4.001870
v -2.229630 0.802305 4.001500
v -2.229630 0.731001 4.001500
v -2.229270 0.730641 4.001500
v -2.216040 0.730641 4.001500
v -2.216040 0.731001 4.001870
v -2.229270 0.731001 4.001870
v -2.229270 0.802666 3.951420
v -2.216040 0.802666 3.951420
v -2.216040 0.802305 3.951060
v -2.229270 0.802305 3.951060
v -2.229270 0.802666 4.001500
v -2.229270 0.802666 3.951420
v -2.229630 0.802305 3.951420
v -2.229630 0.802305 4.001500
v -2.229270 0.731001 3.951060
v -2.216040 0.731001 3.951060
v -2.216040 0.730641 3.951420
v -2.229270 0.730641 3.951420
v -2.229630 0.731001 3.951420
v -2.229630 0.802305 3.951420
v -2.229270 0.802305 3.951060
v -2.229270 0.731001 3.951060
v -2.229630 0.731001 4.001500
v -2.229630 0.731001 3.951420
v -2.229270 0.730641 3.951420
v -2.229270 0.730641 4.001500
v -2.216040 0.802305 3.951060
v -2.216040 0.731001 3.951060
v -2.229270 0.731001 3.951060
v -2.229270 0.802305 3.951060
v -2.214210 0.806130 3.957350
v -2.214210 0.806130 3.914390
v -2.229150 0.806130 3.914390
v -2.229150 0.806130 3.957350
v -2.229510 0.734465 3.957350
v -2.229510 0.805769 3.957350
v -2.229510 0.805769 3.914390
v -2.229510 0.734465 3.914390
v -2.214210 0.734105 3.914390
v -2.214210 0.734105 3.957350
v -2.229150 0.734105 3.957350
v -2.229150 0.734105 3.914390
v -2.213850 0.805769 3.914390
v -2.213850 0.805769 3.957350
v -2.213850 0.734465 3.957350
v -2.213850 0.734465 3.914390
v -2.214210 0.734465 3.957710
v -2.214210 0.805769 3.957710
v -2.229150 0.805769 3.957710
v -2.229150 0.734465 3.957710
v -2.213850 0.805769 3.914390
v -2.214210 0.805769 3.914030
v -2.214210 0.806130 3.914390
v -2.213850 0.734465 3.914390
v -2.214210 0.734105 3.914390
v -2.214210 0.734465 3.914030
v -2.214210 0.734465 3.957710
v -2.214210 0.734105 3.957350
v -2.213850 0.734465 3.957350
v -2.213850 0.805769 3.957350
v -2.214210 0.806130 3.957350
v -2.214210 0.805769 3.957710
v -2.229150 0.805769 3.957710
v -2.229150 0.806130 3.957350
v -2.229510 0.805769 3.957350
v -2.229150 0.734465 3.957710
v -2.229510 0.734465 3.957350
v -2.229150 0.734105 3.957350
v -2.229150 0.734465 3.914030
v -2.229150 0.734105 3.914390
v -2.229510 0.734465 3.914390
v -2.229150 0.806130 3.914390
v -2.229150 0.805769 3.914030
v -2.229510 0.805769 3.914390
v -2.213850 0.734465 3.914390
v -2.213850 0.734465 3.957350
v -2.214210 0.734105 3.957350
v -2.214210 0.734105 3.914390
v -2.213850 0.805769 3.914390
v -2.213850 0.734465 3.914390
v -2.214210 0.734465 3.914030
v -2.214210 0.805769 3.914030
v -2.214210 0.806130 3.914390
v -2.214210 0.806130 3.957350
v -2.213850 0.805769 3.957350
v -2.213850 0.805769 3.914390
v -2.213850 0.734465 3.957350
v -2.213850 0.805769 3.957350
v -2.214210 0.805769 3.957710
v -2.214210 0.734465 3.957710
v -2.214210 0.806130 3.957350
v -2.229150 0.806130 3.957350
v -2.229150 0.805769 3.957710
v -2.214210 0.805769 3.957710
v -2.229510 0.805769 3.957350
v -2.229510 0.734465 3.957350
v -2.229150 0.734465 3.957710
v -2.229150 0.805769 3.957710
v -2.214210 0.734465 3.957710
v -2.229150 0.734465 3.957710
v -2.229150 0.734105 3.957350
v -2.214210 0.734105 3.957350
v -2.214210 0.805769 3.914030
v -2.229150 0.805769 3.914030
v -2.229150 0.806130 3.914390
v -2.214210 0.806130 3.914390
v -2.229150 0.806130 3.957350
v -2.229150 0.806130 3.914390
v -2.229510 0.805769 3.914390
v -2.229510 0.805769 3.957350
v -2.214210 0.734105 3.914390
v -2.229150 0.734105 3.914390
v -2.229150 0.734465 3.914030
v -2.214210 0.734465 3.914030
v -2.229510 0.734465 3.914390
v -2.229510 0.805769 3.914390
v -2.229150 0.805769 3.914030
v -2.229150 0.734465 3.914030
v -2.229510 0.734465 3.957350
v -2.229510 0.734465 3.914390
v -2.229150 0.734105 3.914390
v -2.229150 0.734105 3.957350
v -2.214210 0.805769 3.914030
v -2.214210 0.734465 3.914030
v -2.229150 0.734465 3.914030
v -2.229150 0.805769 3.914030
v -2.242360 0.671982 4.051010
v -2.242360 0.671982 3.955620
v -2.242360 0.662712 3.955620
v -2.242360 0.662712 4.051010
v -2.198350 0.662352 4.051010
v -2.242200 0.662352 4.051010
v -2.242200 0.662352 3.955620
v -2.198350 0.662352 3.955620
v -2.198180 0.671982 3.955620
v -2.198180 0.671982 4.051010
v -2.198180 0.662712 4.051010
v -2.198180 0.662712 3.955620
v -2.242200 0.672343 3.955620
v -2.242200 0.672343 4.051010
v -2.198350 0.672343 4.051010
v -2.198350 0.672343 3.955620
v -2.198350 0.671982 4.051590
v -2.242200 0.671982 4.051590
v -2.242200 0.662712 4.051590
v -2.198350 0.662712 4.051590
v -2.242200 0.672343 3.955620
v -2.242200 0.671982 3.955040
v -2.242360 0.671982 3.955620
v -2.198350 0.672343 3.955620
v -2.198180 0.671982 3.955620
v -2.198350 0.671982 3.955040
v -2.198350 0.671982 4.051590
v -2.198180 0.671982 4.051010
v -2.198350 0.672343 4.051010
v -2.242200 0.672343 4.051010
v -2.242360 0.671982 4.051010
v -2.242200 0.671982 4.051590
v -2.242200 0.662712 4.051590
v -2.242360 0.662712 4.051010
v -2.242200 0.662352 4.051010
v -2.198350 0.662712 4.051590
v -2.198350 0.662352 4.051010
v -2.198180 0.662712 4.051010
v -2.198350 0.662712 3.955040
v -2.198180 0.662712 3.955620
v -2.198350 0.662352 3.955620
v -2.242360 0.662712 3.955620
v -2.242200 0.662712 3.955040
v -2.242200 0.662352 3.955620
v -2.198350 0.672343 3.955620
v -2.198350 0.672343 4.051010
v -2.198180 0.671982 4.051010
v -2.198180 0.671982 3.955620
v -2.242200 0.672343 3.955620
v -2.198350 0.672343 3.955620
v -2.198350 0.671982 3.955040
v -2.242200 0.671982 3.955040
v -2.242360 0.671982 3.955620
v -2.242360 0.671982 4.051010
v -2.242200 0.672343 4.051010
v -2.242200 0.672343 3.955620
v -2.198350 0.672343 4.051010
v -2.242200 0.672343 4.051010
v -2.242200 0.671982 4.051590
v -2.198350 0.671982 4.051590
v -2.242360 0.671982 4.051010
v -2.242360 0.662712 4.051010
v -2.242200 0.662712 4.051590
v -2.242200 0.671982 4.051590
v -2.242200 0.662352 4.051010
v -2.198350 0.662352 4.051010
v -2.198350 0.662712 4.051590
v -2.242200 0.662712 4.051590
v -2.198350 0.671982 4.051590
v -2.198350 0.662712 4.051590
v -2.198180 0.662712 4.051010
v -2.198180 0.671982 4.051010
v -2.242200 0.671982 3.955040
v -2.242200 0.662712 3.955040
v -2.242360 0.662712 3.955620
v -2.242360 0.671982 3.955620
v -2.242360 0.662712 4.051010
v -2.242360 0.662712 3.955620
v -2.242200 0.662352 3.955620
v -2.242200 0.662352 4.051010
v -2.198180 0.671982 3.955620
v -2.198180 0.662712 3.955620
v -2.198350 0.662712 3.955040
v -2.198350 0.671982 3.955040
v -2.198350 0.662352 3.955620
v -2.242200 0.662352 3.955620
v -2.242200 0.662712 3.955040
v -2.198350 0.662712 3.955040
v -2.198350 0.662352 4.051010
v -2.198350 0.662352 3.955620
v -2.198180 0.662712 3.955620
v -2.198180 0.662712 4.051010
v -2.242200 0.671982 3.955040
v -2.198350 0.671982 3.955040
v -2.198350 0.662712 3.955040
v -2.242200 0.662712 3.955040
v -2.216040 0.820125 4.094160
v -2.216040 0.820125 4.034650
v -2.229280 0.820125 4.034650
v -2.229280 0.820125 4.094160
v -2.229640 0.723137 4.094160
v -2.229640 0.819764 4.094160
v -2.229640 0.819764 4.034650
v -2.229640 0.723137 4.034650
v -2.216040 0.722777 4.034650
v -2.216040 0.722777 4.094160
v -2.229280 0.722777 4.094160
v -2.229280 0.722777 4.034650
v -2.215680 0.819764 4.034650
v -2.215680 0.819764 4.094160
v -2.215680 0.723137 4.094160
v -2.215680 0.723137 4.034650
v -2.216040 0.723137 4.094520
v -2.216040 0.819764 4.094520
v -2.229280 0.819764 4.094520
v -2.229280 0.723137 4.094520
v -2.215680 0.819764 4.034650
v -2.216040 0.819764 4.034280
v -2.216040 0.820125 4.034650
v -2.215680 0.723137 4.034650
v -2.216040 0.722777 4.034650
v -2.216040 0.723137 4.034280
v -2.216040 0.723137 4.094520
v -2.216040 0.722777 4.094160
v -2.215680 0.723137 4.094160
v -2.215680 0.819764 4.094160
v -2.216040 0.820125 4.094160
v -2.216040 0.819764 4.094520
v -2.229280 0.819764 4.094520
v -2.229280 0.820125 4.094160
v -2.229640 0.819764 4.094160
v -2.229280 0.723137 4.094520
v -2.229640 0.723137 4.094160
v -2.229280 0.722777 4.094160
v -2.229280 0.723137 4.034280
v -2.229280 0.722777 4.034650
v -2.229640 0.723137 4.034650
v -2.229280 0.820125 4.034650
v -2.229280 0.819764 4.034280
v -2.229640 0.819764 4.034650
v -2.215680 0.723137 4.034650
v -2.215680 0.723137 4.094160
v -2.216040 0.722777 4.094160
v -2.216040 0.722777 4.034650
v -2.215680 0.819764 4.034650
v -2.215680 0.723137 4.034650
v -2.216040 0.723137 4.034280
v -2.216040 0.819764 4.034280
v -2.216040 0.820125 4.034650
v -2.216040 0.820125 4.094160
v -2.215680 0.819764 4.094160
v -2.215680 0.819764 4.034650
v -2.215680 0.723137 4.094160
v -2.215680 0.819764 4.094160
v -2.216040 0.819764 4.094520
v -2.216040 0.723137 4.094520
v -2.229280 0.819764 4.094520
v -2.216040 0.819764 4.094520
v -2.216040 0.820125 4.094160
v -2.229280 0.820125 4.094160
v -2.229640 0.819764 4.094160
v -2.229640 0.723137 4.094160
v -2.229280 0.723137 4.094520
v -2.229280 0.819764 4.094520
v -2.229280 0.722777 4.094160
v -2.216040 0.722777 4.094160
v -2.216040 0.723137 4.094520
v -2.229280 0.723137 4.094520
v -2.229280 0.820125 4.034650
v -2.216040 0.820125 4.034650
v -2.216040 0.819764 4.034280
v -2.229280 0.819764 4.034280
v -2.229280 0.820125 4.094160
v -2.229280 0.820125 4.034650
v -2.229640 0.819764 4.034650
v -2.229640 0.819764 4.094160
v -2.229280 0.723137 4.034280
v -2.216040 0.723137 4.034280
v -2.216040 0.722777 4.034650
v -2.229280 0.722777 4.034650
v -2.229640 0.723137 4.034650
v -2.229640 0.819764 4.034650
v -2.229280 0.819764 4.034280
v -2.229280 0.723137 4.034280
v -2.229640 0.723137 4.094160
v -2.229640 0.723137 4.034650
v -2.229280 0.722777 4.034650
v -2.229280 0.722777 4.094160
v -2.216040 0.819764 4.034280
v -2.216040 0.723137 4.034280
v -2.229280 0.723137 4.034280
v -2.229280 0.819764 4.034280
vt 0.216667 0.019231
vt 0.383333 0.980769
vt 0.383333 0.019231
vt 0.216667 0.980769
vt 0.416667 0.019231
vt 0.500002 0.019231
vt 0.500002 0.980769
vt 0.416667 0.980769
vt 0.583333 0.019231
vt 0.583333 0.980769
vt 0.616667 0.019231
vt 0.700002 0.019231
vt 0.700002 0.980769
vt 0.616667 0.980769
vt 0.783333 0.019231
vt 0.783333 0.980769
vt 0.016667 0.019231
vt 0.085700 0.019231
vt 0.085700 0.980769
vt 0.016667 0.980769
vt 0.154737 0.019231
vt 0.154737 0.980769
vt 0.183333 0.019231
vt 0.183333 0.980769
vt 0.002137 0.775589
vt 0.002137 0.491077
vt 0.108974 0.491077
vt 0.108974 0.775589
vt 0.886700 0.002201
vt 0.886700 0.464465
vt 0.602189 0.464465
vt 0.602189 0.002201
vt 0.997863 0.002189
vt 0.891026 0.286700
vt 0.997863 0.286700
vt 0.891026 0.002189
vt 0.286700 0.464465
vt 0.002189 0.002201
vt 0.002189 0.464465
vt 0.286700 0.002201
vt 0.420085 0.002201
vt 0.420085 0.464465
vt 0.313248 0.464465
vt 0.313248 0.002201
vt 0.979630 0.290741
vt 0.998148 0.290741
vt 0.979630 0.309259
vt 0.931481 0.309259
vt 0.912963 0.309259
vt 0.912963 0.290741
vt 0.957407 0.331481
vt 0.957407 0.312963
vt 0.975926 0.331481
vt 0.931481 0.312963
vt 0.912963 0.331481
vt 0.912963 0.312963
vt 0.953704 0.312963
vt 0.935185 0.331481
vt 0.935185 0.312963
vt 0.998148 0.331481
vt 0.979630 0.331481
vt 0.979630 0.312963
vt 0.935185 0.309259
vt 0.953704 0.290741
vt 0.953704 0.309259
vt 0.975926 0.309259
vt 0.957407 0.290741
vt 0.975926 0.290741
vt 0.909259 0.291077
vt 0.890741 0.575589
vt 0.909259 0.575589
vt 0.890741 0.291077
vt 0.535185 0.464465
vt 0.553704 0.002201
vt 0.535185 0.002201
vt 0.553704 0.464465
vt 0.864478 0.487037
vt 0.579966 0.468519
vt 0.579966 0.487037
vt 0.864478 0.468519
vt 0.598148 0.002201
vt 0.598148 0.464465
vt 0.579630 0.464465
vt 0.579630 0.002201
vt 0.553419 0.509259
vt 0.446581 0.509259
vt 0.446581 0.490741
vt 0.553419 0.490741
vt 0.557407 0.464465
vt 0.557407 0.002201
vt 0.575926 0.002201
vt 0.575926 0.464465
vt 0.220085 0.509259
vt 0.113248 0.509259
vt 0.113248 0.490741
vt 0.220085 0.490741
vt 0.335470 0.490741
vt 0.442308 0.509259
vt 0.442308 0.490741
vt 0.335470 0.509259
vt 0.286700 0.487037
vt 0.002189 0.487037
vt 0.002189 0.468519
vt 0.286700 0.468519
vt 0.331197 0.509259
vt 0.224359 0.490741
vt 0.224359 0.509259
vt 0.331197 0.490741
vt 0.309259 0.002201
vt 0.290741 0.464465
vt 0.309259 0.464465
vt 0.290741 0.002201
vt 0.575589 0.487037
vt 0.291077 0.487037
vt 0.291077 0.468519
vt 0.575589 0.468519
vt 0.424359 0.464465
vt 0.531197 0.002201
vt 0.424359 0.002201
vt 0.531197 0.464465
vt 0.654244 0.780463
vt 0.654244 0.458667
vt 0.737060 0.458667
vt 0.737060 0.780463
vt 0.910898 0.002153
vt 0.910898 0.454368
vt 0.589102 0.454368
vt 0.589102 0.002153
vt 0.997930 0.002145
vt 0.915114 0.323942
vt 0.997930 0.323942
vt 0.915114 0.002145
vt 0.323942 0.454368
vt 0.002145 0.002153
vt 0.002145 0.454368
vt 0.323942 0.002153
vt 0.432712 0.002153
vt 0.432712 0.454368
vt 0.349896 0.454368
vt 0.349896 0.002153
vt 0.980072 0.349638
vt 0.998188 0.349638
vt 0.980072 0.367754
vt 0.998188 0.389493
vt 0.980072 0.389493
vt 0.980072 0.371377
vt 0.958333 0.389493
vt 0.958333 0.371377
vt 0.976449 0.371377
vt 0.998188 0.327899
vt 0.998188 0.346014
vt 0.980072 0.327899
vt 0.976449 0.327899
vt 0.976449 0.346014
vt 0.958333 0.327899
vt 0.976449 0.411232
vt 0.958333 0.393116
vt 0.976449 0.393116
vt 0.998188 0.393116
vt 0.998188 0.411232
vt 0.980072 0.411232
vt 0.958333 0.367754
vt 0.958333 0.349638
vt 0.976449 0.349638
vt 0.932971 0.328232
vt 0.914855 0.650029
vt 0.932971 0.650029
vt 0.914855 0.328232
vt 0.523551 0.454368
vt 0.541667 0.002153
vt 0.523551 0.002153
vt 0.541667 0.454368
vt 0.650029 0.476449
vt 0.328232 0.458333
vt 0.328232 0.476449
vt 0.650029 0.458333
vt 0.585145 0.002153
vt 0.585145 0.454368
vt 0.567029 0.454368
vt 0.567029 0.002153
vt 0.089027 0.480072
vt 0.171843 0.480072
vt 0.171843 0.498188
vt 0.089027 0.498188
vt 0.563406 0.002153
vt 0.563406 0.454368
vt 0.545290 0.454368
vt 0.545290 0.002153
vt 0.741201 0.458333
vt 0.824017 0.458333
vt 0.824017 0.476449
vt 0.741201 0.476449
vt 0.084886 0.498188
vt 0.002070 0.480072
vt 0.002070 0.498188
vt 0.084886 0.480072
vt 0.323942 0.476449
vt 0.002145 0.476449
vt 0.002145 0.458333
vt 0.323942 0.458333
vt 0.828157 0.458333
vt 0.910973 0.476449
vt 0.910973 0.458333
vt 0.828157 0.476449
vt 0.346014 0.002153
vt 0.327899 0.454368
vt 0.346014 0.454368
vt 0.327899 0.002153
vt 0.936594 0.650029
vt 0.936594 0.328232
vt 0.954710 0.328232
vt 0.954710 0.650029
vt 0.436853 0.454368
vt 0.519669 0.002153
vt 0.436853 0.002153
vt 0.519669 0.454368
vt 0.579915 0.753367
vt 0.579915 0.468855
vt 0.686752 0.468855
vt 0.686752 0.753367
vt 0.886700 0.002201
vt 0.886700 0.464465
vt 0.602189 0.464465
vt 0.602189 0.002201
vt 0.997863 0.002189
vt 0.891026 0.286700
vt 0.997863 0.286700
vt 0.891026 0.002189
vt 0.286700 0.464465
vt 0.002189 0.002201
vt 0.002189 0.464465
vt 0.286700 0.002201
vt 0.420085 0.002201
vt 0.420085 0.464465
vt 0.313248 0.464465
vt 0.313248 0.002201
vt 0.935185 0.312963
vt 0.953704 0.312963
vt 0.935185 0.331481
vt 0.953704 0.309259
vt 0.935185 0.309259
vt 0.935185 0.290741
vt 0.935185 0.353704
vt 0.935185 0.335185
vt 0.953704 0.335185
vt 0.975926 0.312963
vt 0.957407 0.331481
vt 0.957407 0.312963
vt 0.998148 0.312963
vt 0.998148 0.331481
vt 0.979630 0.312963
vt 0.975926 0.353704
vt 0.957407 0.335185
vt 0.975926 0.335185
vt 0.975926 0.290741
vt 0.975926 0.309259
vt 0.957407 0.309259
vt 0.998148 0.309259
vt 0.979630 0.290741
vt 0.998148 0.290741
vt 0.909259 0.291077
vt 0.890741 0.575589
vt 0.909259 0.575589
vt 0.890741 0.291077
vt 0.535185 0.464465
vt 0.553704 0.002201
vt 0.535185 0.002201
vt 0.553704 0.464465
vt 0.575589 0.487037
vt 0.291077 0.468519
vt 0.291077 0.487037
vt 0.575589 0.468519
vt 0.598148 0.002201
vt 0.598148 0.464465
vt 0.579630 0.464465
vt 0.579630 0.002201
vt 0.331197 0.509259
vt 0.224359 0.509259
vt 0.224359 0.490741
vt 0.331197 0.490741
vt 0.557407 0.464465
vt 0.557407 0.002201
vt 0.575926 0.002201
vt 0.575926 0.464465
vt 0.797863 0.487037
vt 0.691026 0.487037
vt 0.691026 0.468519
vt 0.797863 0.468519
vt 0.113248 0.490741
vt 0.220085 0.509259
vt 0.220085 0.490741
vt 0.113248 0.509259
vt 0.286700 0.487037
vt 0.002189 0.487037
vt 0.002189 0.468519
vt 0.286700 0.468519
vt 0.108974 0.509259
vt 0.002137 0.490741
vt 0.002137 0.509259
vt 0.108974 0.490741
vt 0.309259 0.002201
vt 0.290741 0.464465
vt 0.309259 0.464465
vt 0.290741 0.002201
vt 0.912963 0.575589
vt 0.912963 0.291077
vt 0.931481 0.291077
vt 0.931481 0.575589
vt 0.424359 0.464465
vt 0.531197 0.002201
vt 0.424359 0.002201
vt 0.531197 0.464465
vt 0.597521 0.097656
vt 0.002479 0.097656
vt 0.002479 0.027344
vt 0.597521 0.027344
vt 0.272545 0.797521
vt 0.002455 0.202479
vt 0.002455 0.797521
vt 0.272545 0.202479
vt 0.597521 0.197656
vt 0.002479 0.127344
vt 0.002479 0.197656
vt 0.597521 0.127344
vt 0.872545 0.002479
vt 0.872545 0.597521
vt 0.602455 0.597521
vt 0.602455 0.002479
vt 0.547545 0.297656
vt 0.277455 0.297656
vt 0.277455 0.227344
vt 0.547545 0.227344
vt 0.972917 0.097917
vt 0.952083 0.077083
vt 0.972917 0.077083
vt 0.977083 0.097917
vt 0.997917 0.077083
vt 0.977083 0.077083
vt 0.977083 0.027083
vt 0.997917 0.047917
vt 0.997917 0.027083
vt 0.877083 0.097917
vt 0.897917 0.077083
vt 0.877083 0.077083
vt 0.997917 0.022917
vt 0.977083 0.022917
vt 0.977083 0.002083
vt 0.902083 0.097917
vt 0.922917 0.077083
vt 0.922917 0.097917
vt 0.997917 0.072917
vt 0.977083 0.052083
vt 0.977083 0.072917
vt 0.947917 0.097917
vt 0.947917 0.077083
vt 0.927083 0.097917
vt 0.872521 0.622917
vt 0.277479 0.602083
vt 0.277479 0.622917
vt 0.872521 0.602083
vt 0.547545 0.372917
vt 0.277455 0.352083
vt 0.277455 0.372917
vt 0.547545 0.352083
vt 0.277479 0.627083
vt 0.872521 0.627083
vt 0.872521 0.647917
vt 0.277479 0.647917
vt 0.277455 0.202083
vt 0.547545 0.202083
vt 0.547545 0.222917
vt 0.277455 0.222917
vt 0.927083 0.072656
vt 0.927083 0.002344
vt 0.947917 0.002344
vt 0.947917 0.072656
vt 0.277455 0.302083
vt 0.547545 0.302083
vt 0.547545 0.322917
vt 0.277455 0.322917
vt 0.902083 0.072656
vt 0.922917 0.002344
vt 0.902083 0.002344
vt 0.922917 0.072656
vt 0.877083 0.072656
vt 0.877083 0.002344
vt 0.897917 0.002344
vt 0.897917 0.072656
vt 0.597521 0.022917
vt 0.002479 0.022917
vt 0.002479 0.002083
vt 0.597521 0.002083
vt 0.952083 0.072656
vt 0.972917 0.002344
vt 0.952083 0.002344
vt 0.972917 0.072656
vt 0.547545 0.347917
vt 0.277455 0.327083
vt 0.277455 0.347917
vt 0.547545 0.327083
vt 0.002479 0.102083
vt 0.597521 0.122917
vt 0.597521 0.102083
vt 0.002479 0.122917
vt 0.547545 0.447656
vt 0.277455 0.377344
vt 0.277455 0.447656
vt 0.547545 0.377344
vt 0.528783 0.944774
vt 0.528783 0.581542
vt 0.602796 0.581542
vt 0.602796 0.944774
vt 0.997405 0.002608
vt 0.997405 0.576339
vt 0.634173 0.576339
vt 0.634173 0.002608
vt 0.102796 0.581542
vt 0.028783 0.944774
vt 0.102796 0.944774
vt 0.028783 0.581542
vt 0.365827 0.576339
vt 0.002595 0.002608
vt 0.002595 0.576339
vt 0.365827 0.002608
vt 0.471217 0.002608
vt 0.471217 0.576339
vt 0.397204 0.576339
vt 0.397204 0.002608
vt 0.212719 0.607456
vt 0.234649 0.607456
vt 0.212719 0.629386
vt 0.287281 0.629386
vt 0.265351 0.629386
vt 0.265351 0.607456
vt 0.239035 0.629386
vt 0.239035 0.607456
vt 0.260965 0.607456
vt 0.208333 0.607456
vt 0.208333 0.629386
vt 0.186404 0.607456
vt 0.971491 0.581140
vt 0.971491 0.603070
vt 0.949561 0.581140
vt 0.997807 0.603070
vt 0.975877 0.581140
vt 0.997807 0.581140
vt 0.945175 0.581140
vt 0.945175 0.603070
vt 0.923246 0.603070
vt 0.160088 0.629386
vt 0.160088 0.607456
vt 0.182018 0.607456
vt 0.129386 0.581542
vt 0.107456 0.944774
vt 0.129386 0.944774
vt 0.107456 0.581542
vt 0.554825 0.576339
vt 0.576754 0.002608
vt 0.554825 0.002608
vt 0.576754 0.576339
vt 0.523721 0.603070
vt 0.160489 0.581140
vt 0.160489 0.603070
vt 0.523721 0.581140
vt 0.629386 0.002608
vt 0.629386 0.576339
vt 0.607456 0.576339
vt 0.607456 0.002608
vt 0.607730 0.581140
vt 0.681743 0.581140
vt 0.681743 0.603070
vt 0.607730 0.603070
vt 0.581140 0.576339
vt 0.581140 0.002608
vt 0.603070 0.002608
vt 0.603070 0.576339
vt 0.765625 0.581140
vt 0.839638 0.581140
vt 0.839638 0.603070
vt 0.765625 0.603070
vt 0.918586 0.603070
vt 0.844572 0.581140
vt 0.844572 0.603070
vt 0.918586 0.581140
vt 0.002193 0.944774
vt 0.002193 0.581542
vt 0.024123 0.581542
vt 0.024123 0.944774
vt 0.686678 0.581140
vt 0.760691 0.603070
vt 0.760691 0.581140
vt 0.686678 0.603070
vt 0.392544 0.002608
vt 0.370614 0.576339
vt 0.392544 0.576339
vt 0.370614 0.002608
vt 0.133772 0.944774
vt 0.133772 0.581542
vt 0.155702 0.581542
vt 0.155702 0.944774
vt 0.476151 0.576339
vt 0.550164 0.002608
vt 0.476151 0.002608
vt 0.550164 0.576339
vn -0.9239 0.0000 0.3827
vn -0.3827 0.0000 0.9239
vn 0.0001 -0.0000 1.0000
vn -0.0002 0.0000 1.0000
vn 0.7071 0.0000 0.7071
vn 1.0000 0.0000 -0.0001
vn 1.0000 0.0000 0.0000
vn 0.7071 0.0000 -0.7071
vn 0.7074 0.0000 -0.7068
vn -0.0000 0.0000 -1.0000
vn 0.0001 0.0000 -1.0000
vn -0.7072 0.0000 -0.7071
vn -0.7071 0.0000 -0.7071
vn -0.9239 -0.0000 -0.3827
vn 0.0000 1.0000 0.0000
vn -1.0000 0.0000 0.0000
vn 0.0000 0.0000 1.0000
vn 0.5768 0.5779 -0.5774
vn 0.5767 -0.5778 -0.5775
vn 0.5778 -0.5778 0.5765
vn 0.5779 0.5779 0.5763
vn -0.5783 0.5773 0.5765
vn -0.5782 -0.5772 0.5767
vn -0.5772 -0.5772 -0.5777
vn -0.5773 0.5773 -0.5775
vn -0.7080 0.7062 0.0013
vn -0.7080 0.7062 -0.0014
vn -0.7080 0.7062 -0.0013
vn -0.7071 0.0000 0.7071
vn -0.7071 -0.0003 0.7071
vn -0.7071 0.0005 0.7071
vn -0.7081 -0.7062 -0.0014
vn -0.7080 -0.7062 -0.0014
vn -0.7080 -0.7062 0.0014
vn -0.7081 -0.7062 0.0014
vn 0.7075 0.0000 0.7067
vn 0.7079 0.0000 0.7063
vn 0.7076 0.0000 0.7067
vn -0.0000 0.7073 0.7069
vn 0.0000 0.7075 0.7067
vn -0.7079 -0.0000 0.7063
vn 0.0000 -0.7074 0.7068
vn 0.0000 -0.7075 0.7067
vn -0.0012 -0.7062 0.7080
vn -0.0012 -0.7060 0.7082
vn 0.0012 -0.7060 0.7082
vn 0.0012 -0.7062 0.7080
vn -0.7068 0.7074 -0.0000
vn -0.7072 0.7070 0.0000
vn 0.0012 0.7061 0.7081
vn 0.0010 0.7061 0.7081
vn -0.0011 0.7061 0.7081
vn -0.0012 0.7061 0.7081
vn -0.7071 -0.7071 0.0000
vn -0.7068 -0.7074 0.0000
vn 0.5765 0.5780 -0.5776
vn 0.5772 -0.5777 -0.5771
vn 0.5786 -0.5770 0.5765
vn 0.5786 0.5770 0.5765
vn -0.5782 0.5772 0.5766
vn -0.5782 -0.5772 0.5766
vn -0.5772 -0.5771 -0.5777
vn -0.5765 0.5775 -0.5781
vn -0.7070 0.7072 -0.0005
vn -0.7070 0.7072 0.0005
vn -0.7066 -0.0000 0.7077
vn -0.7074 0.0011 0.7068
vn -0.7074 -0.0011 0.7068
vn -0.7081 -0.7061 -0.0012
vn -0.7081 -0.7061 0.0011
vn 0.7073 -0.0000 0.7069
vn 0.0000 0.7074 0.7068
vn -0.0000 0.7076 0.7066
vn -0.0000 -0.7076 0.7066
vn -0.0013 -0.7062 0.7080
vn -0.0012 -0.7061 0.7081
vn 0.0011 -0.7061 0.7081
vn 0.0013 -0.7062 0.7080
vn -0.7070 0.7072 -0.0000
vn -0.7071 0.7071 0.0000
vn -0.7071 0.7072 0.0000
vn 0.0000 0.7071 0.7071
vn 0.0000 0.7073 0.7070
vn 0.7066 0.0003 0.7077
vn 0.7074 -0.0009 0.7068
vn 0.7074 0.0007 0.7068
vn 0.7066 -0.0003 0.7077
vn -0.7070 -0.7072 0.0000
vn 0.5785 0.5769 -0.5766
vn 0.5776 -0.5771 -0.5774
vn 0.5773 -0.5773 0.5775
vn 0.5780 0.5769 0.5771
vn -0.5778 0.5773 0.5770
vn -0.5771 -0.5776 0.5773
vn -0.5776 -0.5771 -0.5774
vn -0.5785 0.5769 -0.5766
vn -0.7074 0.0000 0.7068
vn 0.7074 0.0000 0.7068
vn 0.7066 0.0000 0.7077
vn -0.0000 0.7069 0.7073
vn 0.0000 0.7069 0.7074
vn -0.0000 0.7068 0.7075
vn 0.0000 0.7070 0.7072
vn 0.0000 -0.7071 0.7071
vn 0.0000 -0.7071 0.7072
vn -0.0014 -0.7061 0.7081
vn -0.0015 -0.7061 0.7081
vn 0.0015 -0.7061 0.7081
vn 0.0013 -0.7061 0.7081
vn -0.7073 0.7069 -0.0000
vn -0.7074 0.7068 0.0000
vn 0.0000 0.7071 0.7072
vn -0.7072 -0.7070 0.0000
vn -0.7074 -0.7068 -0.0000
vn -0.8818 0.4000 -0.2500
vn -0.8779 -0.4132 0.2421
vn -0.8806 -0.3978 0.2574
vn -0.8685 -0.4170 0.2680
vn -0.8806 -0.3978 -0.2576
vn -0.8777 -0.4136 -0.2419
vn -0.8680 -0.4176 -0.2686
vn 0.8837 -0.3931 -0.2540
vn 0.8828 -0.4020 -0.2432
vn 0.8902 -0.3885 -0.2378
vn -0.8818 -0.4000 0.2498
vn 0.8818 -0.4000 0.2498
vn -0.8807 0.3980 0.2569
vn -0.8773 0.4150 0.2410
vn -0.8676 0.4182 0.2691
vn 0.8898 0.3891 0.2383
vn 0.8834 0.3944 0.2532
vn 0.8829 0.4022 0.2424
vn -0.9044 -0.4265 0.0142
vn -0.9050 -0.4253 0.0127
vn -0.9050 -0.4253 -0.0128
vn -0.9044 -0.4265 -0.0142
vn 0.0012 -0.8490 0.5284
vn 0.0007 -0.8490 0.5283
vn -0.0009 -0.8490 0.5283
vn -0.0012 -0.8490 0.5284
vn -0.9104 0.4137 -0.0000
vn 0.0000 0.8484 0.5294
vn 0.0000 0.8487 0.5289
vn 0.0000 0.8486 0.5290
vn -0.9622 0.0000 0.2725
vn -0.9621 -0.0000 0.2725
vn -0.0000 -0.8483 0.5295
vn 0.0000 -0.8484 0.5294
vn -0.9595 -0.0093 -0.2815
vn -0.9595 0.0094 -0.2815
vn -0.9595 0.0093 -0.2815
vn -0.9621 -0.0000 -0.2727
vn -0.9104 -0.4137 0.0000
vn -0.9596 0.0088 0.2811
vn -0.9596 -0.0088 0.2811
vn -0.0025 0.8496 0.5274
vn -0.0023 0.8496 0.5274
vn 0.0023 0.8496 0.5274
vn 0.0025 0.8496 0.5274
vn -0.9039 0.4275 -0.0152
vn -0.9045 0.4262 -0.0139
vn -0.9045 0.4262 0.0139
vn -0.9039 0.4275 0.0152
vn 0.5783 0.5773 -0.5765
vn 0.5783 -0.5773 -0.5765
vn 0.5783 -0.5773 0.5765
vn 0.5783 0.5773 0.5765
vn -0.5783 -0.5773 0.5765
vn -0.5783 -0.5773 -0.5765
vn -0.5783 0.5773 -0.5765
vn -0.7168 -0.0128 0.6972
vn -0.7168 0.0128 0.6972
vn -0.7080 -0.7062 -0.0011
vn -0.7080 -0.7062 0.0011
vn 0.7078 0.0000 0.7064
vn 0.7077 -0.0000 0.7065
vn -0.7078 -0.0000 0.7064
vn -0.7077 0.0000 0.7065
vn -0.0000 -0.7075 0.7068
vn 0.0119 -0.7157 0.6983
vn 0.0117 -0.7157 0.6983
vn -0.0117 -0.7157 0.6983
vn -0.0119 -0.7157 0.6983
vn -0.7073 0.7070 -0.0000
vn -0.0133 0.7167 0.6973
vn -0.0132 0.7168 0.6971
vn 0.0131 0.7168 0.6971
vn 0.0133 0.7167 0.6973
vn 0.7168 0.0128 0.6972
vn 0.7168 -0.0128 0.6972
s 1
f 1/1/1 3/2/1 2/3/1
f 1/1/1 4/4/1 3/2/1
f 5/5/2 6/6/3 7/7/4
f 5/5/2 7/7/4 8/8/2
f 6/6/3 9/9/5 10/10/5
f 6/6/3 10/10/5 7/7/4
f 9/11/5 11/12/6 12/13/7
f 9/11/5 12/13/7 10/14/5
f 11/12/6 13/15/8 14/16/9
f 11/12/6 14/16/9 12/13/7
f 13/17/8 15/18/10 16/19/11
f 13/17/8 16/19/11 14/20/9
f 15/18/10 17/21/12 18/22/13
f 15/18/10 18/22/13 16/19/11
f 17/21/12 19/23/14 20/24/14
f 17/21/12 20/24/14 18/22/13
f 21/25/15 22/26/15 23/27/15
f 21/25/15 23/27/15 24/28/15
f 25/29/16 26/30/16 27/31/16
f 25/29/16 27/31/16 28/32/16
f 29/33/15 31/34/15 30/35/15
f 29/33/15 32/36/15 31/34/15
f 33/37/16 35/38/16 34/39/16
f 33/37/16 36/40/16 35/38/16
f 37/41/17 38/42/17 39/43/17
f 37/41/17 39/43/17 40/44/17
f 41/45/18 42/46/18 43/47/18
f 44/48/19 45/49/19 46/50/19
f 47/51/20 48/52/20 49/53/20
f 50/54/21 51/55/21 52/56/21
f 53/57/22 54/58/22 55/59/22
f 56/60/23 57/61/23 58/62/23
f 59/63/24 60/64/24 61/65/24
f 62/66/25 63/67/25 64/68/25
f 65/69/26 67/70/26 66/71/27
f 65/69/26 68/72/28 67/70/26
f 69/73/29 71/74/30 70/75/31
f 69/73/29 72/76/31 71/74/30
f 73/77/32 75/78/33 74/79/34
f 73/77/32 76/80/35 75/78/33
f 77/81/36 78/82/37 79/83/37
f 77/81/36 79/83/37 80/84/38
f 81/85/39 82/86/40 83/87/40
f 81/85/39 83/87/40 84/88/39
f 85/89/41 86/90/41 87/91/41
f 85/89/41 87/91/41 88/92/41
f 89/93/42 90/94/43 91/95/43
f 89/93/42 91/95/43 92/96/42
f 93/97/44 95/98/45 94/99/46
f 93/97/44 96/100/47 95/98/45
f 97/101/48 98/102/49 99/103/49
f 97/101/48 99/103/49 100/104/48
f 101/105/50 103/106/51 102/107/52
f 101/105/50 104/108/53 103/106/51
f 105/109/5 107/110/5 106/111/5
f 105/109/5 108/112/5 107/110/5
f 109/113/54 110/114/55 111/115/55
f 109/113/54 111/115/55 112/116/54
f 113/117/17 115/118/17 114/119/17
f 113/117/17 116/120/17 115/118/17
f 117/121/15 118/122/15 119/123/15
f 117/121/15 119/123/15 120/124/15
f 121/125/16 122/126/16 123/127/16
f 121/125/16 123/127/16 124/128/16
f 125/129/15 127/130/15 126/131/15
f 125/129/15 128/132/15 127/130/15
f 129/133/16 131/134/16 130/135/16
f 129/133/16 132/136/16 131/134/16
f 133/137/17 134/138/17 135/139/17
f 133/137/17 135/139/17 136/140/17
f 137/141/56 138/142/56 139/143/56
f 140/144/57 141/145/57 142/146/57
f 143/147/58 144/148/58 145/149/58
f 146/150/59 147/151/59 148/152/59
f 149/153/60 150/154/60 151/155/60
f 152/156/61 153/157/61 154/158/61
f 155/159/62 156/160/62 157/161/62
f 158/162/63 159/163/63 160/164/63
f 161/165/64 163/166/64 162/167/65
f 161/165/64 164/168/65 163/166/64
f 165/169/66 167/170/67 166/171/68
f 165/169/66 168/172/66 167/170/67
f 169/173/69 171/174/69 170/175/70
f 169/173/69 172/176/70 171/174/69
f 173/177/71 174/178/71 175/179/71
f 173/177/71 175/179/71 176/180/71
f 177/181/72 178/182/73 179/183/73
f 177/181/72 179/183/73 180/184/72
f 181/185/29 182/186/29 183/187/29
f 181/185/29 183/187/29 184/188/29
f 185/189/74 186/190/43 187/191/43
f 185/189/74 187/191/43 188/192/74
f 189/193/75 191/194/76 190/195/77
f 189/193/75 192/196/78 191/194/76
f 193/197/79 194/198/80 195/199/79
f 193/197/79 195/199/79 196/200/81
f 197/201/82 199/202/83 198/203/83
f 197/201/82 200/204/82 199/202/83
f 201/205/84 203/206/85 202/207/86
f 201/205/84 204/208/87 203/206/85
f 205/209/88 206/210/88 207/211/88
f 205/209/88 207/211/88 208/212/88
f 209/213/17 211/214/17 210/215/17
f 209/213/17 212/216/17 211/214/17
f 213/217/15 214/218/15 215/219/15
f 213/217/15 215/219/15 216/220/15
f 217/221/16 218/222/16 219/223/16
f 217/221/16 219/223/16 220/224/16
f 221/225/15 223/226/15 222/227/15
f 221/225/15 224/228/15 223/226/15
f 225/229/16 227/230/16 226/231/16
f 225/229/16 228/232/16 227/230/16
f 229/233/17 230/234/17 231/235/17
f 229/233/17 231/235/17 232/236/17
f 233/237/89 234/238/89 235/239/89
f 236/240/90 237/241/90 238/242/90
f 239/243/91 240/244/91 241/245/91
f 242/246/92 243/247/92 244/248/92
f 245/249/93 246/250/93 247/251/93
f 248/252/94 249/253/94 250/254/94
f 251/255/95 252/256/95 253/257/95
f 254/258/96 255/259/96 256/260/96
f 257/261/80 259/262/80 258/263/80
f 257/261/80 260/264/80 259/262/80
f 261/265/97 263/266/66 262/267/66
f 261/265/97 264/268/97 263/266/66
f 265/269/69 267/270/69 266/271/70
f 265/269/69 268/272/70 267/270/69
f 269/273/98 270/274/99 271/275/99
f 269/273/98 271/275/99 272/276/98
f 273/277/100 274/278/101 275/279/102
f 273/277/100 275/279/102 276/280/103
f 277/281/97 278/282/66 279/283/66
f 277/281/97 279/283/66 280/284/97
f 281/285/104 282/286/105 283/287/105
f 281/285/104 283/287/105 284/288/104
f 285/289/106 287/290/107 286/291/108
f 285/289/106 288/292/109 287/290/107
f 289/293/110 290/294/110 291/295/110
f 289/293/110 291/295/110 292/296/111
f 293/297/82 295/298/112 294/299/112
f 293/297/82 296/300/82 295/298/112
f 297/301/98 299/302/99 298/303/99
f 297/301/98 300/304/98 299/302/99
f 301/305/113 302/306/54 303/307/114
f 301/305/113 303/307/114 304/308/114
f 305/309/17 307/310/17 306/311/17
f 305/309/17 308/312/17 307/310/17
f 309/313/16 310/314/16 311/315/16
f 309/313/16 311/315/16 312/316/16
f 313/317/15 315/318/15 314/319/15
f 313/317/15 316/320/15 315/318/15
f 317/321/16 319/322/16 318/323/16
f 317/321/16 320/324/16 319/322/16
f 321/325/15 322/326/15 323/327/15
f 321/325/15 323/327/15 324/328/15
f 325/329/17 326/330/17 327/331/17
f 325/329/17 327/331/17 328/332/17
f 329/333/115 330/334/115 331/335/115
f 332/336/116 334/337/117 333/338/118
f 335/339/119 337/340/120 336/341/121
f 338/342/122 340/343/123 339/344/124
f 341/345/125 342/346/125 343/347/125
f 344/348/126 345/349/126 346/350/126
f 347/351/127 349/352/128 348/353/129
f 350/354/130 352/355/131 351/356/132
f 353/357/133 355/358/134 354/359/135
f 353/357/133 356/360/136 355/358/134
f 357/361/137 359/362/138 358/363/139
f 357/361/137 360/364/140 359/362/138
f 361/365/141 362/366/141 363/367/141
f 361/365/141 363/367/141 364/368/141
f 365/369/142 366/370/143 367/371/144
f 365/369/142 367/371/144 368/372/142
f 369/373/145 370/374/145 371/375/145
f 369/373/145 371/375/145 372/376/146
f 373/377/147 374/378/148 375/379/148
f 373/377/147 375/379/148 376/380/147
f 377/381/149 379/382/149 378/383/150
f 377/381/149 380/384/151 379/382/149
f 381/385/152 382/386/152 383/387/152
f 381/385/152 383/387/152 384/388/152
f 385/389/153 386/390/153 387/391/153
f 385/389/153 387/391/153 388/392/153
f 389/393/154 391/394/154 390/395/155
f 389/393/154 392/396/155 391/394/154
f 393/397/156 395/398/157 394/399/158
f 393/397/156 396/400/159 395/398/157
f 397/401/160 399/402/161 398/403/162
f 397/401/160 400/404/163 399/402/161
f 401/405/17 403/406/17 402/407/17
f 401/405/17 404/408/17 403/406/17
f 405/409/15 406/410/15 407/411/15
f 405/409/15 407/411/15 408/412/15
f 409/413/16 410/414/16 411/415/16
f 409/413/16 411/415/16 412/416/16
f 413/417/15 415/418/15 414/419/15
f 413/417/15 416/420/15 415/418/15
f 417/421/16 419/422/16 418/423/16
f 417/421/16 420/424/16 419/422/16
f 421/425/17 422/426/17 423/427/17
f 421/425/17 423/427/17 424/428/17
f 425/429/164 426/430/164 427/431/164
f 428/432/165 429/433/165 430/434/165
f 431/435/166 432/436/166 433/437/166
f 434/438/167 435/439/167 436/440/167
f 437/441/22 438/442/22 439/443/22
f 440/444/168 441/445/168 442/446/168
f 443/447/169 444/448/169 445/449/169
f 446/450/170 447/451/170 448/452/170
f 449/453/79 451/454/79 450/455/79
f 449/453/79 452/456/79 451/454/79
f 453/457/171 455/458/171 454/459/172
f 453/457/171 456/460/172 455/458/171
f 457/461/173 459/462/173 458/463/174
f 457/461/173 460/464/174 459/462/173
f 461/465/175 462/466/176 463/467/176
f 461/465/175 463/467/176 464/468/175
f 465/469/40 466/470/72 467/471/72
f 465/469/40 467/471/72 468/472/40
f 469/473/177 470/474/178 471/475/178
f 469/473/177 471/475/178 472/476/177
f 473/477/74 474/478/179 475/479/104
f 473/477/74 475/479/104 476/480/74
f 477/481/180 479/482/181 478/483/182
f 477/481/180 480/484/183 479/482/181
f 481/485/184 482/486/110 483/487/184
f 481/485/184 483/487/184 484/488/110
f 485/489/185 487/490/186 486/491/187
f 485/489/185 488/492/188 487/490/186
f 489/493/189 491/494/189 490/495/190
f 489/493/189 492/496/190 491/494/189
f 493/497/88 494/498/88 495/499/88
f 493/497/88 495/499/88 496/500/88
f 497/501/17 499/502/17 498/503/17
f 497/501/17 500/504/17 499/502/17
